11_cs_nwe _channel4/project_1/.Xil/Vivado-2152-GL-0301-949/hw_ila_data_1/zip_work/waveform.vcd
$date
        2023-Aug-07 15:53:14
$end
$version
        Vivado v2018.3 (64-bit)
$end
$timescale
        1ps
$end
$scope module dut $end
$var reg 16 " u3_adc_analysis/adc1_a1_1 [15:0] $end
$var reg 16 2 u3_adc_analysis/adc1_a2_1 [15:0] $end
$var reg 16 B u3_adc_analysis/adc1_a3_1 [15:0] $end
$var reg 16 R u3_adc_analysis/adc1_a4_1 [15:0] $end
$var reg 16 b u3_adc_analysis/adc1_a1_2 [15:0] $end
$var reg 16 r u3_adc_analysis/adc1_a2_2 [15:0] $end
$var reg 16 $" u3_adc_analysis/adc1_a3_2 [15:0] $end
$var reg 16 4" u3_adc_analysis/adc1_a4_2 [15:0] $end
$var reg 16 D" u3_adc_analysis/adc1_b1_1 [15:0] $end
$var reg 16 T" u3_adc_analysis/adc1_b2_1 [15:0] $end
$var reg 16 d" u3_adc_analysis/adc1_b3_1 [15:0] $end
$var reg 16 t" u3_adc_analysis/adc1_b4_1 [15:0] $end
$var reg 16 &# u3_adc_analysis/adc1_b1_2 [15:0] $end
$var reg 16 6# u3_adc_analysis/adc1_b2_2 [15:0] $end
$var reg 16 F# u3_adc_analysis/adc1_b3_2 [15:0] $end
$var reg 16 V# u3_adc_analysis/adc1_b4_2 [15:0] $end
$var reg 1 f# u3_adc_analysis/time_8s_1 $end
$var reg 1 g# _TRIGGER $end
$var reg 1 h# _WINDOW $end
$var reg 1 i# _GAP $end
$upscope $end
$enddefinitions $end
#0
$dumpvars
b110000101011110 "
b110000010010100 2
b101111111011000 B
b101111101000010 R
b101110111101010 b
b101110011110110 r
b101101110111010 $"
b101101010110110 4"
b1100 D"
b100 T"
b100 d"
b11010 t"
b1111111111111100 &#
b100 6#
b10100 F#
b1010 V#
0f#
0g#
1h#
0i#
$end
#1
b101100100001010 "
b101011111010100 2
b101011001000000 B
b101010011001110 R
b101001011100100 b
b101000101001100 r
b100111101011010 $"
b100110110011100 4"
b1111111111111100 D"
b10100 T"
b1111111111101000 t"
b1100 &#
b10100 6#
b101010 V#
#2
b100101100111000 "
b100100100110100 2
b100011100010000 B
b100010011101010 R
b100001001111110 b
b11111111110010 r
b11110111000110 $"
b11101100010010 4"
b1100 D"
b1010 t"
b1111111111111100 &#
b1111111111110010 6#
b1111111111110010 F#
b1010 V#
#3
b11100010001010 "
b11010111111000 2
b11001101111100 B
b11000010101000 R
b10110110001000 b
b10101010100000 r
b10011111101000 $"
b10010011101100 4"
b1111111111111100 D"
b100 T"
b1111111111100010 d"
b10100 F#
b101010 V#
#4
b10000111011110 "
b1111011101010 2
b1101111111000 B
b1100011100000 R
b1010110111100 b
b1001010000010 r
b111110000000 $"
b110001001010 4"
b11100 D"
b100 d"
b101010 t"
b100 F#
b111010 V#
#5
b100100100110 "
b10111010100 2
b1011001100 B
b1111111110100110 R
b1111110000111000 b
b1111100100110100 r
b1111011000111110 $"
b1111001011011110 4"
b11010 t"
b11100 &#
b100100 6#
b1010 V#
#6
b1110111110010000 "
b1110110001101110 2
b1110100101101110 B
b1110011000110010 R
b1110001101001110 b
b1110000001001000 r
b1101110100110010 $"
b1101101000110100 4"
b1100 D"
b100100 T"
b100100 d"
b1010 t"
b1111111111010000 &#
b1111111111110010 6#
b10100 F#
b1111111111111000 V#
#7
b1101011101101100 "
b1101010010101010 2
b1101000110111000 B
b1100111011010000 R
b1100110000011100 b
b1100100101111000 r
b1100011010001100 $"
b1100010000010110 4"
b11100 D"
b10100 T"
b100 d"
b1100 &#
b100 6#
b100 F#
b11010 V#
#8
b1100000111001110 "
b1011111101100110 2
b1011110011110010 B
b1011101001110000 R
b1011100001111010 b
b1011011000010010 r
b1011001111111110 $"
b1011000111101000 4"
b1111111111100010 T"
b10100 d"
b1111111111111000 t"
b1111111111111100 &#
b1111111111110010 6#
b1111111111110010 F#
b1010 V#
#9
b1011000000100110 "
b1010111000100010 2
b1010110000010010 B
b1010101001001100 R
b1010100100101000 b
b1010011101110010 r
b1010010111010100 $"
b1010010001100010 4"
b100 d"
b1010 t"
b11100 &#
b1111111111101000 V#
#10
b1010001101111110 "
b1010001000101010 2
b1010000100000010 B
b1001111111010010 R
b1001111101001010 b
b1001111010100110 r
b1001110110110000 $"
b1001110010110000 4"
b1111111111111100 D"
b1111111111110010 T"
b1111111111111000 t"
b1100 &#
b100 6#
b10100 F#
#11
b1001110010100000 "
b1001110000100000 2
b1001101110110010 B
b1001101100111100 R
b1001101110000000 b
b1001101101100000 r
b1001101101001100 $"
b1001101100111100 4"
b1111111111000000 D"
b1111111111100010 T"
b1010 t"
b1111111111100000 &#
b10100 6#
b1111111111110010 F#
b1010 V#
#12
b1001101111110000 "
b1001110000110000 2
b1001110010100000 B
b1001110100010000 R
b1001110111100000 b
b1001111011000110 r
b1001111101001010 $"
b1010000000010010 4"
b11100 D"
b100 T"
b1111111111110010 d"
b11010 t"
b1111111111111100 &#
b1111111111110010 6#
b10100 F#
b1111111111111000 V#
#13
b1010000101111110 "
b1010001001101010 2
b1010001101111010 B
b1010010011000100 R
b1010011010010100 b
b1010011111100010 r
b1010100101011100 $"
b1010101011011100 4"
b1100 D"
b10100 d"
b100 F#
b1111111111101000 V#
#14
b1010110100100000 "
b1010111010101100 2
b1011000001111100 B
b1011001011001110 R
b1011010011110100 b
b1011011011011100 r
b1011100110001100 $"
b1011101101110010 4"
b1111111111111100 D"
b10100 T"
b1111111111100010 d"
b1111111111100000 &#
b100 6#
b10100 F#
b101010 V#
#15
b1011110111110000 "
b1100000000111000 2
b1100001011001010 B
b1100010101011000 R
b1100100000100010 b
b1100101011001110 r
b1100110101101100 $"
b1101000001011010 4"
b111100 D"
b100 T"
b1111111111110010 d"
b1111111111111100 &#
b1010 V#
#16
b1101001100011100 "
b1101011000001110 2
b1101100100010110 B
b1101101111101110 R
b1101111011111010 b
b1110000111011100 r
b1110010100110100 $"
b1110100000101110 4"
b1111111111010000 D"
b100 d"
b1100 &#
b10100 6#
b11010 V#
#17
b1110101101000100 "
b1110111001101110 2
b1111000110111010 B
b1111010010111000 R
b1111011111000010 b
b1111101100001010 r
b1111111001011100 $"
b101111000 4"
b11100 D"
b1111111111110010 T"
b10100 d"
b1111111111100000 &#
b1111111111110010 6#
b100 F#
b1010 V#
#18
b10010110100 "
b11110101110 2
b101100001110 B
b111001010000 R
b1000100100110 b
b1010001011100 r
b1011110000000 $"
b1101001010100 4"
b1100 D"
b100 T"
b1111111111101000 t"
b1111111111111100 &#
#19
b1110101100000 "
b10000001001010 2
b10001101101110 B
b10011001100010 R
b10100100111000 b
b10101111000000 r
b10111011110000 $"
b11000111011110 4"
b1111111111111100 D"
b111010 t"
b11100 &#
b100 6#
b101010 V#
#20
b11010000110100 "
b11011011000010 2
b11100111000000 B
b11110000100110 R
b11111001001010 b
b100000010010100 r
b100001100101110 $"
b100010110001010 4"
b100100 T"
b1111111111110010 d"
b1010 t"
b1111111111010000 &#
b10100 6#
b10100 F#
b1010 V#
#21
b100011110000010 "
b100100101100100 2
b100101111001000 B
b100110111001100 R
b100111110001000 b
b101000101011100 r
b101001100011110 $"
b101010011101110 4"
b11100 D"
b10100 T"
b100100 d"
b11010 t"
b1111111111111100 &#
b100100 F#
#22
b101011000111100 "
b101011111000100 2
b101100100111010 B
b101101010110110 R
b101101110010000 b
b101110011000110 r
b101110111110110 $"
b101111100100010 4"
b1111111111010000 D"
b100 T"
b10100 d"
b1111111111111000 t"
b11100 &#
b100100 6#
b1111111111100010 F#
#23
b101111111011000 "
b110000001010100 2
b110000101111110 B
b110000111111110 R
b110001001101110 b
b110001011001110 r
b110001100100000 $"
b110001110100100 4"
b1100 D"
b1111111111110010 d"
b1010 t"
b1111111111111100 &#
b1111111111110010 6#
b100 F#
b11010 V#
#24
b110001101111110 "
b110001101101110 2
b110001110000000 B
b110001110000100 R
b110001100011110 b
b110001010111110 r
b110001001110000 $"
b110000111111110 4"
b1111111111110010 T"
b10100 d"
b1111111111010000 &#
b10100 6#
b10100 F#
b1010 V#
#25
b110000101011110 "
b110000001110100 2
b101111111011000 B
b101111100100010 R
b101110111101010 b
b101110011010110 r
b101101110101010 $"
b101101010110110 4"
b100100 T"
b1111111111100010 d"
b1111111111111100 &#
b1111111111111000 V#
#26
b101100100110000 "
b101011110110100 2
b101011001000000 B
b101010011001110 R
b101001011100100 b
b101000100111100 r
b100111101001010 $"
b100110101111010 4"
b100 T"
b1111111111111000 t"
b100 6#
b100 F#
b11010 V#
#27
b100101101011000 "
b100100100010100 2
b100011100110000 B
b100010011111010 R
b100001001001110 b
b100000000000100 r
b11110111100110 $"
b11101100110010 4"
b1111111111111100 D"
b10100 T"
b100 d"
b1010 t"
b1111111111010000 &#
b1111111111110010 F#
b1111111111111000 V#
#28
b11100010101010 "
b11011000001000 2
b11001101001100 B
b11000010011000 R
b10110110101000 b
b10101010100000 r
b10011111111000 $"
b10010011101100 4"
b1100 D"
b1111111111110010 T"
b10100 d"
b1111111111100000 &#
b100100 6#
b10100 F#
b1111111111011000 V#
#29
b10000111101110 "
b1111011101010 2
b1101111101000 B
b1100011010000 R
b1010111001100 b
b1001010100010 r
b111110000000 $"
b110001011100 4"
b1111111111100010 T"
b100 d"
b1100 &#
b1111111111110010 6#
b1111111111100010 F#
b11010 V#
#30
b100100110000 "
b10111100100 2
b1010111100 B
b1111111110000110 R
b1111110001011000 b
b1111100100110100 r
b1111011000011110 $"
b1111001010111110 4"
b1111111111111100 D"
b100 T"
b1111111111111000 t"
b1111111111111100 &#
b10100 6#
b1010 V#
#31
b1110111110000000 "
b1110110001101110 2
b1110100101101110 B
b1110011001000010 R
b1110001100111110 b
b1110000001011000 r
b1101110101000010 $"
b1101101000010000 4"
b10100 T"
b10100 d"
b1111111111101000 t"
b11100 &#
b100 6#
b100 F#
#32
b1101011101111100 "
b1101010011001010 2
b1101000110111000 B
b1100111010110000 R
b1100110000011100 b
b1100100110001000 r
b1100011010011100 $"
b1100010000010110 4"
b1111111111010000 D"
b100 T"
b100 d"
b101010 t"
b100100 6#
b11010 V#
#33
b1100000111001110 "
b1011111101100110 2
b1011110011110010 B
b1011101010000000 R
b1011100001011010 b
b1011010111110010 r
b1011001111111110 $"
b1011001000001000 4"
b1111111111111100 D"
b1111111111111000 t"
b1111111111010000 &#
b10100 6#
b1111111111110010 F#
b1010 V#
#34
b1011000000100110 "
b1010111000010010 2
b1010110000000010 B
b1010101000111100 R
b1010100100010010 b
b1010011101110010 r
b1010010111011100 $"
b1010010001100010 4"
b1111111111110010 d"
b11010 t"
b1111111111110010 6#
b10100 F#
b1111111111101000 V#
#35
b1010001101111110 "
b1010001001001010 2
b1010000011110010 B
b1001111111010010 R
b1001111101001010 b
b1001111001111100 r
b1001110110100000 $"
b1001110011010000 4"
b1100 D"
b10100 T"
b100 d"
b1100 &#
b1111111111110010 F#
b1010 V#
#36
b1001110010100000 "
b1001110000110000 2
b1001101110001100 B
b1001101101001100 R
b1001101101100000 b
b1001101110000000 r
b1001101101001100 $"
b1001101101011100 4"
b1111111111111100 D"
b100 T"
b10100 d"
b1010 t"
b1111111111111100 &#
b100100 6#
b110100 F#
b101010 V#
#37
b1001101111100000 "
b1001110001010000 2
b1001110010110000 B
b1001110100000000 R
b1001110111110000 b
b1001111011010110 r
b1001111100111010 $"
b1010000000100010 4"
b11100 D"
b10100 6#
b10100 F#
b11010 V#
#38
b1010000101111110 "
b1010001001111010 2
b1010001110100000 B
b1010010010110100 R
b1010011010100100 b
b1010011111100010 r
b1010100101001100 $"
b1010101100110100 4"
b10100 T"
b11010 t"
b1010 V#
#39
b1010110101000000 "
b1010111010101100 2
b1011000001111100 B
b1011001010111110 R
b1011010011100100 b
b1011011011011100 r
b1011100101010110 $"
b1011101101110010 4"
b1100 D"
b100 T"
b1111111111110010 d"
b1100 &#
b1111111111110010 6#
b100 F#
#40
b1011110111100000 "
b1100000001101000 2
b1100001011001010 B
b1100010101001000 R
b1100100000010010 b
b1100101010111110 r
b1100110101101100 $"
b1101000001011010 4"
b1111111111110010 T"
b10100 d"
b1010 t"
#41
b1101001100011100 "
b1101011000001110 2
b1101100100010110 B
b1101101111111110 R
b1101111011101010 b
b1110000111101100 r
b1110010100110100 $"
b1110100000111110 4"
b1111111111100010 T"
b1111111111110010 d"
b1111111111101000 t"
b1111111111101100 &#
b100100 6#
#42
b1110101100000100 "
b1110111001101110 2
b1111000110111010 B
b1111010011001000 R
b1111011111010010 b
b1111101011111010 r
b1111111001011100 $"
b101111000 4"
b11100 D"
b100 d"
b1010 t"
b1111111111111100 &#
b100 6#
b11010 V#
#43
b10010010100 "
b11110111110 2
b101011111110 B
b111001000000 R
b1000100010110 b
b1010001011100 r
b1011110010000 $"
b1101001100100 4"
b1100 D"
b100 T"
b11100 &#
b10100 F#
b1010 V#
#44
b1110101100000 "
b10000001011010 2
b10001110001110 B
b10011001110010 R
b10100101001000 b
b10101110110000 r
b10111011101000 $"
b11000111001110 4"
b1111111111110010 T"
b101100 &#
b100 F#
b1111111111111000 V#
#45
b11010000100100 "
b11011011010010 2
b11100110110000 B
b11110000100110 R
b11111000111010 b
b100000010000100 r
b100001100111110 $"
b100010101101010 4"
b1111111111111100 D"
b100 T"
b10100 d"
b1111111111111000 t"
b1100 &#
b10100 6#
b1010 V#
#46
b100011101110100 "
b100100110010100 2
b100101110111000 B
b100110111101100 R
b100111101101000 b
b101000101101100 r
b101001100111110 $"
b101010100001110 4"
b11100 D"
b1111111111100010 d"
b1111111111011000 t"
b101100 &#
b1111111111110010 6#
b10100 F#
b101010 V#
#47
b101011000111100 "
b101011111010100 2
b101100101001010 B
b101101010100110 R
b101101110010000 b
b101110011000110 r
b101110111110110 $"
b101111100010000 4"
b1111111111111100 D"
b1111111111100010 T"
b100100 d"
b1111111111101000 t"
b1100 &#
b100 F#
b11010 V#
#48
b101111111011000 "
b110000010000100 2
b110000101011110 B
b110001000001110 R
b110001001101110 b
b110001010111110 r
b110001100110000 $"
b110001110010100 4"
b1100 D"
b1111111111110010 T"
b1111111111110010 d"
b11010 t"
b10100 6#
b1111111111110010 F#
b1111111111101000 V#
#49
b110001101011110 "
b110001110001110 2
b110001101100000 B
b110001110111100 R
b110001100001110 b
b110001011101110 r
b110001010010000 $"
b110001000001110 4"
b11100 D"
b1111111111110010 6#
b100100 F#
b1010 V#
#50
b110000101001110 "
b110000010000100 2
b110000000001000 B
b101111100100010 R
b101110111111010 b
b101110011100110 r
b101101110111010 $"
b101101010010010 4"
b1111111111111100 D"
b100 T"
b1010 t"
b1111111111111100 &#
b100 6#
b1111111111110010 F#
b11010 V#
#51
b101100100001010 "
b101011110110100 2
b101011001100000 B
b101010011011110 R
b101001011100100 b
b101000100011100 r
b100111101011010 $"
b100110110001100 4"
b1111111111010000 D"
b1111111111110010 T"
b101100 &#
b1010 V#
#52
b100101100111000 "
b100100100010100 2
b100011101000000 B
b100010011111010 R
b100001001001110 b
b100000000100100 r
b11110111010110 $"
b11101100110010 4"
b1111111111111100 D"
b100 d"
b1111111111111000 t"
b1111111111000000 &#
b1111111111100010 F#
b11010 V#
#53
b11100010001010 "
b11010111101000 2
b11001101001100 B
b11000010001000 R
b10110110101000 b
b10101010110000 r
b10100000001000 $"
b10010011101100 4"
b100 T"
b11010 t"
b101100 &#
b100 F#
b101010 V#
#54
b10000111101110 "
b1111011111010 2
b1101111111000 B
b1100011100000 R
b1010111001100 b
b1001010111000 r
b111110101100 $"
b110001011100 4"
b1111111111100010 T"
b10100 d"
b1111111111010000 &#
b10100 6#
b1111111111110010 F#
b1111111111101000 V#
#55
b100100100110 "
b10111010100 2
b1011001100 B
b1111111110100110 R
b1111110001001000 b
b1111100100110100 r
b1111011000011110 $"
b1111001011001110 4"
b101100 D"
b10100 T"
b1111111111110010 d"
b1100 &#
b1111111111110010 6#
b100 F#
b11010 V#
#56
b1110111110110000 "
b1110110001111110 2
b1110100101101110 B
b1110011001010010 R
b1110001101011110 b
b1110000001011000 r
b1101110100110010 $"
b1101101000100000 4"
b1111111111111100 D"
b100 d"
b1111111111111100 &#
b10100 6#
b10100 F#
b111010 V#
#57
b1101011101101100 "
b1101010010111010 2
b1101000110111000 B
b1100111010110000 R
b1100110000101100 b
b1100100101011000 r
b1100011010011100 $"
b1100010000101000 4"
b10100 d"
b101010 t"
b1100 &#
b100 6#
b1111111111110010 F#
b1111111111111000 V#
#58
b1100000111011110 "
b1011111101010110 2
b1011110100000010 B
b1011101001010000 R
b1011100001111010 b
b1011010111110010 r
b1011010000011110 $"
b1011000111011000 4"
b11100 D"
b100 d"
b11010 t"
b1111111111110010 6#
b1010 V#
#59
b1011000000010110 "
b1010111000010010 2
b1010101111110010 B
b1010101000111100 R
b1010100100010010 b
b1010011101110010 r
b1010010111010100 $"
b1010010010000100 4"
b1100 D"
b1111111111110010 T"
b1010 t"
b11100 &#
b10100 F#
#60
b1010001110011110 "
b1010001001001010 2
b1010000100100010 B
b1001111111010010 R
b1001111100111010 b
b1001111010110110 r
b1001110111000000 $"
b1001110011100000 4"
b1111111111100000 D"
b10100 d"
b1111111111111000 t"
b1100 &#
b100 F#
b101010 V#
#61
b1001110010010000 "
b1001110000000000 2
b1001101110110010 B
b1001101100101100 R
b1001101101100000 b
b1001101110000000 r
b1001101101001100 $"
b1001101101001100 4"
b1100 D"
b100 T"
b100 d"
b1010 t"
b1111111111111100 &#
b100100 6#
b1010 V#
#62
b1001101111100000 "
b1001110001000000 2
b1001110010100000 B
b1001110011010000 R
b1001110111100000 b
b1001111010100110 r
b1001111100111010 $"
b1010000000000010 4"
b1111111111110010 T"
b101010 t"
b1111111111101100 &#
b10100 6#
b1111111111010010 F#
b1111111111111000 V#
#63
b1010000101111110 "
b1010001001011010 2
b1010001101111010 B
b1010010010010100 R
b1010011010010100 b
b1010011111110010 r
b1010100101001100 $"
b1010101011011100 4"
b1010 t"
b1100 &#
b1111111111100010 F#
#64
b1010110100110000 "
b1010111010101100 2
b1011000001011100 B
b1011001011001110 R
b1011010011110100 b
b1011011011001100 r
b1011100101010110 $"
b1011101101010010 4"
b11100 D"
b10100 T"
b1111111111110010 d"
b1111111111011000 t"
b11100 &#
b1111111111110010 6#
b100 F#
#65
b1011110111100000 "
b1100000001111000 2
b1100001011101010 B
b1100010101011000 R
b1100100000100010 b
b1100101010111110 r
b1100110101011100 $"
b1101000001001010 4"
b1100 D"
b100 d"
b11010 t"
b1111111111110010 F#
#66
b1101001100011100 "
b1101011000011110 2
b1101100011110110 B
b1101101111101110 R
b1101111011011010 b
b1110000111111100 r
b1110010100010100 $"
b1110100000101110 4"
b1111111111110010 T"
b10100 d"
b1010 t"
b1100 &#
b10100 6#
b100 F#
b11010 V#
#67
b1110101100110100 "
b1110111001001110 2
b1111000110111010 B
b1111010010111000 R
b1111011111000010 b
b1111101011101010 r
b1111111001011100 $"
b101011000 4"
b1111111111111100 D"
b100 T"
b1111111111110010 d"
b11010 t"
b11100 &#
b100 6#
#68
b10010100100 "
b11110011110 2
b101011101110 B
b111000110000 R
b1000100100110 b
b1010001001100 r
b1011110010000 $"
b1101010000110 4"
b11100 D"
b1111111111110010 T"
b100 d"
b1010 t"
b1111111111101100 &#
b10100 6#
b1111111111110010 F#
b1010 V#
#69
b1110110000000 "
b10000001101010 2
b10001101101110 B
b10011010000010 R
b10100100111000 b
b10101111100000 r
b10111100000000 $"
b11000110101010 4"
b1111111111000000 D"
b1111111111100010 d"
b1111111111111000 t"
b11100 &#
b10100 F#
b101010 V#
#70
b11010001010100 "
b11011100010010 2
b11100110100000 B
b11110001000110 R
b11111001101010 b
b100000011011000 r
b100001100001110 $"
b100010101111010 4"
b1111111111111100 D"
b100 T"
b100 d"
b101010 t"
b1111111111111100 &#
b1111111111100010 6#
b100 F#
b1010 V#
#71
b100011110000010 "
b100100110000100 2
b100101110111000 B
b100110111111100 R
b100111101011000 b
b101000101111100 r
b101001100011110 $"
b101010011111110 4"
b11100 D"
b10100 d"
b1010 t"
b1100 &#
b1111111111110010 6#
b11010 V#
#72
b101011000111100 "
b101011111010100 2
b101100101001010 B
b101101010010110 R
b101101111000000 b
b101110011010110 r
b101110111100110 $"
b101111100010000 4"
b1100 D"
b1111111111110010 T"
b1111111111100010 d"
b11100 &#
b10100 6#
b1111111111110010 F#
#73
b101111111011000 "
b110000010000100 2
b110000101011000 B
b110000111111110 R
b110001001001110 b
b110001011011110 r
b110001100110000 $"
b110001110101100 4"
b1111111111111100 D"
b1111111111100010 T"
b100 d"
b1100 &#
b100 F#
b1010 V#
#74
b110001110001110 "
b110001110001110 2
b110001110000000 B
b110001110000100 R
b110001100001110 b
b110001011101110 r
b110001001100000 $"
b110000111111110 4"
b100 T"
b1111111111111000 t"
b1111111111010000 &#
b100 6#
#75
b110000101001110 "
b110000001110100 2
b101111111101000 B
b101111100100010 R
b101110111111010 b
b101110100001010 r
b101101111001010 $"
b101101010010110 4"
b11100 D"
b1111111111110010 T"
b1111111111110010 d"
b1010 t"
b1111111111111100 &#
b10100 6#
#76
b101100011101010 "
b101011110110100 2
b101011001010000 B
b101010010101110 R
b101001011100100 b
b101000101011100 r
b100111101001010 $"
b100110110011100 4"
b1111111111111100 D"
b100 T"
b100 d"
b1111111111000000 &#
b100 6#
b1111111111100010 F#
#77
b100101101011000 "
b100100101010100 2
b100011100100000 B
b100010011101010 R
b100001001101110 b
b100000000010100 r
b11110111010110 $"
b11101100100010 4"
b1111111111110000 D"
b1111111111110010 T"
b11010 t"
b1100 &#
b1111111111110010 6#
b10100 F#
b1111111111101000 V#
#78
b11100010001010 "
b11010111111000 2
b11001101001100 B
b11000010101000 R
b10110110101000 b
b10101011000000 r
b10011111111000 $"
b10010011101100 4"
b1111111111111100 D"
b100 T"
b10100 d"
b1111111111101000 t"
b1111111111111100 &#
b1111111111110010 F#
b1111111111111000 V#
#79
b10000111111110 "
b1111100001010 2
b1101111111000 B
b1100011000000 R
b1010110111100 b
b1001011001000 r
b111101110000 $"
b110000111010 4"
b1010 t"
b1100 &#
b100 F#
b1010 V#
#80
b100100010110 "
b10111110100 2
b1010011100 B
b1111111110010110 R
b1111110001001000 b
b1111100101100100 r
b1111011000101110 $"
b1111001011011110 4"
b100100 T"
b100 6#
#81
b1110111110010000 "
b1110110001111110 2
b1110100101111110 B
b1110011001100010 R
b1110001101001110 b
b1110000001011000 r
b1101110101000010 $"
b1101101000000000 4"
b1111111111010000 D"
b1111111111110010 T"
b100 d"
b11100 &#
b10100 6#
b101010 V#
#82
b1101011101011100 "
b1101010010101010 2
b1101000110111000 B
b1100111011010000 R
b1100110000011100 b
b1100100110011000 r
b1100011010011100 $"
b1100010000000110 4"
b1111111111111100 D"
b100 T"
b1111111111110010 6#
b1111111111100010 F#
b1010 V#
#83
b1100000111001110 "
b1011111110000110 2
b1011110011010010 B
b1011101001100000 R
b1011100001111010 b
b1011010111110010 r
b1011010000001110 $"
b1011000111101000 4"
b11100 D"
b1111111111010010 6#
b100 F#
#84
b1011000001000110 "
b1010111000100010 2
b1010101111100010 B
b1010101001001100 R
b1010100100101000 b
b1010011110000010 r
b1010010111011100 $"
b1010010001000010 4"
b1111111111110010 T"
b1111111111110010 d"
b1111111111101000 t"
b1100 &#
b100100 6#
b1111111111110010 F#
b1111111111101000 V#
#85
b1010001110001110 "
b1010001001011010 2
b1010000100000010 B
b1001111111010010 R
b1001111101011010 b
b1001111010100110 r
b1001110110100000 $"
b1001110010110000 4"
b1100 D"
b10100 T"
b10100 d"
b1010 t"
b1111111111111100 &#
b10100 6#
b11010 V#
#86
b1001110010110000 "
b1001110000110000 2
b1001101110011100 B
b1001101100111100 R
b1001101110010000 b
b1001101110010000 r
b1001101100101100 $"
b1001101101011100 4"
b111100 D"
b100 d"
b1111111111101000 t"
b11100 &#
b100 6#
b10100 F#
b1111111111101000 V#
#87
b1001101111110000 "
b1001110011000000 B
b1001110011100000 R
b1001110111110000 b
b1001111010100110 r
b1001111101001010 $"
b1001111111100010 4"
b1100 D"
b100 T"
b1111111111111100 &#
b1111111111110010 6#
b1111111111110010 F#
b11010 V#
#88
b1010000101111110 "
b1010001001111010 2
b1010001110001010 B
b1010010010110100 R
b1010011010000100 b
b1010011111110010 r
b1010100101011100 $"
b1010101010111100 4"
b1111111111010010 T"
b1111111111110010 d"
b1111111111111000 t"
b1100 &#
b100 6#
b10100 F#
#89
b1010110100100000 "
b1010111010101100 2
b1011000001001100 B
b1011001010001110 R
b1011010011100100 b
b1011011011011100 r
b1011100100100110 $"
b1011101101010010 4"
b10100 T"
b100 d"
b1010 t"
b1111111111111100 &#
b10100 6#
b100 F#
b1010 V#
#90
b1011111000000000 "
b1100000001101000 2
b1100001011001010 B
b1100010101001000 R
b1100100000100010 b
b1100101011001110 r
b1100110110001100 $"
b1101000001001010 4"
b1111111111110010 T"
b1111111111110010 d"
b11010 t"
b1111111111100010 6#
b10100 F#
b1111111111111000 V#
#91
b1101001100101100 "
b1101011000011110 2
b1101100100110110 B
b1101101111011110 R
b1101111100001010 b
b1110000111111100 r
b1110010100100100 $"
b1110011111111110 4"
b1111111111111100 D"
b100 T"
b100 d"
b1100 &#
b1111111111110010 6#
b100 F#
b1010 V#
#92
b1110101100100100 "
b1110111010001110 2
b1111000110111010 B
b1111010011001000 R
b1111011111100010 b
b1111101100011010 r
b1111111001001100 $"
b101101000 4"
b10100 T"
b1010 t"
b1111111111111100 &#
b100 6#
b1111111111110010 F#
b111010 V#
#93
b10001110110 "
b11110111110 2
b101011011110 B
b111000110010 R
b1000101001100 b
b1010001101100 r
b1011110000000 $"
b1101010000110 4"
b11100 D"
b10100 d"
b1111111111110010 6#
b10100 F#
b1111111111111000 V#
#94
b1110110010000 "
b10000001011010 2
b10001110001110 B
b10011000100010 R
b10100100111000 b
b10101111010000 r
b10111011111000 $"
b11000110101010 4"
b1100 D"
b100 T"
b1111111111111000 t"
b11100 &#
b1111111111110010 F#
b1010 V#
#95
b11010001000100 "
b11011011110010 2
b11100111000000 B
b11110000100110 R
b11111001011010 b
b100000010100100 r
b100001100111110 $"
b100010101101010 4"
b1111111111111100 D"
b1111111111110010 T"
b100 d"
b1010 t"
b100 F#
#96
b100011101100100 "
b100100110100100 2
b100101110111000 B
b100110111011100 R
b100111110001000 b
b101000101101100 r
b101001100101110 $"
b101010011101110 4"
b1100 D"
b10100 T"
b1100 &#
b100 6#
b10100 F#
b11010 V#
#97
b101011001011100 "
b101011110110100 2
b101100100101010 B
b101101001110010 R
b101101110110000 b
b101110011100110 r
b101111000011110 $"
b101111100000000 4"
b1111111111111100 D"
b1111111111110010 T"
b101010 t"
b11100 &#
b10100 6#
#98
b101111111011000 "
b110000001100100 2
b110000100111000 B
b110000111011110 R
b110001001001110 b
b110001010101110 r
b110001100100000 $"
b110001110000100 4"
b1100 D"
b1111111111100010 T"
b11010 t"
b1111111111111100 &#
b100 6#
b1111111111110010 F#
b1010 V#
#99
b110001110001110 "
b110001101011110 2
b110001110010000 B
b110001110010100 R
b110001100011110 b
b110001010111110 r
b110001010010000 $"
b110000111111110 4"
b1111111111110010 T"
b1111111111111000 t"
b1100 &#
b1111111111110010 6#
b1111111111100010 F#
#100
b110000101001110 "
b110000010010100 2
b101111111011000 B
b101111100100010 R
b101110111101010 b
b101110011010110 r
b101101110111010 $"
b101101010010110 4"
b1111111111111100 D"
b11100 &#
b10100 6#
b100 F#
#101
b101100100110000 "
b101011110110100 2
b101011001000000 B
b101010011001110 R
b101001011010100 b
b101000101001100 r
b100111101011010 $"
b100110101111010 4"
b100 T"
b1111111111110010 d"
b11010 t"
b1100 &#
b100 6#
b1111111111010010 F#
#102
b100101101011000 "
b100100100000100 2
b100011100110000 B
b100010011111010 R
b100001001111110 b
b100000000100100 r
b11110111100110 $"
b11101100100010 4"
b1111111111010000 D"
b10100 T"
b100 d"
b1111111111111000 t"
b1111111111110010 6#
b1111111111110010 F#
#103
b11100010001010 "
b11010111111000 2
b11001101001100 B
b11000001111000 R
b10110110111000 b
b10101010110000 r
b10011111111000 $"
b10010011111110 4"
b1100 D"
b1111111111110010 d"
b11010 t"
b1111111111010000 &#
b100 6#
b1111111111010010 F#
b1111111111101000 V#
#104
b10000111111110 "
b1111100001010 2
b1101111111000 B
b1100011010000 R
b1010110111100 b
b1001010000010 r
b111101110000 $"
b110001101100 4"
b11100 D"
b100 d"
b1010 t"
b11100 &#
b1111111111110010 6#
b100100 F#
#105
b100100010000 "
b10111110100 2
b1010111100 B
b1111111110100110 R
b1111110001001000 b
b1111100100110100 r
b1111011000000110 $"
b1111001011101110 4"
b1100 D"
b100 T"
b11010 t"
b1111111111111100 &#
b100 F#
b1111111111111000 V#
#106
b1110111110100000 "
b1110110001101110 2
b1110100101101110 B
b1110011001010010 R
b1110001101001110 b
b1110000001011000 r
b1101110101100010 $"
b1101101001010100 4"
b1111111111010000 D"
b100100 T"
b10100 d"
b1111111111101000 t"
b11100 &#
b1111111111010010 6#
#107
b1101011100111100 "
b1101010011001010 2
b1101000111001000 B
b1100111011000000 R
b1100110000001100 b
b1100100110001000 r
b1100011010011100 $"
b1100010000111000 4"
b1111111111111100 D"
b1111111111100010 T"
b100 d"
b1010 t"
b1111111111111100 &#
b10100 6#
b10100 F#
#108
b1100000111001110 "
b1011111110000110 2
b1011110011110010 B
b1011101001110000 R
b1011100000111010 b
b1011010111110010 r
b1011001111101110 $"
b1011000111011000 4"
b1100 D"
b1111111111110010 T"
b10100 d"
b101010 t"
b100 F#
b11010 V#
