11_cs_nwe _channel4/project_1/.Xil/Vivado-9484-GL-0301-949/hw_ila_data_1/zip_work/waveform.vcd
$date
        2023-Aug-08 15:13:42
$end
$version
        Vivado v2018.3 (64-bit)
$end
$timescale
        1ps
$end
$scope module dut $end
$var reg 16 " u3_adc_analysis/adc1_a1_1 [15:0] $end
$var reg 16 2 u3_adc_analysis/adc1_a2_1 [15:0] $end
$var reg 16 B u3_adc_analysis/adc1_a3_1 [15:0] $end
$var reg 16 R u3_adc_analysis/adc1_a4_1 [15:0] $end
$var reg 16 b u3_adc_analysis/adc1_a1_2 [15:0] $end
$var reg 16 r u3_adc_analysis/adc1_a2_2 [15:0] $end
$var reg 16 $" u3_adc_analysis/adc1_a3_2 [15:0] $end
$var reg 16 4" u3_adc_analysis/adc1_a4_2 [15:0] $end
$var reg 16 D" u3_adc_analysis/adc1_b1_1 [15:0] $end
$var reg 16 T" u3_adc_analysis/adc1_b2_1 [15:0] $end
$var reg 16 d" u3_adc_analysis/adc1_b3_1 [15:0] $end
$var reg 16 t" u3_adc_analysis/adc1_b4_1 [15:0] $end
$var reg 16 &# u3_adc_analysis/adc1_b1_2 [15:0] $end
$var reg 16 6# u3_adc_analysis/adc1_b2_2 [15:0] $end
$var reg 16 F# u3_adc_analysis/adc1_b3_2 [15:0] $end
$var reg 16 V# u3_adc_analysis/adc1_b4_2 [15:0] $end
$var reg 1 f# u3_adc_analysis/time_4s_1 $end
$var reg 1 g# _TRIGGER $end
$var reg 1 h# _WINDOW $end
$var reg 1 i# _GAP $end
$upscope $end
$enddefinitions $end
#0
$dumpvars
b1110011111000 "
b10000000110010 2
b1110001100100010 B
b1101111110001100 R
b1110011101000 b
b10000000100010 r
b1110001100000010 $"
b1101111110001100 4"
b1111111111001010 D"
b0 T"
b1000 d"
b1100 t"
b110 &#
b10000 6#
b1111111111010110 F#
b11100 V#
0f#
0g#
1h#
0i#
$end
#1
b1110011101000 "
b10000000100010 2
b1110001100010010 B
b1101111110011100 R
b1110010111000 b
b1101111110011100 4"
b1111111111110110 d"
b1111111111111010 t"
b10110 &#
b1111111111110110 F#
b101100 V#
#2
b1110100001000 "
b10000000110010 2
b1110001011110100 B
b1101111110001100 R
b1110011111000 b
b1110001100010010 $"
b1101111101111100 4"
b1111111111110110 D"
b1111111111100110 d"
b1111111111110110 &#
b0 6#
b1000 F#
b1111111111111010 V#
#3
b1110011111000 "
b10000001000100 2
b1101111110011100 R
b1110011101000 b
b10000000010010 r
b1110001100000010 $"
b1101111110001100 4"
b10110 D"
b1111111111101010 t"
b1111111111001010 &#
b1100 V#
#4
b10000000010010 2
b1110001100000010 B
b1101111110001100 R
b1110011111000 b
b10000001010100 r
b1110001011100100 $"
b1101111101111100 4"
b100000 T"
b11100 t"
b10110 &#
b1111111111101110 6#
#5
b1110011101000 "
b10000000100010 2
b1101111110101100 R
b10000001000100 r
b1110001100010010 $"
b1111111111110110 D"
b10000 T"
b1000 d"
b1111111111111010 t"
b1111111111011110 6#
b1111111111110110 F#
b1111111111111010 V#
#6
b1110001100010010 B
b1101111110011100 R
b10000000110010 r
b1110001100000010 $"
b1101111110101100 4"
b110 D"
b1111111111101110 T"
b110 &#
b1111111111101110 6#
#7
b1110100001000 "
b10000001010100 2
b1110001011110100 B
b1101111110111100 R
b1111111111110110 D"
b10000 T"
b1111111111110110 &#
b100000 6#
b1111111111100110 F#
b1100 V#
#8
b1110011101000 "
b10000000100010 2
b1101111101111100 R
b1110011101000 b
b1101111110011100 4"
b110010 T"
b1111111111110110 d"
b11100 t"
b110 &#
b1111111111011110 6#
b11000 F#
b1111111111111010 V#
#9
b1110011111000 "
b10000000110010 2
b1110001011010100 B
b1101111110101100 R
b1110011111000 b
b10000000100010 r
b1110001011110100 $"
b1101111110101100 4"
b10110 D"
b0 T"
b1000 d"
b1111111111011010 t"
b1111111111110110 &#
b1111111111101110 6#
b1000 F#
b1100 V#
#10
b1110001011110100 B
b1101111110011100 R
b1110011001000 b
b10000000010010 r
b1110001011100100 $"
b1101111110001100 4"
b1111111111110110 D"
b1111111111101110 T"
b1111111111110110 d"
b1100 t"
b1111111111110110 F#
b1111111111111010 V#
#11
b1110011101000 "
b10000001010100 2
b1110001100100010 B
b1101111110001100 R
b1110011101000 b
b10000000110010 r
b1110001011110100 $"
b1101111101111100 4"
b100000 T"
b1000 d"
b1111111111101010 t"
b0 6#
b11000 F#
b1111111111101010 V#
#12
b1110011001000 "
b10000000100010 2
b1110001100010010 B
b1101111110011100 R
b1110011111000 b
b1110001100000010 $"
b1101111110101100 4"
b10110 D"
b0 T"
b1111111111110110 d"
b11100 t"
b10110 &#
b10000 6#
b1111111111110110 F#
#13
b1110010111000 "
b10000000110010 2
b1110001011110100 B
b1110011101000 b
b1101111110001100 4"
b1111111111110110 D"
b1000 d"
b1111111111011010 t"
b110 &#
b0 6#
b1100 V#
#14
b1110011101000 "
b10000000010010 2
b1110001100010010 B
b10000000000000 r
b1110001011100100 $"
b10110 D"
b1111111111101110 T"
b1100 t"
b1000 F#
b1111111111011010 V#
#15
b10000000100010 2
b1110001100000010 B
b1101111110001100 R
b10000000010010 r
b1110001011110100 $"
b1111111111100110 D"
b0 T"
b1111111111110110 d"
b1111111111111010 t"
b1111111111100110 &#
b1111111111110110 F#
b1111111111111010 V#
#16
b10000000010010 2
b1110001011100100 B
b1110011111000 b
b10000000110010 r
b1110001100010010 $"
b1101111110101100 4"
b110 D"
b1111111111101010 t"
b1111111111110110 &#
b1111111111101110 6#
b1111111111100110 F#
b1111111111101010 V#
#17
b10000000100010 2
b1110001011110100 B
b1101111101101100 R
b1110100001000 b
b10000000100010 r
b1110001100000010 $"
b1101111110001100 4"
b10110 D"
b1000 d"
b110 &#
b0 6#
b1000 F#
b1100 V#
#18
b1110001011100100 B
b1101111110001100 R
b10000000110010 r
b1101111110101100 4"
b1111111111110110 D"
b1111111111110110 d"
b1100 t"
b100000 6#
b11100 V#
#19
b1110011111000 "
b10000000110010 2
b1101111110011100 R
b1110011101000 b
b10000001000100 r
b1101111110001100 4"
b110010 T"
b11100 t"
b10110 &#
b0 6#
b1111111111110110 F#
b1111111111101010 V#
#20
b1110010111000 "
b10000000000000 2
b1110001100010010 B
b1110011111000 b
b10000000110010 r
b1110001011110100 $"
b1101111110011100 4"
b1111111111001010 D"
b0 T"
b1111111111101010 t"
b110 &#
b10000 6#
b1000 F#
b1100 V#
#21
b1110011101000 "
b10000000110010 2
b1110001100000010 B
b1101111110101100 R
b1110010111000 b
b10000000100010 r
b1110001100010010 $"
b110 D"
b10000 T"
b1111111111100110 d"
b1100 t"
b100000 6#
b11000 F#
#22
b1110100001000 "
b10000000100010 2
b1110001100100010 B
b1101111110011100 R
b1110011101000 b
b10000000110010 r
b1110001100100010 $"
b1101111110101100 4"
b1111111111100110 D"
b1111111111110110 d"
b1111111111101010 t"
b0 6#
b1000 F#
#23
b1110011101000 "
b10000000110010 2
b1110011111000 b
b10000000100010 r
b1110001100000010 $"
b1101111110011100 4"
b1111111111110110 D"
b0 T"
b1000 d"
b1111111111111010 t"
b110010 6#
b11000 F#
b11100 V#
#24
b1110011111000 "
b10000000100010 2
b1110001100000010 B
b1101111110001100 R
b1110001100010010 $"
b10110 D"
b100000 T"
b1111111111101010 t"
b1111111111110110 &#
b0 6#
b1111111111110110 F#
b1111111111111010 V#
#25
b1110011101000 "
b10000000110010 2
b1110001100100010 B
b1101111110011100 R
b1110011101000 b
b10000001010100 r
b1101111110101100 4"
b1111111111101110 T"
b1111111111100110 d"
b1111111111011010 t"
b1100 V#
#26
b1110011011000 "
b10000000100010 2
b1110001100000010 B
b1101111110001100 R
b1110011111000 b
b10000000100010 r
b1110001011110100 $"
b1101111110001100 4"
b1111111111110110 D"
b1100 t"
b1111111111100110 &#
b100000 6#
b1000 F#
b1111111111101010 V#
#27
b1110011101000 "
b10000000110010 2
b1110001011100100 B
b1101111101111100 R
b1110011011000 b
b10000001000100 r
b1110001100000010 $"
b10110 D"
b10000 T"
b1000 d"
b1111111111101010 t"
b1111111111110110 &#
b0 6#
b1111111111110110 F#
b1111111111111010 V#
#28
b10000000100010 2
b1101111110011100 R
b10000000110010 r
b1110001011100100 $"
b110 D"
b1111111111101110 T"
b1100 t"
b10110 &#
b1111111111101010 V#
#29
b1110001100000010 B
b1101111101111100 R
b1110011101000 b
b10000001000100 r
b10110 D"
b1111111111110110 d"
b1111111111101010 t"
b10000 6#
b11100 V#
#30
b1110011111000 "
b10000000110010 2
b1110001100010010 B
b1101111110101100 R
b1110011011000 b
b10000000100010 r
b1110001011110100 $"
b1101111101111100 4"
b110 D"
b11000 d"
b1111111111111010 t"
b1111111110111010 &#
b1000 F#
#31
b1110011101000 "
b1110001011110100 B
b1101111110001100 R
b1110011111000 b
b10000001000100 r
b1101111110011100 4"
b0 T"
b1000 d"
b1111111111101010 t"
b1111111111110110 &#
b100000 6#
b11000 F#
b1111111111101010 V#
#32
b1110010111000 "
b10000000010010 2
b1110001011100100 B
b10000000110010 r
b1101111110001100 4"
b10000 T"
b11000 d"
b1100 t"
b110 &#
b1111111111101110 6#
b1000 F#
b1100 V#
#33
b1110011101000 "
b10000000100010 2
b1110001100000010 B
b1110011101000 b
b1110001011010100 $"
b1101111110011100 4"
b10110 D"
b1000 d"
b111110 t"
b1111111111011110 6#
b1111111111111010 V#
#34
b1110011111000 "
b1110001011100100 B
b1101111110011100 R
b1110011011000 b
b10000000100010 r
b1110001011100100 $"
b1111111111110110 D"
b1111111111101110 T"
b1111111111110110 d"
b1111111111111010 t"
b0 6#
b11000 F#
b1111111111011010 V#
#35
b1110001100000010 B
b1101111110001100 R
b1110011111000 b
b10000000110010 r
b1110001100010010 $"
b110 D"
b10000 T"
b100110 &#
b1111111111101110 6#
b1111111111111010 V#
#36
b1110100001000 "
b1110001100010010 B
b1101111110111100 R
b1110010111000 b
b10000001100110 r
b1110001011110100 $"
b1101111110001100 4"
b10110 D"
b0 T"
b1000 d"
b1111111111101010 t"
b110 &#
b1100 V#
#37
b1110011101000 "
b10000000110010 2
b1110001100000010 B
b1101111101111100 R
b10000000110010 r
b1110001100010010 $"
b1101111110101100 4"
b110 D"
b1100 t"
b10000 6#
b1111111111110110 F#
b11100 V#
#38
b1110100001000 "
b10000001000100 2
b1101111110011100 R
b10000001000100 r
b1110001100000010 $"
b1101111110001100 4"
b1111111111001010 D"
b10000 T"
b1111111111101010 t"
b1111111111110110 &#
b110010 6#
b1000 F#
b1100 V#
#39
b1110011111000 "
b10000000110010 2
b1110001011100100 B
b1101111101111100 R
b1110011101000 b
b10000000110010 r
b1110001011110100 $"
b1101111101111100 4"
b110 D"
b0 T"
b1111111111110110 d"
b1111111111101110 6#
b1111111111110110 F#
b1111111111101010 V#
#40
b1110011011000 "
b10000001000100 2
b1101111110001100 R
b1110001011010100 $"
b1101111101101100 4"
b1111111111110110 D"
b11000 d"
b1100 t"
b0 6#
#41
b1110011111000 "
b10000000110010 2
b1110001011110100 B
b1101111110011100 R
b10000000100010 r
b1110001100000010 $"
b1101111110011100 4"
b100000 T"
b1000 d"
b1111111111101010 t"
b10110 &#
b11000 F#
b1100 V#
#42
b1110011101000 "
b1110001100000010 B
b1101111110001100 R
b10000001010100 r
b1101111110001100 4"
b1111111111100110 D"
b0 T"
b1111111111111010 t"
b1111111111110110 &#
b10000 6#
b1000 F#
b1111111111111010 V#
#43
b10000001000100 2
b1110001100010010 B
b1101111110011100 R
b1110011011000 b
b10000000110010 r
b1110001011110100 $"
b1111111111110110 D"
b1111111111101110 T"
b101000 d"
b110 &#
b0 6#
b1111111111110110 F#
b1111111111011010 V#
#44
b1110011011000 "
b10000001010100 2
b1110001011110100 B
b1101111110001100 R
b1110100011000 b
b10000001000100 r
b1110001100100010 $"
b10110 D"
b1111111111110110 d"
b1100 t"
b1111111111110110 &#
b1000 F#
b1100 V#
#45
b1110011101000 "
b10000001100110 2
b1110001100000010 B
b1101111110011100 R
b1110010111000 b
b1110001100010010 $"
b1101111101111100 4"
b1111111111110110 D"
b10000 T"
b1000 d"
b1111111111111010 t"
b110 &#
b10000 6#
b11000 F#
#46
b1110011111000 "
b10000000100010 2
b1110001011100100 B
b1101111101111100 R
b1110011101000 b
b10000001010100 r
b1110001100000010 $"
b1101111110011100 4"
b11100 t"
b100000 6#
b1111111111110110 F#
#47
b1110011101000 "
b10000001000100 2
b1110001100000010 B
b1101111110001100 R
b1110011011000 b
b10000000100010 r
b1110001011110100 $"
b1101111110001100 4"
b110 D"
b0 T"
b1111111111101010 t"
b1111111111110110 &#
b0 6#
b11000 F#
b1111111111101010 V#
#48
b1110011011000 "
b1110001011100100 B
b10000000110010 r
b1110001011010100 $"
b1101111110011100 4"
b1111111111101110 T"
b1111111111110110 d"
b110 &#
b1111111111101110 6#
b1111111111110110 F#
b1100 V#
#49
b1110011101000 "
b10000001010100 2
b1110001011110100 B
b1101111110101100 R
b1110011101000 b
b1110001100000010 $"
b1000 d"
b1100 t"
b0 6#
b1000 F#
#50
b1110011111000 "
b10000001000100 2
b1110001100010010 B
b1101111101111100 R
b1110010111000 b
b10000001010100 r
b1101111101111100 4"
b1111111111110110 D"
b0 T"
b1111111111110110 d"
b1111111111101010 t"
b11000 F#
b1111111111111010 V#
#51
b10000001010100 2
b1110001011000100 B
b1110011101000 b
b10000001000100 r
b1110001100100010 $"
b1101111110011100 4"
b110 D"
b100000 T"
b1111111111100110 d"
b1000 F#
b11100 V#
#52
b1110010111000 "
b10000000110010 2
b1110001100000010 B
b1101111110101100 R
b10000000110010 r
b1110001100000010 $"
b10110 D"
b0 T"
b1100 t"
b1111111111110110 F#
b111110 V#
#53
b1110011101000 "
b10000001000100 2
b1110001011100100 B
b1101111110001100 R
b1110011011000 b
b1101111101111100 4"
b10000 T"
b101000 d"
b1111111111101010 t"
b10110 &#
b1111111111101110 6#
b1111111111111010 V#
#54
b1110011001000 "
b10000000110010 2
b1110001100000010 B
b1101111110011100 R
b1110011101000 b
b10000001000100 r
b1110001100100010 $"
b1101111110101100 4"
b0 T"
b1000 d"
b1100 t"
b1111111111001010 &#
b100000 6#
b11100 V#
#55
b1110011011000 "
b10000000000000 2
b10000000110010 r
b1110001011110100 $"
b1101111110001100 4"
b110 D"
b11000 d"
b1111111111101010 t"
b110 &#
b10000 6#
b1111111111101010 V#
#56
b10000000100010 2
b1110001011110100 B
b1101111110001100 R
b1110001100010010 $"
b1101111110011100 4"
b1111111111011010 D"
b10000 T"
b1111111111100110 d"
b0 6#
b1100 V#
#57
b1110011101000 "
b10000001000100 2
b1110001100000010 B
b10000001000100 r
b1110001100000010 $"
b1101111101111100 4"
b1111111111110110 D"
b1111111111101110 T"
b1111111111110110 d"
b1111111111110110 &#
b11100 V#
#58
b10000000110010 2
b1110001011110100 B
b1110010111000 b
b10000000110010 r
b1110001100010010 $"
b1101111110011100 4"
b110 D"
b100000 T"
b1111111111111010 t"
b1111111111100110 F#
b1100 V#
#59
b1110011111000 "
b10000001100110 2
b1110001100010010 B
b1110100001000 b
b1110001100000010 $"
b1101111111001100 4"
b1111111111110110 D"
b10000 T"
b1000 d"
b100000 6#
b11000 F#
b1111111111101010 V#
#60
b10000000000000 2
b1101111110011100 R
b1110011101000 b
b10000001000100 r
b1110001100010010 $"
b1101111110001100 4"
b110 D"
b0 T"
b1111111111101110 6#
b1000 F#
b1100 V#
#61
b10000000110010 2
b1110001100000010 B
b1101111110001100 R
b1110011111000 b
b10000000110010 r
b1101111110011100 4"
b1111111111110110 D"
b11100 t"
b10110 &#
b1111111111110110 F#
#62
b1110011001000 "
b10000001000100 2
b1110001100100010 B
b1101111110011100 R
b1110011101000 b
b10000000100010 r
b110 D"
b1100 t"
b110 &#
b0 6#
#63
b1110011101000 "
b10000001010100 2
b1110001100000010 B
b1101111110101100 R
b1110011111000 b
b10000001010100 r
b1110001011110100 $"
b1111111111110110 D"
b1111111111101110 T"
b1111111111011010 t"
b1111111111110110 &#
#64
b1110011111000 "
b10000000110010 2
b1110011011000 b
b10000000110010 r
b1101111110101100 4"
b10110 D"
b0 T"
b101000 d"
b1100 t"
b1000 F#
b1111111111111010 V#
#65
b1110011101000 "
b10000001000100 2
b1110001011110100 B
b1101111110011100 R
b1110001011100100 $"
b1101111110001100 4"
b110 D"
b10000 T"
b1000 d"
b1111111111111010 t"
b1111111111100110 &#
b1100 V#
#66
b1110010111000 "
b10000000100010 2
b1110001100010010 B
b1110011101000 b
b10000001010100 r
b1110001100100010 $"
b1111111111101110 T"
b11100 t"
b1111111111110110 &#
b1111111111110110 F#
#67
b10000001010100 2
b1110001011100100 B
b1101111110001100 R
b10000000110010 r
b1110001011110100 $"
b100110 D"
b0 T"
b1111111111100110 d"
b1100 t"
b10110 &#
b1111111111101010 V#
#68
b1110011101000 "
b10000000000000 2
b1110001011110100 B
b1101111111001100 R
b1110011111000 b
b10000000100010 r
b1110001011100100 $"
b1101111110101100 4"
b1111111111100110 D"
b1111111111110110 d"
b1111111111111010 t"
b1111111111110110 &#
b1111111111011010 V#
#69
b1110011111000 "
b10000000100010 2
b1101111110011100 R
b1110100001000 b
b1101111110011100 4"
b110 D"
b10000 T"
b1111111111101010 t"
b10000 6#
b11100 V#
#70
b1110011001000 "
b10000001000100 2
b1110001011100100 B
b1101111110001100 R
b1110010111000 b
b10000000110010 r
b1110001011110100 $"
b1111111111110110 D"
b0 T"
b1000 d"
b1100 t"
b0 6#
b1111111111111010 V#
#71
b1110011111000 "
b10000000110010 2
b1101111110101100 R
b1110011101000 b
b10000001000100 r
b1110001100010010 $"
b1101111101111100 4"
b110 D"
b10000 T"
b11100 t"
b100110 &#
b10000 6#
b1100 V#
#72
b10000001000100 2
b1110001011110100 B
b1101111110011100 R
b1110011011000 b
b10000000110010 r
b1110001011110100 $"
b1101111110101100 4"
b1111111111110110 D"
b1111111111101010 t"
b110 &#
b0 6#
b11100 V#
#73
b10000000110010 2
b1110001011100100 B
b1101111110001100 R
b1110011111000 b
b10000000100010 r
b1110001100000010 $"
b1111111111110110 d"
b11100 t"
b1111111111110110 &#
b1111111111100110 F#
b1111111111101010 V#
#74
b10000000010010 2
b1110001100000010 B
b110 D"
b1111111111010110 d"
b1111111111111010 t"
b11000 F#
b11100 V#
#75
b10000000110010 2
b1110011101000 b
b10000000110010 r
b1101111110001100 4"
b10110 D"
b1111111111101110 T"
b1111111111100110 d"
b1111111111101010 t"
b110 &#
b110010 6#
b1000 F#
b1100 V#
#76
b1110011011000 "
b1110001011100100 B
b1101111110101100 R
b1110010111000 b
b1110001011110100 $"
b1101111110101100 4"
b1111111111001010 D"
b0 T"
b1000 d"
b1111111110111010 &#
b10000 6#
b1111111111110110 F#
#77
b1110011001000 "
b1110001100000010 B
b1101111110001100 R
b1110011101000 b
b1110001100000010 $"
b1101111110011100 4"
b1111111111011010 D"
b10000 T"
b1111111111110110 d"
b11100 t"
b10110 &#
b0 6#
b1111111111011010 V#
#78
b1110011011000 "
b1110001011110100 B
b1101111110101100 R
b1110001011110100 $"
b1101111110111100 4"
b1111111111110110 D"
b0 T"
b1111111111111010 t"
b1111111111110110 &#
b10000 6#
b1000 F#
b1111111111111010 V#
#79
b1110001011100100 B
b1101111110001100 R
b10000000010010 r
b1110001100000010 $"
b1101111101101100 4"
b11000 d"
b1111111111101010 t"
b110 &#
b0 6#
b11000 F#
#80
b1110011111000 "
b10000000100010 2
b1110001100000010 B
b1101111110101100 R
b10000000110010 r
b1110001100100010 $"
b1101111101111100 4"
b10110 D"
b1111111111110110 d"
b1111111111111010 t"
b10110 &#
b1111111111110110 F#
b1111111111101010 V#
#81
b1110010011000 "
b10000001000100 2
b1110001011110100 B
b1101111101101100 R
b1110100001000 b
b1110001100010010 $"
b1101111110011100 4"
b1111111111110110 D"
b11100 t"
b1111111111110110 &#
b10000 6#
b1111111111100110 F#
b1100 V#
#82
b1110011111000 "
b1110001100000010 B
b1101111110001100 R
b1110011111000 b
b1110001011110100 $"
b1101111101111100 4"
b1111111111101110 T"
b1000 d"
b1111111111111010 t"
b10110 &#
b1111111111011110 6#
#83
b10000000010010 2
b1101111110011100 R
b1110100001000 b
b10000000010010 r
b1110001100000010 $"
b1101111110001100 4"
b1111111111100110 D"
b10000 T"
b11100 t"
b1111111111110110 &#
b0 6#
b1000 F#
b1111111111101010 V#
#84
b1110001011110100 B
b1101111101111100 R
b1110010111000 b
b10000000110010 r
b1110001011110100 $"
b1101111110111100 4"
b10110 D"
b0 T"
b1100 t"
b10000 6#
b1100 V#
#85
b1110100001000 "
b10000000100010 2
b1110001011100100 B
b1101111110011100 R
b1110011111000 b
b1110001011100100 $"
b1101111110001100 4"
b1111111111110110 D"
b11000 d"
b1111111111101010 t"
b110 &#
b0 6#
b1111111111110110 F#
#86
b1110010111000 "
b10000001000100 2
b1101111110001100 R
b1110011101000 b
b10000000010010 r
b1110001100010010 $"
b10110 D"
b1000 d"
b11100 t"
b10110 &#
b10000 6#
b1000 F#
#87
b1110011011000 "
b1110001011110100 B
b1101111110011100 R
b1110011111000 b
b10000001000100 r
b1110001011010100 $"
b1101111101111100 4"
b1111111111110110 D"
b10000 T"
b1111111111110110 d"
b1111111111101010 t"
b110 &#
b1111111111101110 6#
b11000 F#
#88
b1110010111000 "
b10000000100010 2
b1101111110101100 R
b10000000110010 r
b1110001100000010 $"
b1101111110001100 4"
b10110 D"
b1111111111101110 T"
b11100 t"
b110010 6#
b11100 V#
#89
b1110011101000 "
b10000000110010 2
b1101111101101100 R
b1110010101000 b
b1111111110000 r
b1110001011110100 $"
b1101111110101100 4"
b1111111111110110 D"
b100000 T"
b1000 d"
b1111111111101010 t"
b1111111111110110 &#
b100000 6#
#90
b1110100001000 "
b1110001100000010 B
b1101111110011100 R
b1110011101000 b
b10000000110010 r
b1110001100000010 $"
b1101111110011100 4"
b10000 T"
b11000 d"
b1100 t"
b1111111111101010 V#
#91
b1110011111000 "
b10000000100010 2
b1110001011110100 B
b1110011011000 b
b1101111110001100 4"
b110 D"
b0 T"
b1000 d"
b1111111111101010 t"
b10110 &#
b0 6#
b1111111111111010 V#
#92
b10000000110010 2
b1110001100000010 B
b1101111110001100 R
b1110011111000 b
b10000001000100 r
b1111111111110110 D"
b11000 d"
b1111111111111010 t"
b110 &#
b11100 V#
#93
b1110010111000 "
b10000001010100 2
b1110001011100100 $"
b1101111110011100 4"
b1111111111110110 d"
b1111111111101010 t"
b10110 &#
b1111111111110110 F#
b1100 V#
#94
b1110011011000 "
b1101111101101100 R
b1110011101000 b
b10000001010100 r
b1110001100000010 $"
b1101111101111100 4"
b110 D"
b1111111111101110 T"
b10000 6#
b1000 F#
b1111111111101010 V#
#95
b1110010111000 "
b10000000100010 2
b1110001100010010 B
b1101111110011100 R
b1110011001000 b
b10000001000100 r
b1110001011110100 $"
b1101111110011100 4"
b1111111111110110 D"
b1111111111111010 t"
b110 &#
b0 6#
b1111111111110110 F#
b1111111111111010 V#
#96
b1110011001000 "
b10000000110010 2
b1110001100000010 B
b1101111110001100 R
b1110011101000 b
b10000000100010 r
b1110001011100100 $"
b1101111110001100 4"
b10110 D"
b0 T"
b10110 &#
b1111111111101010 V#
#97
b1110011111000 "
b10000001010100 2
b1110001011100100 B
b1101111110011100 R
b1110011111000 b
b10000000110010 r
b1110001100000010 $"
b1101111101101100 4"
b110 D"
b1000 d"
b11000 F#
b1111111111111010 V#
#98
b1110011101000 "
b10000001000100 2
b1110001100000010 B
b1101111110001100 R
b1110011101000 b
b10000000100010 r
b1110001100010010 $"
b1101111110011100 4"
b10000 T"
b110 &#
b1000 F#
#99
b1110011111000 "
b10000000100010 2
b1110001011110100 B
b1101111110011100 R
b1110010111000 b
b10000000110010 r
b1110001011100100 $"
b1101111110001100 4"
b100000 T"
b1111111111101010 t"
b1111111111110110 &#
b1111111111100110 F#
#100
b10000000010010 2
b1101111110001100 R
b1110100001000 b
b10000000100010 r
b1110001100010010 $"
b10110 D"
b10000 T"
b1111111111110110 F#
#101
b1110011101000 "
b1110001011100100 B
b1110011101000 b
b1110001011100100 $"
b1101111110101100 4"
b1111111111110110 D"
b0 T"
b1111111111110110 d"
b1100 t"
b10000 6#
b1111111111100110 F#
b11100 V#
#102
b1110010111000 "
b10000000100010 2
b1110001011010100 B
b1110011111000 b
b10000000010010 r
b1110001100000010 $"
b1101111110001100 4"
b10110 D"
b1111111111011110 T"
b110010 6#
b11000 F#
b1100 V#
#103
b1110010101000 "
b10000001000100 2
b1110001011110100 B
b1101111110011100 R
b10000000110010 r
b110 D"
b0 T"
b1111111111101010 t"
b10110 &#
b1111111111101110 6#
b1000 F#
b1111111111101010 V#
#104
b1110011101000 "
b1110001100000010 B
b10000000010010 r
b1110001011100100 $"
b1111111111011010 D"
b1111111111101110 T"
b1000 d"
b1111111111111010 t"
b1111111111001010 &#
b0 6#
b1111111111110110 F#
b1100 V#
#105
b1110011111000 "
b10000000110010 2
b1110001011110100 B
b1101111101111100 R
b10000000100010 r
b1110001011010100 $"
b1101111110101100 4"
b110 D"
b0 T"
b1111111111110110 d"
b1100 t"
b10110 &#
b1111111111011110 6#
b1111111111101010 V#
#106
b1110100001000 "
b10000000100010 2
b1110001100010010 B
b1101111110101100 R
b1110011011000 b
b10000000010010 r
b1110001011110100 $"
b1101111110001100 4"
b1111111111101110 T"
b1000 d"
b1111111111101010 t"
b10000 6#
b1111111111100110 F#
b1111111111111010 V#
#107
b1110011101000 "
b10000000110010 2
b1110001011110100 B
b1101111110001100 R
b1110011101000 b
b10000000100010 r
b1110001011010100 $"
b1111111111100110 d"
b1111111111111010 t"
b1111111111110110 &#
b1000 F#
b1100 V#
#108
b1110011111000 "
b10000000010010 2
b1110001011100100 B
b1101111110011100 R
b1110011111000 b
b10000000110010 r
b1110001011110100 $"
b1111111111110110 D"
b0 T"
b1111111111110110 d"
b1111111111011010 t"
b110 &#
b1111111111101110 6#
b1111111111110110 F#
b1111111111101010 V#
#109
b10000000100010 2
b1110001100010010 B
b1110011001000 b
b10110 D"
b1111111111101110 T"
b1000 d"
b1111111111101010 t"
b10110 &#
b10000 6#
b1100 V#
#110
b10000001000100 2
b1110011101000 b
b10000000100010 r
b1110001011100100 $"
b1101111110101100 4"
b10000 T"
b1111111111100110 d"
b11100 t"
b1111111111011010 &#
b0 6#
b1111111111111010 V#
#111
b1110010111000 "
b10000000010010 2
b1110001011110100 B
b1110100011000 b
b10000000110010 r
b1101111110011100 4"
b100110 D"
b0 T"
b1111111111110110 d"
b1111111111111010 t"
b10000 6#
b1111111111100110 F#
b1111111111101010 V#
#112
b1110100001000 "
b10000000000000 2
b1110001011010100 B
b1101111110101100 R
b1110011011000 b
b10000000000000 r
b1110001011000100 $"
b1101111110001100 4"
b10110 D"
b1111111111110110 &#
#113
b1110011011000 "
b10000000110010 2
b1110001100010010 B
b1101111110001100 R
b10000000110010 r
b1110001100000010 $"
b1111111111110110 D"
b1111111111101110 T"
b1000 d"
b1111111111101010 t"
b110 &#
b1111111111101110 6#
b1111111111110110 F#
b1100 V#
#114
b1110011001000 "
b10000000010010 2
b1101111110101100 R
b1110011111000 b
b1110001100010010 $"
b1101111110101100 4"
b110 D"
b100000 T"
b1111111111100110 d"
b1100 t"
b10110 &#
b0 6#
b1111111111101010 V#
#115
b1110010111000 "
b10000000110010 2
b1110001011100100 B
b1101111110001100 R
b1110100001000 b
b10000001010100 r
b1110001100000010 $"
b1101111110011100 4"
b1111111111101110 T"
b1111111111110110 d"
b1111111111100110 &#
b1111111111101110 6#
b11000 F#
#116
b1110011111000 "
b1110001100000010 B
b1101111110011100 R
b1110011001000 b
b1101111110101100 4"
b1111111111100110 D"
b1000 d"
b110 &#
b1111111111110110 F#
b1100 V#
#117
b1110100001000 "
b10000000100010 2
b1110001011010100 B
b1101111110101100 R
b10000000100010 r
b1101111110001100 4"
b110 D"
b10000 T"
b1111111111110110 d"
b1111111111101010 t"
b100000 6#
b11000 F#
b11100 V#
#118
b10000000110010 2
b1110001011100100 B
b1101111110111100 R
b1110100001000 b
b10000001010100 r
b1000 d"
b1111111111111010 t"
b1111111111110110 &#
b1000 F#
b1100 V#
#119
b1110011111000 "
b10000000100010 2
b1110001011110100 B
b1101111110101100 R
b1110011111000 b
b10000000110010 r
b1110001100010010 $"
b1101111110011100 4"
b1111111111110110 D"
b0 T"
b11100 t"
b110 &#
b1111111111101110 6#
b1111111111110110 F#
#120
b1110100001000 "
b1110001100000010 B
b1101111110001100 R
b1110011101000 b
b1101111110001100 4"
b1111111111101110 T"
b1111111111110110 d"
b1100 t"
b0 6#
b1000 F#
#121
b1110011101000 "
b10000000110010 2
b1110001011110100 B
b10000001000100 r
b1110001011110100 $"
b1111111111001010 D"
b0 T"
b1111111111010110 d"
b1111111111101010 t"
b1111111111110110 &#
b1111111111101010 V#
#122
b1110001100100010 B
b1110011011000 b
b10000000110010 r
b1110001100000010 $"
b1101111110011100 4"
b100110 D"
b1111111111101110 T"
b1000 d"
b1100 t"
b1111111111011110 6#
b11100 V#
#123
b1110011001000 "
b1110001011110100 B
b1101111101111100 R
b1110011111000 b
b10000000100010 r
b1110001011100100 $"
b1101111110001100 4"
b110 D"
b0 T"
b1111111111110110 d"
b1111111111001010 &#
b0 6#
b1111111111101010 V#
#124
b1110011101000 "
b10000001000100 2
b1101111110001100 R
b1110011101000 b
b10000000110010 r
b1110001011010100 $"
b1111111111110110 D"
b100000 T"
b11000 d"
b1111111111111010 t"
b10110 &#
b10000 6#
b1111111111100110 F#
b1111111111111010 V#
#125
b10000000010010 2
b1110001100010010 B
b10000001000100 r
b1110001011110100 $"
b1101111110011100 4"
b1111111111001010 D"
b10000 T"
b1111111111110110 d"
b1100 t"
b110 &#
b1111111111101110 6#
b1111111111110110 F#
b1111111111101010 V#
