11_cs_nwe _channel4/project_1/.Xil/Vivado-1724-GL-0301-949/hw_ila_data_7/zip_work/waveform.vcd
$date
        2023-Aug-10 19:00:23
$end
$version
        Vivado v2018.3 (64-bit)
$end
$timescale
        1ps
$end
$scope module dut $end
$var reg 4 " int_dac_top/top_dac4_int/i_jesd204_1_support_block/gt0_txcharisk [3:0] $end
$var reg 32 & int_dac_top/top_dac4_int/i_jesd204_1_support_block/gt0_txdata [31:0] $end
$var reg 256 F int_dac_top/top_dac4_int/tx_tdata [255:0] $end
$var reg 4 ,$ int_dac_top/top_dac1_int/i_jesd204_1_support_block/gt0_txcharisk [3:0] $end
$var reg 32 0$ int_dac_top/top_dac1_int/i_jesd204_1_support_block/gt0_txdata [31:0] $end
$var reg 256 P$ int_dac_top/top_dac1_int/tx_tdata [255:0] $end
$var reg 4 6' int_dac_top/top_dac2_int/i_jesd204_1_support_block/gt0_txcharisk [3:0] $end
$var reg 32 :' int_dac_top/top_dac2_int/i_jesd204_1_support_block/gt0_txdata [31:0] $end
$var reg 256 Z' int_dac_top/top_dac2_int/tx_tdata [255:0] $end
$var reg 4 @* int_dac_top/top_dac3_int/i_jesd204_1_support_block/gt0_txcharisk [3:0] $end
$var reg 32 D* int_dac_top/top_dac3_int/i_jesd204_1_support_block/gt0_txdata [31:0] $end
$var reg 256 d* int_dac_top/top_dac3_int/tx_tdata [255:0] $end
$var reg 1 J- int_dac_top/top_dac4_int/syncb_buf $end
$var reg 1 K- int_dac_top/top_dac1_int/syncb_buf $end
$var reg 1 L- int_dac_top/top_dac2_int/syncb_buf $end
$var reg 1 M- int_dac_top/top_dac3_int/syncb_buf $end
$var reg 1 N- int_dac_top/top_dac3_int/syncb_logic $end
$var reg 1 O- int_dac_top/top_dac4_int/syncb_logic $end
$var reg 1 P- int_dac_top/top_dac1_int/syncb_logic $end
$var reg 1 Q- int_dac_top/top_dac2_int/syncb_logic $end
$var reg 1 R- sysref_logic $end
$var reg 1 S- sysref_o $end
$var reg 1 T- u_ila_2_tx_aresetn $end
$var reg 1 U- u_ila_2_tx_aresetn_1 $end
$var reg 1 V- u_ila_2_tx_aresetn_2 $end
$var reg 1 W- u_ila_2_tx_aresetn_3 $end
$var reg 1 X- _TRIGGER $end
$var reg 1 Y- _WINDOW $end
$var reg 1 Z- _GAP $end
$upscope $end
$enddefinitions $end
#0
$dumpvars
b0 "
b11010000000001101111001111000100 &
b1110000011001101110110010001011111011101110101000000010000100001111101011101110001010111001010011111001111100101100110100011000010011100111011111010000000110110101100001111100100111110001110111110110100000011010110010011111000010001000011101101101100111111 F
b0 ,$
b10010000001111010101001100100010 0$
b100011111100001011011011100000110110111110110000101111111000100001010001101000111011000110010001100110111001010101110101100111011001111110001011110000011010101010011101100001000011010110111100110000111000000001100101110011100010110110000001110110011110000 P$
b0 6'
b10100000001100011110001100110100 :'
b1111101111111001001101101100000111100101111011110000101011000000001110001110011010000001110000000011010011011101100110001100001000010101110101010100001011000110000011111100111001100110110010110101000011001000111000111101000111111111110000111000111111011001 Z'
b1111 @*
b10111100101111001011110010111100 D*
b111000011000011111001101101101011101001110000001011001011100011000000011100000000110111111011011011101111000000001101111111011100010101110000110111000000000001111111101100011010100001000010110101110111001100100001010001010100001110110100111101101100011110 d*
0J-
0K-
0L-
1M-
0N-
1O-
1P-
1Q-
0R-
0S-
1T-
1U-
1V-
1W-
0X-
1Y-
0Z-
$end
#1
b10100000111011111000000111110 &
b11100100010100100100011100101101000111000010100110001011000110000100100000000010101101110000101101110011110101100010101100000011101001111010110000011111000000011110011110001000101000110000011100101111011001111001001100001100011000110100100010101111001000 F
b11100010110000101100100000000000 0$
b110101000111000000011010010110110000100001111000011100100100101000100000011111101110001000111001111111100111111111011110001001001001010001111111111000000001000111101110011110010110111111111100001010000111001100001101111010010111010001100111010000011101010 P$
b1011010110000000110101011100111 :'
b1101111000100111010110110011101101011000001011111100011100110110100111000011010111001011001100001000000000111010100100000010100111100100001111010100010100100001101100110011111100011111000110001110000000111111010110110000111001101010001111100011100100000100 Z'
b11000111110100100000000001010110110001110100101010011111000111001100011010101001010111011101011010000101111101101011110010001001001001010001101001011011011110101100001111111011101110100111001001000010110000010011100110110111011000011001000001111000111 d*
#2
b1111100110010001010010111010001 &
b100000100010000111101110011111111101100000110010111101000111111111011010010001001011101001111010000100000101011101011010011100100001010001100101000010000110100110000110011011100000001001011100000111100111100010100100010011011010001001111101010011100011101 F
b11001011001010000101110111011100 0$
b11110111000000000111111111001111110000110000010100100111111101001110101100010110000101000001110000010111001010100100000001000100110010110100000010100000011011100110011101011100001101001001000000100011100000000001110010110001001001111010011101111100110010 P$
b11111000001110000100101011110100 :'
b100000011000011011000101101101111010001110000000011100111100100000000001100000011000111111011011101001111000000110011001111011101000100110000110000011100000010010000111100011100110101000011001011011111001100000100100001011001111010110100110101111100011111 Z'
b1011000011010100110011110010000011000010110111000010100000101001101110111110010101110011001100000110000111101111011111110011011001110011111110010010011100111011101100000000001101001011001111101101010100001101110101100011111110100000000101111011111100111111 d*
#3
b11100101001111111011001000001110 &
b1000110111010000010011101100100101001111110010100100111011001111011100011100010110001110110101100001001011000010110111011101111001001010110000000000011011101000001000111100000011001100111100011001111111000001111011101111101110110100110001000010110000000110 F
b11001100111110001110011000111010 0$
b101111000110010100001011110100001101101001010110101001011011111010111110010001111110110110101100110100100011010101001111100111111000101000100001001010111001001101101000000011011101000110001000111011111111100101111101100000101010001111100100010110011000000 P$
b111101111000000011001100101100 :'
b1110000000111101111110010000000101111010001110101011111011110111100101000011010110111001111011010100111100101111001011011110010011010011001001110101011011011011010100110001111101110000110100110000010100010110101011101100110000100111000011000011110111000111 Z'
b1000010000001010011111011100011001001111000000001011111111000010000110011111011010010010110000000010001111101100000001101100000010110000111000100001110011000001111111001101100111010000110000110100001011010010000011011100100010110100110010111011101011001101 d*
#4
b10000001110011001011111000010101 &
b11011000111111101000110001101100000000010000000001001100010010001001110011111100001101000010001011000000111100110100101111110110101010001110001010010111110011001100100011001111001001111010010110100100101100011111111110000001111110001001000000001111011000 F
b1000101111000111111111011000000 0$
b110011111101011001101010011010001010101111101010111001000111001100010011111111100110110001111011100000000001001011010000011111110111000000100111111101100111111001011010001110111101011001111101110010000100101001111100011110010100010001011010000011000111000 P$
b111010111111001011000011000001 :'
b1111111010101010100010010000101000000110111011001101100101001010001011110011011010101001100001111001011101111110011100011011000001001111110100110000000111011010001110000010001101101001111100110100100001110111000000011111100101100000110001011000100111111 Z'
b1011010000011001100000100011111110111001001000100110111000111101110110110010101011001000001110011110001100110001101001100011010010100101001101110010110000101110111110100011101110000011001001101100010100111110110111010001110111110101001111110111001100010100 d*
#5
b1011001000101101110010011001100 &
b1001011011000101011010010000100010000010110010100110110000010010110011001101000011110111000110110100101111011000110010100010010011001111111000001010110000101100001000001110101001101001001100110000000011110100110101010011100000101110111111101100110100111100 F
b1010001001101111010000000101110 0$
b10000011110000000011001100000001110000111001100111100111000000011010001101110110000111110000100100001011010101001001111100011000110101110011100100001111001011011011101100100010111001110100010001010011000100010111101101100101000010110000010000000011100010 P$
b10101001001100010100100111100 :'
b1110111100001001001111001100011010111001111111111001010011000010100001001111010101111111110000001001010011101011000010101100000000101010111000100011100111000001100001001101100100000011110001001101101011010001010101111100100001011110110010110001100011001110 Z'
b111000011001010001001101100111110001001110001010101111111010110001000101100001010101001110111100101000011000000110011011110011100011111110000001001000011110001100100011100000110110001111110111001110111000100111011110000010100101110110010010000011000010000 d*
#6
b10001000011101101101100111111 &
b1001111100100010010001111101011010010111000110010001001011001111111010000000111100011110110010011101000000000101100100011100010010010010111110111000101011000001011100011111000100011101110000001011000011100111010100111100000010001110110111100010101011000010 F
b10110110000001110110011110000 0$
b10111100101111111001100011011001111010001101011111001100110000011001110011101010111111001010011101010000111101011110010010000110101100001111110101011100011000111000110011111110010110000011100111011100111110011101100000010001110010001110110011100011111010 P$
b11111111110000111000111111011001 :'
b11111000011010011011110011111100110111001000110100001100111101010010100010101110000110001110010100000100110010010100000011010011101111001101111100001100101101001011100011110000001010001001101110001000111110010101110001110111111010001111111110010000010011 Z'
b1000000010011100001001000110001001111110100101000001000110000110011110000001111111111101100011100111000111000011111001101010110001100110000001011101010100101010010110010110100111000001011000000100100001100111101100011011010000110111011011111010000 d*
#7
b11000110100100010101111001000 &
b110111100000000011101110011110110100011000010101000011000111111100100010001010011110100001111111111100100011101101111110011111010011100001001101110111100111011010000100010111010010101001101111011100000110100110100000011000111010101001110011100001100101010 F
b10111010001100111010000011101010 0$
b1101101111000000000000101110010000000000110000001000110011101101110010011100000010001111111101110011000111000011110010100000000100100111110001111111100100001011100100101100110011011001000101010100111011010011001010100001111100110000110110111010111000100111 P$
b1101010001111100011100100000100 :'
b1111011001010100010001100111101001101110001011101001011010110111111001100000100101010110111110100000111000000010110011110100000101001110000000010001111110010101100111100000101001000111111001101011011000100100001010000011001111100110010011001100000010000 Z'
b110000011001010001100010001001010100011110100001100000000011011000110111101100010011000001001001001101011100000100000000010110011100110111010010100010100110011110001001111001110111001001110001111000111111101101110010011110000101100000010000010110000111111 d*
#8
b11010001001111101010011100011101 &
b1010100011011100110010001100001010011001110101001000101111000110101001101100110111000111110010111111111011000111010110001101001011000101110000110001011011011010000101111100000111001100111000100000010111000000010000011110110010010111110000000011100011110110 F
b1001001111010011101111100110010 0$
b1001001100111010111110111111011110110101001101011111010011101101011110000010111101100100111001000000001100101000100010001101101110001000000111111001110011010011001111110001011011010011110011000110001100001100010110011100011100110110000000100101001111000011 P$
b1111010110100110101111100011111 :'
b1111111100111111101111010001000100011000001111111011010000000111100100110011110001111000111111011000000100111000010011011111001111111100001100100111010111101001001010010010110000110001111000000011010000100100101111011101011101010010000110110101000111010000 Z'
b1100111100011001001110101100111100100011000100000011110111001001000011010000011010101000110001001100111111111011100110001100000110101101111100010010000111000000111010011110011101001101110000001100001011011110000110101100001001110110110101100111110111000101 d*
#9
b10110100110001000010110000000110 &
b1100001100111010000100000010100100001110001111101011010000100000110000100011111110000011000101111101010000111111101101110000110101000100001111101001000100000011000110110011101101010100111110010110111100110110010000101110111101011110001100001001111111100101 F
b1010001111100100010110011000000 0$
b110111011101011011000010100100001101111001101010110100110000101101111110111110101110001101101100110011111001010010010011101100001010000001000101111100111110001011010000111011011101001111111111001100010111101101110011111100011100001000011111000000111101 P$
b100111000011000011110111000111 :'
b1011001111001010110000100001001000001000110100010100011100011100100100101101100000010011001001010001111011100001111011000010110001110100111010101001111000110011010110001111010011111110001110001000100011111110111010000011110011000010000010000100001100111111 Z'
b110011000001010011111100011111101010111000101001111011000111111110000110001110111001011001111100110101100100110000001000011110000010111001011101011010000110111100101010011010011110110001100011011101100111001111100010010101001100110001111011101001000100010 d*
#10
b1111110001001000000001111011000 &
b1110111111000000011100111111100001111010110000111010111100000010100100101100011111011010000011000001110011001101101100000001011011110100110100111111000100011111111011001101101101100001001010001101000111100100110010010010111101101000111011101111011100110101 F
b10100010001011010000011000111000 0$
b1111011011111111101001011100001011000000111101011000011111000000110011101110101100001000110000000110000011100010001011011100000110110101110110011110111011000011000001001101001000111001110010001000000111001011111100011100110101010110110001101111001011010100 P$
b101100000110001011000100111111 :'
b100010100011001110110011100111010010001000011111111000011001000011101110000010101110000110001000011100111111011011101111100000100011010111100010001100011000000010111011110011101011100110000000100001011011110010000011100001000000100110101101011101111000101 Z'
b1100011011010100011100001100011011001100110011011010001111001011000111001100100000101110110100101101101011000011111001001101100100100010110000011001010111100010000001111100000000000111111011001000111011000000111110111111010110110110110000100011000100000000 d*
#11
b101110111111101100110100111100 &
b1101110100101110100101101110001101001111001001111100110111011010110000000001111011111000110100100110011100010101010010111100110010000010000010111111000011000110010100010000000100001100110000110001100011110111101101111100000000011001111011010000000111000000 F
b1000010110000010000000011100010 0$
b10000100011010101010011110100011101001010111010000100111001000110110011001001110011001101001101000100110111111011100010110100011001001111000011101100100110110101110011111010001110000111011111100000111111000111110001010001110111001111110010110000001010 P$
b1011110110010110001100011001110 :'
b1111101100001010100100010011111111100110000101001111000100111111010010000001111010101101001111101110001100100110110011110011101101111111001011100110100100110111111010110011010010010111001100011111101100111001100000010010101010010000001111010101001100100010 Z'
b1111111100111101111010010010000010111101001111111011110000010111110110000011111111110011000011010101001000111110110011100000001100110011001110111001000111111001100011110011011001111101111011111000011000110000110101101110010100111111001010011101101111011100 d*
#12
b10001110110111100010101011000010 &
b1001010111110000001001000011011110110000111110101001111000111011111011100000010010010001001111100000110000001111111010100011111111000111000110001010000000111111111000000010000110110101001111010001101000101010001101010011101001000001001100010011011100110101 F
b1110010001110110011100011111010 0$
b110010111000101101000111101011000001011110000101111010111011110010001111100000000100000111010000010010111000000111001111111000110100101110000010000101111111100101111111100010001001000000001100101110011001001010111010001000001100000110011110000011000011010 P$
b11111010001111111110010000010011 :'
b101011111010100101100111100011001101111110011011111101011001011110100111100011110010111110100101010011111000011010111101101101000000110110000010001101111100011000000111100000010010110111011001010001111000000100100001111011011100010110000101100100000000000 Z'
b110011011000011011100100000001001110101110001111001110100001100111101111100110001110110000101101100011111010011101111000001111110111010110110110011001000101000100110101110010010100000001011110010110111101110110101100011010100110110111110001010101100111010 d*
#13
b11010101001110011100001100101010 &
b1111010111101010000100011100000010010110111000010101101111000001111111101101100000111111110001000110011011010001101010111100100011111111110010101000001011001110111101001100010110011101110101010110011011000010110011101101110101101011110000001101111111100110 F
b110000110110111010111000100111 0$
b10001000111111111100010000011110100110001111001011010111111101100111010011100010001001111100110010000100110011101011101110100101010101001011000110011011100000011001110010010011101101110101111000101000011011011110101101000011111000000100010100000011001010 P$
b1111100110010011001100000010000 :'
b10010000111110011001110010000011001010001111110010111100010111110011010011111101011111000011010010111100111110001110000000001111111001001110101111101111111000010000000011011011101100111011100010001100110000010011011110010111001011001010000101110111011100 Z'
b1000000000100111111111111101101011110110000111100010010011010011101000010001010101101111110011001011111000001011000011001100011110001110000000010001111011000011010101001111011111000000110000000101001111101101000000001100000011001101111000111110010011000000 d*
#14
b10010111110000000011100011110110 &
b1010100100110010111011110011001101000000001110000100110100101101011001100011110010000010001001010000000000111111110000100001110011111110001111110100010000010011010101110011111101001001000010010001001000111101000100001111111100111100001110011101111011110100 F
b110110000000100101001111000011 0$
b1101111111010000000100000001110001100010110110001110000100100100111010001110000011000000001011000011101011101010011110100011001100011100111101001110001000111000010010111111111011010101001111001000010100001000001110100011111110000111000100100000000001000000 P$
b1010010000110110101000111010000 :'
b1001011111000011000010000000001110111100110001110011000100001101010100101100110100000011000101110011010111010100001111110010000000110110110111001010011100101000001000101110010100000100001100001011111111101110001001110011011011001100111110001110011000111010 Z'
b111001111111010100010000011101110110001000001001000010000111110110100010000111011100111001111111000111100011000101001100011111110101100001000011100010100111101111011000010100101001110001110100001100100110001010110010011010100000101001101110000011000101111 d*
#15
b1011110001100001001111111100101 &
b11001111000000111101011110100000110110110000001100011111110010110110111100000111110000111111000001011111000101001011000000011111010101110010010011101000010001111101111100111111010111000110100101001111010111110000110010001110111010110111111100011000101011 F
b11100001000011111000000111101 0$
b1100110000001111000011111100100110110100000001011000011111000100011101101111101110000100110000010101011011110001000111001100000010010110111001110101011011000000011101101101111000110001110000100011001011010110101000101100010100000000110011111001000111001010 P$
b11000010000010000100001100111111 :'
b100000100111100001001101101001110001000111101011100111010010000100100001010100010110110011000010101000001011110010001100011011110111000000001111000111000010101111111111011010101010110000001100001111101100000000101100000001000101111000111111111011000000 Z'
b1100110011100001010011101100000100101110110110010010100111000100100100001101000110001100110010000010001011001011010110111100111000001110110001100110111111010101011101101100001010011010110111010111001011000000101001111110011000001111110000000101101011110000 d*
#16
b1101000111011101111011100110101 &
b11000100111000101010001111001010010110001100101101100011101000101011110010101110011111110111111010100100100011001110111101011110111010000110101110001011001111000111000001000111000100110010010000110100000111000010101100010111010000111111001101001111000001 F
b1010110110001101111001011010100 0$
b1010110000010100111100110011111100010010000111101011101000111110101100100010011011100101001110110101010100101110100001110011011111001000001101001011111000110001111000010011100110101110001010100111111100111101100001110010001010001001001111110111110100011001 P$
b100110101101011101111000101 :'
b101011111011101111100011101101001000000001011010010000111110011000110000111111101110001111110001101000011001100101100011111100101011001000101001110100111101010111010010101000001111001110100111101000110001000001010011010101010001001101111010000000101110 Z'
b10001100111000011110000010110101010010001111001011010000100101111101100011111011111000000111001111110100111111011111110001001101100000001111111000010100001001001001000011110101001110111111110101011100111001000110111111010100010010001101000010111111101011 d*
#17
b11001111011010000000111000000 &
b1011000111100001011000110010110100010011111010110000000100110100111111011111010001001010001110010011000011111111000110110011110101101000000010010101110000111111011000100001001111111101001111111101111000011100111110110011111010011100001001010101110000111100 F
b1110111001111110010110000001010 0$
b1001010111001101110101111100101111110000110001110110110011010010101110111100001100101101110110100001001011000001111001011110001000000100110000000101110011101100100110101100000001010100111101101101000011000010100010110000000010010111110001101011111100001010 P$
b10010000001111010101001100100010 :'
b100011111100001011011011100000110110111110110000101111111000100001010001101000111011000110010001100110111001010101110101100111011001111110001011110000011010101010011101100001000011010110111100110000111000000001100101110011100010110110000001110110011110000 Z'
b11000111000000100010111111001011001100110000011011001111111100111111111100010011101111000001101011010111001001111111110001000011001110110011111001111100011010001001001101011110010000001000111000011011011111100110010010101110111100111010001000001100110010 d*
#18
b1000001001100010011011100110101 &
b1001000111111010010101001100000101110111111100000001000011000000110000101110011001101111110000001011001111011101011011101100001010000101110101010000000111000110011011101100111000010001110010111001101111001000011110111101000100110100110001000001011111011001 F
b1100000110011110000011000011010 0$
b1100010000111111011010000001011111010010001111111001101100001101001111010011111001110101000000110001000000111011001110001111100101100000001101100010011111101111010010110011000010000101111001011111101000101000100100001101110010011100001000001000010011010100 P$
b11100010110000101100100000000000 :'
b110101000111000000011010010110110000100001111000011100100100101000100000011111101110001000111001111111100111111111011110001001001001010001111111111000000001000111101110011110010110111111111100001010000111001100001101111010010111010001100111010000011101010 Z'
b1011101100110010000100011110100111011011001010111101010011011111110111000010001101101010110101111111001000011010000010111101000001010111000100011110010111001001010010100000011100100010110001010000110111111101111000101100000111100100111100100011100011000000 d*
#19
b1101011110000001101111111100110 &
b110100000100111100100110011101111110010001011100001010000110111010010010011010100101100001100010100001000111010000000100010101010111101001111011100010100100001101000110011111110101010000110001110100000111111111011100000111010001010001111101100111100000100 F
b11111000000100010100000011001010 0$
b1001111111000111111101010000110000101101110011011100101000010110000010001101010000001010001000000000001111011100011101110010100011101011111001001101101100101111100001001110111000000110001101101000111111111000110011100011101011001011000000100001010100111110 P$
b11001011001010000101110111011100 :'
b11110111000000000111111111001111110000110000010100100111111101001110101100010110000101000001110000010111001010100100000001000100110010110100000010100000011011100110011101011100001101001001000000100011100000000001110010110001001001111010011101111100110010 Z'
b1101100111101010110111010011001111000001111101000010111000111001111100111111111000001001001111010010101100001001010100110011111100101000000100111111111000111111101001110001110000000110001111110110101000100101011100000011110000111000001011010100111000111000 d*
#20
b111100001110011101111011110100 &
b111000011000011111001101101101011101001110000001011001011100011000000011100000000110111111011011011101111000000001101111111011100010101110000110111000000000001111111101100011010100001000010110101110111001100100001010001010100001110110100111101101100011110 F
b10000111000100100000000001000000 0$
b1010011100011110111001001101001001001100000101010011101011001100011001100000101111100011110001100011010100000001000000111100001111111100111101101011001111000000111111101110110000000001110000000111110011100011111100111100000010110110110110101000001111000011 P$
b11001100111110001110011000111010 :'
b101111000110010100001011110100001101101001010110101001011011111010111110010001111110110110101100110100100011010101001111100111111000101000100001001010111001001101101000000011011101000110001000111011111111100101111101100000101010001111100100010110011000000 Z'
b1011001011110000000100111100000011111011111001100110100011000000111001111101110101011101110000101011001111010101111001111100010110010100110011101110111011001010101110101100100001010001110100010100101011000100111001101101100001100001110000010111101111100001 d*
#21
b10111010110111111100011000101011 &
b11000111110100100000000001010110110001110100101010011111000111001100011010101001010111011101011010000101111101101011110010001001001001010001101001011011011110101100001111111011101110100111001001000010110000010011100110110111011000011001000001111000111 F
b110011111001000111001010 0$
b101100000101100101110011111000101000000011111110101100111111111000010001100010011101001111111111100000100001101011010011110100101111001010100010100100111010010100110011000100101000001101010011001000110111110010100010111010101000001110110011100100100111 P$
b1000101111000111111111011000000 :'
b110011111101011001101010011010001010101111101010111001000111001100010011111111100110110001111011100000000001001011010000011111110111000000100111111101100111111001011010001110111101011001111101110010000100101001111100011110010100010001011010000011000111000 Z'
b1100100100101110001100110011011100100111001101010101010000110001001010000011101000110001001010101010110100111101111110010010000110011101001111111110001100011000111011000011111100101001000011111001011100111110000011000000010110101001001110111100111011111010 d*
#22
b11010000111111001101001111000001 &
b1011000011010100110011110010000011000010110111000010100000101001101110111110010101110011001100000110000111101111011111110011011001110011111110010010011100111011101100000000001101001011001111101101010100001101110101100011111110100000000101111011111100111111 F
b10001001001111110111110100011001 0$
b1110011111011000010010011100010001010010110100011011100111001000111011111100101010010011110011101110100011000101101100101101010101011110110000101110011011011101011010001100000011111001111001100001001111000000101100011111000001100000110000011100110111111010 P$
b1010001001101111010000000101110 :'
b10000011110000000011001100000001110000111001100111100111000000011010001101110110000111110000100100001011010101001001111100011000110101110011100100001111001011011011101100100010111001110100010001010011000100010111101101100101000010110000010000000011100010 Z'
b1111010011000000011110111110001100000001110000001111110011101100101100101100000011111010111101100000001011000011001100110000000111100011110001100110010000001011001110011100110001001011000101011110001111010010101001100001111010110101110110100011100000100111 d*
#23
b10011100001001010101110000111100 &
b1000010000001010011111011100011001001111000000001011111111000010000110011111011010010010110000000010001111101100000001101100000010110000111000100001110011000001111111001101100111010000110000110100001011010010000011011100100010110100110010111011101011001101 F
b10010111110001101011111100001010 0$
b111000000111100011010110010010100000101001111111010100000011100111111100011111100101001000100110101001100111111001011010000100100001001001111011111010011111110001011110011100111000010111101001101111000110011110110101110101000111001001011010111110111100001 P$
b10110110000001110110011110000 :'
b10111100101111111001100011011001111010001101011111001100110000011001110011101010111111001010011101010000111101011110010010000110101100001111110101011100011000111000110011111110010110000011100111011100111110011101100000010001110010001110110011100011111010 Z'
b1100111100111010100100011111100000000111001101101000010111101110110111000010111111101100111001000111100000101000000001011101110000001011001000000000100111010100110011000001011000101110110011011111011100001100101000001100011111001101000000101000010011000011 d*
#24
b110100110001000001011111011001 &
b1011010000011001100000100011111110111001001000100110111000111101110110110010101011001000001110011110001100110001101001100011010010100101001101110010110000101110111110100011101110000011001001101100010100111110110111010001110111110101001111110111001100010100 F
b10011100001000001000010011010100 0$
b1110000111000001000011001111110100100010110001010100100000000111111001001100100101010101000100010000100111010000111100000001101001101001110101111101101100100011110100111101111111011010001010110001000011101001101110100011001011100011111100100100110100111000 P$
b10111010001100111010000011101010 :'
b1101101111000000000000101110010000000000110000001000110011101101110010011100000010001111111101110011000111000011110010100000000100100111110001111111100100001011100100101100110011011001000101010100111011010011001010100001111100110000110110111010111000100111 Z'
b1000111111011100111110010010100010000011111001010100101000110000001001011110111101011111001101100011011011111001000100000011101101110011000000110011110100111110100110100000110111010010001111110110011100010111110001010011111110011011001000000001010100111110 d*
#25
b10001010001111101100111100000100 &
b111000011001010001001101100111110001001110001010101111111010110001000101100001010101001110111100101000011000000110011011110011100011111110000001001000011110001100100011100000110110001111110111001110111000100111011110000010100101110110010010000011000010000 F
b11001011000000100001010100111110 0$
b1001101000101011100001111101111110010010001000110010010111010111101000000001101011001111110011110000000000010001101101011100100111110001000001100000000011000101101101001111110011001100110000011000110111110010001100011100000010111110111010000011100011000000 P$
b1001001111010011101111100110010 :'
b1001001100111010111110111111011110110101001101011111010011101101011110000010111101100100111001000000001100101000100010001101101110001000000111111001110011010011001111110001011011010011110011000110001100001100010110011100011100110110000000100101001111000011 Z'
b1000110100000000110100011100001001010101111101101001101111000000010111011110110000000100110000001110011011100010000100011100000100101110110110101011101111000011011011011101001011110000110001111101100011001011100101001100110110011000110001101000001111010100 d*
#26
b1110110100111101101100011110 &
b1000000010011100001001000110001001111110100101000001000110000110011110000001111111111101100011100111000111000011111001101010110001100110000001011101010100101010010110010110100111000001011000000100100001100111101100011011010000110111011011111010000 F
b10110110110110101000001111000011 0$
b1100111110101010101100011100101001100111111110010010000111101100001000000100101100000001111110111110100010011111111010011111111110111000111001111011000111110101100100010010101010010001111000111011100101101001000110011100000010001001101001000010000110010 P$
b1010001111100100010110011000000 :'
b110111011101011011000010100100001101111001101010110100110000101101111110111110101110001101101100110011111001010010010011101100001010000001000101111100111110001011010000111011011101001111111111001100010111101101110011111100011100001000011111000000111101 Z'
b1000011000100010011111110011110110101101001010101110001000111001101111010011000111001001001101001000011100110111010101100010111011100100001110111011010000100110101110010011111000010011000111101111001100111111101011010001010010001001001111111100000000001010 d*
#27
b10111011000011001000001111000111 &
b110000011001010001100010001001010100011110100001100000000011011000110111101100010011000001001001001101011100000100000000010110011100110111010010100010100110011110001001111001110111001001110001111000111111101101110010011110000101100000010000010110000111111 F
b10101000001110110011100100100111 0$
b1010100011100110011100101100000010011011110111010111011011000010011100001101010100001101110001100101110011001110001000011100101110001101110010001000111111010001001010101100010000101101110110010100111111000001110010101110000100001111110000000010110111101011 P$
b10100010001011010000011000111000 :'
b1111011011111111101001011100001011000000111101011000011111000000110011101110101100001000110000000110000011100010001011011100000110110101110110011110111011000011000001001101001000111001110010001000000111001011111100011100110101010110110001101111001011010100 Z'
b1010001011000101001100011101011000110001110000100111010011011110010101101100000010010100111001110001101111000000010101001111000110000100110000010111010011111011100001101100010010110010000001010000111011001001110010110000111111111111110011100111110000011001 d*
#28
b10100000000101111011111100111111 &
b1100111100011001001110101100111100100011000100000011110111001001000011010000011010101000110001001100111111111011100110001100000110101101111100010010000111000000111010011110011101001101110000001100001011011110000110101100001001110110110101100111110111000101 F
b1100000110000011100110111111010 0$
b101100000110101000110100011000101001101001110101110110100101001110001000011110110101101001000011010011000111111100100000001100011100111001111111101001000001110100001000011111010110011000001001000100000111011011101011111101000000110001101110101101111110000 P$
b1000010110000010000000011100010 :'
b10000100011010101010011110100011101001010111010000100111001000110110011001001110011001101001101000100110111111011100010110100011001001111000011101100100110110101110011111010001110000111011111100000111111000111110001010001110111001111110010110000001010 Z'
b11101000111111100001100000100011010110001111000100110011111110111000110011100000011101111101000111101100110011001111001110101011000001001011001110100111100000111000100010010001100011110110000001001000011100111000001101000010001001000100101001001011001010 d*
#29
b10110100110010111011101011001101 &
b110011000001010011111100011111101010111000101001111011000111111110000110001110111001011001111100110101100100110000001000011110000010111001011101011010000110111100101010011010011110110001100011011101100111001111100010010101001100110001111011101001000100010 F
b111001001011010111110111100001 0$
b11000000010100101110110111000000110000000101001111110111000111101100001110001101000000010000101111000111101111000000101101101110110011001001111100010101001000111101001111110100000111101111111011011010011111100010011111001011111000110000010100101111 P$
b1110010001110110011100011111010 :'
b110010111000101101000111101011000001011110000101111010111011110010001111100000000100000111010000010010111000000111001111111000110100101110000010000101111111100101111111100010001001000000001100101110011001001010111010001000001100000110011110000011000011010 Z'
b111100111010000100010000001101111101100110101110110010100100100011001011110000001010100001011001010110111101001001000000011001110000111111100111001110000111000101101001111110110100110001111001110111100000111001000100011111111110111000100010000000001000000 d*
#30
b11110101001111110111001100010100 &
b1100011011010100011100001100011011001100110011011010001111001011000111001100100000101110110100101101101011000011111001001101100100100010110000011001010111100010000001111100000000000111111011001000111011000000111110111111010110110110110000100011000100000000 F
b11100011111100100100110100111000 0$
b1101011100110101001011111110111010100001001011111001101111100100001100110010100010111011110110111011110100011111110010001101001101111000000101101111100011001100100111110000110001110110110001110111001100000010011001111100001100111000111110001110010111000000 P$
b110000110110111010111000100111 :'
b10001000111111111100010000011110100110001111001011010111111101100111010011100010001001111100110010000100110011101011101110100101010101001011000110011011100000011001110010010011101101110101111000101000011011011110101101000011111000000100010100000011001010 Z'
b101111000010000010111011100100101001010000001101011111111000100000011001111110010100110110000011110100111110001001001011100000000100001111010000100011111000000111101111101111000001011110000101010010011010110011001011100010101100001110011110011111111001010 d*
#31
b101110110010010000011000010000 &
b1111111100111101111010010010000010111101001111111011110000010111110110000011111111110011000011010101001000111110110011100000001100110011001110111001000111111001100011110011011001111101111011111000011000110000110101101110010100111111001010011101101111011100 F
b10111110111010000011100011000000 0$
b1101010111100101100001010011000001111100111011111000111000110110100011111111100100110010001110111100110100000011010100010011111011110001000011011101100000111111101110100001011110111101001111111110100000100000111111110011110100111110001010011010101100111010 P$
b110110000000100101001111000011 :'
b1101111111010000000100000001110001100010110110001110000100100100111010001110000011000000001011000011101011101010011110100011001100011100111101001110001000111000010010111111111011010101001111001000010100001000001110100011111110000111000100100000000001000000 Z'
b1110100010100111110000011111110001100000111011101011100111110001110100010011000011001001110001110110100101101110100100011011101110010001101000001110000110010101000000011100100011110001010110101010000111101000001100010001101110110001111110000011100011010 d*
#32
b11011010000110111011011111010000 &
b110011011000011011100100000001001110101110001111001110100001100111101111100110001110110000101101100011111010011101111000001111110111010110110110011001000101000100110101110010010100000001011110010110111101110110101100011010100110110111110001010101100111010 F
b10001001101001000010000110010 0$
b1111110111110101100011111100000000001000111011000000011011000000100101111110001000100010110000011110011011011001110110011100001100101111110100100001101111001000101001001100101111001011110011010111000111000110110001011101010010110111110000101101101011011100 P$
b11100001000011111000000111101 :'
b1100110000001111000011111100100110110100000001011000011111000100011101101111101110000100110000010101011011110001000111001100000010010110111001110101011011000000011101101101111000110001110000100011001011010110101000101100010100000000110011111001000111001010 Z'
b1111001011001101100000001100101100111010110010000000001111010010111011111100001110110011110110010010111011000001010111111110001000001000110000001100110111101011100001111100000010111111111101011010010111000010111101001111111101010101110001100010101000001010 d*
