11_cs_nwe _channel4/project_1/.Xil/Vivado-1724-GL-0301-949/hw_ila_data_4/zip_work/waveform.vcd
$date
        2023-Aug-11 14:51:13
$end
$version
        Vivado v2018.3 (64-bit)
$end
$timescale
        1ps
$end
$scope module dut $end
$var reg 4 " u2_adc_top/u3_adc_module/u_adc_jesd204b/gt0_rxcharisk [3:0] $end
$var reg 32 & u2_adc_top/u3_adc_module/u_adc_jesd204b/gt0_rxdata [31:0] $end
$var reg 32 F u2_adc_top/u4_adc_module/u_adc_jesd204b/gt0_rxdata [31:0] $end
$var reg 4 f u2_adc_top/u4_adc_module/u_adc_jesd204b/gt0_rxcharisk [3:0] $end
$var reg 32 j u2_adc_top/u1_adc_module/u_adc_jesd204b/gt0_rxdata [31:0] $end
$var reg 4 ," u2_adc_top/u1_adc_module/u_adc_jesd204b/gt0_rxcharisk [3:0] $end
$var reg 4 0" u2_adc_top/u2_adc_module/u_adc_jesd204b/gt0_rxcharisk [3:0] $end
$var reg 32 4" u2_adc_top/u2_adc_module/u_adc_jesd204b/gt0_rxdata [31:0] $end
$var reg 1 T" adc1_sync $end
$var reg 1 U" adc2_sync $end
$var reg 1 V" adc3_sync $end
$var reg 1 W" adc4_sync $end
$var reg 1 X" _TRIGGER $end
$var reg 1 Y" _WINDOW $end
$var reg 1 Z" _GAP $end
$upscope $end
$enddefinitions $end
#0
$dumpvars
b0 "
b11111111000100000000000000000000 &
b10011010111111111101101011111111 F
b0 f
b111111001111111111111110 j
b100 ,"
b10 0"
b10100000000001111110011111111 4"
1T"
1U"
1V"
1W"
0X"
1Y"
0Z"
$end
#1
b11100000 &
b1010000000001110101011111111 F
b11111111000011100000000000011110 j
b0 ,"
b1000 0"
b11111100111111111111010011111111 4"
#2
b1 "
b111100001111111111111100 &
b11011010111111111111101011111111 F
b11111111111011101111111111011110 j
b0 0"
b100000000000001010000000000 4"
#3
b0 "
b111100001111111100010000 &
b1010000000000001101000000000 F
b11100000000011111110 j
b11110100111111111110010011111111 4"
#4
b111100001111111100100000 &
b11101010111111111111101011111111 F
b11111111111111101111111100011110 j
b10 0"
b100000000001111110011111111 4"
#5
b111100001111111100000000 &
b11001010111111111111110011111111 F
b10 f
b11111111111111101111111111101110 j
b10100000000001111110000000000 4"
#6
b100 "
b11111111011111000000000000000000 &
b11101010111111110001101000000000 F
b0 f
b111111001111111111101110 j
b100 ,"
b0 0"
b11110100111111110010010000000000 4"
#7
b0 "
b11111111111000001111111111110000 &
b11001010111111111111110011111111 F
b10 f
b11111111110111101111111100001110 j
b0 ,"
b100000000001110010011111111 4"
#8
b1 "
b11111111000000000000000011111100 &
b11010000000001101101011111111 F
b0 f
b11111111001011100000000011101110 j
b10 0"
b11100100111111111111110000000000 4"
#9
b0 "
b111000001111111111110000 &
b11001010111111111111110000000000 F
b10 f
b111011101111111111111110 j
b0 0"
b11110100111111110001010000000000 4"
#10
b100 "
b111111000000000000000000 &
b11111010111111110010101000000000 F
b0 f
b111011101111111100101110 j
b100000000001110010011111111 4"
#11
b0 "
b11111111111000001111111100100000 &
b11011010111111110010101000000000 F
b111111101111111100001110 j
b11100100111111111111010011111111 4"
#12
b100 "
b11111111111111001111111111110000 &
b11111100000000000001101000000000 F
b1000 f
b111111000000000000011110 j
b100 ,"
b1000 0"
b11111100111111111111010011111111 4"
#13
b0 "
b100000000000011100000 &
b1010000000001110101011111111 F
b0 f
b11111111111111000000000000001110 j
b0 0"
b10100000000000000010000000000 4"
#14
b1 "
b11111111000000000000000011111100 &
b11010000000000010101000000000 F
b11111111000011100000000011101110 j
b0 ,"
b100000000001110010011111111 4"
#15
b0 "
b100000000000011100000 &
b101010000000001111110000000000 F
b10 f
b11111111111011101111111111111110 j
b1000 0"
b11111100111111111110010011111111 4"
#16
b111000001111111100000000 &
b11101010111111111111101011111111 F
b0 f
b11111111111011101111111111111100 j
b1 ,"
b0 0"
b11110100111111110010010000000000 4"
#17
b100 "
b11111111111111000000000000010000 &
b1010000000000001101000000000 F
b11111111111111101111111111111100 j
b11110100111111110000010000000000 4"
#18
b0 "
b11110000 &
b1010000000001101101011111111 F
b111011101111111111111100 j
b10 0"
b11110100111111111111110011111111 4"
#19
b1 "
b11111111000000000000000011111100 &
b11011010111111111011101011111111 F
b11111111111011101111111100001110 j
b0 ,"
b0 0"
b11110100111111110000010000000000 4"
#20
b0 "
b111100001111111111100000 &
b11111010111111111100101011111111 F
b11111111111011101111111111111110 j
b1000 0"
b11111100000000000000010000000000 4"
#21
b100000000000000100000 &
b11111010111111110000101000000000 F
b11111111000011100000000011111110 j
b0 0"
b100000000001110010011111111 4"
#22
b100 "
b111111000000000000000000 &
b11101010111111111111110011111111 F
b10 f
b11111111011111001111111111111110 j
b100 ,"
b10 0"
b11100100111111111111110000000000 4"
#23
b1010000000001011101011111111 F
b0 f
b11100000000011111110 j
b0 ,"
b0 0"
b11100100111111110000010000000000 4"
#24
b0 "
b100000000000000000000 &
b10101010111111111111101011111111 F
b11111111111111101111111100011110 j
b11100100111111111111010011111111 4"
#25
b11111111000000000000000000100000 &
b11011010111111110000101000000000 F
b111111001111111111101110 j
b100 ,"
b10100000000001111010011111111 4"
#26
b11110000 &
b11101010111111111111101011111111 F
b11111111111111000000000000011110 j
b100000000001111010011111111 4"
#27
b111100001111111100100000 &
b11101010111111111111110011111111 F
b10 f
b11111111000111100000000011101110 j
b0 ,"
b10 0"
b11110100111111111111110000000000 4"
#28
b1000000000000000000000 &
b11111100000000000000101000000000 F
b1000 f
b111100000000011111110 j
b0 0"
b11110100111111110001010000000000 4"
#29
b11111111000100000000000000000000 &
b1010000000000001101000000000 F
b0 f
b11111111000111100000000000001110 j
b10 0"
b11110100111111111111110011111111 4"
#30
b11111111111000001111111111110000 &
b1010000000001111101011111111 F
b11111111111111101111111111101110 j
#31
b100 "
b111111001111111111110000 &
b10111010111111111101101011111111 F
b111100000000011101110 j
b0 0"
b11100100111111110000010000000000 4"
#32
b0 "
b11111111001000000000000000000000 &
b11010000000000000101000000000 F
b11111111111111101111111100001110 j
b100000000001111010011111111 4"
#33
b11110000 &
b101010000000000000101000000000 F
b111111101111111111111100 j
b1 ,"
b11100100111111111111010011111111 4"
#34
b1 "
b111100001111111111111100 &
b11101010111111111101101011111111 F
b11111111111111101111111100001110 j
b0 ,"
b11100100111111110010010000000000 4"
#35
b100 "
b11111111111111000000000000000000 &
b111011101111111111111100 j
b1 ,"
b10 0"
b100100000000001111110011111111 4"
#36
b0 "
b11111111000000000000000011110000 &
b11011010111111110000101000000000 F
b11111111111111101111111100001110 j
b0 ,"
b1000 0"
b11111100111111111111010011111111 4"
#37
b11100000 &
b1010000000001110101011111111 F
b111011101111111111011110 j
b0 0"
b100000000000001010000000000 4"
#38
b11111111111000001111111100010000 &
b1010000000000011101000000000 F
b11111111000011100000000000011110 j
b100100000000001111010011111111 4"
#39
b11111111000000000000000011110000 &
b11001010111111111101101011111111 F
b11111111000011100000000011111110 j
b100000000000001010000000000 4"
#40
b11111111000000000000000011100000 &
b11111100111111111111101011111111 F
b1000 f
b11111111111111101111111111101110 j
b11110100111111110001010000000000 4"
#41
b11010000 &
b11010000000001100101011111111 F
b0 f
b110111101111111111101110 j
b100000000000001010000000000 4"
#42
b1 "
b111000001111111111111100 &
b11011010111111111111110000000000 F
b10 f
b111111000000000000001110 j
b100 ,"
b100000000001111010011111111 4"
#43
b0 "
b11111111000000000000000000010000 &
b11111010111111111011101011111111 F
b0 f
b11111111111111101111111100001110 j
b0 ,"
b100000000001110010011111111 4"
#44
b11100000 &
b11101010111111111111110011111111 F
b10 f
b11111111111111101111111111101110 j
b11100100111111110010010000000000 4"
#45
b1 "
b11111111111000001111111111111100 &
b11011010111111111111101011111111 F
b0 f
b111111101111111111111100 j
b1 ,"
b10100000000000000010000000000 4"
#46
b0 "
b1100000000000011110000 &
b11111100111111111110101011111111 F
b1000 f
b11111111111011101111111100001110 j
b0 ,"
b10100000000001111010011111111 4"
#47
b100 "
b111111000000000000010000 &
b11101010111111110000101000000000 F
b0 f
b11111111111111001111111111111110 j
b100 ,"
b10 0"
b100000000001111110000000000 4"
#48
b0 "
b11111111001000000000000000000000 &
b11010000000001111110011111111 F
b10 f
b110111101111111111111110 j
b0 ,"
#49
b11111111000000000000000011110000 &
b11111010111111111110101011111111 F
b0 f
b11111111111111000000000000001110 j
b100 ,"
b1000 0"
b11111100111111111111010011111111 4"
#50
b11100000 &
b1010000000001100101011111111 F
b111100000000011111110 j
b0 ,"
#51
b1 "
b11111111000100000000000011111100 &
b11011010111111111111101011111111 F
b11111111110111101111111100001110 j
b0 0"
b11110100111111110000010000000000 4"
#52
b100 "
b11111111111111001111111111100000 &
b11101010111111110000101000000000 F
b11111111111111101111111111101110 j
b1010 0"
b1111100111111111111110011111111 4"
#53
b0 "
b11111111000100000000000011110000 &
b1010000000001111101011111111 F
b11111111111011101111111111011110 j
b0 0"
b100000000001111010011111111 4"
#54
b100000000000011100000 &
b11111010111111111101101011111111 F
b11111111000011100000000011111100 j
b1 ,"
b100000000001101010011111111 4"
#55
b1 "
b11111111000000000000000011111100 &
b11111010111111110011101000000000 F
b11111111111111001111111111101110 j
b100 ,"
b10 0"
b11100100111111111111110000000000 4"
#56
b0 "
b111100001111111111100000 &
b1010000000001111110011111111 F
b10 f
b11111111111111101111111111011110 j
b0 ,"
b0 0"
b1000100000000001111010011111111 4"
#57
b11111111111100001111111100000000 &
b11001010111111111110101011111111 F
b0 f
b11111111000011100000000011111100 j
b1 ,"
b11110100111111110000010000000000 4"
#58
b1 "
b11111100 &
b1010000000001111101011111111 F
b11111111000011100000000011111110 j
b0 ,"
b10 0"
b11110100111111111111110011111111 4"
#59
b0 "
b10000 &
b11111100111111111111101011111111 F
b1000 f
b11111111111111101111111111101110 j
b1000 0"
b11111100000000000000010000000000 4"
#60
b1 "
b111100001111111111111100 &
b11111010111111111100101011111111 F
b0 f
b11111111000011100000000011101110 j
b0 0"
b11110100111111111110010011111111 4"
#61
b0 "
b11111111111000001111111100000000 &
b11001010111111110010101000000000 F
b1011100000000011111110 j
b10100000000000000010000000000 4"
#62
b11111111000100000000000011110000 &
b11111010111111111111110011111111 F
b10 f
b11111111111111000000000000001110 j
b100 ,"
b1000 0"
b11111100000000000000010000000000 4"
#63
b11110000 &
b11111010111111111100101011111111 F
b0 f
b11111111000011100000000011111110 j
b0 ,"
b0 0"
b11100100111111110000010000000000 4"
#64
b10000 &
b11011010111111110000101000000000 F
b11111111000011100000000011101110 j
b10 0"
b10100000000001111110011111111 4"
#65
b100 "
b111111000000000000010000 &
b111010000000000001101000000000 F
b11111111000011100000000011011110 j
b0 0"
b10100000000001111010011111111 4"
#66
b0 "
b100000000000000000000 &
b11111010111111111110101011111111 F
b11111111000111100000000011011110 j
b100000000001111010011111111 4"
#67
b111100001111111100000000 &
b11111010111111110000101000000000 F
b11111111000011100000000011111110 j
b11010100111111110010010000000000 4"
#68
b10000 &
b11101010111111111101101011111111 F
b11100000000011111110 j
b10100000000001111010011111111 4"
#69
b1 "
b111100001111111111111100 &
b101010000000000001101000000000 F
b11111111111111101111111111111100 j
b1 ,"
b11110100111111111101010011111111 4"
#70
b100 "
b11111111111111000000000000000000 &
b11101010111111111101101011111111 F
b11111111000011100000000011101110 j
b0 ,"
b11110100111111110001010000000000 4"
#71
b0 "
b11111111000000000000000011110000 &
b11111010111111111100101011111111 F
b11111111000111100000000011111110 j
b10 0"
b10100000000001111110011111111 4"
#72
b100000000000011110000 &
b1001010000000000001101000000000 F
b110111101111111111101110 j
b0 0"
b11110100111111111110010011111111 4"
#73
b111000001111111100000000 &
b11010000000000000101000000000 F
b11111111111111101111111100001110 j
b11100100111111110001010000000000 4"
#74
b11111111111000001111111100000000 &
b11111010111111110000101000000000 F
b111011101111111111111100 j
b1 ,"
b11110100111111110001010000000000 4"
#75
b100000000000011110000 &
b11010000000000000101000000000 F
b11111111111111101111111100001110 j
b0 ,"
b10100000000000000010000000000 4"
#76
b100000 &
b11111111000111100000000011101110 j
b10 0"
b11110100111111111111110000000000 4"
#77
b1 "
b11111111000000000000000011111100 &
b1010000000000011101000000000 F
b111111001111111111111110 j
b100 ,"
b1000 0"
b11111100000000000000010000000000 4"
#78
b0 "
b11110000 &
b11010000000001101101011111111 F
b111111000000000000001110 j
b0 0"
b11110100111111110001010000000000 4"
#79
b100 "
b11111111111111000000000000100000 &
b1001010000000000000101000000000 F
b111111101111111100001110 j
b0 ,"
b1000 0"
b11111100000000000001010000000000 4"
#80
b0 "
b1000000000000011110000 &
b101010000000000011101000000000 F
b11111111110011101111111100001110 j
#81
b100 "
b11111000000000000000000 &
b11101010111111110011101000000000 F
b11111111000011100000000011111110 j
b0 0"
b100000000001110010011111111 4"
#82
b0 "
b100000000000000000000 &
b1010000000001111110011111111 F
b10 f
b11111111000011100000000011011110 j
b100000000000001010000000000 4"
#83
b100 "
b11111111111111000000000000000000 &
b1010000000001111110000000000 F
b11111111111111101111111111101110 j
b10 0"
b100000000001111110000000000 4"
#84
b0 "
b11100000 &
b11111100111111111111101011111111 F
b1000 f
b11111111000111100000000011011110 j
b10100000000001111110000000000 4"
#85
b100000 &
b11101010111111110001101000000000 F
b0 f
b11111111000011100000000011111110 j
b0 0"
b100000000001111010011111111 4"
#86
b1000000000000000010000 &
b101010000000001111110011111111 F
b10 f
b111111001111111111111110 j
b100 ,"
b100100000000001110010011111111 4"
#87
b1 "
b11111100 &
b11111100111111111110101011111111 F
b1000 f
b11111111111011101111111100001110 j
b0 ,"
b11110100111111111110010011111111 4"
#88
b11001010111111111110101011111111 F
b0 f
b11111111111011101111111111011110 j
b10 0"
b100000000001111110011111111 4"
#89
b0 "
b11111111111100001111111100100000 &
b11010000000001101101011111111 F
b111111101111111111011110 j
b0 0"
b100000000001111010011111111 4"
#90
b100 "
b111111001111111111100000 &
b11011010111111111111101011111111 F
b111111101111111100001110 j
b10 0"
b100000000001111110000000000 4"
#91
b0 "
b111100001111111100000000 &
b1010000000001110101011111111 F
b0 0"
b11110100111111110010010000000000 4"
#92
b11111111000100000000000000000000 &
b11111010111111111111110000000000 F
b10 f
b11111111111111000000000000001110 j
b100 ,"
b100000000001110010011111111 4"
#93
b100 "
b111111001111111111100000 &
b11010000000001101101011111111 F
b0 f
b11111111000011100000000011111110 j
b0 ,"
b10 0"
b11110100111111111111110000000000 4"
#94
b111111000000000000000000 &
b11101010111111111111101011111111 F
b11111111111111001111111111111110 j
b100 ,"
b0 0"
b11100100111111110001010000000000 4"
#95
b0 "
b111100001111111100010000 &
b11010000000000000101000000000 F
b11111111111111001111111111101110 j
b10 0"
b11110100111111111111110011111111 4"
#96
b11111111000100000000000000000000 &
b11101010111111110000101000000000 F
b11111111111111001111111111111110 j
b100000000001111110011111111 4"
#97
b11110000 &
b1010000000001111101011111111 F
b11111001111111111111110 j
b11100100111111111111110000000000 4"
#98
b110100001111111100010000 &
b11011010111111111111110000000000 F
b10 f
b11111111111011101111111100001110 j
b0 ,"
b0 0"
b11110100111111110000010000000000 4"
#99
b100 "
b111111000000000000010000 &
b11101010111111110001101000000000 F
b0 f
b11111111111111101111111111111100 j
b1 ,"
b11110100111111111110010011111111 4"
#100
b111111000000000000000000 &
b11101010111111111111101011111111 F
b11111111111111101111111111101110 j
b0 ,"
b11110100111111110001010000000000 4"
1X"
#101
b0 "
b111100001111111100010000 &
b11010000000001111110011111111 F
b10 f
b11111111110111101111111111101110 j
b10 0"
b100100000000001111110011111111 4"
#102
b100 "
b111111000000000000000000 &
b11111100111111111111101011111111 F
b1000 f
b11111111111111001111111111111110 j
b100 ,"
b0 0"
b11110100111111110000010000000000 4"
#103
b1010000000001110101011111111 F
b0 f
b11111111111111101111111111011110 j
b0 ,"
b100100000000000000010000000000 4"
#104
b0 "
b111000001111111100010000 &
b11111010111111110001101000000000 F
b11111111111111101111111111111100 j
b1 ,"
b1000 0"
b11111100111111111111010011111111 4"
#105
b11111111000100000000000000000000 &
b11101010111111110001101000000000 F
b11111111000011100000000011101110 j
b0 ,"
b0 0"
b100000000001111010011111111 4"
#106
b100 "
b11111111111111001111111111110000 &
b1010000000001111110011111111 F
b10 f
b11111111111111001111111111111110 j
b100 ,"
#107
b0 "
b100000000000011110000 &
b11010000000000010101000000000 F
b0 f
b111111001111111111111110 j
b11100100111111111111010011111111 4"
#108
b100 "
b11111111111111000000000000000000 &
b11111111110111101111111100001110 j
b0 ,"
b100000000000001010000000000 4"
#109
b0 "
b11110000 &
b1010000000001101101011111111 F
b11111111111111001111111111111110 j
b100 ,"
b10 0"
b100100000000001111110000000000 4"
#110
b111100001111111100010000 &
b11111010111111111101101011111111 F
b111111001111111111111110 j
b0 0"
b11110100111111110001010000000000 4"
#111
b100 "
b11111111011111000000000000000000 &
b11010000000001100101011111111 F
b111011101111111100001110 j
b0 ,"
b11110100111111110000010000000000 4"
#112
b0 "
b111000001111111111110000 &
b11101010111111111111110000000000 F
b10 f
b11111111111111101111111100011110 j
b10 0"
b100000000001111110011111111 4"
#113
b110000 &
b11010000000001111101011111111 F
b0 f
b11111111111111101111111111011110 j
b0 0"
b10100000000001110010011111111 4"
#114
b1 "
b11111100 &
b1010000000001111110000000000 F
b10 f
b11111111111111101111111111111100 j
b1 ,"
b10100000000000000010000000000 4"
#115
b111100001111111111111100 &
b1010000000000001101000000000 F
b0 f
b111111101111111111101110 j
b0 ,"
b10 0"
b100000000001111110000000000 4"
#116
b0 "
b11111111000000000000000000110000 &
b11010000000001101101011111111 F
b111111000000000000001110 j
b100 ,"
b10100000000001111110000000000 4"
#117
b100000000000011010000 &
b11111010111111111101101011111111 F
b11111111111011101111111100001110 j
b0 ,"
b1000 0"
b11111100111111111111010011111111 4"
#118
b11111111111000001111111100000000 &
b11011010111111111110101011111111 F
b11111111000011100000000011111110 j
b0 0"
b11110100111111110010010000000000 4"
#119
b11111111000100000000000011110000 &
b11011010111111110000101000000000 F
b111100000000011101110 j
b11110100111111110001010000000000 4"
#120
b100 "
b111111001111111111100000 &
b11111010111111111110101011111111 F
b11111111110111101111111111111100 j
b1 ,"
b100000000000001010000000000 4"
#121
b0 "
b110000 &
b111100000000011111110 j
b0 ,"
b100000000001111010011111111 4"
#122
b1 "
b100000000000011111100 &
b11010000000000010101000000000 F
b11111111111111101111111100001110 j
b10 0"
b10100000000001111110000000000 4"
#123
b0 "
b100000000000000100000 &
b11010000000001101101011111111 F
b11111111111111101111111111111100 j
b1 ,"
b0 0"
b11110100111111111110010011111111 4"
#124
b100 "
b11111111111111000000000000000000 &
b10111010111111111111101011111111 F
b100000000001110010011111111 4"
#125
b0 "
b11111111111100001111111111100000 &
b11111010111111111111110011111111 F
b10 f
b111111101111111111101110 j
b0 ,"
b10 0"
b11110100111111111111110000000000 4"
#126
b1 "
b1000000000000011111100 &
b11010000000001100101011111111 F
b0 f
b11111111000111100000000000001110 j
b0 0"
b11110100111111110000010000000000 4"
#127
b0 "
b111100001111111100000000 &
b11010000000000000101000000000 F
b11111111011111001111111111111110 j
b100 ,"
b10 0"
b100000000001111110011111111 4"
#128
b11111111111100001111111100100000 &
b11101010111111111100101011111111 F
b11111111000011100000000011111110 j
b0 ,"
b10100000000001111110000000000 4"
#129
b1 "
b100000000000011111100 &
b11010000000000000101000000000 F
b11111111111111001111111111111110 j
b100 ,"
b0 0"
b11110100111111111110010011111111 4"
#130
b11111100 &
b11010000000001101101011111111 F
b11111111000011100000000011111110 j
b0 ,"
b11010100111111110000010000000000 4"
#131
b100000000000011111100 &
b11010000000001111101011111111 F
b111111001111111111111110 j
b100 ,"
b100100000000000000010000000000 4"
#132
b100 "
b111111000000000000000000 &
b101010000000001110101011111111 F
b11111111111111101111111100001110 j
b0 ,"
b11010100111111111111010011111111 4"
#133
b0 "
b110100001111111100000000 &
b1010000000001110101011111111 F
b11111111000011100000000011101110 j
b11110100111111110011010000000000 4"
#134
b11111111001000000000000000010000 &
b11100000000011111110 j
b10 0"
b11110100111111111111110011111111 4"
#135
b100 "
b111111001111111111110000 &
b11111100111111111100101011111111 F
b1000 f
b11111111111111101111111111111100 j
b1 ,"
b0 0"
b100000000000001010000000000 4"
#136
b0 "
b11111111111000001111111100000000 &
b1010000000000010101000000000 F
b0 f
b11111111111111101111111111101110 j
b0 ,"
b10 0"
b10100000000001111110000000000 4"
#137
b11111111001000000000000011110000 &
b11101010111111111111110000000000 F
b10 f
b11111111111011101111111111111100 j
b1 ,"
b1000 0"
b11111100111111111111010011111111 4"
#138
b100 "
b111111001111111111100000 &
b1010000000001111110011111111 F
b11111111111111101111111111111100 j
b0 0"
b11100100111111110010010000000000 4"
#139
b0 "
b10000 &
b11011010111111110010101000000000 F
b0 f
b11111111111011101111111111011110 j
b0 ,"
b10100000000001111010011111111 4"
#140
b11111111001100000000000000010000 &
b11001010111111110010101000000000 F
b11100000000011111110 j
b100000000001110010011111111 4"
#141
b11110000 &
b11011010111111110010101000000000 F
b11111111111111101111111111111100 j
b1 ,"
b10100000000001111010011111111 4"
#142
b100000000000000110000 &
b11111010111111110000101000000000 F
b111011101111111111011110 j
b0 ,"
b10 0"
b11010100111111111111110000000000 4"
#143
b100 "
b111111000000000000000000 &
b111010000000000000101000000000 F
b111011101111111100001110 j
b0 0"
b100000000001111010011111111 4"
#144
b0 "
b10000 &
b11011010111111110010101000000000 F
b111111101111111100011110 j
#145
b1 "
b11111111111100001111111111111100 &
b11101010111111111111110011111111 F
b10 f
b111111101111111100001110 j
b11110100111111110001010000000000 4"
#146
b11111100 &
b11111100111111111111101011111111 F
b1000 f
b11111111111111101111111100011110 j
b100100000000001101010011111111 4"
#147
b11111111111100001111111111111100 &
b11111100111111111101101011111111 F
b11111111111011101111111111111100 j
b1 ,"
b11110100111111110000010000000000 4"
#148
b100000000000011111100 &
b11111100000000000000101000000000 F
b11111111111011101111111111111110 j
b0 ,"
b11100100111111110000010000000000 4"
#149
b100 "
b111111000000000000000000 &
b11010000000001110101011111111 F
b0 f
b11111111110111101111111111111110 j
b11110100111111110000010000000000 4"
#150
b111111000000000000010000 &
b11111100111111111111101011111111 F
b1000 f
b11111111111111001111111111111110 j
b100 ,"
b11110100111111111110010011111111 4"
#151
b0 "
b11111111111100001111111100010000 &
b11010000000001100101011111111 F
b0 f
b11111111000011100000000011101110 j
b0 ,"
b11100100111111110000010000000000 4"
#152
b100000000000011100000 &
b101010000000001111101011111111 F
b11111111000111100000000011111110 j
b1000 0"
b11111100111111111111010011111111 4"
#153
b100 "
b11111111111111000000000000000000 &
b11111010111111110000101000000000 F
b11111111000011100000000011101110 j
b0 0"
b11110100111111111110010011111111 4"
#154
b0 "
b11111111000000000000000011110000 &
b11011010111111111111110011111111 F
b10 f
b11111111111111001111111111111110 j
b100 ,"
b10 0"
b11110100111111111111110011111111 4"
#155
b11111111111100001111111111100000 &
b11010000000001110101011111111 F
b0 f
b11111111111011101111111111011110 j
b0 ,"
b0 0"
b11110100111111110001010000000000 4"
#156
b11011010111111110111110000000000 F
b10 f
b11111111111111101111111111011110 j
b10100000000000000010000000000 4"
#157
b1 "
b111000001111111111111100 &
b11010000000001111110011111111 F
b11111111011111001111111111111100 j
b101 ,"
b100000000001110010011111111 4"
#158
b0 "
b11111111000000000000000000010000 &
b11011010111111110010101000000000 F
b0 f
b111011101111111111111110 j
b0 ,"
#159
b100 "
b111111001111111111110000 &
b11101010111111111100101011111111 F
b111011101111111100011110 j
b100000000001111010011111111 4"
#160
b111111000000000000000000 &
b1010000000001111110011111111 F
b10 f
b11111111111111000000000000001110 j
b100 ,"
b11010100111111111111010011111111 4"
#161
b0 "
b111000001111111100000000 &
b11011010111111111111110000000000 F
b11111111111011101111111111111110 j
b0 ,"
b100000000000001010000000000 4"
#162
b11111111000000000000000000010000 &
b11101010111111111100101011111111 F
b0 f
b11111111111111001111111111111110 j
b100 ,"
b11110100111111111110010011111111 4"
#163
b100 "
b11111111111111001111111111110000 &
b11111100000000000001101000000000 F
b1000 f
b11111111111111101111111111101110 j
b0 ,"
b1000 0"
b11111100000000000001010000000000 4"
#164
b0 "
b11111111111000001111111111110000 &
b11101010111111111111101011111111 F
b0 f
b111111101111111111011110 j
#165
b1 "
b100000000000011111100 &
b1010000000001101101011111111 F
b11111111000111100000000000001110 j
b11111100111111111111010011111111 4"
#166
b0 "
b11111111111100001111111100000000 &
b11111010111111110001101000000000 F
b111111001111111111111110 j
b100 ,"
b0 0"
b11100100111111110000010000000000 4"
#167
b1 "
b111100001111111111111100 &
b11010000000001110101011111111 F
b11111111000111100000000000001110 j
b0 ,"
b10 0"
b11110100111111111111110011111111 4"
#168
b0 "
b11111111111100001111111100000000 &
b1010000000001111110000000000 F
b10 f
b11111111001011100000000011111110 j
b0 0"
b11110100111111110000010000000000 4"
#169
b1 "
b11111111000100000000000011111100 &
b11111100111111111111101011111111 F
b1000 f
b111111101111111111101110 j
b10100000000000000010000000000 4"
#170
b0 "
b100000000000011100000 &
b11101010111111110000101000000000 F
b0 f
b11111111000011100000000000011110 j
b100000000001111010011111111 4"
#171
b101 "
b11111000000000011111100 &
b11101010111111110010101000000000 F
b111011101111111111001110 j
b11100100111111110010010000000000 4"
#172
b0 "
b10000 &
b11011010111111110000101000000000 F
b11111111000111100000000000001110 j
b10100000000000010010000000000 4"
#173
b100 "
b11111111111111000000000000010000 &
b1010000000001111110011111111 F
b10 f
b11111111000011100000000011111110 j
b11110100111111111110010011111111 4"
#174
b0 "
b11110000 &
b11111100111111111110101011111111 F
b1000 f
b11111111111111001111111111111110 j
b100 ,"
b10 0"
b100000000001111110011111111 4"
#175
b1 "
b11111111000000000000000011111100 &
b1010000000000001101000000000 F
b0 f
b11110100111111111111110000000000 4"
#176
b0 "
b11111111111100001111111111100000 &
b11010000000001110101011111111 F
b111011101111111111111110 j
b0 ,"
b0 0"
b100000000001110010011111111 4"
#177
b1 "
b111100001111111111111100 &
b1010000000001110101011111111 F
b11111111111111101111111100001110 j
b10 0"
b100000000001111110000000000 4"
#178
b100 "
b11111111111111000000000000000000 &
b11111010111111111110101011111111 F
b11111111111111101111111111111100 j
b1 ,"
b11100100111111111111110000000000 4"
#179
b0 "
b11111111000100000000000011100000 &
b11111010111111110010101000000000 F
b11111111111011101111111111111100 j
b1000 0"
b11111100000000000000010000000000 4"
#180
b100 "
b111111001111111111100000 &
b11101010111111111111110011111111 F
b10 f
b11111111111111001111111111111110 j
b100 ,"
b0 0"
b100000000001110010011111111 4"
#181
b0 "
b10000 &
b101010000000001111110011111111 F
b111111101111111111101110 j
b0 ,"
b1000 0"
b11111100111111111110010011111111 4"
#182
b1 "
b100000000000011111100 &
b1010000000000001101000000000 F
b0 f
b11111111111111101111111100001110 j
b0 0"
b11110100111111110010010000000000 4"
#183
b11111100 &
b11001010111111111111101011111111 F
b11111111000011100000000011101110 j
b1000 0"
b11111100000000000001010000000000 4"
#184
b100000000000011111100 &
b11011010111111111111101011111111 F
b11111111111111001111111111111110 j
b100 ,"
b0 0"
b100100000000001111010011111111 4"
#185
b11111100 &
b11011010111111111110101011111111 F
b11100100111111110000010000000000 4"
#186
b101 "
b11111000000000011111100 &
b11011010111111110001101000000000 F
b111111001111111111111110 j
b10 0"
b11110100111111111111110011111111 4"
#187
b0 "
b11111111111100001111111100100000 &
b1010000000001110101011111111 F
b11111000000000000001110 j
b0 0"
b10100000000001110010011111111 4"
#188
b1 "
b111000001111111111111100 &
b11010000000001100101011111111 F
b11111111111111000000000000001110 j
b100000000001111010011111111 4"
#189
b0 "
b111100001111111100000000 &
b11101010111111111111101011111111 F
b11111111111111001111111111111110 j
b11100100111111110001010000000000 4"
#190
b11111111111100001111111100010000 &
b10111010111111111111110011111111 F
b10 f
b11111111110111101111111111101110 j
b0 ,"
b10100000000001111010011111111 4"
#191
b1 "
b11111111111100001111111111111100 &
b101010000000001101101011111111 F
b0 f
b11100000000011111110 j
b10100000000001110010011111111 4"
#192
b11111111000000000000000011111100 &
b11101010111111111101101011111111 F
b11111111000111100000000011111100 j
b1 ,"
b11010100111111111111010011111111 4"
#193
b100 "
b11111111111111001111111111110000 &
b11101010111111110000101000000000 F
b111111001111111111111110 j
b100 ,"
b11100100111111111111010011111111 4"
#194
b0 "
b11110000 &
b11101010111111111111110011111111 F
b10 f
b11111111111111000000000000001110 j
b11100100111111111101010011111111 4"
#195
b100000000000000100000 &
b10101010111111111101101011111111 F
b0 f
b11111111111111001111111111101110 j
b1000 0"
b11111100111111111111010011111111 4"
#196
b111100001111111100000000 &
b11111010111111110000101000000000 F
b11111111111111101111111111011110 j
b0 ,"
b0 0"
b11110100111111110000010000000000 4"
#197
b111000001111111100000000 &
b11001010111111110001101000000000 F
b11100000000011011110 j
b1000 0"
b11111100000000000001010000000000 4"
#198
b100000 &
b11111100111111111110101011111111 F
b1000 f
b11111111111111101111111111111100 j
b1 ,"
b0 0"
b11110100111111111110010011111111 4"
#199
b1 "
b100000000000011111100 &
b11111010111111111101101011111111 F
b0 f
b11111111000111100000000011111100 j
b11110100111111110010010000000000 4"
#200
b11111100 &
b1010000000001110101011111111 F
b111011101111111111111110 j
b0 ,"
b11110100111111110000010000000000 4"
#201
b101 "
b11111000000000011111100 &
b11101010111111110111110000000000 F
b10 f
b11111111111111101111111100001110 j
b10 0"
b10100000000001111110011111111 4"
#202
b100 "
b11111111111111000000000000000000 &
b11011010111111111100101011111111 F
b0 f
b11111111111111101111111111011110 j
b0 0"
b10100000000000010010000000000 4"
#203
b0 "
b11111111000000000000000011100000 &
b11101010111111111100101011111111 F
b11100000000011101110 j
b11110100111111110000010000000000 4"
#204
b10111010111111111111110011111111 F
b10 f
b11111111111011101111111111111100 j
b1 ,"
b100000000000001010000000000 4"
