11_cs_nwe _channel4/project_1/.Xil/Vivado-9484-GL-0301-949/hw_ila_data_4/zip_work/waveform.vcd
$date
        2023-Aug-08 15:01:57
$end
$version
        Vivado v2018.3 (64-bit)
$end
$timescale
        1ps
$end
$scope module dut $end
$var reg 16 " u3_adc_analysis/adc4_a1_1 [15:0] $end
$var reg 16 2 u3_adc_analysis/adc4_a2_1 [15:0] $end
$var reg 16 B u3_adc_analysis/adc4_a3_1 [15:0] $end
$var reg 16 R u3_adc_analysis/adc4_a4_1 [15:0] $end
$var reg 16 b u3_adc_analysis/adc4_a1_2 [15:0] $end
$var reg 16 r u3_adc_analysis/adc4_a2_2 [15:0] $end
$var reg 16 $" u3_adc_analysis/adc4_a3_2 [15:0] $end
$var reg 16 4" u3_adc_analysis/adc4_a4_2 [15:0] $end
$var reg 16 D" u3_adc_analysis/adc4_b1_1 [15:0] $end
$var reg 16 T" u3_adc_analysis/adc4_b2_1 [15:0] $end
$var reg 16 d" u3_adc_analysis/adc4_b3_1 [15:0] $end
$var reg 16 t" u3_adc_analysis/adc4_b4_1 [15:0] $end
$var reg 16 &# u3_adc_analysis/adc4_b1_2 [15:0] $end
$var reg 16 6# u3_adc_analysis/adc4_b2_2 [15:0] $end
$var reg 16 F# u3_adc_analysis/adc4_b3_2 [15:0] $end
$var reg 16 V# u3_adc_analysis/adc4_b4_2 [15:0] $end
$var reg 1 f# u3_adc_analysis/time_4s $end
$var reg 1 g# _TRIGGER $end
$var reg 1 h# _WINDOW $end
$var reg 1 i# _GAP $end
$upscope $end
$enddefinitions $end
#0
$dumpvars
b10010 "
b1111111111110100 2
b10000 B
b1111111111101110 R
b1111111111010010 b
b100000 r
b100000 $"
b0 4"
b100100 D"
b10010 T"
b1110 d"
b10110 t"
b10100 &#
b10010 6#
b1110 F#
b1111111111100100 V#
0f#
0g#
1h#
0i#
$end
#1
b10 "
b0 2
b0 B
b0 R
b10 b
b0 r
b0 $"
b1111111111111000 D"
b1111111111111100 d"
b110 t"
b1000 &#
b11110 F#
b10110 V#
#2
b100010 "
b100000 2
b100000 B
b10000 R
b10010 b
b1111111111110100 r
b100000 $"
b1111111111101110 4"
b1000 D"
b1110 d"
b10110 t"
b100100 &#
b1111111111110000 6#
b1111111111100100 F#
#3
b10 "
b10000 2
b1111111111101110 B
b1111111111101110 R
b1111111111110010 b
b1111111111100100 r
b110010 $"
b1111111111111000 D"
b1111111111100100 d"
b110 t"
b1111111111101000 &#
b10 6#
b100110 V#
#4
b1111111111100010 "
b100000 B
b10000 R
b10 b
b10000 r
b10000 $"
b10000 4"
b1000 D"
b10 T"
b1111111111110100 d"
b1000 &#
b1111111111111100 F#
#5
b100010 "
b10000 B
b0 R
b100010 b
b1111111111100100 r
b10100 D"
b10010 T"
b1110 d"
b1111111111110100 t"
b1111111111111000 &#
b1111111111110000 6#
#6
b10010 "
b1111111111100100 2
b10000 R
b1111111111110100 r
b0 4"
b100100 D"
b100010 T"
b1111111111111100 d"
b10110 t"
b10010 6#
b110 V#
#7
b100000 2
b1111111111011110 B
b0 R
b10 b
b100000 r
b0 $"
b10000 4"
b1000 D"
b1111111111110000 T"
b100110 t"
b100010 6#
b11110 F#
b1111111111110100 V#
#8
b1111111111100010 "
b1111111111101110 B
b110010 b
b10000 r
b10000 $"
b1111111111101000 D"
b10 T"
b10110 t"
b100100 &#
b10010 6#
b1111111111111100 F#
b10110 V#
#9
b1111111111110010 "
b0 2
b10000 B
b1111111111101110 R
b1111111111110010 b
b0 $"
b0 4"
b1111111111110000 T"
b1111111111100100 d"
b1111111111110100 t"
b10100 &#
b1110 F#
#10
b10 "
b10000 2
b0 B
b10 b
b0 r
b1111111111011110 $"
b1111111111101110 4"
b1111111111111000 D"
b11110 d"
b10110 t"
b1111111111110000 6#
b1111111111100100 F#
b1111111111110100 V#
#11
b1111111111110010 "
b100000 2
b10000 R
b10000 r
b0 $"
b1111111111111100 d"
b100110 t"
b1111111111101000 &#
b10 6#
b1110 F#
#12
b1111111111000010 "
b10000 2
b100000 B
b1111111111110010 b
b1111111111110100 r
b100010 T"
b11110 d"
b10110 t"
b1111111111111000 &#
b10010 6#
b1111111111111100 F#
b100110 V#
#13
b110010 "
b100000 2
b1111111111101110 B
b1111111111101110 R
b10010 b
b110000 r
b10000 $"
b10 T"
b1111111111111100 d"
b110 t"
b1111111111100000 6#
b10110 V#
#14
b1111111111110010 "
b0 2
b0 B
b10 b
b0 r
b0 $"
b10000 4"
b1110 d"
b10110 t"
b10 6#
b100110 V#
#15
b1111111111100010 "
b100000 2
b1111111111110010 b
b100000 r
b110010 $"
b0 4"
b1000 D"
b1111111111100000 T"
b1111111111111100 d"
b1000 &#
b100010 6#
b11110 F#
#16
b10010 "
b0 2
b10000 B
b100010 b
b10000 r
b10000 $"
b100000 4"
b100100 D"
b10 T"
b110 t"
b1111111111111000 &#
b10010 6#
b1111111111111100 F#
b10110 V#
#17
b1111111111110100 2
b100000 B
b1111111111011110 R
b1111111111010010 b
b0 $"
b10000 4"
b1111111111111000 D"
b1110 d"
b1000 &#
b10 6#
b1110 F#
b110 V#
#18
b1111111111110010 "
b100000 2
b10000 B
b10000 R
b110010 b
b1111111111101110 $"
b0 4"
b1000 D"
b1111111111110000 T"
b110100 &#
b1111111111100000 6#
b1111111111111100 F#
#19
b10010 "
b100000 B
b1111111111101110 R
b10010 b
b1111111111100100 r
b10000 $"
b1111111111101110 4"
b100100 D"
b1111111111111000 &#
b10010 6#
b11110 F#
b1111111111110100 V#
#20
b1111111111110010 "
b10000 B
b100000 R
b1111111111100010 b
b10000 r
b0 $"
b1111111111111000 D"
b1111111111100000 T"
b11110 d"
b10110 t"
b10 6#
b1111111111111100 F#
b10110 V#
#21
b10010 "
b10000 2
b1111111111101110 R
b10010 b
b1111111111100100 r
b1000 D"
b10 T"
b1111111111100100 d"
b110 t"
b1111111111110000 6#
b1110 F#
b1111111111110100 V#
#22
b1111111111110100 2
b100000 B
b10 b
b1111111111110100 r
b100000 $"
b1111111111001110 4"
b1111111111111000 D"
b1111111111111100 d"
b100010 6#
b1111111111111100 F#
b110 V#
#23
b10000 2
b0 B
b100010 b
b0 r
b10000 $"
b1111111111101110 4"
b1000 D"
b1000 &#
b10 6#
b1111111111110100 V#
#24
b1111111111100100 2
b10000 R
b10010 b
b1111111111110100 r
b10000 4"
b1111111111111000 D"
b1111111111110000 T"
b100110 t"
b1111111111101000 &#
b10010 6#
b1110 F#
#25
b10 "
b1111111111110100 2
b100000 B
b0 R
b10 b
b100000 r
b1111111111101110 $"
b1111111111101110 4"
b1111111111101000 D"
b10 T"
b1111111111100100 d"
b110 t"
b100100 &#
b11110 F#
b10110 V#
#26
b100000 2
b1111111111011110 B
b1111111111110010 b
b10000 r
b0 $"
b0 4"
b1111111111111000 D"
b10010 T"
b1110 d"
b10100 &#
b1110 F#
b110 V#
#27
b100010 "
b10000 2
b10000 B
b100000 R
b100000 r
b1111111111101110 4"
b100100 D"
b1111111111111100 d"
b1111111111111000 &#
b10 6#
b11110 F#
b1111111111110100 V#
#28
b10010 "
b1000000 2
b0 B
b110010 b
b10000 4"
b1111111111111000 D"
b10 T"
b1110 d"
b1111111111101000 &#
b1111111111110000 6#
b1111111111111100 F#
b10110 V#
#29
b110000 2
b1111111111101110 R
b10 b
b10000 r
b100000 $"
b1111111111101110 4"
b1000 D"
b100110 t"
b1000 &#
b1111111111110100 V#
#30
b100000 2
b100000 B
b10000 R
b1000010 b
b100000 r
b110010 $"
b10000 4"
b1111111111111000 D"
b1111111111110000 T"
b1111111111111100 d"
b110 t"
b1111111111111000 &#
b1111111111100000 6#
b11110 F#
b110 V#
#31
b1111111111100010 "
b1111111111110100 2
b1111111111011110 B
b100000 R
b110010 b
b10000 r
b1111111111101110 $"
b1111111111101110 4"
b1000 D"
b10010 T"
b110000 d"
b100100 &#
b10010 6#
b1111111111111100 F#
b1111111111110100 V#
#32
b1010010 "
b10000 2
b1111111111101110 B
b10000 R
b1000010 b
b1111111111100100 r
b0 $"
b1111111111011000 D"
b10 T"
b1110 d"
b1111111111111000 &#
b1111111111100000 6#
b10110 V#
#33
b10010 "
b10000 B
b0 R
b100010 b
b10000 r
b100000 $"
b0 4"
b100100 D"
b10010 T"
b1111111111111100 d"
b1111111111100100 t"
b1111111111110000 6#
b11110 F#
b110 V#
#34
b110010 "
b1111111111010100 2
b1111111111101110 R
b10010 b
b100000 r
b0 $"
b1111111111101110 4"
b10100 D"
b1111111111110000 T"
b110000 d"
b110 t"
b10100 &#
b100010 6#
b1111111111100100 F#
b1111111111110100 V#
#35
b10010 "
b0 2
b1111111111100100 r
b10000 $"
b1111111111101000 D"
b1111111111111100 d"
b10110 t"
b100100 &#
b1111111111110000 6#
b1110 F#
b10110 V#
#36
b1111111111110100 2
b1111111111011110 B
b1111111111011110 R
b10 b
b10000 r
b0 4"
b10100 D"
b10010 T"
b1000 &#
b10 6#
#37
b1111111111110010 "
b110000 2
b100000 B
b1111111111101110 R
b110010 b
b10000 4"
b1000 D"
b10 T"
b110 t"
b100100 &#
b10010 6#
b1111111111100100 V#
#38
b110010 "
b0 2
b1111111111011110 B
b0 R
b10010 b
b0 $"
b100000 4"
b10100 D"
b1111111111100000 T"
b10110 t"
b1111111111111000 &#
b10 6#
b110 V#
#39
b1111111111100010 "
b1111111111110100 2
b0 B
b10 b
b1111111111110100 r
b100000 $"
b1111111111101110 4"
b100100 D"
b1111111111110000 T"
b1110 d"
b10100 &#
b1111111111110000 6#
b1111111111111100 F#
#40
b100010 b
b110000 r
b10000 $"
b100000 4"
b10100 D"
b11110 d"
b110 t"
b1111111111101000 &#
b10 6#
b1110 F#
b10110 V#
#41
b1111111111110010 "
b10000 2
b100000 B
b1111111111101110 R
b1111111111110010 b
b10000 r
b0 $"
b1111111111101110 4"
b1111111111111000 D"
b10010 T"
b1110 d"
b10110 t"
b10100 &#
b10010 6#
b11110 F#
b100110 V#
#42
b10010 "
b0 2
b10000 B
b10 b
b1111111111110100 r
b10000 $"
b10100 D"
b1111111111100000 T"
b1111111111111100 d"
b110110 t"
b1111111111101000 &#
b1111111111110100 F#
b110 V#
#43
b1111111111110010 "
b10000 2
b0 B
b100010 b
b100000 r
b100000 $"
b0 4"
b1111111111111000 D"
b10 T"
b1110 d"
b10110 t"
b110100 &#
b1111111111111100 F#
b1111111111110100 V#
#44
b10 "
b0 2
b0 R
b10 b
b10000 r
b1111111111101000 D"
b10010 T"
b110 t"
b1111111111111000 &#
b1111111111110000 6#
b11110 F#
b10110 V#
#45
b1000010 "
b1111111111100100 2
b1111111111101110 B
b100000 R
b1010010 b
b110100 D"
b1111111111111100 d"
b10110 t"
b10100 &#
b10 6#
b1110 F#
b100110 V#
#46
b10010 "
b10000 2
b10000 B
b10000 R
b1000010 b
b110010 $"
b1111111111001110 4"
b1111111111111000 D"
b1110 d"
b110 t"
b1111111111111000 &#
b1111111111110100 V#
#47
b10 "
b1111111111010100 2
b100000 R
b1111111111100010 b
b110000 r
b100000 $"
b100000 4"
b100100 D"
b1111111111110000 T"
b10110 t"
b100100 &#
b10010 6#
#48
b1111111111110010 "
b0 2
b0 B
b10000 R
b10 b
b10000 $"
b0 4"
b1111111111111000 D"
b10 T"
b110 t"
b110100 &#
b10 6#
b11110 F#
b110 V#
#49
b110010 "
b100000 2
b10000 B
b10010 b
b1111111111110100 r
b100100 D"
b1111111111110000 T"
b10100 &#
b1111111111110000 6#
b1111111111111100 F#
b100110 V#
#50
b1111111111100010 "
b1111111111010100 2
b1111111111101110 B
b1111111111101110 R
b1000010 b
b10000 r
b1111111111101110 $"
b1111111111111000 D"
b10 T"
b1111111111111100 d"
b1111111111110100 t"
b100100 &#
b10 6#
b110 V#
#51
b10 "
b1111111111100100 2
b10000 B
b0 R
b100010 b
b10000 4"
b100100 D"
b1110 d"
b1111111111111000 &#
b10010 6#
#52
b1111111111110100 2
b1111111111101110 R
b110010 b
b0 r
b10000 $"
b1000 D"
b1111111111100000 T"
b10100 &#
b10 6#
b1111111111110100 V#
#53
b10010 "
b0 2
b0 B
b10000 R
b1111111111010010 b
b1111111111110000 T"
b11110 d"
b10110 t"
b100100 &#
b10010 6#
b1110 F#
b110110 V#
#54
b1111111111100010 "
b10000 2
b1111111111101110 R
b10 b
b10000 r
b0 $"
b1111111111101000 D"
b1111111111111100 d"
b1111111111111000 &#
b110 V#
#55
b10010 "
b0 2
b1111111111011110 B
b0 R
b1111111111100010 b
b0 r
b100000 $"
b1111111111101110 4"
b110100 D"
b10010 T"
b1110 d"
b1111111111110100 t"
b1000 &#
b1111111111111100 F#
b10110 V#
#56
b1010010 "
b0 B
b10010 b
b1111111111010100 r
b0 $"
b10000 4"
b1000 D"
b110 t"
#57
b100000 2
b10000 B
b1111111111011110 R
b10000 r
b1111111111011110 4"
b100100 D"
b10 T"
b1111111111111100 d"
b10110 t"
b1111111111111000 &#
b1111111111110000 6#
b11110 F#
b1111111111110100 V#
#58
b100010 "
b10000 2
b0 B
b10000 R
b110010 b
b1111111111101110 $"
b10000 4"
b1111111111111000 D"
b11110 d"
b110 t"
b1111111111101000 &#
b10010 6#
b1110 F#
b110 V#
#59
b1111111111110010 "
b1111111111100100 2
b1111111111101110 R
b10010 b
b0 $"
b1000 D"
b10010 T"
b1111111111100100 d"
b100100 &#
b10 6#
b1111111111111100 F#
b10110 V#
#60
b100010 "
b10000 2
b10 b
b10000 $"
b0 4"
b100100 D"
b10 T"
b10110 t"
b1110 F#
b110 V#
#61
b1010010 "
b1111111111110100 2
b10000 B
b10000 R
b0 $"
b1111111111011110 4"
b1111111111111000 D"
b10010 T"
b11110 d"
b110100 &#
b1111111111100100 V#
#62
b1111111111110010 "
b10000 2
b0 B
b1111111111101110 R
b1000010 b
b1111111111100100 r
b0 4"
b100100 D"
b1111111111100100 d"
b110 t"
b1000 &#
b1111111111110000 6#
b1111111111100100 F#
b1111111111110100 V#
#63
b10 "
b100000 2
b10000 B
b0 R
b10 b
b1111111111110100 r
b100000 $"
b1111111111101000 D"
b1111111111111100 d"
b100110 t"
b10100 &#
b10010 6#
b1111111111101100 F#
b110 V#
#64
b1010010 "
b1111111111101110 B
b10000 R
b1000010 b
b10000 r
b1111111111101110 $"
b10 T"
b1111111111101100 d"
b10110 t"
b1000 &#
b1111111111110000 6#
b1111111111111100 F#
#65
b110010 "
b10000 2
b10000 B
b1111111111101110 R
b10010 b
b0 r
b10000 $"
b1111111111101110 4"
b1000 D"
b110100 T"
b1110 d"
b10010 6#
b1110 F#
b1111111111110100 V#
#66
b10 "
b1111111111100100 2
b0 B
b1111111111011110 R
b10 b
b100000 r
b0 $"
b0 4"
b100100 D"
b1111111111110000 T"
b1111111111111100 d"
b100100 &#
b10 6#
b1111111111100100 F#
b10110 V#
#67
b1000010 "
b0 R
b10000 r
b1111111111101110 $"
b10000 4"
b1000 D"
b1111111111110100 t"
b1111111111111000 &#
b1111111111110000 6#
b1111111111111100 F#
b100110 V#
#68
b1111111111110010 "
b100000 2
b10000 B
b1111111111101110 R
b10010 b
b0 4"
b1111111111111000 D"
b10 T"
b10110 t"
b10110 V#
#69
b1010010 "
b1111111111011110 B
b110000 r
b100000 4"
b110100 D"
b1111111111100100 d"
b10 6#
b1110 F#
#70
b1111111111000010 "
b10000 2
b0 B
b0 R
b1111111111100100 r
b10000 $"
b10000 4"
b100100 D"
b11110 d"
b1111111111110000 6#
b1111111111100100 F#
b100110 V#
#71
b110010 "
b1111111111101110 B
b10000 R
b110010 b
b100000 r
b1111111111101110 $"
b1111111111111100 d"
b10 6#
b1110 F#
b110110 V#
#72
b1111111111110010 "
b100000 2
b10000 B
b1111111111101110 R
b10010 b
b1111111111100100 r
b10000 $"
b100000 4"
b1111111111111000 D"
b1111111111110000 T"
b1111111111101100 d"
b110 t"
b1111111111101000 &#
b1111111111100100 F#
b10110 V#
#73
b10 "
b10000 2
b0 R
b10 b
b0 r
b0 4"
b1111111111111100 d"
b100110 t"
b1111111111111000 &#
b1111111111110000 6#
b1111111111111100 F#
b100110 V#
#74
b1111111111110010 "
b0 2
b1111111111100010 b
b1111111111110100 r
b1111111111011110 $"
b10000 4"
b1111111111101000 D"
b10 T"
b1111111111100100 d"
b110110 t"
b110100 &#
b10 6#
b11110 F#
b10110 V#
#75
b1111111111010100 2
b100000 B
b100000 R
b100010 b
b1111111111100100 r
b10000 $"
b1111111111101110 4"
b10100 D"
b10010 T"
b11110 d"
b10110 t"
b1111111111101000 &#
b110 V#
#76
b10 "
b10000 2
b1111111111011110 B
b10000 R
b1111111111100010 b
b10000 r
b0 $"
b0 4"
b100100 D"
b1111111111100000 T"
b1111111111100100 d"
b110 t"
b1111111111111000 &#
b1111111111111100 F#
b10110 V#
#77
b10010 "
b0 2
b0 B
b0 R
b10 b
b1111111111110100 r
b10 T"
b1110 d"
b110110 t"
b100010 6#
b1111111111100100 F#
b110 V#
#78
b10000 2
b10000 B
b1111111111110010 b
b1111111111100100 r
b10000 4"
b10100 D"
b10010 T"
b1111111111111100 d"
b100110 t"
b10 6#
b1111111111111100 F#
b100110 V#
#79
b1111111111110100 2
b1111111111101110 B
b10000 R
b0 r
b100100 D"
b1111111111101100 d"
b110 t"
b1000 &#
b1111111111110000 6#
b1111111111110100 V#
#80
b1111111111010010 "
b10000 2
b10000 B
b1111111111101110 R
b10 b
b1111111111110100 r
b100000 $"
b1000 D"
b1111111111100000 T"
b1111111111100100 d"
b10 6#
b1110 F#
b10110 V#
#81
b10 "
b110 2
b1111111111101110 B
b10000 R
b1111111111100010 b
b1111111111010100 r
b0 $"
b1111111111111000 D"
b1111111111110000 T"
b1111111111111100 d"
b11000 &#
b1111111111110000 6#
b1111111111111100 F#
b110 V#
#82
b1111111111110010 "
b10000 2
b10000 B
b10 b
b1111111111110100 r
b1000 D"
b10010 T"
b1111111111110100 t"
b100100 &#
b10 6#
b1111111111100100 F#
b1111111111110100 V#
#83
b10010 "
b1111111111110100 2
b1111111111101110 B
b100000 R
b1111111111100010 b
b10000 r
b0 4"
b1111111111111000 D"
b1111111111110000 T"
b1111111111010010 d"
b10010 6#
b1110 F#
#84
b10000 2
b1111111111101110 R
b1000010 b
b100000 $"
b100010 T"
b11110 d"
b10110 t"
b1111111111111000 &#
b10110 V#
#85
b1111111111110010 "
b100000 2
b0 B
b0 R
b10010 b
b0 r
b0 $"
b10010 T"
b1111111111111100 d"
b110110 t"
b1000 &#
b100010 6#
b110 V#
#86
b100010 "
b10000 2
b1111111111101110 B
b1111111111011110 4"
b1111111111101000 D"
b1110 d"
b1111111111110100 t"
b10010 6#
b1111111111111100 F#
b10110 V#
#87
b1000010 "
b0 B
b10 b
b1111111111010100 r
b100000 $"
b1000 D"
b1111111111110000 T"
b100110 t"
b100100 &#
b1111111111100100 F#
b1111111111110100 V#
#88
b100010 "
b110 2
b1000010 B
b110000 R
b1000010 b
b100000 r
b1111111111101110 $"
b100000 4"
b10010 T"
b1111111111111100 d"
b110 t"
b1111111111101000 &#
b11110 F#
b100110 V#
#89
b10 "
b1111111111110100 2
b1111111111101110 B
b0 R
b1111111111110010 b
b1111111111110100 r
b0 $"
b10000 4"
b1111111111111000 D"
b100010 T"
b11110 d"
b110100 &#
b1111111111110000 6#
b1111111111111100 F#
b10110 V#
#90
b100000 2
b0 B
b10010 b
b1111111111101110 $"
b0 4"
b110100 D"
b10010 T"
b1111111111100100 d"
b1111111111110100 t"
b100100 &#
b10 6#
#91
b110010 "
b100000 B
b1111111111101110 R
b1111111111110010 b
b0 $"
b1111111111101110 4"
b1111111111101000 D"
b11110 d"
b10110 t"
b100010 6#
b11110 F#
#92
b10000 2
b10000 B
b10000 R
b10010 b
b1111111111000100 r
b100000 $"
b0 4"
b1111111111111000 D"
b1111111111100100 d"
b10100 &#
b10 6#
b1111111111100100 F#
#93
b1111111111110010 "
b1111111111100100 2
b1111111111101110 B
b1111111111010010 b
b10000 r
b0 $"
b10000 4"
b1000 D"
b1111111111100000 T"
b1111111111111100 d"
b1111111111101000 &#
b1110 F#
#94
b10 "
b1111111111110100 2
b0 B
b1111111111101110 R
b10 b
b1111111111110100 r
b0 4"
b1111111111111000 D"
b110100 T"
b1111111111100100 d"
b1000 &#
b1111111111100000 6#
b1111111111110100 F#
#95
b100000 2
b10000 B
b110010 b
b10000 r
b10000 $"
b10000 4"
b1000 D"
b1111111111110000 T"
b11110 d"
b10100 &#
b10 6#
b1110 F#
#96
b0 2
b10000 R
b10 b
b0 4"
b1111111111101000 D"
b10010 T"
b1110 d"
b100100 &#
b1111111111111100 F#
#97
b100010 "
b100000 2
b1111111111101110 B
b0 $"
b1111111111101110 4"
b100100 D"
b110 t"
b1111111111111000 &#
b100110 V#
#98
b10010 "
b10000 2
b0 R
b1100010 b
b110000 r
b100000 $"
b0 4"
b1000 D"
b1111111111110000 T"
b10110 t"
b1111111111110100 V#
#99
b1111111111110010 b
b0 $"
b1111111111101110 4"
b1111111111111000 D"
b10 T"
b1111111111101100 d"
b1111111111100100 t"
b10010 6#
b1110 F#
b110 V#
#100
b1111111111100010 "
b100000 2
b10000 B
b10000 R
b10010 b
b1111111111110100 r
b10000 $"
b10010 T"
b1111111111110100 d"
b10110 t"
b1111111111110000 6#
#101
b1111111111100100 2
b1111111111011110 B
b10 b
b10000 r
b11000 D"
b1110 d"
b100110 t"
b10010 6#
b1111111111111100 F#
#102
b10 "
b1000000 2
b0 B
b1111111111110100 r
b1111111111101110 $"
b1111111111011110 4"
b1111111111111000 D"
b100010 T"
b10110 t"
b10100 &#
b100110 V#
#103
b100010 "
b10000 2
b1111111111101110 B
b100010 b
b100000 r
b0 $"
b10000 4"
b10010 T"
b11110 d"
b110 t"
b1111111111111000 &#
b1111111111010100 V#
#104
b1111111111110010 "
b110000 2
b10000 B
b110010 b
b10000 r
b1111111111101110 4"
b100100 D"
b1111111111110000 T"
b1111111111111100 d"
b10 6#
b1110 F#
b1111111111110100 V#
#105
b110010 "
b0 2
b1111111111101110 R
b100010 b
b1111111111010100 r
b1111111111101110 $"
b10 T"
b10100 &#
b1111111111111100 F#
b110 V#
#106
b1000010 "
b1111111111110100 2
b10000 R
b10010 b
b1111111111110100 r
b10000 $"
b1111111111111000 D"
b100010 T"
b11110 d"
b10110 t"
b1000 &#
b10010 6#
b1110 F#
b1111111111110100 V#
#107
b100010 "
b100000 2
b0 B
b100000 R
b110010 b
b10000 r
b100000 $"
b0 4"
b1110 d"
b1111111111110100 t"
b1111111111111000 &#
b110 V#
#108
b1111111111100010 "
b1111111111011110 R
b1111111111110010 b
b1111111111110100 r
b10000 4"
b10010 T"
b1111111111111100 d"
b110 t"
b1000 &#
b10 6#
#109
b10010 "
b110000 2
b1111111111101110 B
b100000 R
b0 r
b1000 D"
b11110 d"
b100110 t"
b100100 &#
b110000 F#
b100110 V#
#110
b1111111111110100 2
b100000 B
b10000 R
b10010 b
b100000 r
b10000 $"
b0 4"
b1111111111101000 D"
b10 T"
b1110 F#
b110 V#
#111
b1010010 "
b1111111111100100 2
b10000 B
b0 R
b100010 b
b1111111111110100 r
b1111111111101110 4"
b1000 D"
b1110 d"
b110 t"
b1111111111111000 &#
b100100 6#
b1111111111111100 F#
b1111111111110100 V#
#112
b10 "
b10000 2
b0 B
b1111111111100010 b
b0 r
b0 4"
b100110 t"
b10 6#
b1110 F#
b100110 V#
#113
b100010 "
b1111111111100100 2
b10000 B
b1111111111101110 R
b110010 b
b10000 r
b0 $"
b110100 D"
b10010 T"
b1111111111110100 t"
b10100 &#
b110 V#
#114
b0 R
b1111111111110010 b
b1111111111110100 r
b100000 $"
b1111111111111000 D"
b1111111111110000 T"
b110 t"
b1111111111100000 6#
#115
b10 "
b1111111111110100 2
b0 B
b10010 b
b0 $"
b10100 D"
b10010 T"
b11110 d"
b10110 t"
b1111111111111000 &#
b1111111111110000 6#
b1111111111100100 F#
b1111111111100100 V#
#116
b10010 "
b10000 2
b1111111111101110 B
b1111111111110010 b
b10000 $"
b1111111111101110 4"
b100100 D"
b1111111111100100 d"
b1111111111110100 t"
b110 V#
#117
b0 B
b10000 R
b100010 b
b10000 r
b0 $"
b100000 4"
b1111111111111000 D"
b10 T"
b1111111111111100 d"
b10110 t"
b100100 &#
b10010 6#
b1110 F#
#118
b0 R
b1000010 b
b100000 r
b10000 $"
b1111111111101110 4"
b1110 d"
b1111111111111000 &#
b1111111111110000 6#
b1111111111111100 F#
b1111111111110100 V#
#119
b110010 "
b0 2
b1111111111101110 R
b100010 b
b1111111111100000 6#
b100110 V#
#120
b10 "
b10000 B
b10010 b
b10000 r
b1111111111011110 $"
b0 4"
b10100 D"
b110 t"
b10100 &#
b10010 6#
b1111111111010010 F#
b10110 V#
#121
b1111111111100100 2
b0 B
b0 R
b1111111111110010 b
b1111111111101110 $"
b100000 4"
b1111111111111000 D"
b1111111111110000 T"
b1111111111111100 d"
b10110 t"
b100100 &#
b1111111111111100 F#
b110 V#
#122
b1111111111110010 "
b1111111111110100 2
b1111111111011110 R
b10 b
b1111111111110100 r
b1111111111101110 4"
b10100 D"
b110110 t"
b1111111111111000 &#
b1110 F#
#123
b1111111111100010 "
b110 2
b100000 B
b1111111111101110 R
b10000 $"
b1111111111111000 D"
b10 T"
b10100 &#
b100010 6#
b100110 V#
#124
b10010 "
b10000 2
b10000 B
b10000 R
b10010 b
b0 r
b1111111111011110 4"
b1110 d"
b10110 t"
b1111111111111000 &#
b10010 6#
b1111111111101100 F#
b110 V#
#125
b1111111111101110 R
b10 b
b1111111111101110 4"
b10010 T"
b1111111111111100 d"
b10 6#
b1110 F#
b10110 V#
#126
b1111111111110010 "
b0 2
b100000 B
b10010 b
b1111111111100100 r
b1111111111011110 $"
b1111111111001110 4"
b10 T"
b1111111111010010 d"
b110 t"
b1000 &#
b110000 F#
#127
b1111111111110100 2
b1111111111101110 B
b0 R
b1111111111100010 b
b1111111111110100 r
b0 $"
b0 4"
b1000 D"
b100010 T"
b1111111111101100 d"
b11000 &#
b1111111111110000 6#
b1111111111111100 F#
b110 V#
#128
b110010 "
b100000 2
b10000 B
b1111111111101110 R
b10010 b
b100000 r
b100000 4"
b1111111111100000 T"
b1110 d"
b10110 t"
b1111111111111000 &#
b10010 6#
b10110 V#
#129
b1111111111110010 "
b1111111111110100 2
b10000 R
b10000 $"
b10100 D"
b1111111111110000 T"
b110 t"
#130
b110000 2
b0 R
b100010 b
b10000 r
b0 4"
b1111111111111100 d"
b10 6#
b1110 F#
b110110 V#
#131
b10000 2
b1111111111110010 b
b1111111111110100 r
b0 $"
b1111111111101110 4"
b1111111111111000 D"
b1110 d"
b1000 &#
b10010 6#
b1111111111111100 F#
b110 V#
#132
b10 "
b0 2
b100000 B
b1111111111100010 b
b10000 $"
b10000 4"
b10 T"
b1111111111010010 d"
b1111111111111000 &#
b1111111111110100 V#
#133
b110 2
b1111111111101110 R
b10000 r
b0 4"
b1111111111111100 d"
b10110 t"
b110110 V#
#134
b1111111111110010 "
b1111111111010100 2
b1111111111101110 B
b0 R
b10010 b
b1111111111110100 r
b100000 4"
b1000 D"
b10010 T"
b1111111111100100 d"
b100110 t"
b100010 6#
b1110 F#
b110 V#
#135
b100010 "
b0 2
b10000 B
b1111111111101110 R
b1000010 b
b100000 r
b0 $"
b1111111111011110 4"
b100100 D"
b10 T"
b11110 d"
b110 t"
b10010 6#
#136
b10010 "
b10000 2
b0 B
b10000 R
b100010 b
b0 r
b10000 4"
b1111111111111100 d"
b100100 &#
b1111111111110000 6#
b1111111111111100 F#
b10110 V#
#137
b1111111111110100 2
b1111111111101110 B
b1111111111101110 R
b1111111111110010 b
b10000 r
b100000 $"
b1111111111101110 4"
b10100 &#
b10 6#
b1111111111100100 F#
#138
b10 "
b10000 B
b10000 R
b10010 b
b1111111111100100 r
b1111111111101110 $"
b0 4"
b1111111111101000 D"
b1000 &#
b100010 6#
b100110 V#
#139
b110000 2
b0 R
b10 b
b10000 $"
b1111111111111000 D"
b1111111111110000 T"
b1110 d"
b1111111111111000 &#
b110 V#
#140
b100010 "
b1111111111110100 2
b0 B
b1111111111110100 r
b10010 T"
b11110 d"
b10010 6#
b1111111111111100 F#
b10110 V#
#141
b1111111111110010 "
b110010 b
b100000 $"
b10 T"
b1111111111111100 d"
b1111111111110100 t"
b1111111111101000 &#
b1111111111100000 6#
b1111111111100100 F#
b1111111111110100 V#
#142
b10010 "
b100000 2
b1111111111011110 B
b1111111111101110 R
b1111111111100010 b
b10000 r
b1111111111101110 $"
b100000 4"
b1000 D"
b1110 d"
b100110 t"
b100100 &#
b1111111111110000 6#
b1111111111111100 F#
b110 V#
#143
b1111111111110010 "
b100000 B
b100000 R
b10000 $"
b0 4"
b1111111111011000 D"
b1111111111111100 d"
b10 6#
b1110 F#
#144
b1111111111110100 2
b0 B
b0 R
b10 b
b110000 r
b0 $"
b1111111111111000 D"
b1111111111100100 t"
b10010 6#
b11110 F#
b10110 V#
#145
b10 "
b100000 2
b100000 B
b1111111111101110 R
b100000 r
b10000 4"
b1111111111101000 D"
b1111111111110000 T"
b110 t"
b1000 &#
b1111111111100100 F#
b110 V#
#146
b10010 "
b10000 2
b0 B
b10000 R
b1111111111110100 r
b10000 $"
b0 4"
b1000 D"
b1111111111110100 t"
b11110 F#
b100110 V#
#147
b100010 "
b10000 B
b0 R
b10010 b
b0 r
b0 $"
b100100 D"
b10010 T"
b1110 d"
b10110 V#
#148
b10010 "
b1111111111010100 2
b1111111111101110 B
b1111111111100010 b
b1111111111110100 r
b1111111111111000 D"
b1111111111111100 d"
b110 t"
b1111111111111000 &#
b1111111111110000 6#
b1111111111111100 F#
b1111111111110100 V#
