11_cs_nwe _channel4/project_1/.Xil/Vivado-12896-GL-0301-949/hw_ila_data_4/zip_work/waveform.vcd
$date
        2023-May-05 18:48:03
$end
$version
        Vivado v2018.3 (64-bit)
$end
$timescale
        1ps
$end
$scope module dut $end
$var reg 32 " int_dac_top/top_dac1_int/i_jesd204_1_support_block/gt0_txdata [31:0] $end
$var reg 32 B int_dac_top/top_dac1_int/i_jesd204_1_support_block/gt1_txdata [31:0] $end
$var reg 4 b int_dac_top/top_dac1_int/i_jesd204_1_support_block/gt0_txcharisk [3:0] $end
$var reg 4 f int_dac_top/top_dac1_int/i_jesd204_1_support_block/gt1_txcharisk [3:0] $end
$var reg 256 j int_dac_top/top_dac1_int/tx_tdata [255:0] $end
$var reg 1 P$ int_dac_top/top_dac1_int/syncb_buf $end
$var reg 1 Q$ int_dac_top/top_dac1_int/syncb_logic $end
$var reg 1 R$ sysref_logic $end
$var reg 1 S$ sysref_o $end
$var reg 1 T$ u_ila_2_tx_aresetn $end
$var reg 1 U$ _TRIGGER $end
$var reg 1 V$ _WINDOW $end
$var reg 1 W$ _GAP $end
$upscope $end
$enddefinitions $end
#0
$dumpvars
b10111100101111001011110010111100 "
b10111100101111001011110010111100 B
b1111 b
b1111 f
b1001100111000010110010111111111101000100110001100000001000001010011010011100101111110110000100111110011111010001011010000001110110010011110110010001100100100110001110111110001011010000001011011010011011101011010110110011010010010110111101011000111100111001 j
0P$
1Q$
0R$
0S$
1T$
0U$
1V$
0W$
$end
#1
b1000110100101001001100001101110101000000001000010001000111010101000110100001100000001100110011100101011000001110010011101100100000110100000001001111110111000011111101101111100100110101110000011110000011101111000010101100000000110100111001101000000111000000 j
#2
b1101000111110111100000010011101000001100000000101110010100111101001110010000110010110011001111110001011100010110110111110011111101100011000111110110100100111110111000100010011101011001001110110101101100101111110001000011011010011110001101011100100000110000 j
#3
b10100011100100110101001100000001010010110110110100011011000011011011011101001101000110110001111010101111001100101110101100110000111011110001110111111011010011001111101100001101100110110110111101000011000000001111101110010000000000110000001100110011101101 j
#4
b1101000000110110010011000010111101100010001110111101000000100111011011100011111001001111000111111110000100111111000000010001011010110001001111110010001000001100110111110011110111110100000000010111100000111010101110011111011110010001001101011011010111101101 j
#5
b101111000000111101111110111100111010110000010000111011111010000001011100010001001100000001000101100111001000011011010000111000011011110011100011000000011000001000111101010101010101001000010100010011011101100111110010100101001001111001101101100000110000 j
#6
b100110100110100100100001110101111000000001011010010011011100010000001100010011010000000110110010101001100011101110101101101000111100000000100110101101111001011111010100000100100111010110001101011010011111111100100111100001001111111111101010111111011000000 j
#7
b101110111101000010001000011001000100111111100101111000100110111010011011111110000101111001111001000101000000110111000110011111010011100000100001111101000111111010000100001101001101110001111110011101100100011010000100011110101001110001010111000010000111001 j
#8
b100100011110011010000011100000001110001111010010010100111000000001011011110000010110100110000011011100111010111110110001100010001001110110100000111111111001001000111001100101010001011110011110100101111000101110101101101011011111011110000010010111011011111 j
#9
b1110111100101100011111100011100010100001001100111111100100110010000000000011100100100101001011001110101000111100001100000010010001000100001111110100111000011011111111110011111110111001000100010001011100111111101011110000011110010001001111000111010011111101 j
#10
b111011011000001001000101110000100011000110000000111100111101010010111001100000001011100111101000100001011000010100011011111111010111101110001011100011000001000101101101100101011000110000100100000110011010001010010110001110010010110110110000001011100100101 j
#11
b1100110100111011001101001111101101100111001101110001010111110001100101000011000101011001111001110111110100101010001111101101111001001111001000100000000011010110010000010001100111010110110011101000110000001111111011101100100001110010000001010110111111000100 j
#12
b110001011011010111001110010011000100000111000111000001100101110100110111110110011101101001101001001010111110110111111010011100111001101000000001001000100111101000000000000101110010001001111111110101000010100111100000011111101001100000111101010110000111110 j
#13
b11001100000011101001011100001111110110111110000000011011000001111001111110111000000011110000000100100111100101101001001100000001011001110111001110010011000010010101001101010010110101110001100110110011001101111111011100101111010001110001111001101111010010 j
#14
b100001100100000001011100011111010101010001010001111011100111010000001110011000000111101001101100010100100110110001000000011000011101000001110101100011100101000001001010011111001100011001000001100101000111111001010110001011111001101001111110101101100001101 j
#15
b1100011011000110001110001101010011101111110000100011101011011100101010011100000000100111111001010000001011000000110000111110111011111111110000001101000111111000100110011100001100001101000000111011111111000111001101100000110101010101110011010000100000010111 j
#16
b1001010100111111001001010000101110011011001111011111001100000000000011010011101010111010111101100000001100110101101111111110110010011100001011100100000111100011000001010010011110000000110110100110110100011110101101011101001000001110000101010001001111001100 j
#17
b1011110111001110000111100001100111100100110101010010111100100010000111101101111001100001001010100011011011100111011111000011000111110001111100000101010000110111000011101111101111000000001110110100110000000101101001010011111001101000000011111110111100111111 j
#18
b1110101000010010110010111100101011101100000010001100110111000101101100101111111001001100110000101000000111110100011000001100000010011100111010100001011011000000010000111110000101101110110000011011001111011000011000011100010000100101110100011101101011001000 j
#19
b1001010100010001111111110011111100101100000110110100101000111111000100010010010011110101001111000000101000101100000100010011100111100010001100101011011100110011011011010011100000001010001011011000010100111100001101100010010100010001001111110110110100011100 j
#20
b1010010011001111000010001100101010010011110010010011010111010000111001101100010010011100110101111011110111000001000011001110000000101100110000000100110111101001001111101100000000100011111100111111000111000001010011101111110100111100110001011000101000000111 j
#21
b110100100111111011001000001101011111011001111111100000100010000111010100011111010101111000001100011110000111100011100101111110000000011001110000100110011110010010111000011001010000000111010000110101000101011010011101101111101011011001000111111001111010110 j
#22
b10100111000110110001010000100101000110110010111011110000010011101111001101000100110010000111010110001011011001111010000010010100000100111000101010010100101101011011001110101100111000001101000101101011110101011101000011100110001110111111110011011100111101 j
#23
b111010100100001001111111101010101010011000110000011001011001110100100100000111001101100110010000111000100000100000100101100010000110011111110100100000111000001000110111111000000001100110000000110110011100110011110101100000001100100110111011000100011000010 j
#24
b1100111100000001110101010011110111111101000010111010110100111111110111010001010111100011001111110010111000011111011101100011111010110010001001110111000000111011001100100010111111100100001101100111110100110101111100000011000001101001001110101011101100101001 j
#25
b1000010111011011001100101100001110011001110100110010100111000111110100001100110010010101110011000101011111000111010100101101001101010001110000110011001111011011110110101100000000000110111001000000000011000000100100011110110111001010110000001001010011110111 j
#26
b100101100111011000000000010100001100000001111101000010000011111110111010011111100111010000101101011011100111111010111100000110011101111001111010011000100000010100100010011101011110110111101111011001100110101111100001110110101110101001011110110000011100100 j
#27
b10111011000001110100011111100111110000110000110000111000000100001110111100100000110001000011101111010011001101111101110001011111110101110101000010000000100001000100011101110101110000001010010001000111100110101100000011000010111100111011111011000100110110 j
#28
b1110101000101101010111001110001000110111001001101011000111011001100010010001110100000001110100100001101000010100011111101100101100100111000010100101010011000110111100011111111110100100110000101011110011110101100001101100000011001010111010110000100011000000 j
#29
b1110110011110001110100110011011100001111111111000001101000111100010011010000011011010111001111100110000100010000111110000011111100001010000110100111011000111111000010000010001101010100001111010010000100101011100111110011100100011110001100100111000100110100 j
#30
b1010101011101001001001011100000001100010111000001010011011000001111010011101011111000000110001000111011111010000010111111100100100111101110010100110001111001111011000111100010110100111110101100000101011000010111110011101111001000111110000000010010011101000 j
#31
b111110100110011000111100011001111100100001110000101001000101100110101110011110001100011001001000011101100111111100001100001101100000000010000001111010000010001001000010011111111101100000001111010010100111100101100011111110110011011001110001000010011110011 j
#32
b1101111000000001111111110101001010110110000000010000011110100001100101100001001001111111111101010010011000101100010100000100010010100110010101000110000010010111000101101000000010100000111000110010111011000111001010010010011101100111000001100010000101100 j
#33
b1000010100110111010100011111000110111011001100011001000111100111101010110010101001110010110111101000001100100010001011101101011001111001000110011111110111001110110010000000111100001101110010011010111100000101100001011100010001110001111110111000001111000001 j
#34
b1110100111100010010110000010111001100000111011001100101100110100010110001111011011100011001110011001000000000000100000000011110111000011000010101000101000111111101100000001010011110011001111110001011000011110101110010011111010110110001001101110001100111011 j
#35
b11001111111001000100011100000100100010111011110000010011000000100000011110010110011011110000001000110011011100110100101100001010000001110101001001101011000110100100101100110111011010110010111110111011000111011100001101001010111010110000110011000011011010 j
#36
b111101100101000000011100011101111011111001011110101111000110110000010000011011001001000001100001101000000111010111101110010100000010110001111101001100000100000110001010011111101100100000101111101001000111111100101110000110100111100001111100111000000000011 j
#37
b1011000011000001111101110010110010110000001110111111100100000000011100000010001000111011101111010011000000100101001111100010000101110000111101000000000010101000101100011111111010000011000011000011001101110011110001011000001100110101000000111000100000 j
#38
b1010110000111101001100000000000100100111001110101111011111110110001001010011010111111001111011001100011000101110011110001110001100110101001001111011001011011010101000110001111011100001110100100100100000010101001101111100110001100001000010111110000111000110 j
#39
b1011010111010101111111000010000111101010110111010011001100101010111111101110011001010110001100011011010111110000001101010011011111010001111110101010101000111011000011110000010110011000001111100010110000001111111011000011111111100101000110001001110000111111 j
#40
b10100000001001111001101100010111101111111111100101110111000010101111101111010001100111110000001101011011101010000100111100000001111001111000010110000111000001111001001101100001001011110001000100111111010001101110111100100011101101110010101001011011001110 j
#41
b1111010100011010010100110011111111011111001000110000100000111101110111100010101100101101001110011011110100110010110110110011001101010000001110000011011000101101011100010011110001100111001001010000011000111111101001000001110011111110001111110010010100010011 j
#42
b1011001111001001000011011101000011111110110001000110110111010111110010111100000111010111110111110011000111000000000101001110100100111001110000001110011111110010111000101100000100010001111111010010010011000101010011010000011111100111110010010101101000010001 j
#43
b1111110100111111111111000001000011110101001111101110110000000110010100010011110010101111111111000010000100111000100010001111001010000001001100101011100111101000100101100010101110000011110111111000111000100011001000101101011110011100000110101100110011001111 j
#44
b10001111001011100000100001001110010010110100011111101100011100001100011101100110110110001001011100111011100001011110100010110100110010111010110001010000110100000111101111010101011001001110010101000111111111001001010011110110001001000010010110000100111111 j
#45
b1000110000011000010110011100111011001101000011101000101111001000101011100000010000101000110001000111000011111010010011101100000101010111111100000000111011000000101001001110011001110010110000001001100011011101011101111100001001101101110101010000111111000110 j
#46
b1100000100001011101001110011111110100100000101011110011100111111111110000001111010000011001111101000001000100111100001100011101100001001001011110000001100110111010110110011010100010111001100010100111100111010111010100010100111000110001111011010100100100001 j
#47
b1100010111010011000011011100011111110101110011000111000111001100011101001100011100100110110100110110010111000011000000011101101111100100110000001100111111100011000000001100000001010110111011011100000111000000010101111111011100011111110000111001000100000001 j
#48
b101001100111110101110010001111111011001001111110111001100010110101111000011111110011010000011001111111000111101011011110000001010101001001110100011001111111000110101000011010100101010111011101001111000101111100101111110010000101111001010001011011111011011 j
#49
b1101101111000011110100010000001100011101110010001111011000001101110011101100110110111111000101111100100011010100111011000010000011011110110111000100000100101001110110011110010110001000001100001000000011101111100100010011011010010100111110010011010000111011 j
#50
b110100000100110111000101101100111000000000111010010101111010010010101000001010010100001110010110110001100001010011011111100011000101110000000001011010111000010111110001111010110001110110000000000010011101100000001111100000010010010111000100010001111000001 j
#51
b1101001011111011000001010011110000010000000001101100110000111110001001100001000011110110001111111101001000011001011111100011111111010101001000100110010100111101111100110010101010111010001110011111100000110001100101000011010010110101001101110001010100101110 j
#52
b1001011111100000100110011100000100011001110110001010100111000100101000001101000000111111110010010101111011001010001111001100111101111100110001010111100011010110000110011100001011000101110111100100110011000000111010111110011100100001110000001011000011110001 j
#53
b1100100000111000011111100010110011000100001111001001010100100100001100010011111110111101000110110000000001000000001011100001001000101011001111110010100100001000101110000011110011101110111111011011100000111000110000011111001101000011001100111110001111101001 j
#54
b101000011000000111001001111001100100010110000100001001011111110100010111100010101001101000010000111001011001010010100010001001010111001110100001101110100011011001101011101100010110011001001001011011111100000100110000010110000000101111010100101100000110011 j
#55
b1110000100110001110010101110011111011000001010101010011011011110101101100010001001011101110101101011000100011001001001001100111100000011000100000010110011001001111011000000010110011100110001001010111011111011100100011100000110001101111100010001111111000000 j
#56
b10011011101100101010000011010000011100111101101100100100111001010100100000000001101111001111011000011100001010100000100011111101110110000101001111010100111111111000000001110111000101001111101000010100100110111110010011101100101110001011101010001100110111 j
#57
b101111011101111000001101100000010111000111001011001001111000000101111111101110011000000110000101010111011010100011111111100011010111000110011011011011011001011000011001100100001000101110100101100111011000011111111111101100100011100110000011011001011100010 j
#58
b1011011000101111011111100011011011100111001101010111000000110000101110000011101000100110001010010000011100111110110011010010000011000000001111111001110100010111110101100011111111010010000011010100101000111110101011010000001100100110001110110111000011111001 j
#59
b1011101111000000101110001110010000000001110000000100110111101110111010101100000001010111111110000111000111000011100100110000001010000101110001111011111000001100000010111100110110010101000101101101111111010011110110010001111111010101110110110100101100101000 j
#60
b100000000111010001101001111011101000111001101010011010011101101111100000010111010101111111000110110011000100111111001001101101011011001000111100000110011010011100000100001010101011011110011001001110100001011111111011100011001101101000000010001010011000011 j
#61
b1011011011011101000001010010101011000101111001100010111000110001011110101111000000010110001101111001010011111010100101000011101111010010000001001000101100111110111100010000111011101001001111111010110100011000101000110011111111001000001000011011110000111101 j
#62
b10110111111111011011011100001011111010111101000110111011000000000100001110101100010000110000001010111111100001010101011100000100010100110110010011010111000100011110011101000110011101110010000000111111001011011100001100111000000000110001101000100011010101 j
#63
b1010110000100011000110100011110110110001001010110100100000111001100101110011001011111111001100110011001000111000011000010010110101011101001111001001100100100101111110110011111011011011000111001111110100111111010111110001001101011011001111110110010100001001 j
#64
b1011011000101001111011101011111011010110000011010001011011111001101101100000011011011111010000011010011000000101010111111001011010100110000011101001111111100000011001100010100010000000001111100011011001001000111110001000111100100110011111011110100011010 j
#65
b111111001010010000011101100101001111001110110111111100001111100011100011000100111100101010011100110010111100101110100011000011001010111011100011011111110000010010001101010001110101111101010000011010111101011100111100110111000100011101010011001001 j
#66
b110100011010001110001000001110000000000110110011000010100100101100110001110000101001111001011011111100011101010111100000011001111100001111101000011110100111001000101001111111100010011001111010100110000001001010110000011111101000111000100111111111000111111 j
#67
b100100001111101010011100100011101011000001000011111011000100101011011111101001011010110000011001001011110000000100011100000011011100111001100110101111000000110010111101110101100110110000101001101011010101111101011100010110000000110011100000000111001011 j
#68
b110101000010101111010100011111111000011000111101001000000111110010100100010011110011101001110111101111100101110001000100011011100111001001101010011111100110001001101100011101000011000001010101011010100111101110111010010000110100000001111111100010000011000 j
#69
b1101011001101010011001100110010010000110001111111101011010010011110011100001111001111110110101110111011000000100110001110001100000001110000000001110011101101101101111100000000011011111101110000110111000011010101000000000111110001110001101000010100001011 j
#70
b1101010000111111101011010001011011000010001111111101011000001100000011010011111010101100000000101100001000111010011100001111100011110101001101010110010111101110110001110010111111001110111001000101111100101000111010101101101111101111000111111111000111010011 j
#71
b11001000101110100000110110101000110011011000011000010111100110111101010010110111001000001010101011011100000100100010100110100001111001010110000000110000010001011110111101110001001101100101011111111001000111000011101110010100000000110100010000111110 j
#72
b1111011000011101010101101101001010001110000101001100010111001011101000000000101010001010110001100110110000000000110001111100001000110101111101101001011011000000001111101110110000000101110000001100100111100010000101111100000100010011110110101100011011000011 j
#73
b1101001100000101110000000011111011101011000011111111010000111111100110100001100110000101001111111010000100100010011101100011110111000110001010101101010000111001110100100011000110110111001101001001011100110111001111110010111011110000001110111001100100100110 j
#74
b100100111011000100100101100010011001010110100000001111111001001100000001100101000010100110011111001010111000101010010101101011000101001110000101001000111011110010100101100000010110011111001110001110111000000011101001111000110001011110000011001010111111011 j
#75
b1011000000111100110001110010010000100111001111111111010000011011000000000100000001101001000100100011010100111111011001100000100011001100001111000010101111111110110101000011100011111101111100110110011100110011000111011110101010101010001011001100110111100000 j
#76
b1001111000010110101011111110101110010110001010001000000001000010100011100101000010110000100101001000011010000101001100001101100000101110110001000000100100100100000011110000001101100001011001100110011101001001101000011001110101000111100111010110000111000 j
#77
b11000101011110110101101111011101010001000101000101111010110111010010001100101001100110011110011111000010000010011001100100100101001000001101011001111000100111010111111101110011110110000011100100011110001001000111100000000000011111010000100101011000000 j
#78
b1101111111110101101011110011100100010101000000000101111000111101010010110000101001111011001111110011110000010100111101110011111110101010000111011101000100111110010101000010011000001110001111000000010000101110110000100011011110000101001101000000100000110010 j
#79
b1111000011100101100010111100000011110011110111001010111011000010110110111101010001100100110001101101111011001101100100111100101100101010110010000001101011010010111000111100001111001110110110010010011111000001011111001110001000000111110000001110110011101011 j
#80
b1100011000110101100110000011000010011111001110100101010000101001111110000011110100000001001000011011101000111111110101100001011111011010001111110000111000001110010110000011111011101010000000110011110100111011101011011111100110011110001101101001100111101111 j
#81
b11000000000100101110111011100000110000000001101011111000010111011100001101010110000000100110100011000111100000100000110011100110110011000101110000010110101100111101001110100100000111111010001011011011000111000010100010000000111001001000110100101111 j
#82
b110100100110101011011101110110100011010001011111110011011100011100101100010011100010110110110110000111000011111001110001101001110111011000101010111111111001100110110100000101100011001110001111010101000000001001001111100001101110000111101111100010011000000 j
#83
b1000110111100110000001110011000100111110111100001111011000110110010101111111101001111101001110111001010100000100011111100011111010110101000011101110010100111111011101000001100010101001001111111001010000100001110011000011110111010111001010010101101000111010 j
#84
b11011011110101011101011100000001001010111010110000110111000000111001011110000101001001110000010100010111011001000111111100010010100011110100010111111011001000001100011100101101001001110011100001101011000110010110101101010101111110110000101000001011011101 j
#85
b1000010000101011011001000011100101110010001100100010001100110100000101010011100010001100001011010100100000111100110010110010010111110000001111100001000100011101111111000011111110011010000100110110010000111111101000010000100100101100001111010110101011111111 j
#86
b1110100111000001011011011101111100111011110000001010001011101000001011111100000001110000111100101100010111000001100101101111110011110100110001001101001100000110101001101100100111100100000100001011110011001111100001010001101000001110110101110111100100100011 j
#87
b111100100111100001010101111110101011011001110000000000011110011110011000011001000101100111010011111000000101011111011011101111111110011001000111000000011010111000010110001101100011101110100000111001000010001111101001100100101100110000001110010111011000101 j
#88
b1101000011011000010100110010010101100011111000010010010000101101101111101110101011001101001100111010010111110100001000100011100111010110111111100000000000111101000011110000100101001111001111110000110100010011111111110011111110001110000111000000101100111111 j
#89
b10100000000101010101001100010011101010111110100110011111000001110011101111000000010100110000000001010111100111011001001100000011111111110111010101011011000010110010001101010111011100110001011010011011001110110111111100101011001000110010000011111011010001 j
#90
b1000110100011110100111010011111000100001001001111011001100111011101101010010111001000001001101110001011100110101011001100011000100011100001110100100011000101010101001010011110100010001001000101001100100111111111111010001100011101101001111110100010100001111 j
#91
b1010110111000111110011111101001010001101110000111001111011011010111110011100000001100010111000110000001011000000111000011110110010101110110000001101111011110110111110101100001000010111000000011101011011000110010010000000101100101000110011000011000000010101 j
#92
b1100011100111111000100100000110100011100001111101110100100000010110110100011101010101101111110000001011000110110101000001110111011101111001011110000011011100101100011100010100000011100110111000010010000100000000111101101010011100110000101100011111111001101 j
#93
b1000001111001101010011010001011101101110110101001000001000100000011101111101110011100011001010000110101011100101001110000011000000001010111011110101000000110110000110101111100100000101001110110101011100000011001101100011111001111110000011011101000000111111 j
#94
b1100100000010100111010001100101111011100000010101010010111000110101010010000000011011001110000100111000111110110100111111100000001111000111011000000010011000000111111111110001000001100110000010100010111011010101100011100001110000001110100101110001011000111 j
#95
b1010111100001111111100100011111101100010000110011000110100111111011011100010001010000111001111011001100000101010111011100011100110101011001100011101100100110100011110010011011101101010001011101101101000111011110010100010011010110100001111100010110000011110 j
#96
b1111001111010000000000001100100110100010110010101110110111001110101011101100010100011011110101100011100111000010010111001101111001011001110000000111101011100111000110101100000000111001111100010111111011000001010110001111101101111100110001001001011000000101 j
#97
b1110100111111001010110001110000000000010000001010010000010010001111110011111110100010000010001101111100111100011010001111111011110000001110000011100111110100100011000011001101010111111010101101011000101100000000101110000111111001001001000111100111011000 j
#98
b101100111000101110100110000011100101111110010101101110000010001011001101101000001101111000110111101011011010111010011100010010001001100111000000100000000101100100100101110100100001111001100110110110011110011100011110011100010011000111111011001110100111100 j
#99
b1110100100011101110101101011000100001000110100111010011001111011110010001000001101100110010010110011000000110110010101100010000101000111111001010110011000001000001001111001000100111110000000011110011101000010001001100000000001111110111110000010011000010 j
#100
b1101100011111111010011000011110100001110000010100111001100111111000000100001010011111001001111110111001100011101110111000011111000100011001001100010001100111100110110010010110111100000001101110110001000110100001011100011001010010100001110010011001100101011 j
1U$
#101
b10011011011101100111011100001000001000110101010100100111000110000001001100111001110000110010110100100011001000111011111101000111111001110000111001110111011001001100111100000101000110111000100000100111000000101100101110101110000011110000001010001111110101 j
#102
b1000011100111010100000110010100111101000001111010011011000100001101101000011111100001111000110001101111000111111010010100000111001100110001111100010011100000100010101000011101111101010111110011011111000110110110101001110111111000000001100000010100011100110 j
#103
b1101011011000000110111011111011101001010110000110001100000000010010010111100011101000110000011001100000111001100001000110001011010000111110100110110111000011111011100001101101111101100001001110100100111100100011001000010111111011000111011011010010100110101 j
#104
b100001100101111000111011110010011000110001001110100100011011011010001000001111101100100110100111111010100010101101001001100110000010110000011000011010111000111111010000000000100111010110000111010110111110111110011101100000010101001111011010000000011000000 j
#105
b1111110000110101110011011000011010111110100110011100111011010110000000010001110001001111100111100100001110111000100011111100111100000110001010111100111111010111110010000111011100001111011010100000101001011100110011101011100000001100001000101000110101 j
#106
b1000010011101011000010111100000000011011111000100011110111000001011101101101100100001001110001001100111011010001011000001100100001010100110010110010001011001110001101001100011000101100110101011000111111000010010011111101110101111101110000000101010111100110 j
#107
b100110000110010010001100011010011110111001101111011011100101101001101000011110011111100001001011110010100111110010010000001110111111011001111111101010000010011011011000011111111011110000010010011111000111101101001111111111101111111001110010111001111110101 j
#108
b100000011000000011010011110100000101010110000000011010011110010101101111100000101011001111111001101110011000100100101100000011010000101110010011010100100010000100101001100111101001101000110101101111111010110010001100010001100111001110111110101011100101011 j
#109
b111100000111000001111001111001111110001001100100110010111101001000111000010110000100010111000000010011000100100101100001101011101000011000110110100011011010000101011010001000100010101110010101010001100000111010001101100010101100111111111011111011111000001 j
#110
b10110111100001111110000010110010000100111010101010100000110011011010011111010000000110001110011001100111111110111011100011110011010011000010000100011000111111110100100001001011111111001111110101011100011100000101010011111100100001001001011000110100111100 j
#111
b10011111111011011101001100000100001001111100010001011111000000010011011110011101011110110000000011001111011110010001101100001011110110110101011100001011000101110011101100111010111101110010101110011111001000000101001101000101101010110001001001111111011000 j
#112
b1111000100100110110010010011101110001011001011100110000000110111111101010011010010001100001100010000001100111010011101000010101010010100001111010100010100100010100100110011111100110101000110011111000000111111100000000000111110101010001111100110010100000101 j
#113
b1010000111000011011011001101101000000011110000010010101111100011000000111100000010100111111011001010010111000000101000011111011011101000110000101101101000000000101110101100011000001100000010110000010111001100111101100001010010100100110100100101011100011110 j
#114
b10101100111110001001100000001111110010001110101110101011111000001101110011011011011011111011100001100000110000001111011110010110111110001010000100111111011100010110000010000001001011110101000001111100010111011001011100110101001110000011011100101111000111 j
#115
b100000111010100010011100010000001000101110111001011010000101000001100101110010100001111001100001100111111101110001100000011011011011101111110001110110100111010000110100000001100101000001111100100001000001101110010110011111100010100000101111100110000111111 j
#116
b1100000001011110000001100011011100110000000001110101111000010101011101111011010100111110000001011001111101100000000101100000000110110111000110000000111000001011101101101101010011101110000111010110011010010110001011100011100001100110011000101110111001101 j
#117
b10100100011001100101000011111100111010001000101001100000111101011010100010101000001000001110101000010000110001111111000011010001011010001101111001010000101110110001010011101111111011001001101010011100111110011000100001111011101111001111110000001000010101 j
#118
b1100010011001010110001101100111011000111110001011110110111010101010010011100001000101000110111100101111111000000010000101110011100010110110000001111110111110000011100011100000100011011111110110110010111000100010110010000010111100001110010000111010000001111 j
#119
b1111111100111111110111100001001001001000001111111101111100001000111100100011110010100110111111100000110000111001011101011111010010110000001100111001000011101010000000010010110100111000111000010010101100100101101010011101100001100010000111000001110111010001 j
#120
b111011001010101000010001000100111110110100000011011100011011101001101101011100011100001001000001011111100000000100110010110001011001111010011110101000110010001100001111001101110011001110000101101011111101100010010011110010010110000001110001001100111111 j
#121
b101100100011010100111001100111110110101000100001000110011001001101000110000011011100001110001000110011011111100101110101100000101000000111100100010101111000000011101011110100000111111110000000100001111011111111101001100000111101001110101100100000111000101 j
#122
b1101001000001001011010110011111111001000000100111111101100111111001111010001110111101000001111101111001000100101001110000011110010101110001011011111110100110111001111110011010001010100001100100111100100111001011000000010101100111011001111010101000000100011 j
#123
b11011011010101001011111100011000101010110011100100110111001011011001101100100011000101110100010000111011000100011011001101100100111111110000010001000011100010000010111100000001111000111010110111101111000000011001101111010110001100110000101001101111111111 j
#124
b1101100100111101011010100010000110101110001111110100011100011000111000100011111110000110000011100111001100111110011001010000010001101011001110110010011111111010110111010011011000001111111100001110100000110000011000001110011010110010001010010101100111011101 j
#125
b11011011000011110110110000000100101111110001110000101000001100100111001100110011101001000101010101101111010011001110010001111100111110110110111011110000100111000100101110010000111011001011111001110111101101100001000011010110100001111101110110111000111010 j
#126
b1111011000100111011110101101101101111001000111111001000011010011001011100001011011001001110011000101001000001100010100011100011100100101000000100100111011000011111010101111011111011000110000001110010011101101000000001100000001010100111001001100110011000000 j
#127
b1101110111111001010100000011101100011011000001000110001100111110001111100000111011011110001111110000001100011000101101010011111100101011001000011110110000111101011110010010100110001100001110101011100000110000101011000011010110110111001101100110110000101111 j
#128
b101000111100010001100011100000110100111110110011111010011000011111110001101000101000001110010000111011111001011111111001100110101001111110001101111111111010100101000001100001000011011110111011000010111000000000111011110011000001001110000001100100011101111 j
#129
b1101101000110111111000100010110100011111001111000010110100100110110110100011111001111110000111011111100100111111000011100001010001110100001111110001101000001010010100000011110111100101111111111001101000111001101011111111010101101001001101001011111011101011 j
#130
b10011011000000111110001111000110101001110000010001110011111100110001011100010001011001000001100110010111001001011011010001000001101100110011110001011000011010101100001101011000010011001000110000010011011111001010100010101100110000111010000010011000110010 j
#131
b1011000110011100111101110100101001001001011000101011111100000010110010010010011011111110101110111101000011011011011111101000011101000000100010011011011001010111000000000011101011110110001011010010011111101000001111100001001111000111100110100010111000000 j
#132
b100101111101010100001000011001100101101111101001110101000111000010111001111111011011011001111001001011000001000001111010011111110011000000100100000000001000000001000000001110000011111001111111110111100100100101000010011110011001101001011001001010100111000 j
#133
b100010111110001000110111100000010000110111001110101011111000000011001111101111000110110110000100010010111010110101010011100010111110101110011101001101111001010000001101100100111101011110100001000000011000100011011111101100010000001110000011111011111100000 j
#134
b110000100101110011111110011011111010010001101001011001100110001111010010011100110100001001010101000010000111101011110000010001010001011001111110110110100011001111100100011111110111011000011111011011000111110101000100000010111011111001110110110010111111011 j
#135
b111011000001111101001110001000000100110000000110110011101100100111011100000001100101111101101101010111000010100111000000000010011111110001101101000000001010111000011100101110111100000101000111100011010010001000010001111000111011110110101100000000100110 j
#136
b101000111011001001101111100101010111001101100001011011101111010000000011000001110101111001011110110100101000100000101101110010001101001000000111011111010100010110000001011110001010110011011000101000001101111010001100011101100011000000111011011011000011 j
#137
b1001011011100100001010010100011111010111001001110011100101111100101001110111000001111001101101010000011111000110101010011101011011101000000100001100100111110000001100000110111000110001111111101101000010110110100010011111100011001001000000011100100111110 j
#138
b10001100000001111111101100001011101010111101101011000011000000111011011110110000000001110000000110110111100011111101101100000010101000110110101000100111000011110110001101001010100111110001110011000011001100001110001100110111011011110001100001010111010100 j
#139
b11000100010101010000011110100111100001010100010001000111010010111100011000100011110001101010011101100110111101111100010111010101111001110110010101100100111100110110011111010011000000111101110110000111111001111000001010110011011001111110101010100001011 j
#140
b1110000111000101101111111101010101011001110000101111010011011101011001101100000000001001111001110001001111000000110000101111000001100100110000011101111011111010010011111100010000011100000001011100001011001000001110000000111110011110110011101111000100011000 j
#141
b101000100111111000111000000100100000100001111011110001111111110001001110011100110110001111101001101010000110011110010101110101000101101001011010110111011100001010111010010010111011010110110001001100100011100010001111101000100011001000100111110011011001010 j
#142
b1010111010000000000000001101101110111110101111110100100100011111000101101111111100111001010110010000011101001110001010011001011110100111100100101011000111000000111011111110101110101001111000101101000000111000010000011111101100110000100011111111000111111 j
#143
b1111000000010000101011001100100111100000000001101111100111000100101000111111110011001000110000010111110011110010001100001100000010101110111010000011101011000000011110001101111111100101110000010001100011010111001010011100010111000100110011111110110111001001 j
#144
b1000111000010011111111000011111100000110000111011111001100111110110000000010010101001101001111001000001100101101000110110011100000011011001101000111101000110010010111100011100110001101001010110010100100111101100000110010001101100010001111111001000100011010 j
#145
b101000111001110001010101100101110000100110010001001101111010001001000111100010000111011110110010100101111000001110110011110000100001110110000000011111011101011011101001100000000101010111101010111101111000010010111011111111100010101110001101001010100001001 j
#146
b1010100000111111100000000001100011100110001111111100000100001110100000010011111010100010000001001000001000111011011001001111101011111101001101100100101111110000000011110011000110011001111001101110000000101001100011011101110110011110001000010110001111010101 j
#147
b1001111000111110011010000101101111000110011001010111100010101001011111101001100000011000111110000110011011011100011000010011111011011111000110001000100101111011000101110110101100010001101010110010011110111010101010011101010011110000000011100100100111101 j
#148
b1010111000011111101111001101001101101000000101101110110111001100100011100000110001101110110001110110001000000010011000011100001100100111111110001110001011000000000111101110111000000000110000001000110011100100110000101100000010101101110110110010001111000011 j
#149
b1101111000000011010101010011111000000010000011101101101000111111110010100001011110111011001111111111011100100000111110110011110101001011001010011010010000111010100100000011000011001101001101011001011100110110100101010010111100111000001110110010011000101000 j
#150
b1101100011011001110111111100001100100011110100100010001111001000100110101100101111010110110011010110100111000110110100011101010010110010110000101110100011011100100011001100000011100101111001010000011111000000100011011110111100100101110000011010000011111001 j
#151
b101000111100010111100010011011001110001111101011010100011101111101110011111101001000000101000111110000111111010101110000101001100001001111010010001000000000101101000011100111101100111101011000110000110100111110001110101100001100001011101000011111100010 j
#152
b1001101111000001110111111111101110101110110001000001110000000110010001101100100100110010000100000100010011001111110111100001100110000010110101101101111100100010110100001101111011111101001010101111011111100111000000000011001010111100111100011011101100110111 j
#153
b111010100101100100011001110000010001011001001000000111111011000101100010001101110011000110100000010001000010010010110001100101000011100000010000111011111000101111000011111110100010110110000101011010011110011010010111100000011011000111010010010001011000000 j
#154
b1111000011110011110011100011100000011111111111101100100000111100010110010000100000110011001111110101110100010010000000000100000011101001000110110010100100111111101111010010010010110100001111001010000100101100101100100011100001100000001100110011101100110011 j
