11_cs_nwe _channel4/project_1/.Xil/Vivado-1724-GL-0301-949/hw_ila_data_3/zip_work/waveform.vcd
$date
        2023-Aug-10 10:50:41
$end
$version
        Vivado v2018.3 (64-bit)
$end
$timescale
        1ps
$end
$scope module dut $end
$var reg 16 " u3_adc_analysis/adc3_a1_1 [15:0] $end
$var reg 16 2 u3_adc_analysis/adc3_a2_1 [15:0] $end
$var reg 16 B u3_adc_analysis/adc3_a3_1 [15:0] $end
$var reg 16 R u3_adc_analysis/adc3_a4_1 [15:0] $end
$var reg 16 b u3_adc_analysis/adc3_a1_2 [15:0] $end
$var reg 16 r u3_adc_analysis/adc3_a2_2 [15:0] $end
$var reg 16 $" u3_adc_analysis/adc3_a3_2 [15:0] $end
$var reg 16 4" u3_adc_analysis/adc3_a4_2 [15:0] $end
$var reg 16 D" u3_adc_analysis/adc3_b1_1 [15:0] $end
$var reg 16 T" u3_adc_analysis/adc3_b2_1 [15:0] $end
$var reg 16 d" u3_adc_analysis/adc3_b3_1 [15:0] $end
$var reg 16 t" u3_adc_analysis/adc3_b4_1 [15:0] $end
$var reg 16 &# u3_adc_analysis/adc3_b1_2 [15:0] $end
$var reg 16 6# u3_adc_analysis/adc3_b2_2 [15:0] $end
$var reg 16 F# u3_adc_analysis/adc3_b3_2 [15:0] $end
$var reg 16 V# u3_adc_analysis/adc3_b4_2 [15:0] $end
$var reg 1 f# u3_adc_analysis/time_4s_3 $end
$var reg 1 g# _TRIGGER $end
$var reg 1 h# _WINDOW $end
$var reg 1 i# _GAP $end
$upscope $end
$enddefinitions $end
#0
$dumpvars
b11011011100001 "
b11011011100111 2
b11011100011000 B
b11011011001110 R
b11011011100010 b
b11011011100111 r
b11011100011010 $"
b11011011001101 4"
b11011011101001 D"
b11011011100100 T"
b11011011101111 d"
b11011011001101 t"
b11011011101000 &#
b11011011100101 6#
b11011011101111 F#
b11011011010000 V#
0f#
0g#
1h#
0i#
$end
#1
b11011011100010 "
b11011011100110 2
b11011100011001 B
b11011011001011 R
b11011011100011 b
b11011011100101 r
b11011100011100 $"
b11011011100111 D"
b11011011101110 d"
b11011011010001 t"
b11011011101001 &#
b11011011100110 6#
#2
b11011011100011 "
b11011011100111 2
b11011011001111 R
b11011011100001 b
b11011011100110 r
b11011100011000 $"
b11011011001110 4"
b11011011010000 t"
b11011011101000 &#
b11011011100101 6#
b11011011101110 F#
#3
b11011011100010 "
b11011100011010 B
b11011011001110 R
b11011011100010 b
b11011011100111 r
b11011100011010 $"
b11011011001101 4"
b11011011101000 D"
b11011011100101 T"
b11011011101101 d"
b11011011001110 t"
b11011011100111 &#
b11011011001111 V#
#4
b11011011100101 2
b11011100011011 B
b11011011100001 b
b11011011100110 r
b11011100011001 $"
b11011011100110 D"
b11011011101111 d"
b11011011100100 6#
b11011011101111 F#
b11011011001110 V#
#5
b11011011100000 "
b11011011101000 2
b11011100011010 B
b11011011100011 b
b11011100011100 $"
b11011011010000 4"
b11011011101000 D"
b11011011100100 T"
b11011011101110 d"
b11011011010000 t"
b11011011100011 6#
b11011011010000 V#
#6
b11011011100001 "
b11011011100111 2
b11011100011001 B
b11011011001111 R
b11011011100001 b
b11011100011001 $"
b11011011001110 4"
b11011011100110 D"
b11011011100101 T"
b11011011101101 d"
b11011011101000 &#
b11011011100101 6#
b11011011101110 F#
#7
b11011011100011 "
b11011011100100 2
b11011100011010 B
b11011011001101 R
b11011011100000 b
b11011100011000 $"
b11011011001100 4"
b11011011100101 D"
b11011011101111 d"
b11011011001101 t"
b11011011100100 6#
b11011011110000 F#
b11011011001110 V#
#8
b11011011100001 "
b11011011100110 2
b11011100011001 B
b11011011001111 R
b11011011100010 b
b11011011101000 r
b11011011001110 4"
b11011011100111 D"
b11011011100100 T"
b11011011010000 t"
b11011011101101 F#
b11011011010000 V#
#9
b11011011011111 "
b11011100011010 B
b11011011100011 b
b11011011100110 r
b11011100011001 $"
b11011011101000 D"
b11011011100011 T"
b11011100010010 d"
b11011011001110 t"
b11011011100110 &#
b11011011100011 6#
b11011011101110 F#
b11011011001101 V#
#10
b11011011100000 "
b11011100011001 B
b11011011100010 b
b11011011100101 r
b11011100011010 $"
b11011011001111 4"
b11011011101001 D"
b11011011101101 d"
b11011011001101 t"
b11011011101001 &#
b11011011100101 6#
b11011011101111 F#
#11
b11011011100011 "
b11011011101000 2
b11011100011010 B
b11011011100000 b
b11011011101000 r
b11011100011001 $"
b11011011101000 D"
b11011011100101 T"
b11011011101110 d"
b11011011010000 t"
b11011011100111 &#
b11011011100100 6#
b11011011101101 F#
b11011011001110 V#
#12
b11011011100001 "
b11011011100111 2
b11011011001101 R
b11011011100001 b
b11011011100110 r
b11011100011100 $"
b11011011001101 4"
b11011011100110 D"
b11011011100100 T"
b11011011101111 d"
b11011011001110 t"
b11011011101001 &#
b11011011101111 F#
b11011011010000 V#
#13
b11011011100101 2
b11011100011001 B
b11011011001110 R
b11011011100000 b
b11011011100101 r
b11011100011010 $"
b11011011001110 4"
b11011011101000 D"
b11011011101101 d"
b11011011001110 V#
#14
b11011011100000 "
b11011100011010 B
b11011011001111 R
b11011011100001 b
b11011011100110 r
b11011011001101 4"
b11011011101001 D"
b11011011100101 T"
b11011100010010 d"
b11011011001111 t"
b11011011101000 &#
b11011011100011 6#
b11011011001101 V#
#15
b11011011100001 "
b11011011100110 2
b11011100011001 B
b11011011100111 r
b11011100010111 $"
b11011011001111 4"
b11011011100111 D"
b11011011100100 T"
b11011011101101 d"
b11011011010000 t"
b11011011100100 6#
b11011011001110 V#
#16
b11011011100011 "
b11011011001101 R
b11011011100010 b
b11011100011010 $"
b11011011001110 4"
b11011011101000 D"
b11011011100101 T"
b11011011101110 d"
b11011011001110 t"
b11011011010001 V#
#17
b11011011100010 "
b11011100011011 B
b11011011001111 R
b11011011100001 b
b11011011100110 r
b11011011001101 4"
b11011011100110 D"
b11011011100100 T"
b11011100010010 d"
b11011011010000 t"
b11011011100111 &#
b11011011100101 6#
b11011011001110 V#
#18
b11011011100001 "
b11011011100101 2
b11011011001101 R
b11011011100101 r
b11011100011001 $"
b11011011101001 D"
b11011011101110 d"
b11011011001110 t"
b11011011101000 &#
b11011011100011 6#
#19
b11011011100010 "
b11011100011000 B
b11011011001110 R
b11011011100110 r
b11011011001110 4"
b11011011100011 T"
b11011011101111 d"
b11011011001111 t"
b11011011100111 &#
b11011011100101 6#
b11011011101110 F#
#20
b11011011100001 "
b11011100011010 B
b11011011001101 R
b11011011100010 b
b11011011100100 r
b11011011001101 4"
b11011011101000 D"
b11011011110000 d"
b11011011001101 t"
b11011011101111 F#
b11011011001111 V#
#21
b11011011100011 "
b11011011100100 2
b11011011100000 b
b11011011100101 r
b11011011100111 D"
b11011011100101 T"
b11011011001111 t"
b11011011100011 6#
b11011011110000 F#
b11011011001110 V#
#22
b11011011100010 "
b11011011100101 2
b11011100011001 B
b11011011100010 b
b11011011101111 d"
b11011011010001 t"
b11011011101001 &#
b11011011100110 6#
b11011011101111 F#
#23
b11011011100000 "
b11011011100110 2
b11011011001110 R
b11011011100000 b
b11011100011000 $"
b11011011001110 4"
b11011011101000 D"
b11011011100100 T"
b11011011101101 d"
b11011011001101 t"
b11011011101010 &#
b11011011100101 6#
b11011011101110 F#
b11011011010000 V#
#24
b11011011100010 "
b11011100011011 B
b11011011001101 R
b11011011100001 b
b11011011100110 r
b11011100011010 $"
b11011011001101 4"
b11011011100111 D"
b11011011101111 d"
b11011011010001 t"
b11011011101000 &#
b11011011100011 6#
b11011011001110 V#
#25
b11011011100000 "
b11011100011010 B
b11011100011001 $"
b11011011001100 4"
b11011011001111 t"
b11011011100111 &#
b11011100000111 6#
b11011011101101 F#
b11011011001101 V#
#26
b11011011100010 "
b11011100011000 B
b11011011001110 R
b11011011100100 r
b11011011101001 D"
b11011011100011 T"
b11011011101110 d"
b11011011010000 t"
b11011011101001 &#
b11011011100101 6#
b11011011101110 F#
b11011011001110 V#
#27
b11011100011001 B
b11011011001111 R
b11011011100101 b
b11011011100111 r
b11011100011010 $"
b11011011001101 4"
b11011011100111 D"
b11011011101111 d"
b11011011101000 &#
b11011011100100 6#
b11011011101111 F#
b11011011010000 V#
#28
b11011100011010 B
b11011011001101 R
b11011011100010 b
b11011011100101 r
b11011100011100 $"
b11011011001111 4"
b11011011101000 D"
b11011011100100 T"
b11011011001110 t"
b11011011101001 &#
#29
b11011011100101 2
b11011100011001 B
b11011011001100 R
b11011011100011 b
b11011100011010 $"
b11011011001101 4"
b11011011100111 D"
b11011011100011 T"
b11011011101110 d"
b11011011010001 t"
b11011011101000 &#
b11011011100101 6#
#30
b11011011100100 "
b11011011100110 2
b11011011100010 b
b11011011100100 r
b11011100011000 $"
b11011011001011 4"
b11011011100100 T"
b11011011100110 &#
b11011011100100 6#
b11011011010001 V#
#31
b11011011100001 "
b11011011100100 2
b11011011001011 R
b11011011011111 b
b11011100011010 $"
b11011011001100 4"
b11011011101000 D"
b11011011101101 d"
b11011011001101 t"
b11011011101000 &#
b11011011010000 V#
#32
b11011011100011 "
b11011011100110 2
b11011011001110 R
b11011011100011 b
b11011011100101 r
b11011100011001 $"
b11011011100111 D"
b11011011101111 d"
b11011011010000 t"
b11011011100111 &#
b11011011100101 6#
b11011011101110 F#
b11011011001111 V#
#33
b11011011100001 "
b11011011001111 R
b11011011100001 b
b11011011100110 r
b11011100011000 $"
b11011011001110 4"
b11011011101101 d"
b11011011010001 t"
b11011011101000 &#
b11011011100100 6#
b11011011101111 F#
b11011011001101 V#
#34
b11011011100000 "
b11011011100101 2
b11011100011000 B
b11011011001100 R
b11011011100101 r
b11011011001101 4"
b11011011100101 T"
b11011011101110 d"
b11011011101001 &#
b11011011101110 F#
#35
b11011011100010 "
b11011100011010 B
b11011011001111 R
b11011011100011 b
b11011011100110 r
b11011100011001 $"
b11011011101001 D"
b11011011101111 d"
b11011011101000 &#
b11011011001110 V#
#36
b11011011100110 2
b11011100011001 B
b11011011001101 R
b11011011100010 b
b11011011100111 r
b11011100010111 $"
b11011011001110 4"
b11011011101000 D"
b11011011100101 6#
b11011011010000 V#
#37
b11011011100000 "
b11011011100101 2
b11011100011000 B
b11011011100101 r
b11011100011011 $"
b11011011001101 4"
b11011011100110 D"
b11011011100011 T"
b11011011001110 t"
b11011011101111 F#
b11011011001101 V#
#38
b11011011100001 "
b11011011100011 2
b11011100011010 B
b11011011001100 R
b11011100011001 $"
b11011011001111 4"
b11011011101001 D"
b11011011100100 T"
b11011011101101 d"
b11011011100100 6#
#39
b11011011100000 "
b11011011100100 2
b11011011010000 R
b11011011100000 b
b11011011100110 r
b11011100010111 $"
b11011011100111 D"
b11011011100101 T"
b11011011101110 d"
b11011011101001 &#
b11011011101110 F#
#40
b11011011100111 2
b11011100010111 B
b11011011001011 R
b11011011100010 b
b11011100011000 $"
b11011011001101 4"
b11011100010011 d"
b11011011001111 t"
b11011011100110 &#
b11011011001111 V#
#41
b11011011100001 "
b11011011101000 2
b11011100011000 B
b11011011001100 R
b11011011100000 b
b11011011100100 r
b11011100011011 $"
b11011011001011 4"
b11011011101000 D"
b11011011100100 T"
b11011011101101 d"
b11011011001110 t"
b11011011100101 &#
b11011011100011 6#
b11011011110000 F#
b11011011001101 V#
#42
b11011011100010 "
b11011011100110 2
b11011100011100 B
b11011011001111 R
b11011011100001 b
b11011100011000 $"
b11011011001101 4"
b11011011100111 D"
b11011011010001 t"
b11011011101001 &#
b11011011100101 6#
b11011011101101 F#
b11011011001110 V#
#43
b11011011100000 "
b11011100011000 B
b11011011001110 R
b11011011101000 r
b11011100011001 $"
b11011011101001 D"
b11011011101110 d"
b11011011001111 t"
b11011011101000 &#
b11011011100110 6#
b11011011101111 F#
#44
b11011011100010 "
b11011011100100 2
b11011011001101 R
b11011011100000 b
b11011011100101 r
b11011011101000 D"
b11011011110000 d"
b11011011010000 t"
b11011011100111 &#
b11011011100101 6#
b11011011101110 F#
#45
b11011011100011 "
b11011011100101 2
b11011100011010 B
b11011011001111 R
b11011011100001 b
b11011011100110 r
b11011011010000 4"
b11011011100111 D"
b11011011101001 &#
b11011011100100 6#
b11011011101111 F#
#46
b11011011001011 R
b11011011100010 b
b11011100011010 $"
b11011011001110 4"
b11011011100011 T"
b11011011101111 d"
b11011011010001 t"
b11011011010000 V#
#47
b11011011100001 "
b11011100011000 B
b11011011100001 b
b11011011100101 T"
b11011011010000 t"
b11011011100101 6#
#48
b11011011100010 "
b11011011100110 2
b11011100011011 B
b11011011001101 R
b11011011100011 b
b11011100011000 $"
b11011011001101 4"
b11011011101001 D"
b11011011001110 t"
b11011011101000 &#
b11011011100100 6#
#49
b11011011100001 "
b11011011100101 2
b11011100011001 B
b11011011001100 R
b11011011001110 4"
b11011011101000 D"
b11011011100100 T"
b11011011001111 t"
b11011011101001 &#
b11011011001110 V#
#50
b11011011100011 2
b11011100011010 B
b11011011001101 R
b11011011100010 b
b11011011100101 r
b11011100011001 $"
b11011011010000 4"
b11011011100110 D"
b11011011101110 d"
b11011011010000 t"
b11011011100101 6#
b11011011101101 F#
b11011011010001 V#
#51
b11011011100011 "
b11011011100101 2
b11011100011000 B
b11011100011010 $"
b11011011001110 4"
b11011011101001 D"
b11011011100101 T"
b11011011101111 d"
b11011011100111 &#
b11011011101111 F#
b11011011001110 V#
#52
b11011011100010 "
b11011100011001 B
b11011011001100 R
b11011011100100 b
b11011100011001 $"
b11011011101000 D"
b11011011100100 T"
b11011011001111 t"
b11011011100011 6#
b11011011101101 F#
b11011011010000 V#
#53
b11011011100001 "
b11011011100111 2
b11011011001110 R
b11011011100000 b
b11011011100111 r
b11011100011010 $"
b11011011001101 4"
b11011011010000 t"
b11011011101001 &#
b11011011100110 6#
b11011011101110 F#
b11011011001101 V#
#54
b11011011100000 "
b11011011100101 2
b11011011001100 R
b11011011100110 r
b11011011001110 4"
b11011011100110 D"
b11011011100011 T"
b11011011101110 d"
b11011011001101 t"
b11011011101000 &#
b11011011100101 6#
b11011011001110 V#
#55
b11011011100010 "
b11011011100100 2
b11011100011010 B
b11011011001111 R
b11011011100010 b
b11011011001100 4"
b11011011101001 D"
b11011011110000 d"
b11011011001111 t"
b11011011100011 6#
b11011011101111 F#
b11011011010000 V#
#56
b11011011100001 "
b11011011100110 2
b11011100011100 B
b11011011100111 r
b11011100011000 $"
b11011011010000 4"
b11011011101010 D"
b11011100000111 T"
b11011011101111 d"
b11011011010000 t"
b11011011100100 6#
b11011011101110 F#
b11011011001110 V#
#57
b11011011100000 "
b11011011100111 2
b11011100011011 B
b11011011001101 R
b11011011100001 b
b11011100011010 $"
b11011011001100 4"
b11011011101001 D"
b11011011100100 T"
b11011011001101 t"
b11011011100111 &#
b11011011100101 6#
b11011011101111 F#
b11011011010000 V#
#58
b11011011100010 "
b11011011100101 2
b11011011100000 b
b11011011100101 r
b11011011101000 D"
b11011011110000 d"
b11011011010000 t"
b11011011100110 6#
b11011011101110 F#
#59
b11011100011001 B
b11011011001110 R
b11011011100010 b
b11011100011001 $"
b11011011001110 4"
b11011011101001 D"
b11011011100011 T"
b11011011101110 d"
b11011011100101 &#
b11011011100101 6#
b11011011101111 F#
#60
b11011011100001 "
b11011011100100 2
b11011100011100 B
b11011011001101 R
b11011011100111 r
b11011100011010 $"
b11011011001101 4"
b11011011100111 D"
b11011011100101 T"
b11011011001111 t"
b11011011101001 &#
b11011011100011 6#
#61
b11011011100111 2
b11011100011001 B
b11011011010000 R
b11011011100000 b
b11011011100101 r
b11011100011001 $"
b11011011001111 4"
b11011011101000 D"
b11011011100011 T"
b11011011010000 t"
b11011011100111 &#
b11011011100101 6#
b11011011101110 F#
#62
b11011011100011 "
b11011011100110 2
b11011100011010 B
b11011011001111 R
b11011011011110 b
b11011100011010 $"
b11011011100111 D"
b11011011101101 d"
b11011011001110 t"
b11011011101101 F#
#63
b11011011100000 "
b11011011001110 R
b11011011100010 b
b11011011100100 r
b11011100011100 $"
b11011011010001 4"
b11011011100101 T"
b11011011101111 d"
b11011011001110 V#
#64
b11011011100101 2
b11011100011001 B
b11011011100001 b
b11011011100110 r
b11011100011001 $"
b11011011001110 4"
b11011011101000 D"
b11011011100110 T"
b11011011010000 t"
b11011011100110 6#
b11011011101110 F#
b11011011010000 V#
#65
b11011100011011 B
b11011100011010 $"
b11011011001101 4"
b11011011100100 T"
b11011011001101 t"
b11011011101000 &#
b11011011100011 6#
b11011011101101 F#
b11011011001111 V#
#66
b11011011100011 "
b11011011100110 2
b11011100011010 B
b11011011001101 R
b11011011100011 b
b11011011100101 r
b11011100011011 $"
b11011011001110 4"
b11011011100111 D"
b11011011100101 T"
b11011011001110 t"
b11011011100110 &#
b11011011100010 6#
b11011011101110 F#
b11011011010000 V#
#67
b11011100011011 B
b11011011010000 R
b11011011100001 b
b11011100011010 $"
b11011011101000 D"
b11011011100011 T"
b11011011001111 t"
b11011011101001 &#
b11011011100100 6#
b11011011101101 F#
b11011011001110 V#
#68
b11011100011010 B
b11011011001111 R
b11011011100000 b
b11011011100111 r
b11011100011001 $"
b11011011001100 4"
b11011011100100 T"
b11011011101100 d"
b11011011001110 t"
b11011011110000 F#
b11011011001111 V#
#69
b11011011100010 "
b11011100011000 B
b11011011100010 b
b11011011100100 r
b11011100011000 $"
b11011011001110 4"
b11011011101111 d"
b11011011010000 t"
b11011011101000 &#
b11011011101110 F#
b11011011010000 V#
#70
b11011011100000 "
b11011011100111 2
b11011100011100 B
b11011011001110 R
b11011011100011 b
b11011011100111 r
b11011011101001 D"
b11011011010001 t"
b11011011100110 6#
b11011011110000 F#
b11011011001110 V#
#71
b11011011100100 "
b11011011100101 2
b11011100011000 B
b11011011100010 b
b11011011101000 r
b11011100011001 $"
b11011011010000 t"
b11011011100111 &#
b11011011101111 F#
b11011011010000 V#
#72
b11011011100010 "
b11011011100111 2
b11011100011010 B
b11011011001111 R
b11011011100111 r
b11011100011011 $"
b11011011001111 4"
b11011011100111 D"
b11011011100101 T"
b11011011101101 d"
b11011011001110 t"
b11011011101000 &#
b11011011100100 6#
b11011011001110 V#
#73
b11011011100101 2
b11011100011001 B
b11011011001110 R
b11011100011000 $"
b11011011101000 D"
b11011011100100 T"
b11011011101110 d"
b11011011100111 &#
b11011011100010 6#
b11011011001111 V#
#74
b11011011100001 "
b11011011100110 2
b11011100011010 B
b11011011001111 R
b11011011100001 b
b11011011100101 r
b11011100011010 $"
b11011011100111 D"
b11011011101001 &#
b11011011100011 6#
b11011100010010 F#
b11011011010000 V#
#75
b11011011100100 2
b11011100011001 B
b11011011001110 R
b11011011100010 b
b11011011100100 r
b11011100011001 $"
b11011011001110 4"
b11011011101001 D"
b11011011100011 T"
b11011011101111 d"
b11011011101000 &#
b11011011100100 6#
b11011011101111 F#
b11011011001101 V#
#76
b11011011100010 "
b11011011100110 2
b11011100011011 B
b11011011001111 R
b11011011100110 r
b11011100011010 $"
b11011011001111 4"
b11011011100111 D"
b11011011100101 T"
b11011011010000 t"
b11011011100010 6#
b11011011101110 F#
b11011011010000 V#
#77
b11011011100001 "
b11011100011010 B
b11011011001101 R
b11011011100100 b
b11011100011011 $"
b11011011010000 4"
b11011100010001 d"
b11011011101001 &#
b11011011100101 6#
b11011011101101 F#
b11011011001110 V#
#78
b11011011100111 2
b11011100011000 B
b11011011010000 R
b11011011100001 b
b11011100011000 $"
b11011011001101 4"
b11011011101000 D"
b11011011100011 T"
b11011011101111 d"
b11011011001111 t"
b11011011100001 6#
b11011011001101 V#
#79
b11011011100101 2
b11011100010111 B
b11011011001110 R
b11011011100011 b
b11011011100111 r
b11011100011010 $"
b11011011001110 4"
b11011011100101 T"
b11011011001110 t"
b11011011101000 &#
b11011011100011 6#
b11011011101111 F#
b11011011010000 V#
#80
b11011011100010 "
b11011011100110 2
b11011100011001 B
b11011011100010 b
b11011011101000 r
b11011100011001 $"
b11011011101001 D"
b11011011100011 T"
b11011011100111 &#
b11011011100001 6#
b11011011101110 F#
b11011011001110 V#
#81
b11011011100001 "
b11011100011100 B
b11011011001101 R
b11011011100111 r
b11011100011000 $"
b11011011001100 4"
b11011011101000 D"
b11011100010010 d"
b11011011101000 &#
b11011011100010 6#
b11011011101101 F#
b11011011010000 V#
#82
b11011011100101 2
b11011100011000 B
b11011011001100 R
b11011011101001 r
b11011011001111 4"
b11011011100111 D"
b11011011100100 T"
b11011011100111 &#
b11011011100011 6#
b11011011101111 F#
#83
b11011011100011 "
b11011011100111 2
b11011011001110 R
b11011011100011 b
b11011011100110 r
b11011100011001 $"
b11011011001110 4"
b11011011101001 D"
b11011011100011 T"
b11011011101111 d"
b11011011010000 t"
b11011011101101 F#
#84
b11011011011111 "
b11011011001101 R
b11011011100001 b
b11011011001111 4"
b11011011100100 T"
b11011011101110 d"
b11011011101000 &#
b11011011100101 6#
b11011011101110 F#
b11011011001110 V#
#85
b11011011100011 "
b11011011101000 2
b11011100011010 B
b11011011100111 r
b11011100010111 $"
b11011011001101 4"
b11011011100111 D"
b11011011101101 d"
b11011011010001 t"
b11011011100100 6#
b11011011101111 F#
b11011011001111 V#
#86
b11011011100100 2
b11011100011001 B
b11011011001110 R
b11011011100011 b
b11011011100110 r
b11011100011100 $"
b11011011001100 4"
b11011011100101 T"
b11011011101111 d"
b11011011010010 t"
b11011011101010 &#
b11011011010000 V#
#87
b11011011100110 2
b11011100011000 B
b11011011100001 b
b11011011101000 r
b11011100011000 $"
b11011011001110 4"
b11011011101000 D"
b11011011100011 T"
b11011011101110 d"
b11011011001110 t"
b11011011100111 &#
b11011011100011 6#
b11011011001111 V#
#88
b11011100011010 B
b11011011001101 R
b11011011100011 b
b11011011100101 r
b11011100010111 $"
b11011011001101 4"
b11011011100110 T"
b11011011101111 d"
b11011011010001 t"
b11011011101000 &#
b11011011101110 F#
b11011011001110 V#
#89
b11011011100001 "
b11011011100101 2
b11011100011000 B
b11011011001110 R
b11011011100001 b
b11011100011010 $"
b11011011001100 4"
b11011011100010 T"
b11011011010010 t"
b11011011100100 6#
b11011011101111 F#
b11011011010000 V#
#90
b11011011100011 "
b11011011100100 2
b11011011001101 R
b11011011100000 b
b11011011100100 r
b11011011001101 4"
b11011011101001 D"
b11011011100110 T"
b11011011001101 t"
b11011011100111 &#
b11011011100101 6#
b11011011001110 V#
#91
b11011011100100 "
b11011011100111 2
b11011011001110 R
b11011011100011 b
b11011011100101 r
b11011011001110 4"
b11011011101000 D"
b11011011100101 T"
b11011011101101 d"
b11011011100110 &#
b11011011100100 6#
b11011011001101 V#
#92
b11011011100110 2
b11011100011011 B
b11011011100010 b
b11011100011000 $"
b11011011001101 4"
b11011011101001 D"
b11011011100100 T"
b11011011101111 d"
b11011011101000 &#
b11011011100101 6#
b11011011101110 F#
b11011011010000 V#
#93
b11011011100011 "
b11011011101000 2
b11011100011010 B
b11011011100001 b
b11011011100100 r
b11011100011010 $"
b11011011001110 4"
b11011011101110 d"
b11011011010010 t"
b11011011101001 &#
b11011011100100 6#
b11011100010010 F#
b11011011001101 V#
#94
b11011011100010 "
b11011011100100 2
b11011100011000 B
b11011011001101 R
b11011011100010 b
b11011011100110 r
b11011011001101 4"
b11011011100011 T"
b11011011101101 d"
b11011011010000 t"
b11011011100110 &#
b11011011100011 6#
b11011011101110 F#
b11011011010000 V#
#95
b11011011100110 2
b11011100011010 B
b11011100011000 $"
b11011011100110 D"
b11011011100100 T"
b11011011101111 d"
b11011011001111 t"
b11011011101000 &#
b11011011100100 6#
b11011011110001 F#
b11011011001111 V#
#96
b11011011100011 "
b11011011100101 2
b11011100011000 B
b11011011001110 R
b11011011100011 b
b11011100011001 $"
b11011011001111 4"
b11011011101001 D"
b11011011101110 F#
b11011011010000 V#
#97
b11011100011010 B
b11011011001111 R
b11011011011111 b
b11011100011010 $"
b11011011101000 D"
b11011011100010 T"
b11011011101110 d"
b11011011001110 t"
b11011011100111 &#
b11011011101101 F#
b11011011001101 V#
#98
b11011011100001 "
b11011011100110 2
b11011011100000 b
b11011100011001 $"
b11011011001101 4"
b11011011101001 D"
b11011011100011 T"
b11011011101101 d"
b11011011010000 t"
b11011011101000 &#
b11011011100101 6#
b11011011101110 F#
#99
b11011011100010 "
b11011011100101 2
b11011011001100 R
b11011011100001 b
b11011011100101 r
b11011100011010 $"
b11011011101000 D"
b11011011100110 T"
b11011011101111 d"
b11011011100110 &#
b11011011100011 6#
b11011011010000 V#
#100
b11011011100100 2
b11011011001101 R
b11011011101000 r
b11011100011001 $"
b11011011100101 T"
b11011011110000 d"
b11011011001101 t"
b11011011100111 &#
b11011011100101 6#
b11011011101101 F#
b11011011001100 V#
#101
b11011011100111 2
b11011100011001 B
b11011011001111 R
b11011011100111 r
b11011100011000 $"
b11011011100111 D"
b11011011100011 T"
b11011011101111 d"
b11011011010000 t"
b11011011101000 &#
b11011011100011 6#
b11011011101110 F#
b11011011010000 V#
#102
b11011011100110 2
b11011100011000 B
b11011011001110 R
b11011011100110 r
b11011100010111 $"
b11011011001110 4"
b11011011101001 D"
b11011011100010 T"
b11011011110000 d"
b11011011100111 &#
b11011011100100 6#
b11011011001110 V#
#103
b11011011100000 "
b11011100011001 B
b11011011001101 R
b11011011100111 r
b11011100011001 $"
b11011011010000 4"
b11011011100101 D"
b11011011100100 T"
b11011011101111 d"
b11011011001101 t"
b11011011101001 &#
b11011011100101 6#
b11011011110000 F#
b11011011001111 V#
#104
b11011011100111 2
b11011011001110 R
b11011011100000 b
b11011011100110 r
b11011011001110 4"
b11011011101000 D"
b11011011100101 T"
b11011011101110 d"
b11011011010000 t"
b11011011101000 &#
b11011011100100 6#
b11011011101101 F#
#105
b11011011100010 "
b11011011100110 2
b11011011001111 R
b11011011100010 b
b11011011001111 4"
b11011011100110 D"
b11011011100100 T"
b11011011101101 d"
b11011011010001 t"
b11011011101001 &#
b11011011101111 F#
b11011011010000 V#
#106
b11011011100100 2
b11011100011010 B
b11011011001110 R
b11011011100101 r
b11011011001110 4"
b11011011100111 D"
b11011011100101 T"
b11011011001101 t"
b11011011100011 6#
b11011011101110 F#
b11011011001110 V#
#107
b11011011101000 2
b11011100011001 B
b11011011100000 b
b11011100011010 $"
b11011011101000 D"
b11011011110000 d"
b11011011010000 t"
b11011011101010 &#
b11011011100101 6#
b11011011101111 F#
b11011011001101 V#
#108
b11011011100011 "
b11011011100101 2
b11011100011011 B
b11011011001100 R
b11011011100100 r
b11011100011100 $"
b11011011001100 4"
b11011011100111 D"
b11011011100100 T"
b11011011101110 d"
b11011011101000 &#
b11011011100011 6#
b11011011101110 F#
#109
b11011011100001 "
b11011100011000 B
b11011011001111 R
b11011011100010 b
b11011011100111 r
b11011100011001 $"
b11011011001101 4"
b11011011100101 T"
b11011011101111 d"
b11011011001111 t"
b11011011100010 6#
#110
b11011011100000 "
b11011011100110 2
b11011011001101 R
b11011011100100 r
b11011011001110 4"
b11011011101000 D"
b11011011001101 t"
b11011011101001 &#
b11011011100101 6#
b11011011101111 F#
b11011011001111 V#
#111
b11011011100011 "
b11011011100111 2
b11011100011001 B
b11011011100101 r
b11011011101110 d"
b11011011010000 t"
b11011011100111 &#
b11011011100100 6#
b11011011101110 F#
b11011011001110 V#
#112
b11011011100110 2
b11011011001110 R
b11011011100011 b
b11011011001101 4"
b11011011100111 D"
b11011011100011 T"
b11011011110000 d"
b11011011001101 t"
b11011011100011 6#
b11011011001111 V#
#113
b11011011100100 2
b11011100011011 B
b11011011001101 R
b11011011100010 b
b11011011001111 4"
b11011011100110 D"
b11011011100100 T"
b11011011101111 d"
b11011011001111 t"
b11011011101000 &#
b11011011010001 V#
#114
b11011011100110 2
b11011100011000 B
b11011011001110 R
b11011011100001 b
b11011011100110 r
b11011100010110 $"
b11011011100111 D"
b11011011100001 T"
b11011011101101 d"
b11011011001110 t"
b11011011100111 &#
b11011011100100 6#
b11011011001111 V#
#115
b11011011100010 "
b11011011100101 2
b11011100011010 B
b11011011010000 R
b11011011100010 b
b11011011100100 r
b11011100011010 $"
b11011011001110 4"
b11011011101000 D"
b11011011100101 T"
b11011011101111 d"
b11011011010000 t"
b11011011101000 &#
b11011011100011 6#
b11011011101101 F#
b11011011010000 V#
#116
b11011011100001 "
b11011011100010 2
b11011100011000 B
b11011011001110 R
b11011011100011 b
b11011011100110 r
b11011011001111 4"
b11011011100111 D"
b11011011100011 T"
b11011011101110 d"
b11011011001101 t"
b11011011101001 &#
b11011011100100 6#
b11011011101111 F#
b11011011010001 V#
#117
b11011011100011 "
b11011011100101 2
b11011100010111 B
b11011011100001 b
b11011011100101 r
b11011011001101 4"
b11011011101001 D"
b11011011100100 T"
b11011011110000 d"
b11011011010000 t"
b11011011100111 &#
b11011011001110 V#
#118
b11011011100010 "
b11011011100110 2
b11011100011010 B
b11011011001101 R
b11011011100010 b
b11011011100110 r
b11011100011011 $"
b11011011001100 4"
b11011011101000 D"
b11011011100011 T"
b11011011101111 d"
b11011011001101 t"
b11011011100101 6#
b11011011101101 F#
b11011011010001 V#
#119
b11011011100000 "
b11011011100100 2
b11011100011001 B
b11011011001110 R
b11011011100100 r
b11011100011001 $"
b11011011001110 4"
b11011011100111 D"
b11011011100101 T"
b11011011001110 t"
b11011011100011 6#
b11011011101111 F#
b11011011001111 V#
#120
b11011011100110 2
b11011011100001 b
b11011011100110 r
b11011100011010 $"
b11011011001100 4"
b11011011101000 D"
b11011011100100 T"
b11011011101110 d"
b11011011100101 6#
b11011011101101 F#
b11011011010000 V#
#121
b11011011011111 "
b11011011100100 2
b11011011001101 R
b11011011100010 b
b11011011100100 r
b11011100011000 $"
b11011011001110 4"
b11011011100111 D"
b11011011100101 T"
b11011011101111 d"
b11011011001101 t"
b11011011101000 &#
