11_cs_nwe _channel4/project_1/.Xil/Vivado-9484-GL-0301-949/hw_ila_data_3/zip_work/waveform.vcd
$date
        2023-Aug-08 15:01:47
$end
$version
        Vivado v2018.3 (64-bit)
$end
$timescale
        1ps
$end
$scope module dut $end
$var reg 16 " u3_adc_analysis/adc3_a1_1 [15:0] $end
$var reg 16 2 u3_adc_analysis/adc3_a2_1 [15:0] $end
$var reg 16 B u3_adc_analysis/adc3_a3_1 [15:0] $end
$var reg 16 R u3_adc_analysis/adc3_a4_1 [15:0] $end
$var reg 16 b u3_adc_analysis/adc3_a1_2 [15:0] $end
$var reg 16 r u3_adc_analysis/adc3_a2_2 [15:0] $end
$var reg 16 $" u3_adc_analysis/adc3_a3_2 [15:0] $end
$var reg 16 4" u3_adc_analysis/adc3_a4_2 [15:0] $end
$var reg 16 D" u3_adc_analysis/adc3_b1_1 [15:0] $end
$var reg 16 T" u3_adc_analysis/adc3_b2_1 [15:0] $end
$var reg 16 d" u3_adc_analysis/adc3_b3_1 [15:0] $end
$var reg 16 t" u3_adc_analysis/adc3_b4_1 [15:0] $end
$var reg 16 &# u3_adc_analysis/adc3_b1_2 [15:0] $end
$var reg 16 6# u3_adc_analysis/adc3_b2_2 [15:0] $end
$var reg 16 F# u3_adc_analysis/adc3_b3_2 [15:0] $end
$var reg 16 V# u3_adc_analysis/adc3_b4_2 [15:0] $end
$var reg 1 f# u3_adc_analysis/time_4s_3 $end
$var reg 1 g# _TRIGGER $end
$var reg 1 h# _WINDOW $end
$var reg 1 i# _GAP $end
$upscope $end
$enddefinitions $end
#0
$dumpvars
b1111111111110110 "
b1111111111010010 2
b110 B
b10 R
b10110 b
b1111111111110010 r
b1111111111100110 $"
b10 4"
b1000 D"
b1111111111110110 T"
b1111111111011100 d"
b1010 t"
b1000 &#
b110 6#
b1110 F#
b1010 V#
0f#
0g#
1h#
0i#
$end
#1
b1111111111100110 "
b0 2
b1111111111110110 B
b10000 r
b1111111111110110 $"
b1111111111110000 4"
b11000 D"
b1111111111100110 T"
b111100 d"
b1111111111101100 F#
#2
b1111111111010110 "
b100010 R
b110000 r
b10110 $"
b1000 D"
b110 T"
b1110 d"
b1111111111111100 F#
b1111111111011110 V#
#3
b1111111111110110 "
b1111111111110010 2
b110 B
b10010 R
b1111111111110110 b
b10000 r
b110 $"
b1111111111111000 D"
b1111111111100110 T"
b1111111111101100 d"
b11010 t"
b1111111111110110 6#
b1110 F#
b1010 V#
#4
b110 "
b10000 2
b10110 B
b10 R
b10110 b
b0 r
b1111111111110110 $"
b10010 4"
b1000 D"
b110 T"
b1111111111111100 d"
b1010 t"
b1111111111101000 &#
b1111111111101100 F#
#5
b1111111111110110 "
b1111111111010110 B
b1111111111100110 b
b1111111111110000 4"
b1111111111110110 T"
b1110 d"
b11010 t"
b1111111111111000 &#
b110 6#
b11110 F#
b1111111111011110 V#
#6
b10110 "
b110 B
b1111111111100000 R
b110 b
b1111111111110010 r
b1111111111100000 4"
b110 T"
b1010 t"
b1111111111101100 F#
b1010 V#
#7
b110 "
b110110 B
b1111111111100110 b
b10010 4"
b1111111111111000 D"
b10110 T"
b1111111111101100 d"
b1000 &#
b1111111111100110 6#
b1110 F#
#8
b10110 "
b1111111111110010 2
b110 B
b1111111111110000 R
b1111111111110110 b
b110 $"
b110010 T"
b1110 d"
b11010 t"
b11000 &#
b110 6#
b1111111111111100 F#
b11010 V#
#9
b1111111111110110 "
b0 2
b1111111111010110 B
b10 R
b1111111111010110 b
b0 r
b1000 D"
b10110 T"
b1111111111101100 t"
b1000 &#
b1111111111101100 V#
#10
b110 "
b1111111111100010 2
b1111111111110110 B
b1111111111110110 b
b1111111111110110 $"
b1111111111111000 D"
b110 T"
b1111111111111100 t"
b1111111111101000 &#
b1010 V#
#11
b1111111111110110 "
b10000 2
b10110 b
b110 $"
b1111111111110000 4"
b11000 D"
b10110 T"
b1111111111111100 d"
b1111111111111000 &#
b1111111111110110 6#
b1111111111101100 V#
#12
b110 "
b1111111111100010 2
b1111111111010110 B
b110 b
b1111111111011000 D"
b1010 t"
b11000 &#
b1111111111100110 6#
b11110 F#
b1010 V#
#13
b1111111111100110 "
b0 2
b110 B
b100010 R
b1111111111010110 b
b1111111111010010 r
b1111111111010110 $"
b1000 D"
b110 T"
b1110 d"
b1111111111101100 t"
b1111111111110110 6#
b1111111111111100 F#
b11010 V#
#14
b1111111111110110 "
b10010 R
b1111111111100110 b
b10000 r
b1111111111110110 $"
b10010 4"
b1111111111101000 D"
b1111111111111100 d"
b11010 t"
b1000 &#
b110 6#
b1111111111101100 V#
#15
b110 "
b1111111111010010 2
b1111111111110110 B
b10 R
b1111111111110110 b
b0 r
b10 4"
b1111111111111000 D"
b1111111111100110 T"
b1110 d"
b1110 F#
b1111111111111100 V#
#16
b1111111111010110 "
b1111111111110010 2
b110 B
b1111111111110000 R
b100110 b
b110 $"
b1111111111110000 4"
b110010 T"
b11110 d"
b1010 t"
b1111111111111000 &#
b1111111111110110 6#
b1111111111101100 F#
b1010 V#
#17
b1111111111110110 "
b10 R
b1111111111110110 b
b1111111111110010 r
b10110 $"
b1111111111101000 D"
b110 T"
b1111111111111100 d"
b11010 t"
b10110 6#
b1111111111111100 F#
b1111111111101100 V#
#18
b1111111111110110 B
b1111111111100110 b
b1111111111110110 $"
b10010 4"
b1000 D"
b100010 T"
b1010 t"
b11000 &#
b1111111111110110 6#
b1110 F#
b1010 V#
#19
b1000110 "
b1111111111110110 b
b10000 r
b110 $"
b10 4"
b1111111111111000 D"
b1111111111110110 T"
b1111111111101100 d"
b11010 t"
b1000 &#
b10110 6#
b101100 F#
b11010 V#
#20
b1111111111100110 "
b100000 2
b100110 $"
b1000 D"
b10110 T"
b101000 t"
b110 6#
b111100 F#
b1010 V#
#21
b1111111111110010 2
b10010 R
b1111111111100110 b
b0 r
b1111111111110110 $"
b10010 4"
b110 T"
b1010 t"
b11000 &#
b1111111111110110 6#
b1111111111111100 F#
#22
b10110 "
b0 2
b10110 B
b1111111111110110 b
b1111111111110010 r
b110 $"
b100010 4"
b1111111111110110 T"
b111100 d"
b11010 t"
b110 6#
b1111111111101100 F#
b1111111111101100 V#
#23
b110 "
b1111111111100110 B
b10 R
b1111111111010110 b
b10000 r
b10 4"
b11000 D"
b10110 T"
b1110 d"
b1010 t"
b10110 6#
b1110 F#
#24
b1111111111110110 "
b1111111111110010 2
b1111111111010110 B
b10010 R
b110 b
b0 r
b1111111111110110 $"
b1111111111111000 D"
b110 T"
b1000 &#
b1111111111110110 6#
b1111111111111100 F#
b1010 V#
#25
b1111111111100110 "
b1111111111110110 B
b1111111111100110 b
b10000 r
b1111111111100110 $"
b10010 4"
b1111111111101000 D"
b1111111111101100 d"
b1111111111101100 t"
b1111111111111000 &#
b110 6#
#26
b10110 "
b110000 2
b110 b
b110 $"
b1111111111100000 4"
b1111111111111000 D"
b1111111111110110 T"
b1110 d"
b1010 t"
b11000 &#
b1111111111110110 6#
b1111111111111100 V#
#27
b1111111111110110 "
b10000 2
b110 B
b10 R
b1111111111100110 b
b10010 4"
b110 T"
b1111111111111100 t"
b1000 &#
b1010 V#
#28
b10110 B
b10010 R
b110 b
b1111111111110010 r
b1111111111100110 $"
b10 4"
b1000 D"
b1111111111110110 T"
b1111111111101100 d"
b101000 t"
b1111111111111000 &#
b10110 6#
b1110 F#
b1111111111101100 V#
#29
b0 2
b1111111111100110 B
b10110 b
b10000 r
b110 $"
b10010 4"
b1111111111111000 D"
b1110 d"
b1010 t"
b1000 &#
b1111111111110110 6#
b11010 V#
#30
b10110 "
b1111111111110010 2
b10110 B
b10 R
b1111111111110110 b
b0 r
b1111111111010110 $"
b11000 D"
b1111111111111000 &#
b1111111111100110 6#
b1111111111101100 F#
b1010 V#
#31
b110 B
b10010 R
b10110 b
b1111111111110010 r
b110 $"
b1000 D"
b10110 T"
b1111111111111100 d"
b1111111111011110 t"
b110 6#
b1111111111111100 F#
#32
b110 "
b10000 2
b10 R
b1111111111110110 b
b10000 r
b1111111111110000 4"
b1111111111101000 D"
b1111111111110110 T"
b1111111111101100 d"
b11010 t"
b1000 &#
b1111111111101100 V#
#33
b1111111111110010 2
b1111111111100110 B
b1111111111100000 R
b1111111111010010 r
b1111111111100110 $"
b10 4"
b1000 D"
b110 T"
b1111111111111100 d"
b1111111111101100 t"
b1111111111101000 &#
b1111111111100110 6#
b1010 V#
#34
b1111111111110110 "
b1111111111100010 2
b1111111111110110 B
b1111111111110000 R
b1111111111010110 b
b10000 r
b1111111111110110 $"
b1111111111110000 4"
b1111111111101000 D"
b1111111111011100 d"
b1111111111011110 t"
b1000 &#
b10110 6#
b1110 F#
b1111111111111100 V#
#35
b1111111111100110 "
b0 2
b10110 B
b10 R
b0 r
b110 $"
b10010 4"
b1000 D"
b1111111111111100 d"
b11010 t"
b1111111111110110 6#
b1111111111111100 F#
b1010 V#
#36
b1111111111110110 "
b10000 2
b110 B
b10010 R
b110 b
b10110 $"
b1111111111110000 4"
b1111111111111000 D"
b1110 d"
b101000 &#
b10110 6#
b1110 F#
b11010 V#
#37
b1111111111110010 2
b1111111111100110 B
b110010 R
b1111111111110110 $"
b10010 4"
b101000 D"
b1111111111111100 d"
b1010 t"
b1111111111110110 6#
#38
b10110 "
b0 2
b10110 B
b10010 R
b10110 $"
b100010 4"
b1111111111111000 D"
b101000 t"
b11000 &#
b1111111111011100 F#
b1111111111101100 V#
#39
b1111111111110110 "
b1111111111110110 B
b1111111111110000 R
b1111111111110110 b
b1111111111100010 r
b1111111111110110 $"
b10 4"
b1000 D"
b1110 d"
b1010 t"
b1111111111101000 &#
b1111111111111100 F#
b1010 V#
#40
b110 "
b1111111111110010 2
b110 B
b10010 R
b1111111111100110 b
b1111111111110010 r
b10110 $"
b10010 4"
b1111111111101000 D"
b1111111111011100 d"
b11010 t"
b1000 &#
b110 6#
b1110 F#
#41
b1111111111100110 "
b10000 2
b10000 r
b110 $"
b1111111111110000 4"
b10110 T"
b1111111111111100 d"
b1111111111100110 6#
b11010 V#
#42
b1111111111110110 "
b0 2
b10 R
b1111111111110010 r
b100110 $"
b10010 4"
b11000 D"
b100010 T"
b1010 t"
b110 6#
b1111111111101100 F#
#43
b1111111111100110 "
b10000 2
b1111111111110110 B
b100000 r
b110 $"
b10 4"
b1111111111111000 &#
b1111111111110110 6#
b1110 F#
b1111111111101100 V#
#44
b1111111111110110 "
b1111111111110010 2
b110 B
b1111111111110110 b
b1111111111110010 r
b100110 $"
b1000 D"
b1111111111110110 T"
b1110 d"
b1111111111111100 t"
b1000 &#
b110 6#
b1111111111101100 F#
b11010 V#
#45
b1111111111100110 "
b100010 R
b1111111111100110 b
b10110 $"
b1111111111111100 d"
b1010 t"
b1111111111110110 6#
b1111111111111100 V#
#46
b110 "
b1111111111110110 B
b1111111111110000 R
b110 $"
b10110 T"
b1111111111101100 t"
b1111111111111100 F#
b1010 V#
#47
b10110 "
b0 2
b10110 B
b10010 R
b1111111111010110 b
b10000 r
b1111111111110110 $"
b110 T"
b1111111111101100 d"
b1111111111111100 t"
b110 6#
#48
b1111111111100110 "
b10000 2
b1111111111110110 B
b10 R
b110 b
b110 $"
b1111111111111100 d"
b1010 t"
b1111111111111000 &#
b1111111111110110 6#
b1111111111101100 F#
b11010 V#
#49
b1111111111110110 "
b1111111111010010 2
b1111111111110010 r
b1111111111100110 $"
b1111111111100000 4"
b1111111111110110 T"
b1000 &#
b110 6#
b1110 F#
#50
b110 "
b1111111111110010 2
b1111111111010110 b
b1111111111100010 r
b110 $"
b1111111111110000 4"
b1111111111111000 D"
b110 T"
b11110 d"
b1111111111111100 F#
b1111111111101100 V#
#51
b0 2
b110 B
b10010 R
b110 b
b0 r
b1111111111010110 $"
b1000 D"
b1111111111100110 T"
b1111111111111100 d"
b11000 &#
b10110 6#
b111100 F#
b11010 V#
#52
b1111111111110110 "
b1111111111110110 B
b1111111111110000 R
b1111111111110110 b
b110 $"
b10 4"
b1111111111110110 T"
b1110 d"
b11010 t"
b1000 &#
b100010 6#
b1111111111111100 F#
#53
b1111111111100110 "
b1111111111110010 2
b110 B
b1111111111100110 b
b1111111111110010 r
b1111111111110110 $"
b10010 4"
b11000 D"
b1111111111000110 T"
b1111111111111100 d"
b1111111111111000 &#
b1111111111110110 6#
b1110 F#
b1010 V#
#54
b1111111111110110 "
b0 2
b100110 B
b1111111111100000 R
b10110 b
b10000 r
b1111111111111000 D"
b10110 T"
b1111111111011100 d"
b1010 t"
b110 6#
b1111111111111100 F#
#55
b1111111111100110 "
b10000 2
b1111111111110110 B
b110 b
b110 $"
b1111111111110000 4"
b110 T"
b1111111111101100 d"
b1111111111101000 &#
b10110 6#
b1111111111101100 F#
b1111111111101100 V#
#56
b110 "
b1111111111000010 2
b1111111111110000 R
b1111111111110110 b
b0 r
b10010 4"
b1000 D"
b1110 d"
b11010 t"
b11000 &#
b110 6#
b1010 V#
#57
b1111111111110110 "
b0 2
b110 B
b100110 b
b1111111111110010 r
b1111111111110110 $"
b1111111111111100 d"
b1010 t"
b1000 &#
b1111111111100110 6#
b1110 F#
b11010 V#
#58
b10110 "
b1111111111110010 2
b1111111111110110 B
b10010 R
b1111111111100110 b
b10000 r
b1111111111110000 4"
b101000 D"
b1110 d"
b11000 &#
b1111111111110110 6#
b1111111111101100 F#
b1111111111101100 V#
#59
b1111111111100110 "
b1111111111100010 2
b10110 B
b1111111111110000 R
b1111111111110110 b
b110 $"
b10 4"
b1000 D"
b100110 T"
b110 6#
#60
b1111111111110010 2
b1111111111110110 B
b1111111111100000 R
b110 b
b1111111111110110 $"
b1111111111100000 4"
b1111111111111000 D"
b10110 T"
b1111111111101100 d"
b101000 &#
b1110 F#
#61
b10110 B
b10 R
b110 $"
b10 4"
b1111111111101000 D"
b110 T"
b1111111111111100 d"
b1111111111101100 t"
b1000 &#
b1111111111110110 6#
b1111111111111100 F#
b1010 V#
#62
b10110 "
b1111111111110110 B
b1111111111110000 R
b1111111111111000 &#
b110 6#
b1111111111101100 F#
#63
b1111111111100110 "
b100110 B
b1111111111110110 b
b1111111111100000 4"
b1000 D"
b1110 d"
b1010 t"
b1000 &#
b110010 6#
b1110 F#
#64
b1111111111110110 "
b1111111111100110 B
b1111111111100000 R
b1111111111110110 $"
b10 4"
b1111111111110110 T"
b1111111111101100 d"
b1111111111101100 t"
b101000 &#
b1111111111010110 6#
b1111111111101100 F#
#65
b0 2
b1111111111110110 B
b10 R
b0 r
b11010 t"
b1000 &#
b1111111111000110 6#
b1110 F#
b11010 V#
#66
b1111111111110010 2
b110 b
b100000 r
b10110 $"
b10010 4"
b1111111111111000 D"
b10110 T"
b1010 t"
b11000 &#
b10110 6#
b1111111111111100 F#
b1010 V#
#67
b1111111111100110 B
b1111111111110000 R
b1111111111010110 b
b1111111111010010 r
b110 $"
b10 4"
b1111111111100110 T"
b1110 d"
b1111111111111100 t"
b1000 &#
b1111111111110110 6#
b1110 F#
#68
b110 "
b10000 2
b1111111111110110 B
b100010 R
b110 b
b10000 r
b10110 $"
b10010 4"
b1000 D"
b1111111111110110 T"
b1111111111101100 d"
b1010 t"
b110 6#
b1111111111111100 F#
b11010 V#
#69
b1111111111100110 "
b0 2
b110 B
b10 R
b1111111111010110 b
b1111111111100110 $"
b11000 D"
b1111111111100110 T"
b1111111111111100 d"
b1111111111111000 &#
b1111111111101100 F#
b1010 V#
#70
b1111111111110110 "
b1111111111110010 2
b1111111111110110 B
b10010 R
b100110 b
b110 $"
b100010 4"
b1111111111111000 D"
b110 T"
b1111111111011100 d"
b1000 &#
b1111111111101100 V#
#71
b1111111111100110 "
b0 2
b10110 B
b10 R
b10110 b
b0 r
b1111111111100000 4"
b1111111111101100 d"
b11010 t"
b1111111111111000 &#
b1111111111111100 F#
b1111111111111100 V#
#72
b110 "
b110000 2
b100110 B
b10010 R
b110 b
b1111111111110000 4"
b1111111111101000 D"
b1110 d"
b1010 t"
b1111111111100110 6#
b1010 V#
#73
b1111111111110110 "
b10000 2
b1111111111110110 B
b1111111111110000 R
b1111111111110110 b
b1111111111100000 4"
b1111111111111100 d"
b1111111111111100 t"
b1000 &#
b1111111111010110 6#
b1110 F#
b101000 V#
#74
b1111111111010010 2
b1111111111100110 B
b10010 R
b10110 $"
b1111111111110000 4"
b11000 D"
b100010 T"
b101100 d"
b101000 t"
b1111111111111000 &#
b110 6#
b1111111111101100 F#
b1010 V#
#75
b1111111111110010 2
b1111111111110110 B
b10 R
b1111111111100110 b
b1111111111100110 $"
b10 4"
b1000 D"
b110 T"
b1111111111101100 d"
b11010 t"
b1000 &#
b1111111111111100 F#
b11010 V#
#76
b110 "
b100000 2
b10110 B
b1111111111110000 R
b1111111111110110 b
b100000 r
b10010 4"
b11000 D"
b1111111111111100 d"
b1111111111111000 &#
b1010 V#
#77
b100110 "
b0 2
b10010 R
b110 b
b0 r
b110 $"
b10 4"
b1111111111111000 D"
b1010 t"
b1111111111111100 V#
#78
b1111111111110110 "
b10000 2
b1111111111110110 B
b1111111111110110 b
b1111111111110110 $"
b1111111111100110 T"
b1110 d"
b11010 t"
b10110 6#
b1110 F#
b11010 V#
#79
b0 2
b10110 B
b110 b
b10000 r
b110 $"
b1111111111110000 4"
b1000 D"
b110 T"
b1010 t"
b11000 &#
b1111111111110110 6#
b1111111111111100 F#
b1010 V#
#80
b1111111111110110 B
b0 r
b100010 4"
b1111111111111000 D"
b1111111111110110 T"
b1111111111011100 d"
b1000 &#
b110 6#
b1110 F#
#81
b10110 "
b110 B
b10110 b
b1111111111110010 r
b100110 $"
b10010 4"
b110 T"
b1111111111111100 d"
b1111111111101100 t"
b11110 F#
#82
b1111111111110110 "
b1111111111110010 2
b1111111111110110 B
b110 b
b110000 r
b1111111111110110 $"
b10 4"
b1111111111101000 D"
b1111111111100110 T"
b1111111111101100 d"
b1010 t"
b1111111111101000 &#
b1110 F#
b1111111111101100 V#
#83
b1111111111010110 "
b0 2
b10 R
b0 r
b100110 $"
b10010 4"
b1000 D"
b110 T"
b1110 d"
b1000 &#
b1111111111100110 6#
b1111111111111100 F#
b1010 V#
#84
b1111111111100110 "
b1111111111110010 2
b10110 B
b1000010 R
b1111111111110110 b
b1111111111010010 r
b10110 $"
b100010 4"
b1111111111101000 D"
b1111111111100110 T"
b1111111111101100 d"
b11010 t"
b1111111111111000 &#
#85
b10000 2
b110 B
b10010 R
b10000 r
b110 $"
b10 4"
b1111111111111000 D"
b10110 T"
b1110 d"
b1010 t"
b11000 &#
#86
b1111111111110110 "
b1111111111110010 2
b1111111111110110 B
b10 R
b110 b
b100000 r
b10110 $"
b1111111111110000 4"
b11000 D"
b110 T"
b1111111111111100 d"
b1111111111101100 t"
b1111111111111000 &#
b10110 6#
b1111111111101100 V#
#87
b100000 2
b10110 B
b10010 R
b10000 r
b1111111111110110 $"
b100010 4"
b10110 T"
b1110 d"
b11010 t"
b101000 &#
b100010 6#
b1111111111111100 V#
#88
b0 2
b1111111111110110 B
b10 R
b100000 r
b110 $"
b10 4"
b1111111111110110 T"
b1010 t"
b1000 &#
b1111111111110110 6#
b1110 F#
b1010 V#
#89
b10110 "
b1111111111010110 B
b1111111111110000 R
b0 r
b1111111111110110 $"
b10010 4"
b1111111111101000 D"
b1111111111111100 d"
b11010 t"
b1111111111111000 &#
b1111111111111100 F#
#90
b1111111111110110 "
b10000 2
b1111111111110110 B
b10010 R
b100110 b
b10000 r
b110 $"
b10 4"
b1000 D"
b110 T"
b1010 t"
b110 6#
b1110 F#
#91
b110 "
b110 b
b100110 $"
b1111111111111000 D"
b11000 &#
b10110 6#
#92
b1111111111100110 "
b110000 r
b10010 4"
b101000 D"
b1111111111110110 T"
b1000 &#
b1111111111111100 F#
#93
b110 "
b10 R
b10110 b
b10000 r
b110 $"
b10110 T"
b1110 d"
b1111111111101100 t"
b101000 &#
b110 6#
b1110 F#
#94
b100000 2
b110 B
b110 b
b1111111111110100 $"
b10 4"
b1000 D"
b110 T"
b1111111111111100 d"
b11010 t"
b1111111111111000 &#
b1111111111110110 6#
b1111111111111100 F#
#95
b10000 2
b1111111111100100 B
b100010 R
b1111111111111000 D"
b1111111111101100 d"
b1010 t"
b11000 &#
b1111111111101100 F#
#96
b1111111111110110 "
b1111111111110010 2
b1111111111110100 B
b1111111111100000 R
b1111111111100110 b
b10110 $"
b1111111111100000 4"
b1111111111110110 T"
b1111111111011110 t"
b1000 &#
b1111111111011100 F#
b1111111111101100 V#
#97
b110110 "
b1111111111100010 2
b110110 B
b1111111111110000 R
b1111111111010110 b
b0 r
b110 $"
b10010 4"
b110 T"
b1110 d"
b1010 t"
b1111111111111000 &#
b110 6#
b1111111111101100 F#
b1010 V#
#98
b110 "
b0 2
b1111111111110100 B
b1111111111110110 b
b10000 r
b1111111111110100 $"
b11000 D"
b1111111111100110 T"
b1111111111111100 d"
b1111111111101100 t"
b1111111111011100 F#
b11010 V#
#99
b1111111111010010 2
b110 b
b1111111111110010 r
b10110 $"
b1111111111111000 D"
b110 T"
b1010 t"
b1000 &#
b10110 6#
#100
b1111111111110110 "
b0 2
b110 B
b10000 r
b10 4"
b1000 D"
b100010 T"
b1111111111101100 t"
b1111111111101000 &#
b110 6#
b1110 F#
#101
b1111111111010110 "
b10000 2
b100110 B
b10 R
b1111111111100110 b
b1111111111110010 r
b101000 D"
b110 T"
b1111111111101100 d"
b1010 t"
b1000 &#
b1111111111011100 F#
b1010 V#
#102
b1111111111100110 "
b1111111111110010 2
b110 B
b1111111111110000 R
b110 b
b10000 r
b1111111111110100 $"
b10010 4"
b1000 D"
b1111111111110110 T"
b11010 t"
b1111111111101000 &#
b1111111111100110 6#
b1110 F#
#103
b1111111111110110 "
b10000 2
b10 R
b1111111111000110 b
b0 r
b10110 $"
b1111111111110000 4"
b1111111111111000 D"
b10110 T"
b1111111111111100 d"
b1010 t"
b1000 &#
b110 6#
b1111111111101100 F#
b1111111111101100 V#
#104
b10110 "
b110 b
b100000 r
b1111111111110100 $"
b10010 4"
b1111111111110110 T"
b1111111111111100 t"
b11000 &#
b1111111111110110 6#
b1111111111011100 F#
b1111111111011110 V#
#105
b100110 "
b110000 2
b1111111111110100 B
b1111111111110110 b
b110 $"
b1111111111110000 4"
b1111111111100110 T"
b1010 t"
b1111111111111000 &#
b110 6#
b1110 F#
b11010 V#
#106
b110 "
b10000 2
b110 B
b1111111111110000 R
b110000 r
b1111111111100100 $"
b10 4"
b1000 D"
b10110 T"
b11010 t"
b11000 &#
b1111111111100110 6#
b1111111111111100 F#
b1010 V#
#107
b1111111111110010 2
b1111111111110100 B
b10 R
b110 b
b10000 r
b10110 $"
b1111111111100000 4"
b100110 T"
b111100 d"
b1010 t"
b1111111111111000 &#
b1111111111110110 6#
b1111111111101100 F#
b11010 V#
#108
b1111111111010110 "
b0 2
b10110 B
b1111111111110000 R
b1111111111100110 b
b1111111111110010 r
b1111111111110000 4"
b100010 T"
b1111111111111100 d"
b101000 t"
b1111111111101000 &#
b1111111111111100 F#
#109
b10110 "
b10000 2
b1111111111110100 B
b10010 R
b1111111111110110 b
b0 r
b1111111111100100 $"
b1111111111101000 D"
b110 T"
b111100 d"
b1010 t"
b1000 &#
b1010 V#
#110
b110 "
b0 2
b110 B
b110 b
b1111111111110010 r
b1111111111110100 $"
b1000 D"
b1110 d"
b1111111111011000 &#
b110 6#
b1111111111011100 F#
#111
b10000 2
b10110 B
b100010 R
b1111111111110110 b
b1111111111010010 r
b10110 $"
b10010 4"
b1111111111111000 D"
b1111111111110110 T"
b1111111111111100 t"
b1111111111111000 &#
b10110 6#
b1111111111001110 V#
#112
b1111111111010110 "
b0 2
b110 B
b10 R
b0 r
b1111111111100100 $"
b110 T"
b1111111111111100 d"
b1010 t"
b1000 &#
b100110 6#
b1111111111101100 F#
b1111111111101100 V#
#113
b1111111111110110 "
b10000 2
b1111111111110000 R
b1111111111100110 b
b1111111111110010 r
b10 4"
b1000 D"
b10110 T"
b11010 t"
b1111111111111000 &#
b110010 6#
b1010 V#
#114
b10110 "
b10 R
b10110 b
b0 r
b1111111111110100 $"
b10010 4"
b1111111111111000 D"
b1010 t"
b1111111111101000 &#
b10110 6#
#115
b110 "
b1111111111100010 2
b10010 R
b1111111111100110 b
b1111111111110000 4"
b1000 D"
b1111111111110110 T"
b1110 d"
b1000 &#
b1111111111110110 6#
b11010 V#
#116
b10110 "
b1111111111110100 B
b110 b
b10000 r
b110 $"
b10 4"
b110 T"
b1111111111101100 d"
b1111111111111100 t"
b110 6#
b1111111111111100 F#
#117
b10000 2
b110 B
b0 r
b10110 $"
b1111111111110000 4"
b10110 T"
b1111111111111100 d"
b1010 t"
b10110 6#
b1010 V#
#118
b110 "
b0 2
b1111111111110100 B
b1111111111110110 b
b1111111111110010 r
b1111111111110100 $"
b10010 4"
b1111111111101100 t"
b1111111111111000 &#
b1111111111110110 6#
b1111111111101100 F#
b1111111111101100 V#
#119
b1111111111110110 "
b100110 B
b100010 R
b1111111111100110 b
b10000 r
b110 $"
b100010 4"
b1111111111101000 D"
b1111111111100110 T"
b1111111111101100 d"
b1000 &#
b110 6#
b1111111111111100 F#
b1010 V#
#120
b10110 "
b1111111111110010 2
b1111111111100100 B
b10010 R
b1111111111110010 r
b10 4"
b10110 T"
b101000 t"
b1111111111111000 &#
b11010 V#
#121
b1111111111010110 "
b0 2
b110 B
b10 R
b1111111111110110 b
b1111111111110000 4"
b1111111111111000 D"
b1111111111110110 T"
b1111111111011100 d"
b1111111111101100 t"
b1111111111011000 &#
b1111111111101100 F#
b1111111111111100 V#
#122
b110 "
b1111111111110010 2
b1111111111100100 B
b10010 R
b0 r
b1111111111110100 $"
b1111111111100000 4"
b11000 D"
b1111111111101100 d"
b1010 t"
b1000 &#
b1111111111110110 6#
b1111111111011100 F#
b1010 V#
#123
b1111111111110110 "
b100000 2
b1111111111110000 R
b1111111111100110 b
b110 $"
b10 4"
b101000 D"
b10110 T"
b1111111111111100 d"
b11000 &#
b10110 6#
b1111111111101100 F#
b1111111111101100 V#
#124
b10110 "
b1111111111110010 2
b10 R
b10110 b
b10000 r
b1111111111100100 $"
b10010 4"
b1111111111011000 D"
b110 T"
b1111111111101100 d"
b1000 &#
b1111111111110110 6#
b1111111111111100 F#
b1010 V#
#125
b110 "
b110 B
b10010 R
b110 b
b0 r
b110 $"
b1111111111111000 D"
b1110 d"
b1111111111111000 &#
b10110 6#
b1111111111101100 F#
b11010 V#
#126
b1111111111110110 "
b1111111111010010 2
b1111111111110100 B
b10 R
b1111111111100100 $"
b10 4"
b1000 D"
b1111111111111100 d"
b1111111111101000 &#
b1111111111111100 F#
b1010 V#
#127
b110 "
b1111111111110010 2
b110 B
b1111111111110110 b
b1111111111110100 $"
b11000 D"
b1110 d"
b1000 &#
b110 6#
b1110 F#
#128
b1111111111110110 "
b10110 B
b10010 R
b1111111111100110 b
b110 $"
b10010 4"
b1111111111100110 T"
b1111111111111100 d"
b1111111111111000 &#
b1111111111100110 6#
b1111111111101100 F#
#129
b10110 "
b0 2
b1111111111110100 B
b1111111111100000 R
b1111111111110110 b
b100000 r
b1111111111010100 $"
b10 4"
b1111111111111000 D"
b110010 T"
b11000 &#
b1111111111110110 6#
b1111111111111100 F#
b1111111111101100 V#
#130
b1111111111010110 "
b1111111111010010 2
b110 B
b10010 R
b10000 r
b110 $"
b1111111111110000 4"
b1111111111101000 D"
b110 T"
b1111111111111000 &#
b10110 6#
b1010 V#
#131
b1111111111110010 2
b10 R
b1111111111010110 b
b1111111111110100 $"
b10 4"
b1000 D"
b111100 d"
b11000 &#
b110 6#
b1111111111101100 F#
b11010 V#
#132
b1111111111100110 "
b10000 2
b1111111111100100 B
b100010 R
b1111111111100110 b
b0 r
b10010 4"
b11000 D"
b1111111111101100 d"
b1000 &#
b100010 6#
b1110 F#
b1111111111111100 V#
#133
b1111111111110110 "
b1111111111010010 2
b10110 B
b10 R
b1111111111110010 r
b110 $"
b10 4"
b1111111111101000 D"
b1110 d"
b11010 t"
b1111111111011000 &#
b1111111111110110 6#
b1111111111111100 F#
b11010 V#
#134
b10000 2
b1111111111110110 b
b1111111111110100 $"
b10010 4"
b1111111111111000 D"
b1111111111101100 d"
b1111111111101100 t"
b1111111111111000 &#
b1111111111101100 F#
#135
b1111111111100110 "
b0 2
b110 B
b10110 $"
b1111111111110110 T"
b1010 t"
b1000 &#
b110 6#
#136
b1111111111110110 "
b10110 B
b1111111111010110 b
b1111111111100010 r
b1000 D"
b1111111111111100 d"
b1111111111111100 F#
b1010 V#
#137
b1111111111010110 "
b1111111111110100 B
b1111111111110110 b
b10000 r
b1111111111010100 $"
b10 4"
b1111111111111000 D"
b1111111111101100 d"
b1111111111101100 t"
b1111111111101000 &#
b1111111111110110 6#
#138
b1111111111110110 "
b10000 2
b10110 B
b100010 R
b110 b
b110000 r
b1111111111100100 $"
b100010 4"
b110 T"
b1111111111111100 d"
b1010 t"
b1000 &#
b1111111111100110 6#
b1111111111101100 F#
#139
b1111111111110010 2
b1111111111110100 B
b10 R
b1111111111110010 r
b110 $"
b10 4"
b1000 D"
b110 6#
b1110 F#
b1111111111101100 V#
#140
b10110 b
b100000 r
b1111111111111000 D"
b110010 T"
b1111111111011100 d"
b11010 t"
b1111111111101000 &#
b1111111111110110 6#
b1111111111111100 F#
b1010 V#
#141
b10110 "
b110 B
b100010 R
b1111111111110110 b
b10000 r
b10010 4"
b110 T"
b1110 d"
b1010 t"
b1000 &#
b1111111111011100 F#
b11010 V#
#142
b1111111111100110 "
b10000 2
b10010 R
b1111111111110010 r
b100010 4"
b1000 D"
b1111111111110110 T"
b1111111111111100 d"
b1111111111101100 t"
b1111111111111000 &#
b110 6#
b1111111111101100 F#
b1111111111111100 V#
