11_cs_nwe _channel4/project_1/.Xil/Vivado-19400-GL-0301-949/hw_ila_data_5/zip_work/waveform.vcd
$date
        2023-May-09 16:12:48
$end
$version
        Vivado v2018.3 (64-bit)
$end
$timescale
        1ps
$end
$scope module dut $end
$var reg 256 " int_dac_top/top_dac1_int/tx_tdata [255:0] $end
$var reg 1 f# int_dac_top/top_dac1_int/syncb_buf $end
$var reg 1 g# int_dac_top/top_dac1_int/syncb_logic $end
$var reg 1 h# sysref_logic $end
$var reg 1 i# sysref_o $end
$var reg 1 j# u_ila_3_tx_aresetn $end
$var reg 1 k# _TRIGGER $end
$var reg 1 l# _WINDOW $end
$var reg 1 m# _GAP $end
$upscope $end
$enddefinitions $end
#0
$dumpvars
b1001000000110101110110100011000001110111001110101010000100101001110111100011110101010111001000011011000000111111001100110001100011100001001111110111000000001110011011110011111001001111000001000110001100111011000100011111101011010010001101101111101011101111 "
0f#
1g#
0h#
0i#
1j#
0k#
1l#
0m#
$end
#1
b11000000101100101110110111001111110000001011011011110111001111011100001111110001000000010011100111000111000111110000110010101010110011001111111000010101011010111101001101001100000111110101000011011011110011010010011100100110111001000100100100101111 "
#2
b1010000000110101110011111110110101011101001011110100000011100100111001010010011101101000110110110110011000011111100000001101001100011010000101101011101111001100001111000000110001000111110001110000111100000010010001111100001111010100111101111101010011000000 "
#3
b11000111100110110001100011000011011101111011111100001100110110111100111111100101011000001110110011000100000100011010000011111001010011000011101101111100111111000101110001100010110011001111110011111000100001111001100011110110001010001010011000001100111010 "
#4
b1001101011110101100000101100000010101001111010110000101011000000001111011110001000110101110000011001010111011001111111001100001111101001110100010100110011001000011010111100101100001010110011100100010111000110000011111101010110011010110000100010111011011101 "
#5
b11101000101011100100000011100100110100001100100101110100110100111001000011011111010010001011010010011000111100000111000010011011011110001111100110101100011101111110010011111111111001000100110111001000111111000001010000101001001010001111011100111111111111 "
#6
b111000010000101111101111101000011110000000100010011101000001010001100000000001101111100101010111011000001001100101111110011001101110001000110111100000110011100011100100110000011000100000111101011001111001010100001101011000001110101100010010100100011 "
#7
b1001101000111100100011101111110110001011001110000110001111110011000010010011001110001010111010010011100100101100010001001110000001000110001001001100111011010111011001100001101101100000110100001101001100010001001010101100101011001010000001110101010111000101 "
#8
b1000000011011000000000010010010100001010111000011101110000101100010111111110101010010001001100110100001011110100111101000011100001110010111111101110001000111100101011000000100001000000001111111010110100010010000000000100000000110011000111000001110000111111 "
#9
b1000110100000101011110001100010001001111111110110111110011000001001011111111000100011001110000000111000111100111010110101100000001010100110111100011101111000010000101001101011010110010110001011110011111001110101001111100101011111011110010001111101011010000 "
#10
b11010000011110101100100011111011010010001001101101011100111011011100000010111001110100001101111101111000110100101001010011000111110010001110011001000100101010100010100011110101100110001000101000111000111111010110010001100111110001001111111010011000001111 "
#11
b1101110111000111100010001101001010101110110000110100110011011010000010101100000100001000111000110000001111000000100000011110110010100000110000000111101111110110110111001100001010110010000000001010100111000110111001010000101011101110110010111101000100010100 "
#12
b1100111100111111011101010000110100110100001111100100110100000011000000010011101100010001111110010100101100110110000000011110111100110010001100000110000111100101110111000010100001110000110111000111101000100000011001111101010001000100000101110111110111001101 "
#13
b100010111001101111011110001011000100101110101000010110000100000001001001101110010010110001010000000111011100101111101010010111110101001111011100001101100110110101101101111100011011110001110101111001100000010000111100011111000011100000011011100100000111111 "
#14
b10011100010101001000111100110000111111000010111101001011000110000011010000000111110111110000101101010111110110101011011100000011011000111011000000001011000000010110011110001111111010110000001001011011011010100100001100001111001000110100101011001011000111 "
#15
b100111000001111111011010011111100000101000110011001100000111111000110010010001010100011001111010100110100101010000110010011101001101100001100010001001000110101010001100011011110101111001011101011011000111011000110100010011110011111001111101000010100011110 "
#16
b11011111010001110011011100100011011001110010101010110011001110110110001100010111001111110101010101001111000010000001111101111001100011110000000001110111100111000101001100000011010111111100000110100111000001111101001111101001010111110001000011001000000101 "
#17
b110000111111100001010001110011111111001111110000010000010011010011100011111100000110000010011111111000111100110011011111111000011101001110011001110011110100110001110011001110110101111010100001110100101101010110101110000101001011001001011100100011011000 "
#18
b11000111000101011011110000011111111001110010010111101100010001001001001101000000010100000110111000100011010111111110110010001111110101110111111111011100101011001101001110100111010010001100100000100111110011011000000011100000110011111111010111110000111100 "
#19
b111000100100011000001111101011101111101000110101011011011001111110110110001000010100001110010011100101000000110111100001100010010001101111111001100001111000001011001101111001000101110110000001001100111101000001110111100000001100101110111111110101111000001 "
#20
b111001111111111001011110011110110101011000010010110010100111111101000110001001111111100001111110001101000011101111011110011111011010010001001010100010100111100100100110010110100010000001110000010100000110100011011000011001001101000001110010111110100101011 "
#21
b111101011011101100000011100001001010011110101010001111011000110010000111100111000110111110010110111100111001000101010101101000100011100110001000100110011011001010001111100000111101101111000010000110111000000010100111110101101110111110000000100000011110101 "
#22
b101111000111010110011110010100111001111001111011000110000100001101010100011111101101100000110001110010100111111101011000000111001111100001111101000110000000100011110100011101101001110111110101111001000110110001101011111000000000001001100011000010011100110 "
#23
b1100011011000000011110101111011100101010110000111011010000000001000111011100011111100011000010111000010111001100110001000001010100111111110100110001011100011111000111101101101110011101001001111110111011100011001000000010111101110111111011010110111000110101 "
#24
b1000011100101111011110001110010000010100001010001001101111011011100110110001111110101100110100110101001100010110111000001100110001111001000011000110010011000111010011000000001001011010110000110001000111111000110111101100000000001001111011100000000011000000 "
#25
b1010001011101111101000110011011010110110111110010100000100111011111101000000001101011010001111100001011100001110110110110011111111011111000101111011100100111111000010010010000111110101001111010101110000101001100110110011101010011111001100001100000100110101 "
#26
b1110001111101011000010001100000001110100111000100010100111000001110001101101100111100111110000110001001111010010001011101100100010001110110010111110010011001101011000001100011011100010110101001010110011000010111110101101110010001010110000001111100111100101 "
#27
b111000110010100000000011010011000110001101111111110100101101000100010011110001001101001001101101001000111110101000010001110111111000001111110011001100010100011110010011111101000001000010100101101100111101000011000000000010101011001110011101011011110101 "
#28
b100100111000000000011001110100000100011110000001101001011110001101000001100000111110101111110111011011011000100001100100000011001010001110010010100011100010000010100101100111111110010000110011001001011010110111100100010001011100010110111100000110100101011 "
#29
b1010011100111000100111111111001100101110001100111100001111101001011001010010110001111001111000000111100100100100111111101101011110011110000110111000100111010000000011010001001001001100110010100000011100001000011011101100010111001011111111010001000111000010 "
#30
b1101010111100000101100010010110000100110111010100110110100110011000001101111010011011000001110000011010111111110110011110011110001101111000010000011011100111111011100100001001000000000010000001111110000011011001001100011111111001111001001001010111000111100 "
#31
b1000110011111011100010011100000101101011111100010001110111000000101010101110011101010011110000001000100111011110001010111100001001000010110101101001100111000101000011101100111110000101110010100001101111001001110100001101000010001111110001000101000011011000 "
#32
b1010000100100110111011010011101101000110001011101001001000110111101111000011010011001100001100011101100000111001101111110010101001111001001111011001100100100010100001110011111110010001000110011111010000111111111000010000111110111110001111101100101000000101 "
#33
b1100001111000011000110111101101000010110110000011101000111100010000001011100000001000111111011001001011111000000001111101111011011001010110000100111010100000000100011101100011010101001000010101100101011001011100101110001010001011101110100101111111000011101 "
#34
b100001000111110100010110000001100011001001110110100110111111001011011000011011000111100111011110101101000110000100110011110010100001011001010011010001111011100101011110010000010010100110101000111110100010111101000101100110110110001000011011111101111000111 "
#35
b1111100011010011111101110001111111110001110110110110011000101000110101111110010011001101001011110110111011101110111110100011010101111001111110001100010100111010101101010000001000001111001111101110000000001100110000110011111110110110000101101101010000111111 "
#36
b111101100001011111011011100011001001011000000010000101011000011000100011111011110110110110000000001001111101101000000011100000010010000111000111111000011000000110010001101101001111100110000111111010011010010100101011100011101000111110011000010000011001101 "
#37
b1100110100011000100111110011111111100101001000011011001100111101000111110010101000110010001110100100010100110001001101000011010100100111001101111101100100101110101000000011101101001010001001111001001000111110101110100001111011101010001111110110000100010101 "
#38
b1111110011001010100001101100111011110001110001011010000111010101011001001100001011010011110111010110101011000000111001011110011000010010110000001001101111110000010111001100000110110111111110100100000111000100111101010000010010101110110010000001001000001111 "
#39
b1111111000111111001111100001001101010111001111110100001100001001000100000011110100001010111111110011100100111001110110001111010011101011001100111110111111101010010010000010110110010000111000010111110100100101111110011101100010111100000111000110000111010001 "
#40
b1101100111001001010000000001000111111011110011111101110000011010010110001101011111001000001000111100000011011111110010100010101111111011111010001010110100110010110011011111001001000011001110001111011011111100011010000011110000110011000001110000001000111111 "
#41
b1011010000011010110111101100111100010110000100011100000111001001000001110000011100001000110001011100101011111100110100101100000110100010111100100011001111000000110100101110100000110110110000001001101011011111110111001100000100110110110101110001100111000101 "
#42
b110111000001001010111010011111101101000000100111111110100111111111000110001110011111010001111101010000100100101010110100011110001100111001011010010111000111000000001010011010010010010001100100100110100111001101010100010101100011101001111011010010000100011 "
#43
b1000000111010101000001001100011001101010110011100001010011001011100110001100100010000000110100010011000111000100000111001101100101010011110000011011011111100001000100001100000000011001111010110110111111000000000000111111010101110000110000100011011011111111 "
#44
b1011111100111101110000000010000110100100001111111010010000011000111010000011111111100111000011101000100100111110110010010000010010010000001110111000101111111010000100010011011101110001111100000010100000110001101111011110011011111110001010011010111011011101 "
#45
b1011111000011011101110000000100000001110001111010011100001011011000011100110010001010000101010001001111010011111000010001111011101100110110100110110100100111101101111110001111110110001011100011110111101101010011000011010100111101111101110100010000111010 "
#46
b100010000101000110011011101101111010001000111111101100011010011100011000001011000000101110011011011010100001100100000001100011110001001000000100110111011000011010011101111100011101000110000000100010011101110000000011100000010101111111001001011110011000000 "
#47
b111100111111001001010100011101110110111000000110100110000111110110111000000110111010111001111111010011000010111101111110011111111010101001000000000010100111110001011010010100110110100001110100111011100110000111000100011010110000011001101101011000000101111 "
#48
b1010101011100010000111101100000111110111110110011101001011000011001111101101001000010000110010001011000111001011101111101100110101111010110001101011010111010100101111011100001011000111110111001001001011000000110000011110010100000110110000000110011111101111 "
#49
b1010100000110111001010000010111011111100001110110111111000100110110001110011111011010111000111011111011000111111011011100001010010000001001111110111111000001010011011000011110101001001000000001100010100111001000100111111011010100011001101000001110111101100 "
#50
b1111111000000100101101111000110010011110000011011100011111011100111111100010011110101000001010011000111001001000011000001000000101010110011111011101000011001011001001101011010111110001000101010111011011110110111110010101011010011111001111110011100110001 "
#51
b101001100110011111111001110100110010001001011001010111111100000101010110010010000101110110110001101010100011011101100101101000001001000000100100110110111001010010000110000100010000111110001010000100111111110001000001100001011011011111100110100111111000000 "
#52
b1110110011101001010010000011001111001010111100111011110000111000111101111111110110111011001111000011001000001000001011010011111100110111000100100000000001000000110001010001101100110000001111111001110100100100110000010011110010000101001011001100010000111000 "
#53
b1010011111110001001000011100000011100011111001110100110111000000101111011101111000011100110000100111000111010110100000001100010100110110110011110110010011001010001110101100100110100111110100001010011011000100001000001101100010010111110000011001111111100000 "
#54
b1110000101110101100010011011110011001001101001111001000110001101111100011100111101100001010100110100000111101110011010010001001111111001111111100100100011001111101100011111100011101000100001100101000111110000001110000011000000010001111001100100111111011 "
#55
b10000111000001100110111110001000000110110000000000110111101100100011111100000000000001111101101011100011000010001110000000000001110011110001100110110100001010101001111100101101011101000101000011001011010010110010000001110111101010110110010111000000100110 "
#56
b11000000111011100010101111100110001100001101100111011111101111100000100011000011010001111001010011101000101001110101101101110011100100001000001100000111010100101101100001011111001000110011011110110000001101000110011100100011001000000000111101100011000011 "
#57
b1011111111011011001101110010100010011111111001001010010000101111001101001110111011011001001101010011110011111000101011010011101001111000000000100000000000111110101001000000110010111101001111110111110000010110110110000011111111000010000111110101000000111110 "
#58
b1000100000000001000111001100001101001110111101111011111111000000010011011110110100000000110000001100011111100011111001011100000011111010110110100110100011000011000111111101001101111000110001110110101111001100111110111100110000001001110001111100110011010011 "
#59
b1011000100100001110000110011110111110001001010010100101100111010000111010011000101010110001101010000100000110111000000100010111110001010001110110111101100100111100001010011111011110000000111101110011100111111100110110001010110100110001111111011100000001011 "
#60
b101111000110011101001101010101110101110000101001111111011101011100011100000010101101111001100000111111000000011000001111000001010000110000010111101011111010001010111100010010111000000001001000111111001000110101110000111001011111110011101001010000011000 "
#61
b101111100111111011111110000100100100010001111010100011111111111010101000011100100010100111101010000111100110100001010011110101101110100001011011100011011100001101011110010010100101001110110011111001100011100100010111101000101111001000100110001111011001011 "
#62
b1101001111001111101001010001101000101001110101111001011000100011100010111101111110011101001010111100001011101000100001110011001010010001111100100010011000111000101110011111110001010100001111001111011000000110111101110011111000000101000100011111110100111111 "
#63
b101000100010001111000101100100101000100000001110010000011000101000001111111110111100000110000011101111011110010001110001100000000001011111010010011000111000000110011111101111111001101110000010110010111010111000000011100010100000110110100001011100011001001 "
#64
b10111000010011111111100011111110101100000111000000010100111111011011110010010101101110001111000011110000101101010010110011100011100001001100111011011100110010001100010011100111010111001010110000101100111101110101110010001101010100001111111110110000011010 "
#65
b1001000011001110111100101100101010110111110010000101011011010001010001111100010011101011110110000110000011000001100000011110000100010010110000001101111111101010011010001100000011000111111101000101111111000010111110011111111011101010110001010011001000001001 "
#66
b1001110100111111110111010001100011101011001111110010001100001111100101100011111000000110000001011010011100111011110010001111101000110000001101111010110011110000010100000011000111110101111001100010110000101010111000101101110111110100001000011010111011010101 "
#67
b1110010111000110011010100000101100111101110011000101000100010101111001111101001010101011000111101011101011011010001111010010011110000001111000111100110100101110000000101110110100101010001101010000000011110111001010110011101000111001000000011010111000111101 "
#68
b11000100000000001011101010011000110000101100010101011001101111100010000110010011101110001111100011100000010100000101100001110001010111110001111001111000000011111111110111000000001110000001110011011100100101100111100000000000000110111000000010011000011 "
#69
b111100100000011001111100011111010100000000011011101001000111111011011010001011111000100001111111010000000100000000101000011111011111110001010001100110000111010010011110011000000000011001101100110001100110110110110000010111100010010001110110111010000101000 "
#70
b10100111011010101111011100001101101001110100101111001111000111110101001100101110011000110011011001010111000110100001111101010011001111110000101001010011011100100110101100000010001001111001010000010011000000001011001110111100010010110000010011110011111001 "
#71
b1110011100111011101011110010011010111011001111100000111000011110111100110011111110101000000101001000100100111111101110100000101001111110001111011000011000000000110111110011100101001111111101101100011000110100010101111110110001010010001011101110000111100010 "
#72
b1000010111000001011110111111101110001001110001001011100000000101000100101100100111010001000011110000001111001111100000010001100100110101110101101000101100100010011110101101111010110010001010101001101011100111110000010011000101011010111100011000101000110111 "
#73
b1011110100101100111001001110000011011101001001000101111011011000000011000001110011011100110100001000001100010010100011111100101010000000000010001010000011000101010001101111111000110000110000100001011111110100010101011100000000110110111010100001110011000000 "
#74
b1000111011110011100111110011100010111010111111011010100000111100111101100000011100100011001111111111110100010001000000000100000010001110000110110011100100111111011010110010010011010100001111000101100000101100111000000011100000100100001100110111011100110011 "
#75
b1110011101000010001111100000011110001110111100000110011000010101000001101011001100111110001010101110111001111010000101100101001011010110010010111111011010000101111011100010011110001110101111010010011000001011010101110000000100101110000001011001111101001 "
#76
b111011000110100000110000011001010100011001110010001101000101011010101100011110100000000001000110111011100111111000000010001101011111000001111110101100000010000110101100011111001000100000001100001011100111100000001101111110011001111001101111110001011110001 "
#77
b100011000000110100111110101110000111110000001100010111110101101001111100001011111011111111110101100011000110001100000000101010000100110010110010001100010100000001111101001010010010000111011011100011011001001111110010011001100100111000101111000100101101 "
#78
b1010110000110110101100111110111110101010001100000000100111100110011010010010100100001001110111010001100000100001111011111101010011101111000101111110111011001101001010000000111000110111110010000000010100000100111011011100001111000111111110010010110011000001 "
#79
b110100011100100011110110010111111111001111011011011100000110101000000001111100010010100001110100011101100000010111100010011110101101000000011001011100000111111010000110001011011011100001111111000110000011111010111100011111000000111001010000100011100111011 "
#80
b1000101111110111110010011100000010001000111011010000000011000000111111101110001111011011110000000010110011011011010101001100001101001011110100110101101111000111100011111100110011010110110011000010010111000111101000001101001100101111110000111000110011011011 "
#81
b1100001000101001011001010011101011110110001100000111011100110101111010010011011000101100001011110111001100111011101010110010011101111000001111100010011000011111111001000011111111010100000101011010110000111111111101000000101111010011001111011100010100000001 "
#82
b1000010111000010011011001101110101111001110000000111010011100110000011001100000000100101111100000100001111000001001111011111101000010110110001000111101100000100011100011100100010011011000011100011100011001110010111000001100001000110110101010111110100100001 "
#83
b11010000111101100001011111111101101111001110010101000111110101001100100011010001100011111010111001111100101101111111001110000111100000001001010101101011011001001010010001110110110110110100011011001100010011010000011100101110111100000010010010010111000110 "
#84
b1111101011010110011000110010001101010110110111110111000000101011100010011110100001100001001100100101010111110010000010000011100001111100111111000011111100111100101110010000011011101100001111101100101000010000111110110011111101101101000110100110100000111111 "
#85
b1000000100000111001110001100010101000100111111011110111111000001000110101111001100111101110000000100010011101001001011011100000000000100111000001011111111000001100101011101011111101010110001000010111111010000100110001100100100000011110010101010101011001111 "
#86
b111011000011100000011110011111100111101001001011000001000111100000100010010110101101000001110001011110100110011110111000011001000010110001110010000001100101100111110000011110000001010001001000100101100111111001001000001101111111111001111111000110000010001 "
#87
b1101011011001000001011001101000101011101110001001011101111011000011011001100000101001011111000010001010111000000101001011110101001100010110000001000101111110100010011111100001010111100111111101101000111000101111101010000100011010000110010101111001100010010 "
#88
b1110111000111111010111100000111110100011001111100100001100000101101111010011101100000101111110110100111100110111111010001111000001110111001100010010110111100111010110100010101000010110110111100010011100100010110111001101010100010101000110011011011111001110 "
#89
b1100111001100000101110001010110111100110100100111010100011110100010001101101000001100001001110100101011100011101000110010111011001000111011000000100000110101110001001111011000010001001110101111110000000000100111100011110100101110000010111001011000111111 "
#90
b1111111100010110010100001100110100101101000011011011101011000111000001000000001110010110110000111100011111111000111111011100000010111010111011100000001011000000000111101110010110101010110000000011001011011100111100101100001000110001110101001100101011000110 "
#91
b110010000001101110011100011111100110100000101111100100100111111011010110010000000100010001111101100111100101000111001000011101000100110001100000010010000110110010000100011011000000001001100001111101000111010101000110010100000110000001111100011101100100000 "
#92
b1001010011010010110101011100011111111000110010110111001011001101101100011100011001011011110101001110000111000010011000011101110010100010110000000101000111100101000000111100000011110000111011100000011111000001111111111111100010101000110000110011110000000011 "
#93
b1010111000111110010001000001111011110001001111111110000100010100100100000011111111110110000010101000111000111101110001000000000011111001001110011000110011110110111010000011010010010010111011000111110000101110000101111110001111011111001001100101101011011010 "
#94
b111001011000100011110110000010111110010110010001001010100001111110111001100111001001001000110010000011111010110010101110010001001000110110111101000010000101010011000011110011110011010001100010001111111110001011010110011011100111101111110111101000100111011 "
#95
b111100100101100011101101100001000011000111000000010111010001101111010001001010110000110010101011110100001000101110011100010110000011111111100100000011000010010100111111010001011011110000000111000011101010000110001100000000011010111000010111100011000001 "
#96
b111110111111101100101000011110010111001000001110001100100111111110000100001000111111111001111110101011100011011010000110011111100111000001001001110011100111100001011000010110011111100001110001111111100110010100110110011001110000011001110001110100100101100 "
#97
b10011011011111111111011100000111001110110101100100111111000101100001011100111100100001110010100111101011001001010101011101000011010100110001001100000111010111101100101100000100110101111000000010100111000000011110011110100101000010110000000101001011110011 "
#98
b1000100000111001010001110010101101000101001111010011001100100011011011110011111100111001000110101111101000111111100100110001000011100001001111101000000100000110001011000011110001000011111111001110110100110111000111101111001000111110001100100101010011101000 "
#99
b1000000011000000100010011111010110010101110000101011110111111111001111101100011011110100000010010110000111001011111010010001001111011101110100010101101100011101100001111101100100001110001001100010111011100010110001100010110110011000111010110101001100110100 "
#100
b1101000100110000010000011110011010010111001010010011110011011101010011010010000100011100110101010010011100011000000101011100111001100100000011100101010111001000010000100000010000000010110001000000010011111010001110001100000111101110111011110000101011000000 "
#101
b1011111011101101100101100011010111000011111101110111110000111010111111100000000111100010001111010010101100001100101100100011111100001001000101101110000000111111010101110001111101101100001111101101011100100111010111100011101101010010001011111100110000110110 "
#102
b1100001011101101000000001100000000110101111001001101000111000000010111101101101101000001110000110111011111010011001111111100011110110100110011001011000111001100010000011100011101110100110100110100001111000011010110101101101111010010110000000011000111100100 "
#103
b1100111000110000100110010011010111001001001101100101010100101111010111010011101111011011001001110110101100111110010110110001111111100000001111110000111000010110101100100011111100110000000011001110001100111101000000100000001001111110001110101100011111110111 "
#104
b1000000011000000001111001110011000001010110000001110100111101111001101111100000100000000111110100000000011000100001111010000010001010010110010000101111100001110000100101100111000100011000110000001100011010101010010010010000100111000110111011001010000101001 "
#105
b1000101000111001100011011111010101010110001101001001110111101011110010100010110100110010111000100001000100100110100010111101100101100000000111011110000011010001111011010001001101100011110010111111100000001001010000001100011011000010111111111001011111000010 "
#106
b10001011011111010000110010101101010000111010000011110000110010000110101111001011101010001101110011111011111100001010110011110001111100000001101110000000111110100011110001000011111010001111110011010100011010011100000011111100110000001000110100011000111101 "
#107
b1000001011111101111111101100000101010110111100110100001011000000011111101110100100101000110000000011100111100000101100011100000111000100110101111101001011000100010110001101000001110111110010010010010011001010100000101100111101010000110001011100101111010110 "
#108
b101100100101100101100011110011100101001011001000010100111000100110010011001100000010001100111111101000111000001100000010110011100110001111000011110000100100010000100011111101011011000110110000000001000000110001100001000100011010001111111011110100000111 "
#109
b111010011000100100010101101100001111001110000010001010111100001000110011100000001101011111010100101101111000000010011101111010000111111110000100111111011111110101101111100010110111000000010001010111011001010101110010001001000000010110100010011111100011100 "
#110
b1010111100111110100000000000010111010011001110110100001011111011011011100011011100100011111100011001110100110001011001101110011110001000001010100100101011011110010110110010001000001011110101100100111000011001110111111100111010011010000011111111010111001000 "
#111
b1001000111010010001111110001111001010110110110101101110000100110000100111110001101111001001011101000110111101100111001100011010010000111111101101111011100111001101111110000000010001101001111011111001000001010100011110011111111011101000101001111000100111111 "
#112
b110100000001101110101111100011101000001000000111010101011000011000001001111100100001000110000011111010111101110000000111100000001010110111001011010001011000000011001011101110011100000110000100101111011010100101011101100011001110101110011011111010111001011 "
#113
b1111101100010110110011100011111100110111001000000011000100111110100111110010100011111100001110101111111000101111010001010011011000100010001101100010100100110000111000100011101011010010001010000010000100111110011100000010000011001001001111110011100000010111 "
#114
b1101111001100010011011100110111001100110001100010111011010100111100111100001000101110110111001010101111000000000110101110010100000010110000001011010111101110111111001100000011000011111110001001010011000011111111110000001010111000110001110010100000001101 "
#115
b1110111000111111000110110001010110010111001111110011001100001011100111110011110100000001000000010001001100111010110010001111011000001011001101011100110011101100101001100010111001001110111000110001000000100111100011001101101001111010000111101011111111010010 "
#116
b1101001111001000010110100000111110110100110011100001000100011001110110011101010100100100001000100001001011011110010101100010101000101001111001110111010000110001111000111111000001001101001101110000000011111011101110110011101100111110000001011010001000111110 "
#117
b111101000011100001011111101000111111000000100101101001011001010111110100000100011010010110001011100000011111110010100001100001010001111111101000110001011000000101010011110101000010101110000000100111111100001011010111100000110111110110110000101110011000100 "
#118
b111110000000111000011100011111110000111000100011111111100111111000111110001101101001100001111110000011000100100111110100011110000000000001011000001100000111001110110100011001011000000001100110110011000111000000101000010110110000000001111000100000100100101 "
#119
b1111110111010110001101101100010110101101110011110000000011001010100110101100100100101100110100001110110011000100100100011101011111000000110000010000000011100000001011011100000001000000111010010011110011000000000101101111001111101110110000010100000011111101 "
#120
b11001100111101011001110010001101100111001111110111000100011010111110110011111111001110000100001110110000111110101111010000011001000001001111001000000011111100000010100011100001011010111100100110010000110010100011011110100001110100001010110101101011011111 "
#121
b1000010011000010100000001111111100100011110001101011011100001001001111101100101110101111000100111011001011010001001001010001110101010110110110011101110000100101111110001110000110011011001011010101111011101011001011110011010001001100111101010110110100111001 "
#122
b1100011000101001011100001101110110000001001000010100100111010101011000000001100000111011110011101010000000001110011100111100100001111111000001000001011111000100010000011111101001000100110000010010100111110000000011011100000001111001111001100111100011000000 "
#123
b1000011011110111011000110011101011000000000000011101001000111101111011110000101110101100001111111101000000010101111001000011111100100010000111110111100100111110101001110010011101110101001110110010100100101111111010110011011001110101001101011111100100110000 "
#124
b110110011100100110010001100000010010000110110110010111011000011101000111101001100100011110001111101100111001100100011011100110001011110110001110100100011010011010101101100001100101000110110111101110011000000111110101110001100000000110000001000001111101101 "
#125
b1010100100110110011111100010111101000110001110110000101100101000010111010011111010010000000111111101110000111111010001110001011010111000001111110110110000001100111100100011110101000000000000101001011000111010000001001111100010111010001101011111110111101101 "
#126
b100011000000101011101110111100101100110000011100001111111001111010111100001100000000000001000011010011001000001001000000111011101011110011011110101000010111111010111101010000010100001000010000010111011101011001010010100100000100111001101010011100110000 "
#127
b111100100110100110101111110101111110100001011010110100111100010010000110010011010111100110110011001011000011101000010111101001000100111000101001000011011001011001101010000101001011010110001101111111111111111101010001100001011001010111101011000100011000000 "
#128
b1011111101000000101010011001011011110111100011100110000110111000000011111110000010110001111000011111100000110110101010011111001010100000100001111100000111111111111010001100101111000001111111111110000100010010110000011110100010110001010111010010100111001 "
#129
b1001001011110011010010001100000010110111111010010010010011000000011011101110000010100011110000011111010011010111101110111100010010000001110100000101011111001001010001011100101001011010110011110110100111000101100111001101011000001101110000101110110111011110 "
#130
b1011101000101100101000100011100001110100001100110010011000110011110111100011100001011100001011001101001100111100011011110010010000111000001111111001001000011011000000000100000000000001000100100010010000111111111110100000011110101010001111001011111111111101 "
#131
b1000011011000001111000001110000000011100110000000011001011101010010101011100000000010010111101000010111111000010010000011111111010011110110001010111110000001000100011001100101001111110000100101101100111010000000010000001110001011010110110001101100100100100 "
#132
b1110100000111011011111111111101110001100001101110101111111110001110001000011000110011110111001111011010100101010011111101101111010001111001000100011100111010110100001100001100100000110110011111101010100001111000101001100100110111101000001011000101011000100 "
#133
b10010111011010101010110010011011011100111000100100111100101110010100111110110011000011001101000100101011110110110111010011100110000010000000000111110000111101101101010000101010001000001111111010001100010100111100110011111100001001000111101011101100111110 "
#134
b111111000000011101111111100001101000001111110010001001111000001001100001110111100000100110000001000110111100101100110011100000010011000110111001100111011000010100010111101010010010011110001101001101111001101110100011100101111110101110001110110011011010010 "
#135
b1000100000001111110011111001110000001010000001010000111011110101010010111101100101001101100000000100110110010100100011000011001010001110100000000100101001000100110011111010100100001000001100010000111111011100010001011111010011001111111010010000001101 "
#136
b1110011111000110000000011101010000000110110000111111110011011011101101001100000011100010111001000000000111000000011110101110111011110010110000001000011011111000100000001100001111000010000000101001101111000111111011000000110000100111110011011100000100010110 "
#137
b1001111000111111011011110000101110110000001111010011111000000001001011010011101000000101111101110010110100110101000001111110110111010000001011101000010111100011010000000010011110111110110110101010111100011110111010111101001001010101000101010011111111001100 "
#138
b1000110111001110110110000001100010101011110101011111000000100001110111101101110100101000001010101111000111100110010011010011000110101000111100000010111000110111110000111111101010100101001110110000000100000101100101010011111000011110000011111110101100111111 "
#139
b11001000010011111101011100101000110110000010011110110011000101111111101111111001100000110000101100110011110100011010011100000011100011111010100001001011000000100001011110000101011111110000011110111111011000010001101100010001011001110100011011010011001000 "
#140
b100110000010001111111100011111111101000000110100101010100111111110100110010001100001100001111011101001100101011001100110011100110110100001100101110010000110011010010010011100001000000001011010110110000111100011100110010010100000100001111111011000100011100 "
#141
b1101011011001111110111111100100110111010110010010000001111010000000000111100010101100010110101111100111111000001110010111101111100110010110000000000011111101001001101111100000011011010111100101101111111000001000000111111110100011110110001010011111100000111 "
#142
b101111100111111101010010001101011111101001111110000100100010001111110000011111011111010000001100101010100111100101111011111110000101000001110001001011011110010100010100011001011000110111010001010000100101011100011111101111110011010001000110010110111010111 "
#143
b100111000110011110110000100100011011110010110111010000010011100010001101000111101110000111000010011011011001101010110010010111000010111000010111000000101101001001001110101100001100001101000001000011110101010100100011100101000011111111110010000100111101 "
#144
b1011010100100001011101111101010110011001000110000110001011001110110110110000111010010010110010001011110000000100001011011100010001111110111110100101000011000001011001011111000000001111110000001011000111100110011100011100000010100011110111010111001111000010 "
#145
b1000001100000001110000100011110110110011000010111010010100111111100101100001010111100111001111111110110000011110100001100011111001110111001001111000110000111011111111110010111000001010001101110101001100110101001000000011000101001010001110101111010000101001 "
#146
b1100001111011011000110111100001111001111110100110000011111000111111111101100110001101000110011000111101011000111000111001101001101101010110000111111011011011010111001101100000011000011111000110000000011000000010010011110110110111110110000000100100111110111 "
#147
b10111000111011001110100010100001001111001111101100011000011111110110000011111110000001000101101011111000111111101010000000110000000010001111100111110100000010101011110011101001000001111110001101110000110101001110001110111010100111001011111010010011100100 "
#148
b10000011000001100001101111100111010110110000111100001100000011000101101100100011101000000011011100010111001101101100010001011110111110110101001110000000100000110100101101110000110110001010011100110011100101011111110011000001110011111011111000100100110110 "
#149
b1111100101110100111111110001001110100001001101110110111011001110011000001110100110101110100100110001000010100101010101100101101110001000010100111010111000110001111000000000010111010110000100000011011110110100100001100000000010001111011000000011011000000 "
#150
b1010001011110001101011100011011111000100111110110000000000111100000000100000011011001001001111100001100000010000111101100011111111000101000110011000000000111111110010010010001001101001001111011110100100101010110000000011100111101111001100011001110000110100 "
#151
b1111000111101001001000001100000010100100111000001001011011000001001001001101100010100100110001001010101011010000001110001100100101100110110010100011001111001111100000101100010101101101110101100001110111000010101110011101111001001110110000001101111011100111 "
#152
b101000000110011010010110011001111000010001110001000100000101100101111110011110010100001001001000010111100111111110010100001101100000000010000000011110000010010001011100011111100110111000010001011110100111100111111001111110110111110001110001100111011110011 "
#153
b10000011000000111110001110100101001111110000001101011011110011000111111100001000000100111111101000010111000101001111110000100001101010110010100100010000010010101011111101000011010001000110110010101011011000101001110010010010101010111000001000111000101100 "
#154
b1010101000110111100110111111000111101010001100011101011111100111111000110010101010110010110111101100001000100010011001111101011010111110000110010010111011001111000100010001000000110100110010011111101000000101101000011100010010111100111110111001010011000001 "
#155
b1010011011100010001001000010111000011001111011001010000000110100000011101111011011000011001110010100010000000000011010110011110101111001000010101000000100111111011010010001010011110110001111111101001100011101110001110011111001111010001001101111111000111011 "
#156
b111111011111001000111111100000101101011111011110000011011000000110001011110010110010001110000001100101111011100101111001100001010111000110101000111100011000110110000011100110110101110110010110001001111001000001110111101001011010011110000111111010011011001 "
