11_cs_nwe _channel4/project_1/.Xil/Vivado-26116-GL-0301-949/hw_ila_data_4/zip_work/waveform.vcd
$date
        2023-Aug-21 15:48:33
$end
$version
        Vivado v2018.3 (64-bit)
$end
$timescale
        1ps
$end
$scope module dut $end
$var reg 4 " u2_adc_top/u3_adc_module/u_adc_jesd204b/gt0_rxcharisk [3:0] $end
$var reg 32 & u2_adc_top/u3_adc_module/u_adc_jesd204b/gt0_rxdata [31:0] $end
$var reg 32 F u2_adc_top/u4_adc_module/u_adc_jesd204b/gt0_rxdata [31:0] $end
$var reg 4 f u2_adc_top/u4_adc_module/u_adc_jesd204b/gt0_rxcharisk [3:0] $end
$var reg 32 j u2_adc_top/u1_adc_module/u_adc_jesd204b/gt0_rxdata [31:0] $end
$var reg 4 ," u2_adc_top/u1_adc_module/u_adc_jesd204b/gt0_rxcharisk [3:0] $end
$var reg 4 0" u2_adc_top/u2_adc_module/u_adc_jesd204b/gt0_rxcharisk [3:0] $end
$var reg 32 4" u2_adc_top/u2_adc_module/u_adc_jesd204b/gt0_rxdata [31:0] $end
$var reg 1 T" adc1_sync $end
$var reg 1 U" adc2_sync $end
$var reg 1 V" adc3_sync $end
$var reg 1 W" adc4_sync $end
$var reg 1 X" _TRIGGER $end
$var reg 1 Y" _WINDOW $end
$var reg 1 Z" _GAP $end
$upscope $end
$enddefinitions $end
#0
$dumpvars
b1000 "
b11111100111111111111010011111111 &
b1101111101110110001101111001010 F
b0 f
b11100111110001000010000000111100 j
b0 ,"
b0 0"
b100101011111100010110011110010 4"
1T"
1U"
1V"
0W"
0X"
1Y"
0Z"
$end
#1
b0 "
b11100100111111110001010000000000 &
b10111011111011101001111111111010 F
b1000 f
b11111100011000101101000001110000 j
b11001101000000001110101001110010 4"
#2
b11110100111111110001010000000000 &
b1100100010000011000101010111000 F
b1 f
b11110010011000010110101110110 j
b101101001000001111100001101110 4"
#3
b1000 "
b11111100000000000001010000000000 &
b10101011000000100010010001011010 F
b1000 f
b11010001110110001110010010000110 j
b11100110010110100010001111111110 4"
#4
b11111100000000000000010000000000 &
b10111000111011010101101101000110 F
b101110001111101111111101000010 j
b11111011000011101100111011110000 4"
#5
b0 "
b110100000000001110010011111111 &
b10001010000110100100101001011010 F
b0 f
b11100010001111100001110001000100 j
b100000000111000010111101101000 4"
#6
b100000000000001010000000000 &
b1001111111010101111110110111011 F
b11 f
b10001010001101001001001010 j
b11001110000110101110010010011100 4"
#7
b100100000000000001010000000000 &
b1001001101110111011111010111011 F
b100 f
b11001001101000010111101010010 j
b110000110011101111111011101100 4"
#8
b10100000000001111010011111111 &
b11101010100010100010001011100000 F
b1 f
b11010011000001001110000011001000 j
b11100001000110000001111001100010 4"
#9
b10 "
b100000000001111110000000000 &
b100000001000011000100000101000 F
b100 f
b101111011000000000010101001000 j
b1110011001100111101101100 4"
#10
b1000 "
b11111100000000000001010000000000 &
b10001000001000100000101100001001 F
b1000 f
b11011101101110000001011011110010 j
b11011010000100011000110110100 4"
#11
b0 "
b10100000000000000010000000000 &
b1101001001010111000101000010010 F
b0 f
b1000110000001101010010001110 j
b11010000000101101101111110100000 4"
#12
b100100000000001111010011111111 &
b11110010100100000101110100100000 F
b10100011000100011000000100110 j
b110001000110100000010111100010 4"
#13
b11100100111111110000010000000000 &
b100010000001000010001000001001 F
b11010110011110001101101100100000 j
b11011100101011100001100011000010 4"
#14
b10 "
b100100000000001111110011111111 &
b10001000001000101000001001011111 F
b110000011010000000101100011000 j
b1000000010101101001010101000 4"
#15
b0 "
b100000000001110010011111111 &
b101000100010000000101110101000 F
b100 f
b11011001011110000001000110100010 j
b10101110000100011001001101000 4"
#16
b10 "
b10100000000001111110000000000 &
b10001000000010001110001110001000 F
b0 f
b1110110101101101011110001100 j
b11010011011100001101101010101010 4"
#17
b100100000000001111110000000000 &
b11000111010111010000001011011101 F
b1110110000100011000010000100 j
b110011100011100000101110001010 4"
#18
b0 "
b11010100111111110001010000000000 &
b1011101101000101000100000100010 F
b1 f
b11011001111001101101011110000100 j
b11011000110110100001001000110010 4"
#19
b10100000000000010010000000000 &
b10001000000010000010100001011101 F
b0 f
b110000011110000001000110101100 j
b1110100010101101010100001000 4"
#20
b110100000000000000010000000000 &
b11100010111011010100000100010 F
b11010110011110000000101110100010 j
b1111001000100011001110010100 4"
#21
b100000000001111010011111111 &
b100000010111110010100001101010 F
b10100100010001101101101001000 j
b11010111001110101101011011100100 4"
#22
b1000 "
b11111100000000000001010000000000 &
b1011000111010100101110101011000 F
b1000011100100011000000010000 j
b110011011010100001000101111000 4"
#23
b11111100000000000000010000000000 &
b1011111111010100101011110001001 F
b11011101110000001101010001110110 j
b11010100000001100000110100110010 4"
#24
b11111100000000000001010000000000 &
b101000001000001110101000000001 F
b1000 f
b101111111110000001011011000110 j
b10100010011101101100110011010 4"
#25
b0 "
b10100000000000010010000000000 &
b1010010100000001001100010001000 F
b0 f
b11010011011100000000010111100010 j
b1001111100100011001001111010 4"
#26
b1000 "
b11111100111111111111010011111111 &
b10001000111011110000100010001000 F
b11001111101001101111100111000 j
b11011011111010101101001011101000 4"
#27
b0 "
b11110100111111110000010000000000 &
b1011111100010001110100111100011 F
b10001001000010111110001000 j
b110010010110000001011110000000 4"
#28
b1100001000100111110001111111 F
b10 f
b11100010010010001101001001010010 j
b11010001101010000000011010000010 4"
#29
b10 "
b10100000000001111110011111111 &
b10011001010000000001010101000 F
b0 f
b101110000111100001110001001010 j
b11010111010001101110101110010 4"
#30
b0 "
b100000000000010010000000000 &
b11100111001111011010100010001000 F
b11010001100111001111111101100100 j
b11100000100011000101000000 4"
#31
b100000000001111010011111111 &
b10001011101000100000100010001100 F
b11110111110001110010000110010 j
b11100000001011001101000010010010 4"
#32
b100100000000000001010000000000 &
b1000100010000100100101010111011 F
b11111100011111000010110110110110 j
b110000111110000001110001010110 4"
#33
b100000000001110010011111111 &
b10011000011010111010111110101111 F
b110 f
b11100111100000101101000001100110 j
b11001111111111101111111111100010 4"
#34
b10100000000000010010000000000 &
b1001100010010101001010111010 F
b1 f
b101100110101000010000010001110 j
b11111001010101110001101001100 4"
#35
b11110100111111111101010011111111 &
b10110110101110111011101010001010 F
b1111 f
b11001111000111101111100101001100 j
b11111100101111000010111101110110 4"
#36
b100100000000001110010011111111 &
b11101111011000110101110101001110 F
b0 f
b100011010011101110101010100100 j
b11100101001111101100111011100000 4"
#37
b11100100111111111111010011111111 &
b100100111110001001100001000000 F
b11110110110011100010101000110010 j
b101110111101000010000110000010 4"
#38
b100100000000000000010000000000 &
b10101100011010011110101010111011 F
b1000 f
b11101101011001001100111101100000 j
b11001101111000101111100110011100 4"
#39
b100000000001111010011111111 &
b10010000101110110100101001010111 F
b0 f
b101001001110000010010100000100 j
b100100010100001110100010101110 4"
#40
b1000 "
b11111100111111111111010011111111 &
b11110010010111111001100001001010 F
b11001111001100001111001101011110 j
b11110110001011100010110110010010 4"
#41
b0 "
b100000000000001010000000000 &
b10100011001001100110101010111001 F
b1001 f
b100111101010101110111101000100 j
b11101011010111101100110101100010 4"
#42
b1000 "
b11111100111111111111010011111111 &
b11101010000011110110010001001010 F
b0 f
b11110000011111100010011100100000 j
b101011011000100010011001000010 4"
#43
b0 "
b100000000001101010011111111 &
b111101110011000111101111100100 F
b11110010010101001100111101001010 j
b11001100010000101111001111000110 4"
#44
b11110100111111110001010000000000 &
b11001011110011111101110111101010 F
b1 f
b100101101011100010100010000000 j
b101000001011101110111011111110 4"
#45
b1000 "
b11111100000000000000010000000000 &
b1010011001101100001001011000 F
b0 f
b11001111011001001110110110100000 j
b11110000111000000010100110010000 4"
#46
b0 "
b100100000000000000010000000000 &
b10101110111111011010110001011000 F
b1110 f
b101010100010001111010111111100 j
b1 ,"
b11110001110111101100110000011100 4"
#47
b11110100111111110001010000000000 &
b10101011111010110100110010110011 F
b1001 f
b11101010100000100010001110001110 j
b0 ,"
b101000101001100010101000010010 4"
#48
b1000 "
b11111100000000000000010000000000 &
b1000100010001001001011110111110 F
b1 f
b11111000101001001100111110111110 j
b11001101010011101110110101000000 4"
#49
b0 "
b100000000000001010000000000 &
b10101110100010100101001010101011 F
b1001 f
b100001110101000010101110011110 j
b101100001010101111010000001110 4"
#50
b10 "
b10100000000001111110000000000 &
b11110111100010100011111001101111 F
b1110 f
b11010000111111101110011101111010 j
b11101010101100100010010101001110 4"
#51
b0 "
b10100000000001101010011111111 &
b10111011101110111101100001111000 F
b100 f
b101101101101101111101101100010 j
b11110111011011101100110101110110 4"
#52
b10100000000001111010011111111 &
b1001100010001101010001101011010 F
b10 f
b11100101000101100001111100101100 j
b100011101111100010110110110000 4"
#53
b1000 "
b11111100000000000000010000000000 &
b1001001010001001001101010001011 F
b0 f
b11111110001000101101000101111000 j
b11001101100000001110011110001010 4"
#54
b0 "
b100000000001110010011111111 &
b1000011101001101011101101011100 F
b111 f
b11100010101000010111011011110 j
b101110111110001111101011001110 4"
#55
b1000 "
b11111100000000000001010000000000 &
b10001100111010011010000000100010 F
b0 f
b11010010110110101110001010011110 j
b11100100000111000010000111011100 4"
#56
b0 "
b100000000000011010000000000 &
b1100111001010001000100000001011 F
b10 f
b101111110100100000000100011000 j
b11111101101011001100111010110010 4"
#57
b10100000000001110010011111111 &
b1111111100010001000001011001000 F
b11100000001001100001101000110100 j
b11110011000100011000011010000 4"
#58
b100100000000001110010011111111 &
b10001000101111001010010000101000 F
b100 f
b100001101101101001101110010 j
b11001111111101001110000111000110 4"
#59
b1000 "
b11111100000000000000010000000000 &
b1000010010100000010011010100010 F
b0 f
b10111110100000010111111111110 j
b110001010101000000000101111100 4"
#60
b0 "
b11110100111111110000010000000000 &
b1001000001000100010001000010010 F
b10 f
b11010100001001001101111001100110 j
b11011111111100000001101100010010 4"
#61
b10 "
b11110100111111111111110011111111 &
b1001011100001100100011010000100 F
b0 f
b110000111001000000011101111110 j
b100110000101101000001000110 4"
#62
b10100000000001111110011111111 &
b11110010001000001110001100100000 F
b11011011101111100001010010000000 j
b11001110000100011000110001010 4"
#63
b0 "
b10100000000001110010011111111 &
b1000010000010000010001000110010 F
b1010110101101101010111111100 j
b11010001111110001101110000111110 4"
#64
b11100100111111110010010000000000 &
b100011110000000010001010001001 F
b10001101000000011000010110100 j
b110010100010000000011111001010 4"
#65
b10 "
b11110100111111111111110011111111 &
b1011111100010001000100011110010 F
b11010111110110101101100111100110 j
b11011010010010100001011010110010 4"
#66
b1000 "
b11111100000000000000010000000000 &
b10001000001000100000001001001001 F
b110000111000100000110110100100 j
b1010001010101101001111110000 4"
#67
b11111100000000000010010000000000 &
b10000000001010001000010011110010 F
b11011000111100100000111011000000 j
b10011101110100011001010111110 4"
#68
b0 "
b11110100111111110001010000000000 &
b1001001000101000100000100010 F
b10000001001001101100101100100 j
b11010101011110001101100010100010 4"
#69
b100000000000010010000000000 &
b1100000011111111010000110000010 F
b1011111111000011000010100000 j
b100 ,"
b110011110101100000110100111010 4"
#70
b10 "
b11100100111111111111110000000000 &
b11101010101000101000001000100010 F
b11011011010101101101011011100110 j
b0 ,"
b11010110100010100001000000010010 4"
#71
b0 "
b10100000000001111010011111111 &
b10001000001000011111001000110010 F
b110000010101100001001100100110 j
b10000111110001101011011011000 4"
#72
b10100000000000000010000000000 &
b10100010100010101000000100100010 F
b11010100010010100000100110000000 j
b1101000100100011001111001010 4"
#73
b10 "
b10100000000001111110000000000 &
b110010001000101100001000100000 F
b100 f
b10110001111001101110111111110 j
b11011000110110101101010001110110 4"
#74
b1000 "
b11111100000000000000010000000000 &
b1011011101011101100010010111011 F
b101 f
b110000100000011000001100110 j
b110011101000100001001111001110 4"
#75
b1000000001000101011100100111111 F
b10 f
b11011111011001101101001100010110 j
b11010011011111100000101000010010 4"
#76
b0 "
b100000000001110010011111111 &
b1101111101110110011101111101011 F
b110 f
b101111111101000001100010100010 j
b10110001000001101101100101010 4"
#77
b100000000000010010000000000 &
b10110011010001000011101101001111 F
b1010 f
b11010010000000000000001101000010 j
b111110000100011001001111010 4"
#78
b100000000001111010011111111 &
b10001000111001001000101010011000 F
b0 f
b11011111010001110000101100110 j
b11011101101000101101000100111000 4"
#79
b1000 "
b11111100000000000001010000000000 &
b111101100010001110111000100001 F
b10000100010111010101100 j
b110001101110100001100101111000 4"
#80
b0 "
b100000000001111010011111111 &
b10010000001010000101100010001100 F
b11100100100001101101000100101010 j
b11010000000000100000010011010010 4"
#81
b10 "
b100000000001111110000000000 &
b10111011011111011110011010001010 F
b101101111001000001110101000110 j
b11100110001101101111101001100 4"
#82
b10100000000001111110000000000 &
b10101010100101110010111101001111 F
b1000 f
b11010000000001101111110110011010 j
b111100100011000001101000 4"
#83
b0 "
b10100000000001111010011111111 &
b101111100010100100000101100001 F
b0 f
b100000111000001110011011000010 j
b11100010011011001100111111010100 4"
#84
b100000000001111010011111111 &
b11000001111010111111001110001011 F
b11111010011111000010110010000100 j
b101111110101100001111010011010 4"
#85
b11101110111010111110101001000110 F
b11101001000100101101000000000000 j
b11001110011100001111110111101100 4"
#86
b10100000000000010010000000000 &
b11111000010110100011101110011011 F
b10 f
b101011100010100010001010010100 j
b100001001000101110010101011110 4"
#87
b1000 "
b11111100111111111111010011111111 &
b1001010111011101010101000100100 F
b11001111111100001111011000011110 j
b11111010000011000010111100101100 4"
#88
b0 "
b100000000000010010000000000 &
b101010010001001110111001001111 F
b0 f
b100100100101001110110010000100 j
b11100111101011101100110110011000 4"
#89
b100000000000001010000000000 &
b1001111111000001000101010001110 F
b1 f
b11110011100111100010100110101000 j
b101101101110100010001111100000 4"
#90
b10100000000000011010000000000 &
b1010111100010010111111101101 F
b10 f
b11101111010101001100111111101000 j
b11001101000100001111011110001110 4"
#91
b11010100111111110000010000000000 &
b10100110110010100110101011100110 F
b1000 f
b100111110000000010011000011100 j
b100110110100101110101000111110 4"
#92
b10100000000001111010011111111 &
b11010000111011101100010010 F
b0 f
b11001111110010101111000010101110 j
b11110011001011100010110000010010 4"
#93
b10 "
b10100000000001111110000000000 &
b1001111000110000010000110001011 F
b101000111100001111000100100100 j
b11101101000111101100110111111010 4"
#94
b0 "
b10100000000001111010011111111 &
b11101110101010100000000101010111 F
b100 f
b11101110000100000010011001001110 j
b101010011000000010100010011110 4"
#95
b100000000001110010011111111 &
b1000110010100001011100110111110 F
b10 f
b11110101011001001100111100011100 j
b11001101111000101111000001010110 4"
#96
b11110100111111110001010000000000 &
b10001111111110111110101001000100 F
b0 f
b100100000011100010101000101000 j
b101010011011001111000000001110 4"
#97
b10 "
b10100000000001111110011111111 &
b100000010011000000100010001000 F
b11001111010011101110101100001000 j
b11101101100100000010100001000110 4"
#98
b11010100111111111111110000000000 &
b10000010101000000010001001011101 F
b101011111111101111011110010100 j
b11110011000011101100110111001110 4"
#99
b1000 "
b11111100111111111110010011111111 &
b1010010000111000001010001010 F
b11101000101110100010000101111000 j
b100110110101100010101101100010 4"
#100
b0 "
b11110100111111110000010000000000 &
b100000111010101010001010011111 F
b11111011010000101101000001111110 j
b11001101111101101110101000110010 4"
1X"
#101
b11010100111111110000010000000000 &
b10000010100010000101001010111100 F
b1 f
b11111111011000010110000110000 j
b101101111000001111011001001110 4"
#102
b100000000001110010011111111 &
b10100000001000100100100010011000 F
b0 f
b11010000111100001110010101010110 j
b11101000001100100010010001001110 4"
#103
b1000 "
b11111100000000000001010000000000 &
b101010001010000010001010100010 F
b101101111111101111110111100010 j
b11111010110011101100110100010000 4"
#104
b0 "
b10100000000000010010000000000 &
b11000001000000010000011101010 F
b11100011000011100001110111100100 j
b100001110011000010111001101000 4"
#105
b100000000001111010011111111 &
b10001000000010111000100000100010 F
b101010001101000100011010 j
b11001110010100101110010111000100 4"
#106
b10001000111110001010001011110100 F
b11010111101000010111011111100 j
b101111001100001111110101111110 4"
#107
b100000000001110010011111111 &
b1011111010111111000101001011111 F
b11010010110101001110000010101000 j
b11100010010001100001111111101100 4"
#108
b100100000000000001010000000000 &
b10101000100000100101110111011111 F
b101111010100000000010011001000 j
b1111001100111111001010 4"
#109
b100000000001110010011111111 &
b10001000100001101000100000100010 F
b10 f
b11011110000101100001100010000100 j
b11100111000100011000010010100 4"
#110
b1000 "
b11111100000000000001010000000000 &
b1000000111001100101110111101010 F
b0 f
b111001010001101010010000110 j
b11010000110001101101111110011000 4"
#111
b0 "
b10100000000001111010011111111 &
b10001000000100101100100001011101 F
b10101010000100011000000111000 j
b110001110100100000001101001100 4"
#112
b11110100111111111110010011111111 &
b100010000010000000011001010111 F
b11010101011011101101110000110000 j
b11011101111010100001100110100010 4"
#113
b11110100111111110000010000000000 &
b110010101110000101111101100000 F
b110000011101100000101010100000 j
b111011110101101000101101000 4"
#114
b10 "
b100100000000001111110011111111 &
b10101010010010110101110110000011 F
b1000 f
b11011010100110000001001001110010 j
b10110100000100011001000001000 4"
#115
b10100000000001111110000000000 &
b100110101110110110110001000001 F
b0 f
b1101000110001101011110001000 j
b11010011010000001101101111101000 4"
#116
b11010100111111110111110000000000 &
b10111010011111001110011010111011 F
b1111 f
b1111110000100011000001001100 j
b110010010011100000101000011010 4"
#117
b1000 "
b11111100000000000001010000000000 &
b10001110010101110100000110101110 F
b1001 f
b11011000011101101101100011111100 j
b1 ,"
b11011001001000100001010011100010 4"
#118
b0 "
b11100100111111111111010011111111 &
b11101011101110111110011001001111 F
b1000 f
b110000001100100001000011010110 j
b0 ,"
b1101101110101101010000011110 4"
#119
b1000 "
b11111100111111111111010011111111 &
b10111110100111010100010010111010 F
b1101 f
b11010110110011000000110011010010 j
b10001000100100011001100010110 4"
#120
b0 "
b10100000000001110010011111111 &
b10111011101111101000101011101110 F
b1011 f
b10011110110001101101011001000 j
b11010110000110001101011100101010 4"
#121
b10 "
b100000000001111110000000000 &
b1001010011001001011111010111110 F
b1 f
b1001100000100011000000001000 j
b110011011110100001000010001010 4"
#122
b1000 "
b11111100000000000001010000000000 &
b11101011010000011000110010111110 F
b0 f
b11011100011000001101010111100110 j
b11010101111101100000110100110010 4"
#123
b0 "
b11010100111111110001010000000000 &
b1100001010000010100010010101011 F
b1 f
b110000000010000001011011111110 j
b10011010110001101100001001010 4"
#124
b10100000000000000010000000000 &
b10101010100010100100101010001000 F
b1001 f
b11010011101110000000011000100010 j
b1011111010100011001000001010 4"
#125
b100100000000001111010011111111 &
b10111100101000010010111111101101 F
b1000 f
b11000111101101101111011111000 j
b11011010011110101101001100001110 4"
#126
b10 "
b100000000001111110000000000 &
b10101101100001110110101110110 F
b1 f
b11011101000010111110010110 j
b110010001010100001011011010000 4"
#127
b1010100111111010010011010110101 F
b100 f
b11100001101010001101001011000000 j
b11010001101110000000011111000010 4"
#128
b0 "
b11110100111111111110010011111111 &
b1000100100100000001000100010001 F
b1010 f
b101110000110000001101101101010 j
b11000000010001101110111100010 4"
#129
b10 "
b100000000001111110011111111 &
b1010101000101000101001110010110 F
b100 f
b11010001100111000000000011100100 j
b100001100100011001011011110 4"
#130
b10100000000001111110000000000 &
b10010000001011001100101011001 F
b1100 f
b11101000010001110010010111000 j
b11011111101100101101000011001010 4"
#131
b100000000000111110000000000 &
b10101111000100001010111100100100 F
b1 f
b11111101111001000010110101111110 j
b110001110100000001101101100110 4"
#132
b0 "
b100000000000001010000000000 &
b10000000101010100 F
b1100 f
b11100110110000101101000010101110 j
b11001111010001000000000101000010 4"
#133
b1000100010001010000000001000100 F
b10 f
b101100000001000010000001110000 j
b11110101111001110000110011100 4"
#134
b11110100111111110001010000000000 &
b10100111010001000001010000010001 F
b0 f
b11010000100100001111101011001100 j
b11111110000111000011000000111000 4"
#135
b100000000000001010000000000 &
b1010001010001000100100001000100 F
b100001101011101110100000110010 j
b11100100110111001100111000110000 4"
#136
b11010100111111111111010011111111 &
b110000100010000010000010001 F
b11 f
b11110111001110000010101111111010 j
b101111111011000010000010010010 4"
#137
b1000100000000001111010011111111 &
b100000001000100000000000001 F
b0 f
b11101011110100101100111110000000 j
b11001101000110001111101100001100 4"
#138
b11110100111111111101010011111111 &
b10001000001010001000000010010 F
b1101 f
b101001010010000010010010011110 j
b100011010100001110011111111110 4"
#139
b11110100111111110001010000000000 &
b1010001011001010001000001000100 F
b11 f
b11001111100010001111010011111110 j
b11110111111111100010110110011010 4"
#140
b10100000000000000010000000000 &
b1000101000100010000010000001001 F
b1 f
b100110100011001110111001010100 j
b11101001010111101100110111000000 4"
#141
b1000 "
b11111100000000000000010000000000 &
b1010000000001010100010101000100 F
b100 f
b11110001001011100010100001100000 j
b101100101000100010010111100010 4"
#142
b0 "
b100000000000001010000000000 &
b1001001000000010001 F
b1100 f
b11110001010001001100111111000000 j
b11001101110100101111010001011110 4"
#143
b11110011011101001100000100010001 F
b1 f
b100110000011100010100001110000 j
b100 0"
b100111111111001110110100011110 4"
#144
b100100000000001110010011111111 &
b10101111011001010111010110010000 F
b0 f
b11001111101111001110111001100000 j
b0 0"
b11110001100001100010101010100000 4"
#145
b11100100111111111111010011111111 &
b10111011100000111111100111110111 F
b1 f
b101001011110001111010001010100 j
b11101111111011101100110001110010 4"
#146
b10100000000001111010011111111 &
b11010110101001000001010101111001 F
b0 f
b11101011010010000010010010101110 j
b101000101100000010100111101100 4"
#147
b11110100111111110010010000000000 &
b110011101110011011010101000100 F
b1 f
b11110111100101001100111111010100 j
b11001101010111101110111011110000 4"
#148
b10 "
b11100100111111111111110011111111 &
b1010110101001101101010110001101 F
b100010000111100010101101000000 j
b101011111000101111001000001110 4"
#149
b0 "
b11110100111111110010010000000000 &
b10111101111101010000000100110011 F
b0 f
b11010000000011101110100100011010 j
b11101011101100000010011001110110 4"
#150
b100000000000001010000000000 &
b11010111110101111111011011111001 F
b1010 f
b101100011000001111101000100010 j
b11110110010011101100110110010110 4"
#151
b10 "
b11110100111111111111110000000000 &
b11111111001100011010000010110101 F
b0 f
b11100110000001000010000010011100 j
b100100000011100010110100100010 4"
#152
b1000 "
b11111100000000000000010000000000 &
b110111110111011101011011111001 F
b11111101101000101101000001010000 j
b11001101100101101110100011000010 4"
#153
b0 "
b10100000000000000010000000000 &
b11010101011101100101110111110101 F
b110 f
b11101111001000010110110011110 j
b101110010101101111100110011110 4"
#154
b10100100110010101000000110110 F
b1000 f
b11010001000010001110010010010110 j
b11100101010110100010001010001100 4"
#155
b11110100111111110010010000000000 &
b10011001100100111111110101011100 F
b10 f
b101110011111000000000010011000 j
b11111100001011101100111011010010 4"
#156
b100000000001110010011111111 &
b1110111100110010101110100111111 F
b1010 f
b11100001001110000001101110110100 j
b11111110011000010111110110000 4"
#157
b10 "
b10100000000001111110000000000 &
b10111101000001001010111110111100 F
b100 f
b11101010001101001001101010 j
b11001111011010101110001110010110 4"
#158
b1000 "
b11111100000000000000010000000000 &
b10111111001101111010110100111001 F
b11000011101000010111110011010 j
b110000110111101111111100101100 4"
#159
b0 "
b10100000000000000010000000000 &
b11110101111111010000010000100001 F
b11010011000101101101111110100110 j
b11100000010010000001110110110010 4"
#160
b100000000000010010000000000 &
b10111100100011000100011001001010 F
b1000 f
b110000100110000000011011001000 j
b11000011001101000010011100 4"
#161
b100000000000001010000000000 &
b11101011111010110101110111110010 F
b0 f
b11011100111010000001010101000010 j
b11010011100100011000100110010 4"
#162
b10011101011100101001101101001010 F
b10 f
b1001010000001101010110111110 j
b11010001000010001101111010010000 4"
#163
b10 "
b100000000001111110000000000 &
b10111011010000010010101001110111 F
b0 f
b10011100000100011000010110110 j
b110010001010100000011001110010 4"
#164
b0 "
b100000000001110010011111111 &
b1001010010010101100010001001010 F
b11010110000010001101101100011000 j
b11011011100010000001011101110010 4"
#165
b1000 "
b11111100000000000001010000000000 &
b1111101101010111010111011111010 F
b110 f
b110000101111000000110010111000 j
b1001101110101101001011010000 4"
#166
b0 "
b10100000000001111010011111111 &
b10000110011110110111111100011000 F
b0 f
b11011000010100100001000010010010 j
b10100111000100011001010101000 4"
#167
b11100100111111111101010011111111 &
b11111011111010111011011111101110 F
b1111011101101101100011110110 j
b11010100010111101101100111001010 4"
#168
b100100000000000001010000000000 &
b10001010101000110100000110000010 F
b100 f
b1101101000100011000001110100 j
b110011011101100000110001101010 4"
#169
b10 "
b10100000000001111110000000000 &
b10001010100010101000111110001011 F
b11011010001010001101011101001100 j
b11010111101110100001000101010010 4"
#170
b100100000000001111110000000000 &
b11101111100001101111101010011001 F
b1011 f
b110000011110000001001010001000 j
b1111001010101101011010011000 4"
#171
b0 "
b100100000000001110010011111111 &
b1110000100010100100000110101010 F
b1 f
b11010101011001100000101010100010 j
b1110010000100011001110010100 4"
#172
b1000 "
b11111100000000000001010000000000 &
b11110111011011100100101010011100 F
b0 f
b10101010111101101110010110000 j
b11011000100110101101010110100100 4"
#173
b11111100111111111111010011111111 &
b10111010011010100101110110110011 F
b1001 f
b111001100100011000001100000 j
b110010101010100001001000111000 4"
#174
b0 "
b11100100111111110001010000000000 &
b10111111110001001000111110001100 F
b0 f
b11011110001000001101010000101000 j
b11010100110011100000101111101010 4"
#175
b100000000001111010011111111 &
b10011000111100110101100001011010 F
b100 f
b101111110101100001011110000110 j
b10101000110101101101000010010 4"
#176
b10100000000001111010011111111 &
b11111000111000111000100100000011 F
b0 f
b11010010011000000000010011100010 j
b1000111100100011001010101010 4"
#177
b100100000000001110010011111111 &
b1001010000001101100000000000000 F
b11010111001001110000011101000 j
b11011100010010101101001011011000 4"
#178
b100000000001111010011111111 &
b10100000010111011110101010001000 F
b1111001000010111010111000 j
b110001100011100001100010101000 4"
#179
b10100000000001110010011111111 &
b10001100100000100010001001111101 F
b11100011110010001101000101000010 j
b11010001010110100000010111010010 4"
#180
b10100000000001101010011111111 &
b100010100010001010000000001001 F
b101110001011100001110100011010 j
b11011100110001101111000000010 4"
#181
b10 "
b10100000000001111110000000000 &
b100010011100101000000010001010 F
b11010000010111101111111000010100 j
b10010100100011000101100000 4"
#182
b0 "
b100000000001111010011111111 &
b10100010001000101000100011100110 F
b11111111000001110010111100010 j
b11100001110011001100111100110010 4"
#183
b11100100111111111111010011111111 &
b101000001000000000100000100010 F
b1 f
b11111010111011000010110001010110 j
b110000000010000001111000101100 4"
#184
b100000000000001010000000000 &
b11000010001000101000100000100010 F
b0 f
b11101000010000101101000011110000 j
b11001110111011101111111010000010 4"
#185
b10100000000000010010000000000 &
b10001000111100100010001011110010 F
b101011110010100010000101101110 j
b100000000110101110010011011100 4"
#186
b10100000000000000010000000000 &
b101000001100000010100010001000 F
b11001111111111101111011110110100 j
b11111011011111000010111101000110 4"
#187
b11110100111111110000010000000000 &
b10100010111010101100100010001000 F
b100100000111101110101111000010 j
b11100110111011101100110110101000 4"
#188
b1000 "
b11111100000000000000010000000000 &
b10001000100000100100100000100010 F
b1001 f
b11110101000111100010101000011000 j
b101101000110100010001111010000 4"
#189
b0 "
b11110100111111110000010000000000 &
b110000111100100010001000010010 F
b0 f
b11101101011001001100111100001000 j
b11001101010000001111100011101110 4"
#190
b10001010101000100111100010001000 F
b101000000000000010011011111100 j
b100101101100001110100110101110 4"
#191
b11001100010101001101001101010 F
b11001111000000001111001001111110 j
b11110101100111100010110000010010 4"
#192
b100000000000001010000000000 &
b1010010001001101110001100101000 F
b100111110010101111000000100100 j
b11101100000111101100110101100010 4"
#193
b1000 "
b11111100111111111110010011111111 &
b11111010110001111000111001101111 F
b1 f
b11101111101100000010011010101110 j
b101011010100000010011110001110 4"
#194
b11111100000000000001010000000000 &
b10111010101100110100001110011001 F
b1101 f
b11110011010001001100111101001100 j
b11001101001100101111001000100110 4"
#195
b11111100111111111111010011111111 &
b1001010001110111011101110011110 F
b11 f
b100100011111100010100110100000 j
b101001010111001110111100001110 4"
#196
b0 "
b10100000000000011010000000000 &
b10111011010001000010111110000110 F
b0 f
b11001111011001001110110011011000 j
b11101110010100000010100101110000 4"
#197
b10 "
b10100000000001111110000000000 &
b1000001101010010100011010001011 F
b100 f
b101011101100001111011010010100 j
b11110010000011101100110111111100 4"
#198
b0 "
b100000000001111010011111111 &
b11011011010110101011101011001001 F
b1010 f
b11101001100010100010001000001110 j
b100111011001100010101101000010 4"
#199
b10 "
b10100000000001111110000000000 &
b10111011001001001000101100011010 F
b0 f
b11111001000000101101000010100100 j
b11001101000101101110110000100000 4"
#200
b1000 "
b11111100000000000000010000000000 &
b10111110101010110100000001001010 F
b100 f
b100000010111000010110011000100 j
b101100101100101111010100101110 4"
#201
b0 "
b11100100111111111111010011111111 &
b10111011101110111000001110001010 F
b11010000000000001110011101110100 j
b11101001000100100010010111001110 4"
#202
b11010100111111110001010000000000 &
b11101110111010111000101010111010 F
b1 f
b101101111101101111110010110010 j
b11111000100011101100110101010000 4"
#203
b1000 "
b11111100111111111110010011111111 &
b10101011101010101010111011101011 F
b1110 f
b11100100111101100001110101111100 j
b100010001111100010111011100110 4"
#204
b11111100111111111111010011111111 &
b11101111111011111110111110111010 F
b1 f
b11111111100110001101000110001000 j
b11001110010000101110011011101010 4"
#205
b0 "
b100000000001110010011111111 &
b11111110001000011110111110111011 F
b10 f
b11011100001000010111011011100 j
b101111111010001111101100011110 4"
#206
b1000 "
b11111100000000000001010000000000 &
b11101111010011110101001010111110 F
b1 f
b11010010111010101110000110111110 j
b11100011111101100001111101101100 4"
#207
b0 "
b100000000000010010000000000 &
b10001010101110101011111010111011 F
b111 f
b101111111100100000001001101000 j
b11111111111111001100111010111010 4"
#208
b10 "
b100000000001111110000000000 &
b11101110011011001010101011110010 F
b10 f
b11011111010011000001100101100100 j
b11101100100100011000000111110 4"
#209
b100100000000001111110000000000 &
b1000111111110111010111111111010 F
b110 f
b110100110001101001110100100 j
b11010000111111001110000010011000 4"
#210
b0 "
b10100000000001111010011111111 &
b100001000100100010001001011101 F
b10 f
b10110000000100011000000011000 j
b110001100100100000001000001100 4"
