11_cs_nwe _channel4/project_1/.Xil/Vivado-26116-GL-0301-949/hw_ila_data_1/zip_work/waveform.vcd
$date
        2023-Aug-21 17:52:20
$end
$version
        Vivado v2018.3 (64-bit)
$end
$timescale
        1ps
$end
$scope module dut $end
$var reg 16 " u3_adc_analysis/adc1_a1_1 [15:0] $end
$var reg 16 2 u3_adc_analysis/adc1_a2_1 [15:0] $end
$var reg 16 B u3_adc_analysis/adc1_a3_1 [15:0] $end
$var reg 16 R u3_adc_analysis/adc1_a4_1 [15:0] $end
$var reg 16 b u3_adc_analysis/adc1_a1_2 [15:0] $end
$var reg 16 r u3_adc_analysis/adc1_a2_2 [15:0] $end
$var reg 16 $" u3_adc_analysis/adc1_a3_2 [15:0] $end
$var reg 16 4" u3_adc_analysis/adc1_a4_2 [15:0] $end
$var reg 16 D" u3_adc_analysis/adc2_a1_1 [15:0] $end
$var reg 16 T" u3_adc_analysis/adc2_a2_1 [15:0] $end
$var reg 16 d" u3_adc_analysis/adc2_a3_1 [15:0] $end
$var reg 16 t" u3_adc_analysis/adc2_a4_1 [15:0] $end
$var reg 16 &# u3_adc_analysis/adc2_a1_2 [15:0] $end
$var reg 16 6# u3_adc_analysis/adc2_a2_2 [15:0] $end
$var reg 16 F# u3_adc_analysis/adc2_a3_2 [15:0] $end
$var reg 16 V# u3_adc_analysis/adc2_a4_2 [15:0] $end
$var reg 16 f# u3_adc_analysis/adc3_a1_1 [15:0] $end
$var reg 16 v# u3_adc_analysis/adc3_a2_1 [15:0] $end
$var reg 16 ($ u3_adc_analysis/adc3_a3_1 [15:0] $end
$var reg 16 8$ u3_adc_analysis/adc3_a4_1 [15:0] $end
$var reg 16 H$ u3_adc_analysis/adc3_a1_2 [15:0] $end
$var reg 16 X$ u3_adc_analysis/adc3_a2_2 [15:0] $end
$var reg 16 h$ u3_adc_analysis/adc3_a3_2 [15:0] $end
$var reg 16 x$ u3_adc_analysis/adc3_a4_2 [15:0] $end
$var reg 16 *% u3_adc_analysis/adc4_a1_1 [15:0] $end
$var reg 16 :% u3_adc_analysis/adc4_a2_1 [15:0] $end
$var reg 16 J% u3_adc_analysis/adc4_a3_1 [15:0] $end
$var reg 16 Z% u3_adc_analysis/adc4_a4_1 [15:0] $end
$var reg 16 j% u3_adc_analysis/adc4_a1_2 [15:0] $end
$var reg 16 z% u3_adc_analysis/adc4_a2_2 [15:0] $end
$var reg 16 ,& u3_adc_analysis/adc4_a3_2 [15:0] $end
$var reg 16 <& u3_adc_analysis/adc4_a4_2 [15:0] $end
$var reg 1 L& u3_adc_analysis/time_4s_1 $end
$var reg 1 M& _TRIGGER $end
$var reg 1 N& _WINDOW $end
$var reg 1 O& _GAP $end
$upscope $end
$enddefinitions $end
#0
$dumpvars
b1101011101011110 "
b10100111101100 2
b111011010100 B
b1100110010110010 R
b1000110001110 b
b10011111011000 r
b1101010111010000 $"
b1111001010011010 4"
b1101001010111010 D"
b10101011101010 T"
b1001010011100 d"
b1100100100111010 t"
b111101111100 &#
b10110100100100 6#
b1101010010000100 F#
b1110111001111010 V#
b11100 f#
b1000 v#
b1111111111110110 ($
b11100 8$
b11100 H$
b1111111111101000 X$
b1111111111110110 h$
b1111111111111010 x$
b0 *%
b0 :%
b0 J%
b0 Z%
b0 j%
b0 z%
b0 ,&
b0 <&
0L&
0M&
1N&
0O&
$end
#1
b11001100000010 "
b1110110110100010 2
b1101100011000010 B
b10101101010000 R
b110010001100 b
b1100110011101110 r
b1001100101010 $"
b10011011100010 4"
b11011011000000 D"
b1110111101010000 T"
b1101001111010100 d"
b10110000011010 t"
b1000011000010 &#
b1100100101101110 6#
b1000101011000 F#
b10101111001010 V#
b1111111111101100 f#
b11000 v#
b1111111111111010 8$
b1111111111111100 H$
b1111111111100110 h$
#2
b1101010010001000 "
b1111001111011010 2
b11001011001110 B
b1110101111101010 R
b1101100110000110 b
b10110000101010 r
b101101000100 $"
b1100110011100010 4"
b1101001110001010 D"
b1110111111010000 T"
b11011010000100 d"
b1110110111111010 t"
b1101010010110010 &#
b10110101000100 6#
b111110010100 F#
b1100100100111010 V#
b1111111111111100 f#
b1111111111101000 v#
b1111111111101010 8$
b1100 H$
b1111111111111000 X$
b11000 h$
#3
b1010011001000 "
b10010111011100 2
b1101001111001110 B
b1111010111100110 R
b11001010110010 b
b1110101010001110 r
b1101101001000110 $"
b10110011011000 4"
b1001100001010 D"
b10101011100010 T"
b1101001001001000 d"
b1111000110010000 t"
b11011010010000 &#
b1110110000100010 6#
b1101010111011100 F#
b10111000010100 V#
b1111111111011100 f#
b1111111111111000 v#
b1000 ($
b1100 8$
b11100 H$
b1111111111101000 X$
b1111111111110110 h$
#4
b100110010110 "
b1100110100111110 2
b1011000101010 B
b10010010011110 R
b1101001011101110 b
b1111011100010000 r
b11001010010000 $"
b1110100011110110 4"
b110110001110 D"
b1100100101101110 T"
b1010010010100 d"
b10100110001110 t"
b1101000101111010 &#
b1111001101100100 6#
b11011001100100 F#
b1110101010010110 V#
b1111111111101100 f#
b1000 v#
b101000 ($
b1100 H$
b1111111111100110 h$
b1111111111101010 x$
#5
b1101101101011110 "
b10110110011110 2
b11111011010 B
b1100110101100010 R
b1011110001110 b
b10001111011000 r
b1101001001100000 $"
b1111100100010000 4"
b1101011011110000 D"
b10111100101110 T"
b101111010010 d"
b1100100110001010 t"
b1011000010000 &#
b10100010010010 6#
b1101000001101110 F#
b1111010100001100 V#
b11100 f#
b1111111111101000 v#
b11000 ($
b1111111111011100 H$
b1000 h$
b1100 x$
#6
b11001001010010 "
b1110011111001010 2
b1101110011111000 B
b10111001010010 R
b11001101000 b
b1100110111100010 r
b1100011011100 $"
b10001010000110 4"
b11011001000000 D"
b1110100100101010 T"
b1101100000100000 d"
b11000000011110 t"
b101000100110 &#
b1100100111001110 6#
b1011110110010 F#
b10011101001110 V#
b1111111111111100 f#
b1000 v#
b1111111111110110 ($
b1111111111101010 8$
b1111111111001100 H$
b1111111111111000 X$
b1111111111110110 h$
#7
b1101000101011110 "
b1111101001011110 2
b11000111110000 B
b1110011001011100 R
b1101110110111100 b
b10111100001110 r
b10000001000 $"
b1100111000101010 4"
b1100111110000100 D"
b1111011011100100 T"
b11011000100100 d"
b1110011111011110 t"
b1101100100000110 &#
b11000011000000 6#
b100010110010 F#
b1100100111101010 V#
b1100 f#
b1111111111101000 v#
b1111111111100110 ($
b1100 8$
b11100 H$
b11000 X$
b1111111111101010 x$
#8
b1101010001110 "
b10000101101110 2
b1101000100001100 B
b1111101111100100 R
b11000101111010 b
b1110010100001100 r
b1101111011111110 $"
b10111110100010 4"
b1100100000110 D"
b10011001011110 T"
b1100111100010000 d"
b1111100001101010 t"
b11010111010010 &#
b1110011000001100 6#
b1101101000010110 F#
b11000110001110 V#
b1111111110111100 f#
b1000 ($
b101100 8$
b1111111111111100 H$
b1111111111011000 X$
b1111111111111010 x$
#9
b1101000100 "
b1100111010100010 2
b1101111110100 B
b10000000100010 R
b1101000000111110 b
b1111110111000000 r
b11000100011100 $"
b1110001101100000 4"
b11011010000 D"
b1100101001011110 T"
b1101011000100 d"
b10010011010000 t"
b1100111001110100 &#
b1111101000001000 6#
b11010110010100 F#
b1110010010100000 V#
b1111111111101100 f#
b11000 v#
b1111111111110110 ($
b1111111111101010 8$
b1111111111101000 X$
b1111111111010110 h$
b1111111111011010 x$
#10
b1110000000100010 "
b11000001001000 2
b101010110 B
b1100111100100100 R
b1110011011100 b
b1111100010000 r
b1101000001001110 $"
b1111111100011010 4"
b1101101110100110 D"
b11001001010000 T"
b10011100000 d"
b1100101010100010 t"
b1110000110000 &#
b10001111000000 6#
b1100110110001010 F#
b1111101111010000 V#
b1100 f#
b1111111111011000 v#
b1111111111100110 ($
b1100 8$
b11000 X$
b1111111111110110 h$
b1100 x$
#11
b11000010101010 "
b1110000111110000 2
b1110000110000000 B
b11000010001100 R
b1111111110101010 b
b1100111101100100 r
b1111000111000 $"
b1110110111000 4"
b11010011110010 D"
b1110001100010100 T"
b1101110011011100 d"
b11001100000110 t"
b1110001010 &#
b1100101100101100 6#
b1110110110100 F#
b10001001001100 V#
b1111111111011100 f#
b1000 v#
b1111111111110110 ($
b1111111111111010 8$
b11100 H$
b1111111111101000 X$
b11000 h$
b1111111111001000 x$
#12
b1100111100111110 "
b10001100 2
b11000001001100 B
b1110000011111100 R
b1110001011111100 b
b11000100111000 r
b1111111010010010 $"
b1101000000010100 4"
b1100110011010110 D"
b1111110101011010 T"
b11010010001100 d"
b1110000110000100 t"
b1101111001001110 &#
b11001101111110 6#
b111101000 F#
b1100101111000110 V#
b1111111111111100 f#
b1111111111101000 v#
b1111111111100110 ($
b1111111111001000 8$
b1100 H$
b1000 X$
b1111111111110110 h$
b1111111111101010 x$
#13
b1111101000010 "
b1110000110010 2
b1100111100101000 B
b1001000110 R
b10111110110100 b
b1101111111001100 r
b1110001111100010 $"
b11000101111100 4"
b1111011101110 D"
b10000011110100 T"
b1100110001010010 d"
b1111111101011110 t"
b11010001000010 &#
b1110000000001010 6#
b1101111110101010 F#
b11010000001100 V#
b1100 f#
b1000 v#
b1000 ($
b1100 8$
b1111111111101100 H$
b1100 x$
#14
b1111110010100100 "
b1101000001101110 2
b10000010111100 B
b1101011100010 R
b1100111000111000 b
b1101110000 r
b10111110011110 $"
b1101111010000010 4"
b1111111111101100 D"
b1100110001001100 T"
b10000010000100 d"
b1111111000010 t"
b1100101111110110 &#
b10100110 6#
b11001111011100 F#
b1101111011110000 V#
b1111111111011100 f#
b1111111110111000 v#
b1111111111011010 8$
b1111111111011100 H$
b1111111110111000 X$
#15
b1110010101101010 "
b11001000001110 2
b1111101011101010 B
b1101000101001110 R
b10001000010100 b
b1100110101100 r
b1100111010001010 $"
b10110110010 4"
b1110000011000100 D"
b11010001111110 T"
b1111111000111100 d"
b1100110010010110 t"
b10000111010100 &#
b1111000010110 6#
b1100101100111010 F#
b1001011000 V#
b11100 f#
b1111111111101000 v#
b1111111111110110 ($
b1111111111111010 8$
b11100 H$
b1111111111111000 X$
#16
b10111001101010 "
b1101110110010010 2
b1110011011100000 B
b11001001010000 R
b1111100101011110 b
b1101000111100010 r
b10001011101110 $"
b1100000111110 4"
b11001101001010 D"
b1101110101111110 T"
b1110001010100000 d"
b11010011111100 t"
b1111110001111000 &#
b1100110101100010 6#
b10001101011000 F#
b1110011000100 V#
b1100 f#
b1111111111100110 ($
b1100 8$
b1111111111111100 H$
b1111111111101000 X$
b1000 h$
b1111111111001000 x$
#17
b1100110111001000 "
b11011101110 2
b10111000101010 B
b1101101111101100 R
b1110100000010000 b
b11001010001110 r
b1111011100110010 $"
b1101001010100010 4"
b1100101011101110 D"
b10010011000 T"
b11001010010100 d"
b1101110001010100 t"
b1110001111010010 &#
b11010101010010 6#
b1111101011011100 F#
b1100110111110010 V#
b1111111111101100 f#
b11100 H$
b11000 X$
b1111111111110110 h$
b1111111111111010 x$
#18
b10010001101010 "
b1011011001110 2
b1100111001001010 B
b100010011100 R
b10110011010100 b
b1101101011000000 r
b1110100110101000 $"
b11001011000000 4"
b10010010001010 D"
b1101100110010 T"
b1100101010110010 d"
b11000010110 t"
b11000111010100 &#
b1101101011100010 6#
b1110010101110000 F#
b11010110100110 V#
b1111111111011100 f#
b1000 ($
b1111111111111010 8$
b1111111111011000 X$
b1100 x$
#19
b1111011000100000 "
b1101001100010010 2
b10010110001100 B
b1010101100000 R
b1100110101001000 b
b101000001110 r
b10110011000010 $"
b1101100111001000 4"
b1111100100101110 D"
b1100111011011100 T"
b10010111000000 d"
b1100111000110 t"
b1100101000101110 &#
b11101110010 6#
b11000100001100 F#
b1101100110001110 V#
b1111111110111100 f#
b1000 v#
b1111111111110110 ($
b1100 H$
b1111111111111000 X$
b1111111111101010 x$
#20
b1110101101000110 "
b11001011101110 2
b1111010001011110 B
b1101010000010010 R
b10011010000000 b
b1001111101010 r
b1100110110000010 $"
b101111000000 4"
b1110011011111000 D"
b11010111110010 T"
b1111011101011010 d"
b1100111101100110 t"
b10011011011000 &#
b1100001000000 6#
b1100100111100010 F#
b100101111010 V#
b11100 f#
b1111111111101000 v#
b1111111111100110 ($
b1000 X$
b1000 h$
b1100 x$
#21
b10101101000110 "
b1101100011001100 2
b1110110000100110 B
b11001100100000 R
b1111001100100110 b
b1101010011001100 r
b10011101010000 $"
b1001001011000 4"
b11000001010010 D"
b1101100001001000 T"
b1110100001100100 d"
b11011001010110 t"
b1111010110011010 &#
b1101000000101100 6#
b10100000010100 F#
b1011010011010 V#
b1111111111111000 v#
b1100 8$
b1111111111111100 H$
b1111111111011000 X$
b1111111111110110 h$
b1111111111111010 x$
#22
b1100110100011000 "
b110101001010 2
b10101011001010 B
b1101011111011110 R
b1110111000010100 b
b11001101001000 r
b1111000100001110 $"
b1101010111011110 4"
b1100100110111110 D"
b101100011110 T"
b10111101101000 d"
b1101011110001110 t"
b1110100111111110 &#
b11011010101100 6#
b1111001111001100 F#
b1101000011100110 V#
b1111111111011100 f#
b1111111111101000 v#
b11100 8$
b11100 H$
b11000 X$
b1100 x$
#23
b10100001111110 "
b1000010010100 2
b1100110110100010 B
b111100011010 R
b10100110001110 b
b1101011100000000 r
b1110111100111010 $"
b11001100110000 4"
b10100100011110 D"
b1010100110110 T"
b1100100101110010 d"
b110010010110 t"
b10111010101100 &#
b1101011000101110 6#
b1110101110011010 F#
b11011010110110 V#
b101100 f#
b11000 ($
b1111111111111010 8$
b1111111111101100 H$
b1111111111111000 X$
b1000 h$
b1111111111111010 x$
#24
b1111000000110110 "
b1101011010010000 2
b10100101010100 B
b111101111010 R
b1100110100001000 b
b1000001000100 r
b10100000111110 $"
b1101011000011110 4"
b1111001010010010 D"
b1101001000001100 T"
b10101001100010 d"
b1001111010000 t"
b1100100101101110 &#
b111010010010 6#
b10110110000010 F#
b1101010100100000 V#
b1111111111111100 f#
b1000 ($
b1111111111011010 8$
b1111111111111100 H$
b1111111111011000 X$
b1111111111110110 h$
b1111111111101010 x$
#25
b1111000100110110 "
b11001011111110 2
b1110111010001010 B
b1101011110011110 R
b10101001100110 b
b111000101010 r
b1100110101110010 $"
b1001001001000 4"
b1110110100100110 D"
b11011010011100 T"
b1111000010011100 d"
b1101001010101110 t"
b10101101101110 &#
b1001000100100 6#
b1100100101100010 F#
b1000000100010 V#
b1111111111001100 f#
b1111111110111000 v#
b1111111111100110 ($
b1111111111101010 8$
b1111111111101100 H$
b1111111111010110 h$
b1111111111111010 x$
#26
b10011110111000 "
b1101010100011100 2
b1111001000010010 B
b11001100010000 R
b1110110100010100 b
b1101100010011100 r
b10110001000100 $"
b110000000000 4"
b10110011111110 D"
b1101010000101010 T"
b1110111011101000 d"
b11011010110110 t"
b1110111100100100 &#
b1101010000011010 6#
b10110001101010 F#
b1000001110010 V#
b1111111111111100 f#
b1111111111101000 v#
b1111111111110110 ($
b1111111111111010 8$
b1100 H$
b1111111111111000 X$
b1111111111110110 h$
b1111111111101010 x$
#27
b1100110101001000 "
b1001110111010 2
b10011010001100 B
b1101010000110010 R
b1111010001000010 b
b11001011111110 r
b1110101101010110 $"
b1101100111011000 4"
b1100100101001110 D"
b1000111110100 T"
b10101110111010 d"
b1101001011011110 t"
b1111000001111010 &#
b11011010101100 6#
b1110110101110010 F#
b1101010100010000 V#
b11100 f#
b1100 8$
b1111111111101000 X$
b1111111111111010 x$
#28
b10110001000100 "
b101010011110 2
b1100110111111010 B
b1010100001000 R
b10010101101010 b
b1101001101100010 r
b1111010111010100 $"
b11001011010000 4"
b10110101111110 D"
b111011010010 T"
b1100100101110010 d"
b1001110010000 t"
b10101010001110 &#
b1101001001001100 6#
b1111000111011100 F#
b11011010110110 V#
b1111111111101100 f#
b1000 v#
b11000 ($
b1111111111111010 8$
b1111111111100110 h$
b1111111111101010 x$
#29
b1110100110111110 "
b1101101011000000 2
b10110110001010 B
b100011101100 R
b1100110101111000 b
b1011010011110 r
b10001110111110 $"
b1101001011100010 4"
b1110101110111110 D"
b1101010111111110 T"
b10111001000010 d"
b110011010110 t"
b1100100101101110 &#
b1010011100110 6#
b10100101001010 F#
b1101000011110110 V#
b1111111111011100 f#
b1111111111001000 8$
b1111111111101100 H$
b1111111111111000 X$
b1111111111110110 h$
#30
b1111100000010110 "
b11001010101110 2
b1110100010010100 B
b1101101111101100 R
b10110101100100 b
b11101111000 r
b1100111001001010 $"
b1011111110100 4"
b1111001110100010 D"
b11011010011100 T"
b1110100111111010 d"
b1101011100101010 t"
b10111101101100 &#
b101101110100 6#
b1100100110010010 F#
b1011010001010 V#
b101100 f#
b1111111111110110 ($
b1111111111101010 8$
b1111111111011100 H$
b1111111111011000 X$
#31
b10001101011100 "
b1101000111100010 2
b1111100100000110 B
b11001010000000 R
b1110011101000000 b
b1101110011111110 r
b10111010011000 $"
b10111010010 4"
b10100001101110 D"
b1101000000101100 T"
b1111010101100100 d"
b11011001010110 t"
b1110100011001110 &#
b1101100000011000 6#
b10111111110110 F#
b100110011010 V#
b1100 f#
b1111111111011000 v#
b1100 8$
b1111111111111100 H$
b1111111111100110 h$
b1100 x$
#32
b1100111000101000 "
b1100101001100 2
b10000111010000 B
b1101000100101110 R
b1111101011100110 b
b11001000111110 r
b1110010111100010 $"
b1101111010000010 4"
b1100100111001110 D"
b1100000000000 T"
b10011101010110 d"
b1100111101110110 t"
b1111011101001000 &#
b11011000010010 6#
b1110011100100110 F#
b1101100101111110 V#
b1111111111011100 f#
b1000 v#
b1111111111100110 ($
b1111111111011010 8$
b1111111111011100 H$
b1111111111111010 x$
#33
b10111011101010 "
b10000011010 2
b1100111011011010 B
b1101010110010 R
b10000100010100 b
b1101000010101110 r
b1111110010011110 $"
b11000110011100 4"
b11000010100010 D"
b11110100010 T"
b1100100111110010 d"
b1100110011110 t"
b10011000011000 &#
b1100111011101100 6#
b1111100011001110 F#
b11010111100110 V#
b1111111111101100 f#
b1111111111101000 v#
b1111111111110110 ($
b1111111111101010 8$
b1111111111111000 X$
b1111111111110110 h$
b1111111111101010 x$
#34
b1110010010101010 "
b1101111110001100 2
b10111111111100 B
b1001110110 R
b1100111011001110 b
b1101111000010 r
b1111110101100 $"
b1101000000010100 4"
b1110010110001010 D"
b1101101001111100 T"
b11000101111100 d"
b11001010110 t"
b1100101001011110 &#
b1101011110010 6#
b10010010101000 F#
b1100111000000010 V#
b1111111111111100 f#
b11000 v#
b1111111111001000 8$
b1111111111100110 h$
b1100 x$
#35
b1111111001101010 "
b11000101101110 2
b1110001100000100 B
b1110000010111100 R
b11000001111010 b
b101010000 r
b1100111101011000 $"
b1110101010100 4"
b1111101001111110 D"
b11010101110010 T"
b1110010000011000 d"
b1101110000000100 t"
b11001001111010 &#
b10010011000 6#
b1100101011011010 F#
b1110010110100 V#
b1111111111001100 f#
b1000 v#
b11100 8$
b1111111111001000 X$
b1111111111101010 x$
#36
b1111010100010 "
b1100111110101110 2
b1111111111001000 B
b11000011111100 R
b1110001000000100 b
b1110000111100000 r
b11000010101100 $"
b1111111101101010 4"
b10001101100010 D"
b1100110101110000 T"
b1111110010000100 d"
b11010011111100 t"
b1110001010100100 &#
b1101110101011110 6#
b11001100010100 F#
b1011001000 V#
b1111111111101100 f#
b1111111111111000 v#
b1111111111010110 ($
b1111111111011010 8$
b1111111111111100 H$
b1111111111111000 X$
#37
b1100111110111110 "
b1111010110000 2
b1110101111010 B
b1100111100110100 R
b101111100 b
b11000001011000 r
b1110000010000010 $"
b1110001101000000 4"
b1100101100011110 D"
b1111000010110 T"
b10001000100000 d"
b1100110010000110 t"
b1111110110101000 &#
b11010001111110 6#
b1110000110000000 F#
b1101111010100000 V#
b1111111111111100 f#
b1111111111001000 v#
b1111111111110110 ($
b1100 8$
b1111111111011100 H$
b1111111111101000 X$
b1111111111110110 h$
b1111111111111010 x$
#38
b11000100111010 "
b1111111000000000 2
b1101000010011100 B
b10000000010010 R
b1101110001110 b
b1100111010110010 r
b1001001010 $"
b10111110000010 4"
b11001110111010 D"
b101001010 T"
b1100101111010010 d"
b1111110000010 t"
b10000010010100 &#
b1100110000111100 6#
b1111111110100010 F#
b11010001001100 V#
b1111111111011100 f#
b1111111111011000 v#
b1000 ($
b1111111111101010 8$
b1111111110111100 H$
b1111111111001000 X$
b1111111111010110 h$
b1100 x$
#39
b1101111100110010 "
b1110010010101100 2
b11000110010000 B
b1111110000001110 R
b1101000011101110 b
b10000011101010 r
b1101001010000 $"
b1100111001001010 4"
b1101111111011110 D"
b1110000000001010 T"
b11010000011100 d"
b1111111101011110 t"
b1100110000110110 &#
b10000011000110 6#
b1111101001010 F#
b1100101110010110 V#
b1100 f#
b1000 v#
b11000 ($
b1111111111001000 8$
b1111111111011100 H$
b111000 X$
b1111111111101010 x$
#40
b10010100010 "
b10111101001110 2
b1101111000111110 B
b1110011000001100 R
b11000111011010 b
b1111101010011110 r
b1101000110001100 $"
b10001001010110 4"
b101011100 D"
b11001110101110 T"
b1101111001010100 d"
b1110000101100100 t"
b11010010010010 &#
b1111110110011010 6#
b1100110011010010 F#
b10001000101100 V#
b1111111111101100 f#
b1111111111010110 ($
b1100 8$
b1111111111101100 H$
b1111111111111000 X$
b1111111111110110 h$
b1100 x$
#41
b1100101010110 "
b1100110111110010 2
b11001010110 B
b10111001110010 R
b1101110011101100 b
b1110011101101010 r
b11001001000000 $"
b1111100011100000 4"
b1110111000000 D"
b1100101101011100 T"
b1101110000 d"
b11001100000110 t"
b1101110100100000 &#
b1110001011100100 6#
b11010100001100 F#
b1111110000000000 V#
b11100 f#
b1111111111101000 v#
b1000 ($
b1111111111101010 8$
b1111111111011100 H$
b1111111111101000 X$
b1111111111010110 h$
#42
b1101000111111110 "
b10001100111110 2
b1011111001110 B
b1100110100110010 R
b11110001000 b
b10111000001110 r
b1101101110000100 $"
b1110100100000110 4"
b1100110101110110 D"
b10001101001100 T"
b1110000111100 d"
b1100101010110010 t"
b10011100010 &#
b11001010000000 6#
b1101110000001100 F#
b1110010010000000 V#
b1100 f#
b1000 v#
b1100 H$
b1111111111111000 X$
b1000 h$
b1111111111101010 x$
#43
b11001010100010 "
b1111011101111010 2
b1101001010110000 B
b10010010011110 R
b1011010001110 b
b1100110101001110 r
b100011001010 $"
b10110100011000 4"
b11010101110010 D"
b1111101000101000 T"
b1100111000011010 d"
b10010010100000 t"
b1101011010110 &#
b1100101001011110 6#
b11010101110 F#
b11000110101110 V#
b11000 v#
b1111111111110110 ($
b1100 8$
b1111111111110110 h$
#44
b1101101011001110 "
b1110101000101110 2
b11001011001110 B
b1111010111110110 R
b1101001101101110 b
b10010111001100 r
b1010100000010 $"
b1100110011110010 4"
b1101101010010110 D"
b1110010110111100 T"
b11010111100100 d"
b1111100010001010 t"
b1100111011000100 &#
b10011000000100 6#
b1100101010110 F#
b1100100111001010 V#
b101000 v#
b1111111111100110 ($
b1111111111111010 8$
b11000 X$
b1111111111100110 h$
b1111111111111010 x$
#45
b101011101110 "
b10110000100100 2
b1101100101000010 B
b1110101110011010 R
b11001011000010 b
b1111010001111010 r
b1101010001101110 $"
b10011010110010 4"
b11111110110 D"
b11000100010000 T"
b1101100100100110 d"
b1110011110111110 t"
b11011000110000 &#
b1111011011100100 6#
b1100111110100000 F#
b10011100111110 V#
b1111111111111100 f#
b1000 v#
b1000 ($
b1111111111101010 8$
b1111111111101100 H$
b1111111111110110 h$
b1111111111011010 x$
#46
b1001101001110 "
b1100110100011110 2
b110011111110 B
b10101101100000 R
b1101100001101110 b
b1110110101011110 r
b11001011101110 $"
b1111001011001010 4"
b1011110110000 D"
b1100100110111110 T"
b101000001010 d"
b11000000011110 t"
b1101100000110110 &#
b1110100100001010 6#
b11011001010100 F#
b1111010100001100 V#
b1100 f#
b101000 v#
b1111111111111010 8$
b1111111111011100 H$
b1000 X$
b1111111111001000 x$
#47
b1101010100111000 "
b10011111101000 2
b1000111101010 B
b1100110001101010 R
b111000111000 b
b10101000101100 r
b1101011101111110 $"
b1110111011111100 4"
b1101000001111010 D"
b10100001001110 T"
b1011001011100 d"
b1100100101011010 t"
b101111000110 &#
b10111101001110 6#
b1101011100100010 F#
b1110101011000110 V#
b11100 f#
b1111111111111000 v#
b1111111111010110 ($
b1100 H$
b101000 X$
b1000 h$
b1100 x$
#48
b11001100000010 "
b1111000100111100 2
b1101011001111110 B
b10100010101100 R
b1000010001110 b
b1100110011111110 r
b111111011000 $"
b10100100111100 4"
b11011010000000 D"
b1111001110100100 T"
b1101000101000100 d"
b10100101111110 t"
b1010011010010 &#
b1100100101111110 6#
b110101111110 F#
b10111001101010 V#
b1100 f#
b11000 v#
b1111111111101010 8$
b1111111111101100 H$
b1000 X$
b1111111111110110 h$
b1111111111111010 x$
#49
b1101011010001110 "
b1111000001011100 2
b11001011011110 B
b1110111110101100 R
b1101011011001110 b
b10100110101100 r
b111100100010 $"
b1100110011010010 4"
b1101010110110010 D"
b1110110000100010 T"
b11011011001010 d"
b1111000110100000 t"
b1101001010001010 &#
b10101010111010 6#
b1001100011100 F#
b1100100100111010 V#
b101100 f#
b1000 v#
b1100 8$
b1100 H$
b101000 X$
b1111111110110110 h$
b1111111111011010 x$
#50
b1000011101110 "
b10100001011000 2
b1101011000100000 B
b1111000111010110 R
b11001011100010 b
b1110111010000010 r
b1101100000110010 $"
b10101011100000 4"
b111100001100 D"
b10110101100100 T"
b1101010011100100 d"
b1110110111101010 t"
b11011011010000 &#
b1111000000110010 6#
b1101001101011100 F#
b10101111001010 V#
b1111111111111100 f#
b1000 ($
b1111111111101010 8$
b1111111111111100 H$
b1111111111101000 X$
b1111111111110110 h$
b1100 x$
#51
b110101111000 "
b1100110100001110 2
b1001011001010 B
b10011101000010 R
b1101010011011000 b
b1111001101110000 r
b11001011011110 $"
b1110110010100010 4"
b1000110010010 D"
b1100100101001110 T"
b1000010100010 d"
b10110000011010 t"
b1101001110111010 &#
b1110111100110000 6#
b11011010000100 F#
b1110111001111010 V#
b11100 f#
b1111111111011000 v#
b1111111111011010 8$
b1111111110101100 H$
b1111111111011000 X$
b1000 h$
b1111111111011010 x$
#52
b1101100011001110 "
b10101100011100 2
b110001001110 B
b1100110011100010 R
b1010000011010 b
b10011001011100 r
b1101001111111110 $"
b1111010011100010 4"
b1101010000110010 D"
b10110011110100 T"
b1000000000010 d"
b1100100100011010 t"
b1001001001010 &#
b10101110000000 6#
b1101001011111100 F#
b1111000100010000 V#
b1111111111011100 f#
b1111111111101000 v#
b11000 ($
b1111111111111010 8$
b1111111111011100 H$
b1111111111101010 x$
#53
b11001011110010 "
b1110101011011110 2
b1101101000110110 B
b10110001100000 R
b101000000110 b
b1100110101101110 r
b1010111001010 $"
b10010100101110 4"
b11011010110000 D"
b1110110011000110 T"
b1101010101000100 d"
b10110110110100 t"
b111001101100 &#
b1100100101001110 6#
b1001111110100 F#
b10100111011110 V#
b1000 v#
b1111111111101010 8$
b1111111110111100 H$
b1111111111001000 x$
#54
b1101001101001110 "
b1111011010000000 2
b11001010100000 B
b1110100110010110 R
b1101101100001110 b
b10110101001010 r
b100000101010 $"
b1100110101000010 4"
b1101000110110100 D"
b1111001010000110 T"
b11011001110100 d"
b1110101110100000 t"
b1101011001110000 &#
b10111011001110 6#
b110011000110 F#
b1100100100111010 V#
b1100 f#
b1000 ($
b1111111111001000 8$
b1111111111101100 H$
b11000 X$
b1111111111100110 h$
b1111111111011010 x$
#55
b1011100011110 "
b10010001001000 2
b1101001001100000 B
b1111100001010000 R
b11001001010010 b
b1110100001011010 r
b1101110010101000 $"
b10111001000010 4"
b1010101010010 D"
b10100100001100 T"
b1101000011100100 d"
b1111010001111100 t"
b11011001110000 &#
b1110100111010100 6#
b1101011110000010 F#
b10111110001000 V#
b101000 v#
b111000 ($
b1111111111111010 8$
b1111111111011000 X$
b1111111111110110 h$
b1100 x$
#56
b11010111000 "
b1100110111000010 2
b1100001101100 B
b10001011100110 R
b1101000110101110 b
b1111100110011110 r
b11001000000000 $"
b1110011010111100 4"
b101011100110 D"
b1100100110111110 T"
b1011100110010 d"
b10011111111110 t"
b1101000000111010 &#
b1111010111101000 6#
b11011000010100 F#
b1110100001101110 V#
b1111111111101000 v#
b1111111111110110 ($
b1100 8$
b1111111111100110 h$
#57
b1101110110011100 "
b10111010111110 2
b10011110000 B
b1100111000001010 R
b1100111100110 b
b10000111101110 r
b1101000100111100 $"
b1111101101010100 4"
b1101100010010110 D"
b11000010010000 T"
b100100010010 d"
b1100100111001010 t"
b1100010110110 &#
b10011011011110 6#
b1100111100110000 F#
b1111011110111010 V#
b1111111111011100 f#
b1111111111111000 v#
b1111111111010110 ($
b11100 8$
b1100 H$
b101000 X$
b1111111111110110 h$
#58
b11000110111010 "
b1110010110010000 2
b1101111011001110 B
b10111101100010 R
b1110100100 b
b1100111001100010 r
b1101011001110 $"
b10000010000010 4"
b11011001000000 D"
b1110011010100110 T"
b1101100111010110 d"
b11000100101110 t"
b11110000000 &#
b1100101000101110 6#
b1101001000100 F#
b10010101111010 V#
b1111111111111100 f#
b1111111111000110 ($
b1100 8$
b1111111111001100 H$
b1111111111101000 X$
b1111111111100110 h$
#59
b1101000000111110 "
b1111110011111100 2
b11000101100000 B
b1110001111110000 R
b1101111111000010 b
b11000000001000 r
b110101010 $"
b1100111100000100 4"
b1100111010010100 D"
b1111100110001000 T"
b11010110100100 d"
b1110010100100000 t"
b1101101100100110 &#
b11000111110000 6#
b10111011000 F#
b1100101010100010 V#
b101100 f#
b1000 v#
b1111111111110110 ($
b1001110 8$
b1100 H$
b11000 X$
b1111111111110110 h$
b1111111111001000 x$
