11_cs_nwe _channel4/project_1/.Xil/Vivado-2152-GL-0301-949/hw_ila_data_2/zip_work/waveform.vcd
$date
        2023-Aug-07 15:53:17
$end
$version
        Vivado v2018.3 (64-bit)
$end
$timescale
        1ps
$end
$scope module dut $end
$var reg 16 " u3_adc_analysis/adc2_a1_1 [15:0] $end
$var reg 16 2 u3_adc_analysis/adc2_a2_1 [15:0] $end
$var reg 16 B u3_adc_analysis/adc2_a3_1 [15:0] $end
$var reg 16 R u3_adc_analysis/adc2_a4_1 [15:0] $end
$var reg 16 b u3_adc_analysis/adc2_a1_2 [15:0] $end
$var reg 16 r u3_adc_analysis/adc2_a2_2 [15:0] $end
$var reg 16 $" u3_adc_analysis/adc2_a3_2 [15:0] $end
$var reg 16 4" u3_adc_analysis/adc2_a4_2 [15:0] $end
$var reg 16 D" u3_adc_analysis/adc2_b1_1 [15:0] $end
$var reg 16 T" u3_adc_analysis/adc2_b2_1 [15:0] $end
$var reg 16 d" u3_adc_analysis/adc2_b3_1 [15:0] $end
$var reg 16 t" u3_adc_analysis/adc2_b4_1 [15:0] $end
$var reg 16 &# u3_adc_analysis/adc2_b1_2 [15:0] $end
$var reg 16 6# u3_adc_analysis/adc2_b2_2 [15:0] $end
$var reg 16 F# u3_adc_analysis/adc2_b3_2 [15:0] $end
$var reg 16 V# u3_adc_analysis/adc2_b4_2 [15:0] $end
$var reg 1 f# u3_adc_analysis/time_8s_2 $end
$var reg 1 g# _TRIGGER $end
$var reg 1 h# _WINDOW $end
$var reg 1 i# _GAP $end
$upscope $end
$enddefinitions $end
#0
$dumpvars
b1010111010111110 "
b1010110100111010 2
b1010101011100110 B
b1010100110001000 R
b1010100000000000 b
b1010011001011010 r
b1010010010110100 $"
b1010001101110110 4"
b10 D"
b100 T"
b10000 d"
b100000 t"
b1111111111110010 &#
b1111111111110100 6#
b1111111111101110 F#
b10000 V#
0f#
0g#
1h#
0i#
$end
#1
b1010001010000100 "
b1010000101010000 2
b1010000000010000 B
b1001111100110100 R
b1001111001111000 b
b1001110110111010 r
b1001110011001110 $"
b1001110001100100 4"
b10100 T"
b1111111111101110 d"
b0 t"
b1111111111100010 &#
b100 6#
b1111111111101110 V#
#2
b1001110000001110 "
b1001101110010100 2
b1001101100100100 B
b1001101100010010 R
b1001101100101110 b
b1001101011110100 r
b1001101100010100 $"
b1001101101000010 4"
b1111111111110010 D"
b100 T"
b1111111111101110 t"
b10 &#
b1111111111110100 6#
b0 F#
#3
b1001101110111110 "
b1001110000010100 2
b1001110001011110 B
b1001110011111000 R
b1001111000001110 b
b1001111010101010 r
b1001111101111010 $"
b1010000001101010 4"
b10010 D"
b1111111111100100 T"
b0 d"
b11100 6#
b0 V#
#4
b1010000111111100 "
b1010001011010110 2
b1010001111110100 B
b1010010100101100 R
b1010011100000010 b
b1010100010110110 r
b1010100111011000 $"
b1010101111100010 4"
b100010 D"
b1111111111110100 T"
b1111111111011110 t"
b1111111111110010 &#
b100 6#
b1111111111101110 F#
b1111111111101110 V#
#5
b1010110110010110 "
b1010111111111010 2
b1011000101000010 B
b1011001101111100 R
b1011010110111010 b
b1011100000001000 r
b1011101001010100 $"
b1011110010011010 4"
b1111111111100100 T"
b0 t"
b100010 &#
b0 V#
#6
b1011111100011000 "
b1100000110001100 2
b1100010000010010 B
b1100011010011110 R
b1100100101100000 b
b1100110001001000 r
b1100111011101110 $"
b1101000110001000 4"
b10 D"
b1111111111110100 T"
b100000 d"
b10 &#
b1111111111110100 6#
b1111111111011110 F#
#7
b1101010010011010 "
b1101011110010100 2
b1101101010100010 B
b1101110101000110 R
b1110000010010110 b
b1110001110011110 r
b1110011010111100 $"
b1110100110111110 4"
b100 T"
b0 d"
b100000 t"
b100 6#
b1111111111101110 F#
b10000 V#
#8
b1110110011110110 "
b1111000000111010 2
b1111001100111100 B
b1111011001101010 R
b1111100110010110 b
b1111110011011100 r
b111110 $"
b1100001010 4"
b1111111111010010 D"
b1111111111100100 T"
b1111111111101110 t"
b10010 &#
b1111111111110100 6#
b10000 F#
b1111111110111110 V#
#9
b11001101010 "
b100101101010 2
b110011100010 B
b111110111000 R
b1001011101010 b
b1011000011000 r
b1100101100100 $"
b1110001001000 4"
b1111111111110010 D"
b1111111111110100 T"
b1111111111110010 &#
b101100 6#
b0 F#
b1111111111101110 V#
#10
b1111101001000 "
b10001000110110 2
b10010100110010 B
b10011111101110 R
b10101011010110 b
b10110111000110 r
b11000010110010 $"
b11001100110000 4"
b1111111111010010 D"
b1111111111100100 T"
b100000 t"
b10 &#
b10100 6#
b10000 F#
#11
b11010111001010 "
b11100010000000 2
b11101101000000 B
b11110101111100 R
b11111111010110 b
b100001001011010 r
b100010010100000 $"
b100011011011100 4"
b10 D"
b10100 T"
b1111111111011110 d"
b0 t"
b1111111111110100 6#
b0 F#
b10000 V#
#12
b100100011000100 "
b100101011111100 2
b100110100001100 B
b100111011100000 R
b101000011000100 b
b101001010001110 r
b101010001011000 $"
b101010110111000 4"
b100 T"
b1111111111101110 t"
b10010 &#
b100 6#
b10000 F#
#13
b101011100101010 "
b101100011111100 2
b101101000100010 B
b101101101110100 R
b101110001111110 b
b101110111011010 r
b101111011010100 $"
b101111111010000 4"
b1111111111010010 D"
b1111111111110100 T"
b0 d"
b0 t"
b1111111111110100 6#
b1111111111011110 F#
b1111111111011110 V#
#14
b110000001010110 "
b110000101000000 2
b110000111101000 B
b110001010011000 R
b110001011100100 b
b110001110001010 r
b110001111000110 $"
b110010000000010 4"
b10010 D"
b101100 T"
b1111111111011110 d"
b1111111111110010 &#
b0 F#
b1111111111101110 V#
#15
b110001111011010 "
b110001111101110 2
b110001111000110 B
b110001110110000 R
b110001100110100 b
b110001100001010 r
b110001010100100 $"
b110001000010110 4"
b10 D"
b1111111111110100 T"
b1111111111101110 d"
b1111111111101110 t"
b10100 6#
b10000 F#
b0 V#
#16
b110000101000100 "
b110000001110000 2
b101111110110100 B
b101111011010100 R
b101110110001000 b
b101110010010000 r
b101101101110000 $"
b101101000110100 4"
b1111111111110010 D"
b100 T"
b0 d"
b1111111111110100 6#
b1111111111101110 F#
b1111111111011110 V#
#17
b101100001001000 "
b101011100111000 2
b101010110001000 B
b101001111110010 R
b101001000101010 b
b101000001000000 r
b100111001110010 $"
b100110010001110 4"
b10 D"
b1111111111100100 T"
b0 t"
b1111111111010010 &#
b1111111111011110 F#
b1111111111101110 V#
#18
b100101000101010 "
b100100000110010 2
b100011000100010 B
b100001111011010 R
b100000101010100 b
b11111011011110 r
b11110011001010 $"
b11101000001100 4"
b1111111111100010 D"
b100 T"
b1111111111101110 t"
b1111111111110010 &#
b100 6#
b10000 F#
b1111111111011110 V#
#19
b11011100101010 "
b11010010100000 2
b11000111110100 B
b10111100110110 R
b10110000101010 b
b10100100101110 r
b10011001100010 $"
b10001101111010 4"
b1111111111110010 D"
b1111111111010100 T"
b1111111110111110 t"
b1111111111010010 &#
b1111111111010100 6#
b1111111111101110 F#
b0 V#
#20
b10000001110110 "
b1110101010000 2
b1101010010000 B
b1011101011100 R
b1010000001010 b
b1000011101110 r
b110111100010 $"
b101010011110 4"
b10 D"
b100 T"
b1111111111011110 t"
b1111111111100010 &#
b1111111111100100 6#
#21
b11101001010 "
b10000101010 2
b100001110 B
b1111110111100110 R
b1111101010100110 b
b1111011100110100 r
b1111010000111010 $"
b1111000011110000 4"
b1111111111100010 D"
b101100 T"
b1111111111011110 d"
b0 t"
b10010 &#
b1111111111110100 6#
b0 F#
b10000 V#
#22
b1110110111111110 "
b1110101010011100 2
b1110011101111110 B
b1110010010000110 R
b1110000110011100 b
b1101111001110010 r
b1101101101110100 $"
b1101100010011010 4"
b1111111111110010 D"
b1111111111110100 T"
b10000 d"
b1111111111101110 t"
b1111111111100010 &#
b100 6#
b0 V#
#23
b1101010110011010 "
b1101001010111100 2
b1100111111101110 B
b1100110100011110 R
b1100101001010110 b
b1100011110101010 r
b1100010100000100 $"
b1100001010000100 4"
b10 D"
b100 T"
b0 d"
b0 t"
b10 &#
b1111111111010100 6#
b1111111111101110 F#
b1111111111101110 V#
#24
b1100000001010110 "
b1011110111010110 2
b1011101101110100 B
b1011100100100100 R
b1011011010111010 b
b1011010011101000 r
b1011001001000100 $"
b1011000011000000 4"
b100 6#
b0 F#
b10000 V#
#25
b1010111010101110 "
b1010110100101010 2
b1010101011100110 B
b1010100110001000 R
b1010100000100000 b
b1010011000011010 r
b1010010011000100 $"
b1010001110010110 4"
b1111111111100010 D"
b1111111111110100 T"
b10000 t"
b10010 &#
b1111111111110100 6#
b1111111111011110 F#
#26
b1010001010000100 "
b1010000101000000 2
b1010000000100000 B
b1001111100110100 R
b1001111010001000 b
b1001110111001010 r
b1001110011011110 $"
b1001110000110100 4"
b10 D"
b10100 T"
b0 t"
b1111111111100100 6#
b10000 F#
b0 V#
#27
b1001110000101110 "
b1001101110010100 2
b1001101100110100 B
b1001101100110010 R
b1001101100011110 b
b1001101100000100 r
b1001101100100100 $"
b1001101101000010 4"
b1111111111100100 T"
b10000 d"
b10 &#
b100 6#
b0 F#
b1111111111101110 V#
#28
b1001101111001110 "
b1001110000100100 2
b1001110010001110 B
b1001110100001000 R
b1001110111111110 b
b1001111010111010 r
b1001111101001000 $"
b1010000001001010 4"
b1111111111110010 D"
b100 T"
b0 d"
b1111111111011110 t"
b1111111111110010 &#
b10100 6#
#29
b1010000111011100 "
b1010001010110110 2
b1010001111110100 B
b1010010100011100 R
b1010011100100010 b
b1010100010100110 r
b1010100111101000 $"
b1010101111010010 4"
b10 D"
b1111111111101110 d"
b1111111111100010 &#
b1111111111010100 6#
b10000 F#
b0 V#
#30
b1010110110000110 "
b1010111111111010 2
b1011000101100010 B
b1011001110001100 R
b1011010111011010 b
b1011100000011000 r
b1011101001100100 $"
b1011110010011010 4"
b1111111111100010 D"
b1111111111100100 T"
b1111111111011110 d"
b100000 t"
b10 &#
b10100 6#
b1111111111011110 F#
b1111111111101110 V#
#31
b1011111100101000 "
b1100000110011100 2
b1100010000000010 B
b1100011001111110 R
b1100100101010000 b
b1100110000111000 r
b1100111100001110 $"
b1101000110001000 4"
b10 D"
b100 T"
b10000 d"
b0 t"
b100 6#
b0 V#
#32
b1101010010001010 "
b1101011110100100 2
b1101101010100010 B
b1101110101110110 R
b1110000010010110 b
b1110001110001110 r
b1110011010011100 $"
b1110100110101110 4"
b11100 T"
b1111111111101110 t"
b10010 &#
b1111111111100100 6#
b0 F#
#33
b1110110011110110 "
b1111000000101010 2
b1111001100011100 B
b1111011000111010 R
b1111100110100110 b
b1111110011111100 r
b101110 $"
b1100100010 4"
b10100 T"
b1111111111011110 d"
b1111111111100010 &#
b101100 6#
b1111111111101110 F#
b1111111111011110 V#
#34
b11001011010 "
b100110011010 2
b110011010010 B
b111110111000 R
b1001011101010 b
b1011000101000 r
b1100101000100 $"
b1110000101000 4"
b1111111111110010 D"
b1111111111100100 T"
b1111111111101110 d"
b0 t"
b1111111111110100 6#
b0 F#
b10000 V#
#35
b1111100011000 "
b10001000100110 2
b10010100110010 B
b10011111111110 R
b10101011011010 b
b10110110100110 r
b11000010010010 $"
b11001100110000 4"
b1111111111110100 T"
b0 d"
b10 &#
b10100 6#
b1111111111101110 F#
#36
b11010110101010 "
b11100001100000 2
b11101101000000 B
b11110101111100 R
b11111111010110 b
b100001001001010 r
b100010010100000 $"
b100011010110010 4"
b101100 T"
b10000 d"
b10000 t"
b1111111111110100 6#
b0 V#
#37
b100100011100100 "
b100101011011100 2
b100110100100000 B
b100111011100000 R
b101000011000100 b
b101001010001110 r
b101010001011000 $"
b101010110110110 4"
b100 T"
b1111111111101110 d"
b1111111111011110 t"
b1111111111110010 &#
b1111111111010100 6#
b10000 F#
#38
b101011101011010 "
b101100011011100 2
b101101001011110 B
b101101110000100 R
b101110001101110 b
b101110110100000 r
b101111010110100 $"
b101111111100000 4"
b1111111111110100 T"
b100000 d"
b1111111111101110 t"
b10 &#
b100 6#
b0 F#
b10000 V#
#39
b110000001100110 "
b110000101010000 2
b110000111101000 B
b110001010011000 R
b110001011100100 b
b110001101011010 r
b110001110110110 $"
b110001111100000 4"
b1111111111100010 D"
b10100 T"
b10000 d"
b0 t"
b1111111111110100 6#
b1111111111101110 F#
b0 V#
#40
b110001111011010 "
b110001111011110 2
b110001111100110 B
b110001110010000 R
b110001101000100 b
b110001100001010 r
b110001010100100 $"
b110001000000110 4"
b1111111111110010 D"
b100 T"
b110000 d"
b10000 t"
b100 6#
b10000 F#
#41
b110000100110100 "
b110000001100000 2
b101111110100100 B
b101111011000100 R
b101110110111000 b
b101110010010000 r
b101101101110000 $"
b101101000110100 4"
b10010 D"
b1111111111110100 T"
b0 d"
b1111111111011110 t"
b1111111111101110 F#
b100000 V#
#42
b101100010001000 "
b101011100011000 2
b101010110011000 B
b101001111100010 R
b101001000001010 b
b101000001010000 r
b100111001110010 $"
b100110001111110 4"
b10 D"
b101100 T"
b1111111111101110 t"
b1111111111110100 6#
b10000 F#
b10000 V#
#43
b100101001011010 "
b100100000010010 2
b100010111110010 B
b100001111001010 R
b100000101100100 b
b11111011101110 r
b11110010001010 $"
b11101000011100 4"
b1111111111100010 D"
b111100 T"
b1111111111101110 d"
b10000 t"
b1111111111110010 &#
b100 6#
b1111111111011110 F#
b0 V#
#44
b11011100011010 "
b11010010010000 2
b11000111100100 B
b10111100110110 R
b10110000101010 b
b10100100011110 r
b10011001100010 $"
b10001101011010 4"
b10010 D"
b1111111111110100 T"
b10000 d"
b0 t"
b10010 &#
b101100 6#
#45
b10000001100110 "
b1110101010000 2
b1101010000000 B
b1011101011100 R
b1010000101010 b
b1000011111110 r
b110110010010 $"
b101010100110 4"
b1111111111100010 D"
b0 d"
b1111111111101110 t"
b1111111111110010 &#
b1111111111101110 F#
b1111111111101110 V#
#46
b11101111000 "
b10000101010 2
b11001110 B
b1111110111100110 R
b1111101010010110 b
b1111011101010100 r
b1111010000011010 $"
b1111000011110000 4"
b1111111111110010 D"
b100 T"
b1111111111101110 d"
b0 t"
b1111111111110100 6#
b10000 F#
#47
b1110110111101110 "
b1110101010011100 2
b1110011101101110 B
b1110010010000110 R
b1110000110011100 b
b1101111001100010 r
b1101101101100100 $"
b1101100010011010 4"
b100010 D"
b1111111111110100 T"
b0 d"
b10 &#
b1111111111101110 F#
b1111111111011110 V#
#48
b1101010110111010 "
b1101001011011100 2
b1100111111001110 B
b1100110100101110 R
b1100101001100110 b
b1100011110101010 r
b1100010011100100 $"
b1100001010000100 4"
b1111111111100010 D"
b10000 d"
b10010 &#
b1111111111100100 6#
b100000 F#
b10000 V#
#49
b1100000001000110 "
b1011110111010110 2
b1011101100110100 B
b1011100100010100 R
b1011011010111010 b
b1011010011001000 r
b1011001000110100 $"
b1011000010110000 4"
b1111111111110010 D"
b1111111111100100 T"
b1111111111011110 d"
b10000 t"
b1111111111110010 &#
b0 F#
#50
b1010111011001110 "
b1010110100001010 2
b1010101011100110 B
b1010100101111000 R
b1010100000000000 b
b1010011001001010 r
b1010010010110100 $"
b1010001110000110 4"
b10 D"
b100000 d"
b1111111111101110 t"
b1111111111100010 &#
b100 6#
b1111111111101110 F#
b1111111111101110 V#
#51
b1010001010100100 "
b1010000101000000 2
b1010000000100000 B
b1001111101000100 R
b1001111010101000 b
b1001110110011010 r
b1001110011011110 $"
b1001110000110100 4"
b100010 D"
b100 T"
b0 d"
b1111111111010010 &#
b0 F#
b1111111111011110 V#
#52
b1001110000011110 "
b1001101110010100 2
b1001101100100100 B
b1001101011011010 R
b1001101100001110 b
b1001101101000100 r
b1001101011110100 $"
b1001101101000010 4"
b10 D"
b1111111111110100 T"
b1111111111011110 d"
b0 t"
b1111111111100010 &#
b1111111111100100 6#
b1111111111011110 F#
b0 V#
#53
b1001101111001110 "
b1001110000000100 2
b1001110001011110 B
b1001110011111000 R
b1001111000001000 b
b1001111010111010 r
b1001111100101000 $"
b1010000001011010 4"
b1111111111110010 D"
b1111111111101110 d"
b1111111111101110 t"
b10010 &#
b10100 6#
b10000 F#
b1111111111101110 V#
#54
b1010000110111100 "
b1010001010110110 2
b1010001111010100 B
b1010010100011100 R
b1010011011110010 b
b1010100010110110 r
b1010100111001000 $"
b1010101111010010 4"
b1111111111100010 D"
b11100 T"
b10000 t"
b1111111111110010 &#
b100 6#
b1111111111011110 F#
b10000 V#
#55
b1010110110000110 "
b1010111111001000 2
b1011000100110010 B
b1011001101011100 R
b1011010111011010 b
b1011100000001000 r
b1011101001010100 $"
b1011110010011010 4"
b10 D"
b100 T"
b0 d"
b0 t"
#56
b1011111100001000 "
b1100000101111100 2
b1100001111110010 B
b1100011001111110 R
b1100100101100000 b
b1100110000001000 r
b1100111011101110 $"
b1101000110001000 4"
b1111111111110100 T"
b1111111111101110 d"
b10000 t"
b101100 6#
b0 F#
b0 V#
#57
b1101010010011010 "
b1101011110100100 2
b1101101001110010 B
b1101110101100110 R
b1110000010000110 b
b1110001101101110 r
b1110011010011100 $"
b1110100110011110 4"
b1111111111110010 D"
b1111111111100100 T"
b0 d"
b1111111111101110 t"
b10 &#
b10100 6#
b10000 F#
b10000 V#
#58
b1110110011110110 "
b1111000000101010 2
b1111001100101100 B
b1111011001001010 R
b1111100110010110 b
b1111110011010000 r
b11110 $"
b1011111010 4"
b10 D"
b101100 T"
b100000 d"
b100 6#
b1111111111011110 F#
b1111111111101110 V#
#59
b11001001010 "
b100101111010 2
b110011100010 B
b111111101000 R
b1001011101010 b
b1011000011000 r
b1100100110100 $"
b1110001011000 4"
b10010 D"
b1111111111110100 T"
b0 d"
b100000 t"
b10010 &#
b1111111111110100 6#
b1111111111101110 F#
b10000 V#
#60
b1111101011000 "
b10001000100110 2
b10010101100010 B
b10100001000010 R
b10101011110110 b
b10110111010110 r
b11000010100010 $"
b11001101000000 4"
b10 D"
b100 T"
b10000 d"
b10000 t"
b100 6#
#61
b11010111001010 "
b11100010010000 2
b11101100110000 B
b11110110111100 R
b11111111100110 b
b100001000101010 r
b100010010110000 $"
b100011011101100 4"
b0 d"
b0 t"
b1111111111010010 &#
b1111111111110100 6#
b10000 F#
#62
b100100011010100 "
b100101100001100 2
b100110100011100 B
b100111100000000 R
b101000011000100 b
b101001010101110 r
b101010001101000 $"
b101010111110110 4"
b10010 D"
b10000 d"
b1111111111101110 t"
b1111111111110010 &#
b100 6#
b1111111111101110 F#
b0 V#
#63
b101011100101010 "
b101100011101100 2
b101101000110010 B
b101101110000100 R
b101110001111110 b
b101110111011010 r
b101111011100100 $"
b101111111110000 4"
b10 D"
b1111111111101110 d"
b10000 t"
b10010 &#
b10000 F#
b1111111111011110 V#
#64
b110000001110110 "
b110000101000000 2
b110000111111000 B
b110001010011000 R
b110001011100100 b
b110001101101010 r
b110001110110110 $"
b110001111110010 4"
b1111111111110010 D"
b1111111111011110 d"
b1111111111011110 t"
b1111111111010010 &#
b0 F#
b1111111111101110 V#
#65
b110001111011010 "
b110001111011110 2
b110001111011110 B
b110001111010000 R
b110001100110100 b
b110001100001010 r
b110001010010100 $"
b110001000010110 4"
b0 t"
b1111111111110010 &#
b0 V#
#66
b110000101000100 "
b110000001110000 2
b101111110110100 B
b101111011100100 R
b101110101111000 b
b101110010010000 r
b101101110000000 $"
b101101001000100 4"
b1111111111110100 T"
b100000 t"
b1111111111101110 F#
b10000 V#
#67
b101100001111000 "
b101011101001000 2
b101010110111000 B
b101010000010010 R
b101001000001010 b
b101000001010000 r
b100111001110010 $"
b100110001111110 4"
b10 D"
b100000 d"
b1111111111101110 t"
b1111111111100010 &#
b10000 F#
b1111111111101110 V#
#68
b100101001011010 "
b100100000110010 2
b100011000010010 B
b100001111011010 R
b100000101100100 b
b11111011001110 r
b11110001111010 $"
b11101000001100 4"
b100 T"
b0 d"
b0 t"
b100010 &#
b1111111111110100 6#
b0 F#
#69
b11011100011010 "
b11010010000000 2
b11000111100100 B
b10111101000110 R
b10110000011010 b
b10100011111110 r
b10011010001010 $"
b10001110011010 4"
b1111111111110010 D"
b10100 T"
b1111111111101110 d"
b10 &#
#70
b10000001110110 "
b1110100100000 2
b1101000110100 B
b1011100111100 R
b1001111111010 b
b1000011101110 r
b110111000010 $"
b101010011110 4"
b1111111111100010 D"
b100 T"
b1111111111101110 t"
b1111111111100010 &#
b10100 6#
b0 V#
#71
b11101001010 "
b10000101010 2
b100001110 B
b1111110111100110 R
b1111101010100110 b
b1111011100110100 r
b1111010000101010 $"
b1111000100000000 4"
b10 D"
b1111111111110100 T"
b0 t"
b10010 &#
b1111111111100100 6#
b10000 F#
#72
b1110110111011110 "
b1110101010011100 2
b1110011110001110 B
b1110010010000110 R
b1110000111000100 b
b1101111001100010 r
b1101101101100100 $"
b1101100010011010 4"
b1111111111110010 D"
b100 T"
b0 d"
b1111111111101110 t"
b100 6#
b1111111111011110 F#
b1111111111101110 V#
#73
b1101010110111010 "
b1101001010101100 2
b1100111111011110 B
b1100110100011110 R
b1100101001110110 b
b1100011110011010 r
b1100010011100100 $"
b1100001001110100 4"
b1111111111100010 D"
b1111111111110100 T"
b0 t"
b10 &#
b1111111111101110 F#
b1111111111011110 V#
#74
b1100000001100110 "
b1011110110100110 2
b1011101101000100 B
b1011100100110100 R
b1011011011011010 b
b1011010011001000 r
b1011001000110100 $"
b1011000011010000 4"
b1111111111110010 D"
b1111111111101110 d"
b10000 t"
b1111111111110010 &#
b1111111111011110 F#
b0 V#
#75
b1010111010111110 "
b1010110100011010 2
b1010101011110110 B
b1010100110101000 R
b1010100000100000 b
b1010011001001010 r
b1010010010110100 $"
b1010001110010110 4"
b10 D"
b100 T"
b10 &#
b1111111111110100 6#
b0 F#
b1111111111101110 V#
#76
b1010001010110100 "
b1010000101000000 2
b1010000000010000 B
b1001111100100100 R
b1001111010011000 b
b1001110110101010 r
b1001110011011110 $"
b1001110001010100 4"
b1111111111110100 T"
b1111111111101110 t"
b1111111111110010 &#
b100 6#
#77
b1001110000101110 "
b1001101110000100 2
b1001101100110100 B
b1001101100000010 R
b1001101100101110 b
b1001101100000100 r
b1001101100010100 $"
b1001101101010010 4"
b1111111111010010 D"
b1111111111100100 T"
b0 d"
b10000 t"
b1111111111010010 &#
b1111111111110100 6#
b1111111111101110 F#
#78
b1001101111111110 "
b1001110000010100 2
b1001110010001110 B
b1001110100111000 R
b1001111000001110 b
b1001111010111010 r
b1001111101111010 $"
b1010000001101010 4"
b1111111111110010 D"
b1111111111110100 T"
b10 &#
b100 6#
b10000 F#
b0 V#
#79
b1010000111110100 "
b1010001010100110 2
b1010001111010100 B
b1010010100111100 R
b1010011100010010 b
b1010100011000110 r
b1010100111011000 $"
b1010101111100010 4"
b1111111111100010 D"
b100 T"
b1111111111101110 d"
b0 t"
b1111111111010010 &#
b1111111111010100 6#
b0 F#
b10000 V#
#80
b1010110111010110 "
b1010111110111000 2
b1011000101010010 B
b1011001110001100 R
b1011010110111010 b
b1011100000001000 r
b1011101010010100 $"
b1011110010011010 4"
b1111111111110100 T"
b1111111111101110 t"
b1111111111110010 &#
b1111111111110100 6#
b10000 F#
b0 V#
#81
b1011111100111000 "
b1100000101101100 2
b1100010000010010 B
b1100011010110000 R
b1100100101110000 b
b1100110000011000 r
b1100111010111110 $"
b1101000111001000 4"
b1111111111110010 D"
b0 d"
b10000 t"
b1111111111100010 &#
b100 6#
b0 F#
b1111111111101110 V#
#82
b1101010010101010 "
b1101011110100100 2
b1101101010000010 B
b1101110110000110 R
b1110000010100110 b
b1110001101111110 r
b1110011011001100 $"
b1110100111001110 4"
b1111111111100010 D"
b10100 T"
b10000 d"
b1111111111101110 t"
b1111111111110100 6#
b10000 V#
#83
b1110110011100110 "
b1111000000101010 2
b1111001100111100 B
b1111011010001010 R
b1111100110100110 b
b1111110011111100 r
b101110 $"
b1100110010 4"
b100 T"
b0 d"
b0 t"
b1111111111010010 &#
b1111111111011110 F#
b1111111111101110 V#
#84
b11001001010 "
b100110011010 2
b110011100010 B
b111111101000 R
b1001011011010 b
b1011000111000 r
b1100101000100 $"
b1110001001000 4"
b1111111111110010 D"
b1111111111110100 T"
b1111111111101110 t"
b1111111111110010 &#
b10000 F#
b0 V#
#85
b1111100011000 "
b10001000010110 2
b10010100010010 B
b10100000001110 R
b10101011011010 b
b10110110100110 r
b11000010100010 $"
b11001101000000 4"
b1111111111100010 D"
b101100 T"
b1111111111011110 d"
b10000 t"
b10010 &#
b1111111111011110 V#
#86
b11010111001010 "
b11100010010000 2
b11101101000000 B
b11110110101100 R
b11111111010110 b
b100001000111010 r
b100010011000000 $"
b100011011101100 4"
b1111111111110010 D"
b10100 T"
b0 d"
b1111111111011110 t"
b1111111111100010 &#
b1111111111101110 V#
#87
b100100011000100 "
b100101011111100 2
b100110011111100 B
b100111100000000 R
b101000010110100 b
b101001010101110 r
b101010001101000 $"
b101011000100110 4"
b1111111111010010 D"
b1111111111100100 T"
b1111111111101110 t"
b10 &#
b11100 6#
b1111111111011110 F#
b10000 V#
#88
b101011100111010 "
b101100011011100 2
b101101000110010 B
b101101110111100 R
b101110001101110 b
b101110111011010 r
b101111011000100 $"
b101111111110000 4"
b10010 D"
b101100 T"
b1111111111011110 d"
b0 t"
b100 6#
b10000 F#
b1111111111011110 V#
#89
b110000001100110 "
b110000101000000 2
b110000111011000 B
b110001010101000 R
b110001011000100 b
b110001110001010 r
b110001110110110 $"
b110010000000010 4"
b10 D"
b1111111111110100 T"
b1111111111001110 d"
b1111111111100010 &#
b1111111111101110 V#
#90
b110001111001010 "
b110001111111110 2
b110001111111110 B
b110001111110010 R
b110001101000100 b
b110001011101010 r
b110001010110110 $"
b110001000010110 4"
b1111111111100010 D"
b100 T"
b1111111111011110 d"
b100000 t"
b10 &#
b1111111111110100 6#
b1111111111101110 F#
#91
b110000100110100 "
b110000001110000 2
b101111110100100 B
b101111011100100 R
b101110110011000 b
b101110010110000 r
b101101101100000 $"
b101101001000100 4"
b1111111111110010 D"
b1111111111101110 d"
b10000 t"
b1111111111100010 &#
b1111111111100100 6#
b1111111110111110 F#
b0 V#
#92
b101100001111000 "
b101011100101000 2
b101010110101000 B
b101001111100010 R
b101001000101010 b
b101000001000000 r
b100111010000010 $"
b100110010011110 4"
b1111111111110100 T"
b100 6#
b1111111111011110 F#
b10000 V#
#93
b100101001011010 "
b100100000100010 2
b100011000110010 B
b100001111111010 R
b100000101100100 b
b11111011111110 r
b11110010011010 $"
b11101000101100 4"
b10010 D"
b100 T"
b0 d"
b1111111111101110 t"
b1111111111101110 F#
b0 V#
#94
b11011100001010 "
b11010010110000 2
b11000111100100 B
b10111101010110 R
b10110000011010 b
b10100100101110 r
b10011001100010 $"
b10001110001010 4"
b10 D"
b10100 T"
b1111111111011110 d"
b10000 t"
b10 &#
b1111111111110100 6#
b10000 F#
b100000 V#
#95
b10000010000110 "
b1110101100000 2
b1101001100000 B
b1011101011100 R
b1010000001010 b
b1000011011110 r
b110111000010 $"
b101010101110 4"
b100 T"
b0 d"
b0 t"
b1111111111110010 &#
b0 F#
b10000 V#
#96
b11110011000 "
b10000101010 2
b11011110 B
b1111111000000110 R
b1111101010010110 b
b1111011101110100 r
b1111010000111010 $"
b1111000100000000 4"
b1111111111100100 T"
b100000 d"
b1111111111101110 t"
b100 6#
#97
b1110111000011110 "
b1110101010101110 2
b1110011101111110 B
b1110010010010110 R
b1110000110011100 b
b1101111010000010 r
b1101101101100100 $"
b1101100001111010 4"
b100 T"
b0 d"
b0 t"
b1111111111010010 &#
b101100 6#
b1111111111011110 F#
b1111111111011110 V#
#98
b1101010110111010 "
b1101001010111100 2
b1100111110111110 B
b1100110100101110 R
b1100101001100110 b
b1100011110101010 r
b1100010100010100 $"
b1100001010000100 4"
b1111111111100010 D"
b100000 t"
b1111111111110010 &#
b1111111111101110 V#
#99
b1100000001000110 "
b1011110111010110 2
b1011101101010100 B
b1011100100000100 R
b1011011011001010 b
b1011010011011000 r
b1011001000110100 $"
b1011000010110000 4"
b10100 T"
b10000 d"
b10000 t"
b10010 &#
b100 6#
b100000 F#
b0 V#
#100
b1010111010111110 "
b1010110100101010 2
b1010101011110110 B
b1010100110001000 R
b1010011111110000 b
b1010011001001010 r
b1010010011000100 $"
b1010001101100110 4"
b1111111111110100 T"
b0 d"
b100000 t"
b1111111111100010 &#
b1111111111110100 6#
b0 F#
b1111111111101110 V#
#101
b1010001010000100 "
b1010000101010000 2
b1001111111110000 B
b1001111100110100 R
b1001111010011000 b
b1001110111001010 r
b1001110011001110 $"
b1001110000010100 4"
b10 D"
b100000 d"
b1111111111101110 t"
b10 &#
b1111111111100100 6#
b10000 F#
b0 V#
#102
b1001110000001110 "
b1001101110010100 2
b1001101100100100 B
b1001101011011010 R
b1001101100111110 b
b1001101100010100 r
b1001101100000100 $"
b1001101101100010 4"
b1111111111100010 D"
b100000 t"
b1111111111110100 6#
b100000 F#
#103
b1001101111101110 "
b1001110000010100 2
b1001110001011110 B
b1001110100101000 R
b1001111000001110 b
b1001111010111010 r
b1001111101111010 $"
b1010000001101010 4"
b100 T"
b1111111111101110 d"
b1111111111101110 t"
b1111111111110010 &#
b100 6#
b10000 F#
b1111111111101110 V#
#104
b1010000111101100 "
b1010001011000110 2
b1010001111110100 B
b1010010100111100 R
b1010011100100010 b
b1010100011000110 r
b1010100111011000 $"
b1010101111010010 4"
b1111111111110010 D"
b0 d"
b0 t"
b1111111111011110 F#
b0 V#
#105
b1010110111010110 "
b1010111111101010 2
b1011000100110010 B
b1011001110011100 R
b1011010111001010 b
b1011100000001000 r
b1011101001100100 $"
b1011110010011010 4"
b1111111111110100 T"
b1111111111101110 d"
b1111111111101110 t"
b10 &#
b0 F#
