11_cs_nwe _channel4/project_1/.Xil/Vivado-19400-GL-0301-949/hw_ila_data_3/zip_work/waveform.vcd
$date
        2023-May-09 14:58:18
$end
$version
        Vivado v2018.3 (64-bit)
$end
$timescale
        1ps
$end
$scope module dut $end
$var reg 4 " u2_adc_top/u1_adc_module/u_adc_jesd204b/gt0_rxcharisk [3:0] $end
$var reg 32 & u2_adc_top/u1_adc_module/u_adc_jesd204b/gt0_rxdata [31:0] $end
$var reg 1 F adc1_sync $end
$var reg 1 G _TRIGGER $end
$var reg 1 H _WINDOW $end
$var reg 1 I _GAP $end
$upscope $end
$enddefinitions $end
#0
$dumpvars
b0 "
b10110000000000000011000000000 &
1F
0G
1H
0I
$end
#1
b110000000001111011011111111 &
#2
b1000 "
b11111100000000000001011000000000 &
#3
b0 "
b11110110111111110000011000000000 &
#4
b10 "
b110000000001111110011111111 &
#5
b11100110111111111111110000000000 &
#6
b0 "
b110000000000001011000000000 &
#7
b110000000001111011011111111 &
#8
b1000 "
b11111100111111111111011011111111 &
#9
b0 "
b11110110111111110000011000000000 &
#10
b10 "
b110000000001111110011111111 &
#11
b0 "
b11110110111111110001011000000000 &
#12
b10 "
b11110110111111111111110011111111 &
#13
b110000000001111110011111111 &
#14
b1000 "
b11111100111111111111011011111111 &
#15
b0 "
b11110110111111110001011000000000 &
#16
b1000 "
b11111100000000000000011000000000 &
#17
b11111100111111111111011011111111 &
#19
b0 "
b11110110111111110001011000000000 &
#20
b10 "
b11110110111111111111110011111111 &
#21
b10110000000001111110011111111 &
#22
b0 "
b110000000001110011011111111 &
#23
b10 "
b110000000001111110000000000 &
#24
b0 "
b110000000001111011011111111 &
#25
b10 "
b11110110111111111111110000000000 &
#26
b0 "
b11110110111111110000011000000000 &
#27
b10110000000000000011000000000 &
#28
b1000 "
b11111100111111111111011011111111 &
#29
b0 "
b11010110111111111110011011111111 &
#30
b1000 "
b11111100111111111111011011111111 &
#31
b0 "
b11110110111111110001011000000000 &
#32
b10 "
b11110110111111111111110011111111 &
#33
b0 "
b11110110111111110000011000000000 &
#34
b10 "
b10110000000001111110011111111 &
#35
b0 "
b11110110111111111110011011111111 &
#36
b11110110111111110000011000000000 &
#37
b10 "
b10110000000001111110011111111 &
#38
b0 "
b11100110111111111111011011111111 &
#39
b1000 "
b11111100000000000000011000000000 &
#41
b0 "
b11110110111111110000011000000000 &
#45
b10110000000000000011000000000 &
#46
b110000000000010011000000000 &
#47
b110000000000001011000000000 &
#48
b110000000001110011011111111 &
#49
b10 "
b11100110111111111111110000000000 &
#50
b1000 "
b11111100111111111111011011111111 &
#51
b0 "
b110000000001111011011111111 &
#52
b10 "
b11110110111111111111110000000000 &
#53
b0 "
b11110110111111110000011000000000 &
#54
b10 "
b10110000000001111110011111111 &
#55
b0 "
b110000000001111011011111111 &
#56
b1000 "
b11111100111111111111011011111111 &
#57
b0 "
b110000000000001011000000000 &
#58
b1000 "
b11111100111111111111011011111111 &
#59
b0 "
b10110000000000000011000000000 &
#60
b10110000000001111011011111111 &
#61
b1000 "
b11111100000000000000011000000000 &
#62
b0 "
b11110110111111110000011000000000 &
#64
b11110110111111111101011011111111 &
#65
b10 "
b10110000000001111110011111111 &
#66
b11110110111111111111110000000000 &
#67
b0 "
b11110110111111110000011000000000 &
#68
b11100110111111110001011000000000 &
#69
b1000 "
b11111100000000000000011000000000 &
#72
b11111100111111111111011011111111 &
#73
b0 "
b110000000001111011011111111 &
#74
b10110000000001111011011111111 &
#75
b1000 "
b11111100111111111111011011111111 &
#76
b0 "
b11010110111111111111011011111111 &
#77
b1000 "
b11111100000000000001011000000000 &
#78
b0 "
b110000000001111011011111111 &
#79
b1000 "
b11111100111111111111011011111111 &
#80
b11111100000000000000011000000000 &
#81
b0 "
b10110000000001111011011111111 &
#82
b1000 "
b11111100111111111111011011111111 &
#83
b0 "
b11110110111111110000011000000000 &
#84
b10 "
b110000000001111110011111111 &
#85
b110000000001111110000000000 &
#86
b1000 "
b11111100111111111111011011111111 &
#87
b11111100000000000000011000000000 &
#88
b11111100111111111111011011111111 &
#89
b0 "
b10110000000000000011000000000 &
#90
b10 "
b110000000001111110000000000 &
#91
b11110110111111111111110000000000 &
#92
b100110000000001111110011111111 &
#93
b0 "
b110000000000001011000000000 &
#94
b100110000000001111011011111111 &
#95
b110000000001110011011111111 &
#96
b10 "
b11110110111111111111110000000000 &
#97
b0 "
b110000000001100011011111111 &
#98
b10 "
b11110110111111111111110000000000 &
#99
b0 "
b11110110111111110001011000000000 &
#100
b10110000000000000011000000000 &
1G
#101
b11100110111111110000011000000000 &
#102
b110000000000001011000000000 &
#103
b1000 "
b11111100111111111111011011111111 &
#104
b0 "
b110000000001111011011111111 &
#105
b10 "
b10110000000001111110000000000 &
#106
b1000 "
b11111100000000000000011000000000 &
#107
b0 "
b110000000000001011000000000 &
#108
b10 "
b11110110111111111111110000000000 &
#109
b0 "
b11110110111111110001011000000000 &
#111
b110000000000001011000000000 &
#112
b1000 "
b11111100000000000001011000000000 &
#113
b0 "
b10110000000000000011000000000 &
#114
b10 "
b110000000001111110000000000 &
#115
b0 "
b110000000000001011000000000 &
#116
b110000000001111011011111111 &
#117
b10 "
b100110000000001111110000000000 &
#118
b0 "
b10110000000001111011011111111 &
#119
b110000000001111011011111111 &
#120
b10 "
b110000000001111110000000000 &
#121
b0 "
b110000000001111011011111111 &
#122
b10110000000000010011000000000 &
#123
b10 "
b11110110111111111111110000000000 &
#124
b1000 "
b11111100000000000001011000000000 &
#125
b0 "
b11100110111111110000011000000000 &
#126
b10110000000001111011011111111 &
#127
b11110110111111110000011000000000 &
#128
b10 "
b110000000001111110011111111 &
#129
b11110110111111111111110000000000 &
#130
b1000 "
b11111100000000000000011000000000 &
#131
b0 "
b110000000001111011011111111 &
#132
b110000000000001011000000000 &
#133
b110000000001111011011111111 &
#134
b10110000000001111011011111111 &
#135
b10 "
b11110110111111111111110000000000 &
#136
b0 "
b11110110111111110001011000000000 &
#137
b100110000000000001011000000000 &
#138
b1000 "
b11111100000000000000011000000000 &
#139
b0 "
b11100110111111110001011000000000 &
#140
b11110110111111110000011000000000 &
#142
b10 "
b11110110111111111111110011111111 &
#143
b0 "
b11100110111111110001011000000000 &
#144
b11100110111111111111011011111111 &
#145
b110000000000001011000000000 &
#146
b110000000000011011000000000 &
#147
b110000000001111011011111111 &
#148
b10 "
b10110000000001111110000000000 &
#149
b0 "
b11110110111111110000011000000000 &
#150
b1000 "
b11111100000000000000011000000000 &
#153
b0 "
b11110110111111110000011000000000 &
#154
b110000000001110011011111111 &
#155
b10 "
b110000000001111110000000000 &
#156
b0 "
b11110110111111111110011011111111 &
#158
b1000 "
b11111100000000000000011000000000 &
#159
b0 "
b110000000000001011000000000 &
#160
b10 "
b11100110111111111111110000000000 &
#161
b1000 "
b11111100111111111111011011111111 &
#162
b0 "
b110000000001111011011111111 &
#163
b10 "
b11110110111111111111110000000000 &
#164
b0 "
b11100110111111110001011000000000 &
#165
b11110110111111110001011000000000 &
#166
b110000000000001011000000000 &
#167
b10 "
b11110110111111111111110000000000 &
#168
b10110000000001111110011111111 &
#169
b110000000001111110000000000 &
#170
b11110110111111111111110000000000 &
#171
b1010 "
b1111100111111111111110011111111 &
#172
b0 "
b10110000000001111011011111111 &
#173
b110000000001111011011111111 &
#174
b10110000000001111011011111111 &
#175
b1000 "
b11111100111111111111011011111111 &
#176
b0 "
b10110000000001111011011111111 &
#178
b1000 "
b11111100111111111111011011111111 &
#179
b0 "
b10110000000000010011000000000 &
#180
b110000000001111011011111111 &
#182
b10 "
b11110110111111111111110000000000 &
#183
b1000 "
b11111100000000000001011000000000 &
#184
b0 "
b110000000000001011000000000 &
#185
b10 "
b110000000001111110000000000 &
#186
b11010110111111111111110000000000 &
#187
b1000 "
b11111100000000000001011000000000 &
#188
b0 "
b11110110111111110001011000000000 &
#189
b10 "
b10110000000001111110011111111 &
#190
b1000 "
b11111100000000000000011000000000 &
#192
b0 "
b110000000000001011000000000 &
#193
b11100110111111111111011011111111 &
#194
b1000 "
b11111100111111111111011011111111 &
#195
b0 "
b10110000000000000011000000000 &
#196
b10 "
b110000000001111110000000000 &
#198
b11110110111111111111110000000000 &
#199
b110000000001111110011111111 &
#200
b0 "
b11110110111111110001011000000000 &
#201
b10 "
b10110000000001111110011111111 &
#202
b1000 "
b11111100111111111111011011111111 &
#203
b0 "
b11110110111111110000011000000000 &
#204
b10 "
b11110110111111111111110011111111 &
#205
b110000000001111110011111111 &
#206
b11110110111111111111110000000000 &
#207
b10110000000001111110011111111 &
#208
b0 "
b10110000000000000011000000000 &
#209
b1000 "
b11111100000000000000011000000000 &
#210
b0 "
b110000000001111011011111111 &
#211
b1000 "
b11111100111111111111011011111111 &
#213
b11111100000000000000011000000000 &
#214
b0 "
b11110110111111110001011000000000 &
#215
b1000 "
b11111100000000000001011000000000 &
#216
b0 "
b110000000000001011000000000 &
#217
b100110000000001111011011111111 &
#218
b10110000000000000011000000000 &
#219
b10 "
b11110110111111111111110000000000 &
#220
b1000 "
b11111100000000000000011000000000 &
#221
b0 "
b110000000000010011000000000 &
#222
b10 "
b10110000000001111110000000000 &
#223
b0 "
b110000000001111011011111111 &
#224
b11110110111111110001011000000000 &
#225
b11110110111111110000011000000000 &
#227
b1000 "
b11111100000000000000011000000000 &
#228
b0 "
b11110110111111110000011000000000 &
#229
b1000 "
b11111100000000000000011000000000 &
#230
b0 "
b110000000001111011011111111 &
#231
b1000 "
b1111100111111111111011011111111 &
#232
b0 "
b10110000000001111011011111111 &
#233
b1000 "
b11111100000000000000011000000000 &
#234
b0 "
b10110000000001111011011111111 &
#235
b100110000000000000011000000000 &
#236
b10 "
b11110110111111111111110000000000 &
#237
b110000000001111110011111111 &
#238
b0 "
b11110110111111110010011000000000 &
#239
b110000000000001011000000000 &
#240
b11110110111111110001011000000000 &
#241
b110000000000001011000000000 &
#242
b10 "
b110000000001111110000000000 &
#243
b0 "
b110000000000010011000000000 &
#244
b10110000000001111011011111111 &
#245
b110000000000010011000000000 &
#246
b10110000000001111011011111111 &
#247
b10 "
b110000000001111110000000000 &
#248
b0 "
b110000000001111011011111111 &
#249
b10 "
b110000000001111110000000000 &
#250
b0 "
b110000000000010011000000000 &
#251
b11110110111111110001011000000000 &
#252
b10110000000001110011011111111 &
#253
b11110110111111111110011011111111 &
#254
b10 "
b11110110111111111111110011111111 &
#255
b10110000000001111110011111111 &
#256
b0 "
b11110110111111110000011000000000 &
#257
b10110000000000000011000000000 &
#260
b11100110111111111111011011111111 &
#261
b1000 "
b1111100000000000000011000000000 &
#262
b0 "
b11100110111111110000011000000000 &
#263
b1000 "
b11111100000000000000011000000000 &
#264
b0 "
b11110110111111110001011000000000 &
#265
b1000 "
b11111100000000000000011000000000 &
#266
b0 "
b11110110111111110001011000000000 &
#267
b11110110111111110000011000000000 &
#268
b1000 "
b11111100000000000000011000000000 &
#269
b11111100111111111111011011111111 &
#270
b0 "
b11110110111111110011110000000000 &
#271
b1000 "
b11111100000000000000011000000000 &
#273
b11111100111111111111011011111111 &
#274
b0 "
b10110000000000000011000000000 &
#275
b100110000000000000011000000000 &
#276
b110000000000001011000000000 &
#277
b10 "
b110000000001111110000000000 &
#280
b11110110111111111111110000000000 &
#281
b0 "
b110000000000001011000000000 &
#282
b10 "
b110000000001111110000000000 &
#283
b11110110111111111111110000000000 &
#284
b1000 "
b11111100000000000000011000000000 &
#285
b0 "
b11110110111111110001011000000000 &
#286
b11010110111111110000011000000000 &
#287
b1000 "
b11111100000000000000011000000000 &
#288
b0 "
b11110110111111110000011000000000 &
#289
b10 "
b11110110111111111111110011111111 &
#290
b1000 "
b11111100000000000000011000000000 &
#291
b0 "
b110000000000010011000000000 &
#292
b10110000000001111011011111111 &
#293
b11110110111111110010011000000000 &
#294
b10 "
b10110000000001111110011111111 &
#295
b10110000000001111110000000000 &
#296
b0 "
b11110110111111110000011000000000 &
#298
b110000000000001011000000000 &
#299
b10 "
b110000000001111110000000000 &
#300
b0 "
b110000000000001011000000000 &
#301
b10 "
b100110000000001111110000000000 &
#302
b0 "
b110000000000001011000000000 &
#303
b11110110111111110010011000000000 &
#304
b110000000000001011000000000 &
#306
b1000 "
b1111100000000000001011000000000 &
#307
b0 "
b110000000001111011011111111 &
#308
b10 "
b110000000001111110000000000 &
#309
b1000 "
b11111100111111111111011011111111 &
#310
b0 "
b10110000000000000011000000000 &
#311
b1000 "
b11111100000000000000011000000000 &
#312
b0 "
b10110000000000000011000000000 &
#313
b110000000001111011011111111 &
#314
b10 "
b10110000000001111110000000000 &
#315
b11110110111111111111110000000000 &
#316
b11110110111111111111110011111111 &
#317
b0 "
b110000000000001011000000000 &
#318
b10 "
b10110000000001111110000000000 &
#319
b1000 "
b11111100000000000000011000000000 &
#320
b0 "
b110000000000001011000000000 &
#321
b11110110111111110010011000000000 &
#322
b10 "
b11110110111111111111110011111111 &
#323
b0 "
b11110110111111110000011000000000 &
#324
b1000 "
b11111100000000000000011000000000 &
#325
b0 "
b110000000000001011000000000 &
#326
b10 "
b100110000000001111110000000000 &
#327
b0 "
b11110110111111110000011000000000 &
#328
b10 "
b10110000000001111110011111111 &
#329
b1000 "
b11111100000000000000011000000000 &
#331
b11111100111111111111011011111111 &
#332
b0 "
b110000000000001011000000000 &
#333
b110000000001111011011111111 &
#334
b10 "
b11110110111111111111110000000000 &
#335
b0 "
b110000000000010011000000000 &
#336
b11110110111111110010011000000000 &
#337
b10 "
b11110110111111111111110011111111 &
#338
b0 "
b11110110111111110000011000000000 &
#339
b10 "
b11110110111111111111110011111111 &
#340
b0 "
b11010110111111110000011000000000 &
#341
b1000 "
b11111100000000000001011000000000 &
#343
b0 "
b10110000000001101011011111111 &
#344
b100110000000000000011000000000 &
#345
b1000 "
b11111100111111111111011011111111 &
#346
b0 "
b110000000001111011011111111 &
#347
b10 "
b11110110111111111111110000000000 &
#348
b11100110111111111111110011111111 &
#349
b0 "
b110000000000001011000000000 &
#350
b10 "
b10110000000001111110000000000 &
#351
b1000 "
b1111100000000000000011000000000 &
#352
b11111100111111111111011011111111 &
#353
b0 "
b11110110111111110000011000000000 &
#354
b10 "
b11110110111111111111110011111111 &
#355
b0 "
b11100110111111110001011000000000 &
#356
b11110110111111110000011000000000 &
#357
b10 "
b110000000001111110011111111 &
#358
b0 "
b11100110111111110001011000000000 &
#359
b1000 "
b11111100000000000000011000000000 &
#360
b0 "
b11110110111111110000011000000000 &
#361
b10 "
b10110000000001111110011111111 &
#362
b1000 "
b11111100111111111111011011111111 &
#363
b0 "
b11100110111111110001011000000000 &
#364
b10 "
b110000000001111110011111111 &
#365
b1000 "
b11111100111111111111011011111111 &
#366
b0 "
b11110110111111110001011000000000 &
#367
b10 "
b11110110111111111111110011111111 &
#368
b0 "
b11110110111111110001011000000000 &
#369
b10 "
b110000000001111110011111111 &
#370
b0 "
b110000000001111011011111111 &
#371
b1000 "
b11111100111111111111011011111111 &
#372
b0 "
b11110110111111110001011000000000 &
#373
b100110000000001110011011111111 &
#374
b11110110111111110000011000000000 &
#375
b110000000000001011000000000 &
#376
b1000 "
b11111100111111111111011011111111 &
#377
b0 "
b11100110111111110001011000000000 &
#378
b10 "
b110000000001111110011111111 &
#379
b0 "
b11110110111111110001011000000000 &
#380
b110000000000001011000000000 &
#381
b11110110111111110001011000000000 &
#382
b10 "
b11110110111111111111110011111111 &
#383
b1000 "
b11111100000000000000011000000000 &
#384
b0 "
b110000000001111011011111111 &
#385
b110000000000001011000000000 &
#386
b1000 "
b11111100111111111111011011111111 &
#387
b0 "
b110000000001110011011111111 &
#388
b110000000001111011011111111 &
#389
b1000 "
b11111100111111111111011011111111 &
#390
b0 "
b11110110111111110001011000000000 &
#391
b1000 "
b11111100000000000000011000000000 &
#392
b0 "
b110000000000001011000000000 &
#393
b11100110111111111111011011111111 &
#394
b10110000000000000011000000000 &
#395
b11110110111111110000011000000000 &
#396
b1010 "
b1111100111111111111110011111111 &
#397
b0 "
b11110110111111110000011000000000 &
#398
b10 "
b10110000000001111110011111111 &
#399
b0 "
b110000000001110011011111111 &
#400
b10 "
b10110000000001111110000000000 &
#401
b11110110111111111111110000000000 &
#402
b1000 "
b11111100000000000000011000000000 &
#403
b0 "
b10110000000000000011000000000 &
#404
b11100110111111110000011000000000 &
#405
b1000 "
b11111100000000000000011000000000 &
#406
b0 "
b11110110111111110000011000000000 &
#407
b10 "
b10110000000001111110011111111 &
#408
b0 "
b110000000001101011011111111 &
#409
b10 "
b11110110111111111111110000000000 &
#410
b1000 "
b11111100000000000000011000000000 &
#411
b1111100000000000000011000000000 &
#412
b0 "
b11110110111111110000011000000000 &
#413
b10110000000000000011000000000 &
#414
b11110110111111110000011000000000 &
#415
b10110000000000000011000000000 &
#416
b10 "
b11110110111111111111110000000000 &
#417
b0 "
b11110110111111110001011000000000 &
#418
b110000000000001011000000000 &
#419
b10 "
b11110110111111111111110000000000 &
#420
b0 "
b110000000000001011000000000 &
#421
b10 "
b10110000000001111110000000000 &
#422
b0 "
b110000000001110011011111111 &
#423
b10 "
b110000000001111110000000000 &
#424
b0 "
b100110000000001111011011111111 &
#425
b10110000000000000011000000000 &
#426
b10110000000001111011011111111 &
#427
b11100110111111111111011011111111 &
#428
b1000 "
b11111100000000000001011000000000 &
#429
b0 "
b110000000001111011011111111 &
#430
b10 "
b110000000001111110000000000 &
#432
b0 "
b11110110111111110001011000000000 &
#433
b11100110111111110001011000000000 &
#434
b10 "
b110000000001111110011111111 &
#435
b11010110111111111111110000000000 &
#436
b0 "
b11100110111111110010011000000000 &
#437
b110000000001111011011111111 &
#438
b1000 "
b11111100000000000001011000000000 &
#439
b0 "
b11110110111111110001011000000000 &
#440
b10 "
b110000000001111110011111111 &
#441
b1000 "
b1111100000000000001011000000000 &
#442
b0 "
b11110110111111110001011000000000 &
#443
b10 "
b110000000001111110011111111 &
#444
b0 "
b10110000000000010011000000000 &
#445
b100110000000000000011000000000 &
#446
b11110110111111110000011000000000 &
#448
b1000 "
b11111100000000000001011000000000 &
#449
b11111100111111111111011011111111 &
#450
b0 "
b10110000000001111011011111111 &
#451
b110000000001111011011111111 &
#452
b10 "
b10110000000001111110000000000 &
#453
b0 "
b10110000000001111011011111111 &
#454
b11110110111111110000011000000000 &
#455
b1000 "
b11111100000000000000011000000000 &
#456
b0 "
b110000000000010011000000000 &
#457
b110000000000001011000000000 &
#458
b1000 "
b11111100000000000001011000000000 &
#459
b0 "
b10110000000001101011011111111 &
#460
b1000 "
b11111100000000000000011000000000 &
#461
b0 "
b100110000000001110011011111111 &
#462
b100110000000000000011000000000 &
#463
b10110000000000000011000000000 &
#464
b10 "
b110000000001111110000000000 &
#465
b0 "
b110000000001111011011111111 &
#466
b1000 "
b11111100000000000001011000000000 &
#467
b11111100000000000000011000000000 &
#468
b0 "
b110000000000001011000000000 &
#469
b110000000000010011000000000 &
#470
b10 "
b110000000001111110000000000 &
#471
b1010 "
b1111100000000001111110000000000 &
#472
b0 "
b11110110111111110000011000000000 &
#473
b11110110111111110001011000000000 &
#475
b110000000000001011000000000 &
#476
b10110000000001111011011111111 &
#477
b10 "
b11110110111111111111110000000000 &
#478
b0 "
b10110000000001110011011111111 &
#479
b1000 "
b11111100111111111111011011111111 &
#480
b0 "
b110000000001111011011111111 &
#481
b1000 "
b11111100111111111111011011111111 &
#482
b0 "
b10110000000000000011000000000 &
#483
b1000 "
b11111100111111111111011011111111 &
#484
b0 "
b110000000001111011011111111 &
#485
b1000 "
b11111100111111111111011011111111 &
#486
b1111100111111111111011011111111 &
#487
b0 "
b11100110111111110010011000000000 &
#488
b110000000001111011011111111 &
#489
b11100110111111111111011011111111 &
#490
b11110110111111110000011000000000 &
#492
b11100110111111110001011000000000 &
#493
b11100110111111110000011000000000 &
#494
b11110110111111110000011000000000 &
#496
b10 "
b110000000001111110011111111 &
#497
b1000 "
b11111100000000000001011000000000 &
#498
b0 "
b110000000001111011011111111 &
#500
b10 "
b11010110111111111111110000000000 &
#501
b0 "
b11110110111111110000011000000000 &
#502
b10 "
b110000000001111110011111111 &
#503
b11110110111111111111110000000000 &
#504
b0 "
b10110000000000000011000000000 &
#505
b1000 "
b11111100111111111110011011111111 &
#506
b0 "
b10110000000000000011000000000 &
#508
b10110000000000010011000000000 &
#509
b10110000000000000011000000000 &
#510
b1000 "
b11111100000000000000011000000000 &
#511
b0 "
b110000000001111011011111111 &
#512
b10 "
b11100110111111111111110000000000 &
#513
b0 "
b11110110111111110000011000000000 &
#514
b11110110111111110001011000000000 &
#515
b11110110111111110100110000000000 &
#516
b11110110111111110010011000000000 &
#517
b11110110111111110000011000000000 &
#518
b10 "
b10110000000001111110011111111 &
#519
b0 "
b10110000000000000011000000000 &
#520
b10 "
b110000000001111110000000000 &
#522
b0 "
b110000000001110011011111111 &
#523
b110000000001111011011111111 &
#525
b10 "
b10110000000001111110000000000 &
#526
b0 "
b11100110111111111111011011111111 &
#527
b110000000000001011000000000 &
#530
b10 "
b10110000000001111110000000000 &
#531
b1000 "
b1111100000000000000011000000000 &
#532
b0 "
b110000000000001011000000000 &
#533
b10 "
b10110000000001111110000000000 &
#534
b0 "
b110000000000010011000000000 &
#535
b110000000001111011011111111 &
#536
b110110000000001111011011111111 &
#537
b11110110111111110001011000000000 &
#538
b110000000001110011011111111 &
#539
b10 "
b110000000001111110000000000 &
#541
b0 "
b110000000001111011011111111 &
#542
b10 "
b11110110111111111111110000000000 &
#543
b0 "
b10110000000000000011000000000 &
#544
b11110110111111110000011000000000 &
#545
b1000 "
b11111100000000000001011000000000 &
#546
b0 "
b10110000000000000011000000000 &
#547
b11110110111111110000011000000000 &
#548
b1000 "
b11111100000000000000011000000000 &
#549
b11111100111111111111011011111111 &
#550
b11111100000000000000011000000000 &
#551
b0 "
b11110110111111110000011000000000 &
#552
b1000 "
b11111100000000000000011000000000 &
#553
b0 "
b11110110111111110000011000000000 &
#554
b11110110111111110001011000000000 &
#555
b10 "
b11110110111111111111110011111111 &
#556
b1000 "
b11111100000000000000011000000000 &
#557
b0 "
b110000000000001011000000000 &
#558
b11100110111111110001011000000000 &
#559
b10110000000000000011000000000 &
#561
b11110110111111110000011000000000 &
#562
b1000 "
b11111100000000000001011000000000 &
#563
b0 "
b10110000000000000011000000000 &
#564
b1000 "
b11111100000000000000011000000000 &
#565
b0 "
b110000000000010011000000000 &
#566
b110000000001110011011111111 &
#567
b100110000000001111011011111111 &
#568
b11110110111111110001011000000000 &
#569
b10 "
b11110110111111111111110011111111 &
#570
b0 "
b11010110111111110010011000000000 &
#571
b1000 "
b11111100000000000000011000000000 &
#572
b0 "
b110000000000001011000000000 &
#573
b11100110111111110100110000000000 &
#574
b110000000001111011011111111 &
#576
b10 "
b11110110111111111111110000000000 &
#577
b0 "
b1001100000000000000011000000000 &
#578
b10110000000001110011011111111 &
#579
b10110000000000000011000000000 &
#580
b10110000000001111011011111111 &
#581
b110000000001111011011111111 &
#582
b10 "
b110000000001111110000000000 &
#585
b0 "
b11110110111111110010011000000000 &
#586
b110000000000010011000000000 &
#587
b110000000001111011011111111 &
#588
b11110110111111110001011000000000 &
#589
b10 "
b110000000001111110011111111 &
#590
b0 "
b110000000000001011000000000 &
#591
b11110110111111110001011000000000 &
#592
b10 "
b110000000001111110011111111 &
#593
b10110000000001111110000000000 &
#594
b0 "
b110000000000010011000000000 &
#595
b10 "
b110000000001111110000000000 &
#596
b0 "
b11110110111111110001011000000000 &
#597
b11110110111111110000011000000000 &
#598
b10 "
b10110000000001111110011111111 &
#599
b0 "
b11100110111111110000011000000000 &
#600
b11110110111111110001011000000000 &
#601
b10110000000000000011000000000 &
#602
b10 "
b110000000001111110000000000 &
#603
b1000 "
b11111100111111111110011011111111 &
#604
b0 "
b110000000001111011011111111 &
#605
b11110110111111110001011000000000 &
#606
b110000000000001011000000000 &
#607
b1000 "
b11111100111111111111011011111111 &
#608
b0 "
b11100110111111110000011000000000 &
#609
b10 "
b11110110111111111111110011111111 &
#610
b0 "
b11110110111111110001011000000000 &
#611
b10110000000000000011000000000 &
#612
b110000000001111011011111111 &
#613
b10 "
b110000000001111110000000000 &
#614
b0 "
b110000000000010011000000000 &
#615
b110000000001111011011111111 &
#616
b10 "
b11110110111111111111110000000000 &
#617
b1000 "
b11111100000000000000011000000000 &
#619
b0 "
b11110110111111110001011000000000 &
#620
b11110110111111110000011000000000 &
#621
b1010 "
b1111100111111111111110011111111 &
#622
b0 "
b110000000001111011011111111 &
#623
b10 "
b110000000001111110000000000 &
#624
b11110110111111111111110000000000 &
#625
b0 "
b11110110111111110000011000000000 &
#626
b110000000000001011000000000 &
#628
b11110110111111110001011000000000 &
#629
b1000 "
b11111100000000000000011000000000 &
#630
b0 "
b10110000000001111011011111111 &
#631
b10 "
b110000000001111110000000000 &
#632
b10110000000001111110000000000 &
#633
b0 "
b10110000000000000011000000000 &
#635
b100110000000000000011000000000 &
#636
b100110000000000001011000000000 &
#637
b11110110111111110001011000000000 &
#638
b110000000000001011000000000 &
#639
b10 "
b110000000001111110000000000 &
#642
b0 "
b110000000000001011000000000 &
#643
b10 "
b110000000001111110000000000 &
#644
b0 "
b110000000001111011011111111 &
#645
b1000 "
b11111100000000000010011000000000 &
#646
b11111100000000000000011000000000 &
#647
b0 "
b10110000000000000011000000000 &
#648
b11110110111111110010011000000000 &
#649
b11110110111111110000011000000000 &
#651
b11110110111111110001011000000000 &
#652
b110000000000001011000000000 &
#653
b11110110111111110010011000000000 &
#654
b10110000000000000011000000000 &
#655
b1000 "
b11111100111111111111011011111111 &
#656
b0 "
b10110000000000000011000000000 &
#657
b11100110111111111111011011111111 &
#658
b110000000001111011011111111 &
#659
b110000000000001011000000000 &
#660
b10 "
b10110000000001111110000000000 &
#661
b0 "
b10110000000000000011000000000 &
#662
b1000 "
b11111100000000000000011000000000 &
#663
b0 "
b11110110111111110001011000000000 &
#664
b10110000000000010011000000000 &
#665
b1000 "
b11111100000000000000011000000000 &
#666
b0 "
b110000000001111011011111111 &
#667
b10 "
b11110110111111111111110000000000 &
#668
b0 "
b100110000000000001011000000000 &
#669
b1000 "
b11111100000000000001011000000000 &
#670
b0 "
b10110000000001111011011111111 &
#671
b110000000000010011000000000 &
#672
b10 "
b11110110111111111111110000000000 &
#673
b0 "
b110110000000000000011000000000 &
#674
b1000 "
b11111100000000000000011000000000 &
#675
b0 "
b11110110111111110000011000000000 &
#676
b10 "
b110000000001111110011111111 &
#677
b0 "
b11100110111111110010011000000000 &
#678
b110000000000001011000000000 &
#679
b10 "
b11110110111111111111110000000000 &
#680
b0 "
b110000000000001011000000000 &
#681
b10110000000000010011000000000 &
#682
b110000000000010011000000000 &
#683
b10 "
b10110000000001111110000000000 &
#684
b110000000001111110000000000 &
#685
b0 "
b110000000001111011011111111 &
#687
b1000 "
b11111100111111111111011011111111 &
#688
b0 "
b110000000001111011011111111 &
#689
b11110110111111110001011000000000 &
#690
b10 "
b110000000001111110011111111 &
#691
b10110000000001111110000000000 &
#692
b1000 "
b11111100111111111111011011111111 &
#693
b11111100000000000000011000000000 &
#694
b0 "
b10110000000000010011000000000 &
#695
b1000 "
b11111100111111111111011011111111 &
#696
b0 "
b11110110111111110000011000000000 &
#697
b10 "
b11110110111111111111110011111111 &
#699
b0 "
b11110110111111110001011000000000 &
#700
b11110110111111111110011011111111 &
#701
b10 "
b110000000001111110011111111 &
#702
b10110000000001111110000000000 &
#703
b1000 "
b11111100111111111111011011111111 &
#704
b0 "
b11110110111111110000011000000000 &
#705
b10 "
b110000000001111110011111111 &
#706
b1000 "
b11111100111111111111011011111111 &
#707
b0 "
b110000000000010011000000000 &
#708
b10 "
b110000000001111110000000000 &
#710
b0 "
b110000000000001011000000000 &
#711
b1000 "
b1111100111111111111011011111111 &
#712
b11111100000000000000011000000000 &
#713
b0 "
b10110000000001111011011111111 &
#714
b11110110111111110000011000000000 &
#715
b10 "
b110000000001111110011111111 &
#716
b1000 "
b11111100000000000001011000000000 &
#717
b0 "
b11110110111111110001011000000000 &
#718
b10 "
b11110110111111111111110011111111 &
#719
b0 "
b11110110111111110000011000000000 &
#721
b10 "
b11100110111111111111110011111111 &
#722
b0 "
b11110110111111110001011000000000 &
#723
b1000 "
b11111100000000000000011000000000 &
#724
b0 "
b110000000000001011000000000 &
#725
b10 "
b11110110111111111111110000000000 &
#726
b1010 "
b1111100111111111111110011111111 &
#727
b1000 "
b11111100000000000000011000000000 &
#728
b0 "
b11110110111111110000011000000000 &
#729
b1000 "
b11111100000000000000011000000000 &
#731
b11111100111111111111011011111111 &
#732
b0 "
b110000000000001011000000000 &
#733
b1000 "
b11111100000000000001011000000000 &
#734
b0 "
b10110000000000000011000000000 &
#735
b1000 "
b11111100000000000000011000000000 &
#736
b11111100111111111111011011111111 &
#737
b0 "
b110000000001111011011111111 &
#738
b10 "
b110000000001111110000000000 &
#739
b0 "
b110000000000001011000000000 &
#740
b11100110111111110001011000000000 &
#741
b110000000000001011000000000 &
#742
b10 "
b10110000000001111110000000000 &
#743
b0 "
b110000000001111011011111111 &
#744
b10110000000001111011011111111 &
#745
b1000 "
b11111100111111111111011011111111 &
#746
b0 "
b110000000001111011011111111 &
#747
b10 "
b10110000000001111110000000000 &
#749
b11110110111111111111110000000000 &
#750
b100110000000001111110011111111 &
#751
b0 "
b10110000000000000011000000000 &
#752
b11010110111111110011011000000000 &
#753
b11110110111111110001011000000000 &
#754
b110000000000001011000000000 &
#755
b10 "
b10110000000001111110000000000 &
#756
b0 "
b10110000000000000011000000000 &
#759
b10 "
b110000000001111110000000000 &
#760
b0 "
b11110110111111110010011000000000 &
#761
b11110110111111110001011000000000 &
#762
b10110000000000000011000000000 &
#763
b1000 "
b11111100000000000000011000000000 &
