11_cs_nwe _channel4/project_1/.Xil/Vivado-1724-GL-0301-949/hw_ila_data_5/zip_work/waveform.vcd
$date
        2023-Aug-11 14:50:54
$end
$version
        Vivado v2018.3 (64-bit)
$end
$timescale
        1ps
$end
$scope module dut $end
$var reg 4 " int_dac_top/top_dac4_int/i_jesd204_1_support_block/gt0_txcharisk [3:0] $end
$var reg 32 & int_dac_top/top_dac4_int/i_jesd204_1_support_block/gt0_txdata [31:0] $end
$var reg 256 F int_dac_top/top_dac4_int/tx_tdata [255:0] $end
$var reg 4 ,$ int_dac_top/top_dac1_int/i_jesd204_1_support_block/gt0_txcharisk [3:0] $end
$var reg 32 0$ int_dac_top/top_dac1_int/i_jesd204_1_support_block/gt0_txdata [31:0] $end
$var reg 256 P$ int_dac_top/top_dac1_int/tx_tdata [255:0] $end
$var reg 4 6' int_dac_top/top_dac2_int/i_jesd204_1_support_block/gt0_txcharisk [3:0] $end
$var reg 32 :' int_dac_top/top_dac2_int/i_jesd204_1_support_block/gt0_txdata [31:0] $end
$var reg 256 Z' int_dac_top/top_dac2_int/tx_tdata [255:0] $end
$var reg 4 @* int_dac_top/top_dac3_int/i_jesd204_1_support_block/gt0_txcharisk [3:0] $end
$var reg 32 D* int_dac_top/top_dac3_int/i_jesd204_1_support_block/gt0_txdata [31:0] $end
$var reg 256 d* int_dac_top/top_dac3_int/tx_tdata [255:0] $end
$var reg 1 J- int_dac_top/top_dac4_int/syncb_buf $end
$var reg 1 K- int_dac_top/top_dac1_int/syncb_buf $end
$var reg 1 L- int_dac_top/top_dac2_int/syncb_buf $end
$var reg 1 M- int_dac_top/top_dac3_int/syncb_buf $end
$var reg 1 N- int_dac_top/top_dac3_int/syncb_logic $end
$var reg 1 O- int_dac_top/top_dac4_int/syncb_logic $end
$var reg 1 P- int_dac_top/top_dac1_int/syncb_logic $end
$var reg 1 Q- int_dac_top/top_dac2_int/syncb_logic $end
$var reg 1 R- sysref_logic $end
$var reg 1 S- sysref_o $end
$var reg 1 T- int_dac_top/top_dac1_int/tx_aresetn $end
$var reg 1 U- int_dac_top/top_dac3_int/tx_aresetn $end
$var reg 1 V- int_dac_top/top_dac2_int/tx_aresetn $end
$var reg 1 W- int_dac_top/top_dac4_int/tx_aresetn $end
$var reg 1 X- _TRIGGER $end
$var reg 1 Y- _WINDOW $end
$var reg 1 Z- _GAP $end
$upscope $end
$enddefinitions $end
#0
$dumpvars
b0 "
b10100100001111111000010011010000 &
b101111100100000010011010000011011011000001011110101000111110010101000110011101010101100110111111011000100111111001100001101000010000100001111100110001011000101001110010011011101010000110000001000011100101010011110101100000110101011000110011100000111001000 F
b0 ,$
b11010010001011101100111011110011 0$
b1011100111111000010010100010101110111001000011001001110000011010011110110001111101010011000001110010011100101111010100111111001100110111001110101001000011100000100101010011111111100001110100001011101000111110110011101100010110111100001101110110110011000000 P$
b0 6'
b1010100110000001010111100101111 :'
b110000011011111111111101111100111110110110011111111100100001101001111111100010110010101001000000100100011000000000000100011000010001101110000011011110000111010111011101100100010110111001111111011001011010101011101100011111010011010111001100001100100110111 Z'
b1111 @*
b10111100101111001011110010111100 D*
b1000011100111111101010010000101001111001001111010111010100000000110110000011100100111110111101101011110000110100010001111110110001000110001011101101000111100010101000010010011000011011110110101111111000011101010111011101001010010111000101001100101011001011 d*
0J-
0K-
0L-
1M-
0N-
1O-
1P-
1Q-
0R-
0S-
1T-
1U-
1V-
1W-
0X-
1Y-
0Z-
$end
#1
b111000110101000111011001000 &
b111111000111110010110001100010100101100001101110100111011000000011101000010101001111111110000011001010000011001110011101100100000110100000001101000001111010101001110001111001001100000111001101001011011011111110000001111100100011111110100001011101100001101 F
b11101101001101110111100011000000 0$
b100001000111010011110111110000010011000001111111101000011010000101101010011111011000011110001011011000000110111011010101100000000111000001010110100100011000001100001010001101001001010110010000011101000000111101111111101010000111010111100110110111111100101 P$
b111110111001100100110000110111 :'
b1001001011000001110001100011101011111010110010001011100100111111110001011101010101110001001111101011000111100110000011000011011100010111111110100100010100101010000100010000111001011011000110011010101100100000111101010000010100010011001100001111101111110001 Z'
b111011001111100100010001100101000010110101101001100100100010100010011101111010111111001010101010101011100111110011000011000101101011111100011001001000110111100011001111101111101101001110111100101000000101101111100011111011100001000011111111010000111111 d*
#2
b1100010110100000101100100001101 &
b1101100000110100101101101010100100000111100100111011111100110100000001101111111011001111110010000111111010000110101000000110101001110110001010111010100100000010010111100000011101001001011111000010011000001101011010011101011011010110010001011001100111111 F
b10011101111100110001010011100101 0$
b10010100101011010011011100000101101110000110100101011011001000001000010000011111010001110101000010001011110011100001101110010101100101111000001101001011111000101111111101000011010010000011001011100111000101100100000001111101100111110000000011100000101111 P$
b11010000001011110101110111110010 :'
b11000011111010001100100010101000101010000011100100001100011001110000010010000011011100000001010010001100110000111000101111000111010000001110100100101011011111101111000011111111100101110011110110101100111110001101011100010111111111001101100100010111000000 Z'
b111001000010010100001011100101001101111000010001001100111000101001101011111111000101011110000100000011011110100010100111100000000100110111010100001110111000000110101011110000010001001110000010101000011011000100011111100010011010000110100000001101111001001 d*
#3
b10101000110010001010100100111111 &
b100010011000101100010110010000001001001110000001111101000101111100010101100000110110111001110101110011111001000101101100011111110101001110101010111100100111110100011101110011000011111001101111111001011111001011000010010101011101100000011010111110100011001 F
b1110010110000001111010000101110 0$
b100111111100000111010111111100010101110110100001110101000001100101011111100010110100110000111110110010011000000010010010010111101010010110000010100110000111010011000111100100010011011001111111110010011010100101100000011111010011101111001011010001100110111 P$
b110010001101110100111111000000 :'
b1101101000111010001101011101111110111110001111111101010111001111011001100011111000101011110001011111001000110110010000111100000000011111001010101001100011000001001011000001100100000111110010011100001100000101110110001101010111001010111100011100100011100110 Z'
b110100010010000000000100000010011110000110110011011100111111011110010010010011001111001111000110010100101100110110000011100000101110001100110110110100110011101001110011100010110001001011001010111000111100110011110010010000100110001111111111110000011011 d*
#4
b10001010000011011101100100011001 &
b1011101111010101011100110011111010100101111001100001001000110111000010111111101001001110001010100000010100001110011001100001100110100000001000000000001000000110000010100011000000000111111100101100000100111010011010111101111110111000001111111111111011001111 F
b1000010111001011101010100110111 0$
b101011111000001010101100011101001101111110010001001110100111111111101111101010010101011001111101011010011100101100101110011011100000100111110010001001100101011000000110000110101010111000110101011110000011111000010000000011101011010001011110000100111110011 P$
b101100111100100110110011100110 :'
b110000101010100111011100000100010101000110010001010011001001101010100000010111101011110101011011000111110001110111111110011000011111110111110100100111111010110001001100111101000010000011100010000111000101110101100010000001000001110000000011010000110000 Z'
b101001011001111010011001100101001010001110010011000100111010000101101101100010011111110110101111010000011000001011110011110000000100011110000001100001111101001010010011100000010011111111100110001000111000010110010111111110101101110110001010000011100001000 d*
#5
b10101111001111110100000111010000 &
b1011011000100000111010010000010100011011001100001110111111110001110010110011101001010101110111111011101100111111111011011100111101101110001111100011101011000101000001100011011101000111110000000011101100101010100011111100000101001111000110011111010011001000 F
b10110001011110110110011110011 0$
b1110111111001000000000010101100011100000011010100000100011010110100100001111111101111000001100110101100101111111100011111001001100001001110100011100111100000101000000011111110011101110100001010011000111110101001001100010110001011001101110110000111000000 P$
b1001010110000001111000100101111 :'
b100111011111011000101111101010110100110011110101101100001110000101111100010111101100001000000011111111000000010001000011000010100011110000011110010000111010001000011100100111000000001111111111111011010101011000000011111011110110111001101110010100110110 Z'
b111100100111111111100100001100111111000001111110100011100010000110100100011111000110010000001100001000100111100111101011111101111000110001101111101001011110001000011100011001000001100111010000000110100101011111000101101111011110010001000101001001011010110 d*
#6
b10101011000110011100000111001000 &
b110100000111110001100001100010111111001001101100100010011000000001010000010101010010101110000010011100000011001000000011100100111010000000001011100111011010101110101101111000110111101111001100011111111011111001001001111101011011101110011110001111000001110 F
b10111100001101110110110011000000 0$
b110101100111010001000111110000010100011001111111000110011010000101000010011111010011010110001010111111000110111010111101100000011101101001010100101110111000001001010100001101001111100110010001101011000000110000010011101010111011000111100101100101111100101 P$
b10011010111001100001100100110111 :'
b1010100011000001111011100011101000101110110010011100001000111111000100011101011001011010001111100000110111100111110110000011011001111011111110101111100100101001011100110000111011111110000110000000000100100001100100010000010101010101001100001001100111110001 Z'
b110000011000110010000010000101010001110110010110011001100010100000100111101001010100001000111011100011011011001010011010010011001110100111000101111110100101101111000111110101110000000001101001101011011110101101010110011100100001100000000000101101100111101 d*
#7
b11111110100001011101100001101 &
b1011011100000101111000011101010110111110111100011101010011100110001010101101111100111101111110101100110011001111001101100000111000100110110001011100101100100000010000101100000000101011001100001001101011000001110101010011101000001110110010011011110100111111 F
b111010111100110110111111100101 0$
b1101101100101010011000101100000100010011000110101000100011001000101111010000011000011100110101011011111111110010111000101110010100001101111000000011011011111001011110111101000000110100000011011001000011000101111010000001111101011100110000000111110000101111 P$
b10011001100001111101111110001 :'
b1001010011111010111001100010100110001100000011101110011100011000000101110010000101111000000001010110010100110000100000011111000111110111001110101111010011011110110001010011111110100011110011110101010100111110000011101100010111001100001101100011110011000000 Z'
b100100100001111000101101010011011111000101111110010011001101000101110000111000101110110010001111010000000011111001111100001110110110111110010010100111000001101000101110111100001000110000001111100111100101100010101100000011111010110111001010110011000010 d*
#8
b11011010110010001011001100111111 &
b1110011000101111000010010000001000000110000000011110000110000101000001100000111011111001110100001101111001001101111110011111111110100110101010110001100111110111010111110011011101100001101100101011011111010000101010010101001001111000011100010000100011001 F
b1100111110000000011100000101111 0$
b1111100011011111010011111111100101101011110100000100110100001101100001101100010111111110000111110101100111000000100011010010111101100111110000010111010100111010100101011100100010100110001111110010111111010101100111000011111011111001111001010111001000110111 P$
b11111111001101100100010111000000 :'
b100111011110111101101111011000111001111111001001111001111010011110011111000000100110001011011111100110110001110101100000011010011001010011010111011000001110100000001100000111011110010010101111100000101001001001101011001101000111100010010010111100111 Z'
b100110000000010111101010011110101111001000011001011100100111111010100110001011011011011001111111001101100011111010110100011111000010100001010000100000100111011100001110010111110100011001101101100000100110101100111110011000010011011001110100101110000101001 d*
#9
b11101100000011010111110100011001 &
b11111010110010111010011111000000010111001111101111100110110011011111111101000000010001010100110011100001110000010100001100111110111001000001001111000000101010011000011000010100101111100011110100100111010000101001101111111000001001111111011110011001111 F
b10011101111001011010001100110111 0$
b110110011000001100000000011101010100001110010001010100000111111010000011101010110010110001111100001000011100110011001010011011101101000111110011100100000101010011001010000110111111100000110010001001100100000101001000000011010011110001011111010011111110010 P$
b11001010111100011100100011100110 :'
b1100000000101001101101001100000110111001000110000100100011001001010001100000010100110111110101100101000011110001001111001110011111001001110111101010110111111010100000101100111110100100000011101111101011000100001011000010000100111000110000000111011000110000 Z'
b1111011011011010110101100001100111111110100110110010011000111100001011100110011100000110011000001110111000111101011001101001100101010110000111001101111011011110001101100000001111000111001000000000011000000000010011110111011011110110000000001000111111000 d*
#10
b10111000001111111111111011001111 &
b110000100001100001010000010101011101001100001000110111110001111100100011101011111111110111101100010000111111101010111100111101011000001111100001001011000101110100100011011000111110110000001110111100101001101001101100000111110011000110000010100011001001 F
b1011010001011110000100111110011 0$
b1000000111111001101101010010101001111110000011011110010100011001001010010010000010001011000001101010111100101111100011101111001010001010001110101110001011011111101010110011111101011010110100001001000100111110011110111100010101011000001101110101011111000000 P$
b1000001110000000011010000110000 :'
b1011001111011110110001101111101001110010110011111011110100001110111100001100010001000010001000010011011011000000100001100011000010111010110000010000101100111011010101011100100111001001001111110100101011010110010010010011111001010011111001111011000100110110 Z'
b111101000111011100111010010011101111100001111100001011100011111111001010011111111000100000101011010101000111111111000110000101111001111001111011011010000000001010111100011101001111010111101110110111000110101011101111110110100100000001011111110111011100011 d*
1L-
0Q-
#11
b1001111000110011111010011001000 &
b101001000111110000010011100010111000101001101100011101111000000110111000010100110101011110000011101101100011000001101001100100101101100000001010001101011010110011101001111000100011001111001111110100111011110100010001111101010011011110011110111111100001110 F
b10001011001101110110000111000000 0$
b1001010000111010110011001101111110101101001111110100100111010000100011000011111001110001110001010100110000110111010101001100000010100011001010100111001011000001110011100001100110101110110010000111001000000110010101001101010101110110111100100010011111100110 P$
b11110110111001101110010100110110 :'
b1100000011000001000101000011101101100010110010011100101100111111010111011101011001000011001111100110101011100111101001000011011011011111111110101010110100101001110101010000111010100001000110000101011100100001001011010000010110010110001100000011011111110001 Z'
b100011111000001010011101111101000011100110001001000110000000100011110011100100010101100000011100100001111001110011011000001100001010011110101011000110000100001011110101101110111001111001010011000010011100110000000010011000100110101111100001111001000110110 d*
0L-
1Q-
#12
b11011101110011110001111000001110 &
b101001100000101001011011101011001011100111100010011000011100111110101001101111010100001111110101000101011001111100110000000111011111111110001000010001000100001001110011100000001101101001100001011000111000001111111000011101001000001110010011100011000111111 F
b11011000111100101100101111100101 0$
b1001000000101010011101111100000110110111000110011011101111001000010110010000011001100111110101010101110111110010001111101110011010110110110111111001101011111001001110001101000010010111000011010110011111000101001111110010000001010001110000001011111100101111 P$
b1010101001100001001100111110001 :'
b1111100011111010100110100010100111101110000011101000101000011000011011010010000100010100000001011010011100110000000111111111000100011110001110111001111011011110110011010011111101100001110011110011111000111110111001111100010010010111001101100011010011000000 Z'
b1001001100101101111011011110000111010010001001010100110011011001000110100001110110101010110100011010001100010011001101111100101110101011000010010001111011000110011100111111111110000001110000100100000011110101011101111100000001010011111010110000110111000000 d*
#13
b1110110010011011110100111111 &
b1111010111000100001101110010000100110111110000000111111000110000101101111100000100000110001110110100111111001001110010000011111101000000110101100100110000111110010001111110011110111000001101101011101011111010110010010010100110110000000011101100010000011000 F
b1011100110000000111110000101111 0$
b1010000111011111101100111111100100101000110100001010111100001101010111011100010101010100001000000100111111000000110100000010111101111100110000011001111000111010110001111100100010110000001111110111100111010101100001100011111001010101111001100011111100110111 P$
b11001100001101100011110011000000 :'
b10100000111011100010011101111011001111001111110101000111001111001110000011111011011101110001001000101000110110001100101100000010000111001010011100010111000001011100110001100001101111110010011111101100000100011100001101011000000110111100011000000111100111 Z'
b110011011110010000100000011100010001101111111000100010100111100110010100000011011101111001111101101101100010000111111000011111101111101000110100110010100111111011100010010001100101111001111010111110100101011011010000011100101101100001100100010100000110100 d*
#14
b1001111000011100010000100011001 &
b101001111010110010001100011111001011111111001111010101100110110110100111111101010110110001010011100100100001110101011010001100001001101001000010011101000000101100011100011000001000011111100010001000000111011101111101101111011001010001111110111101011001111 F
b11111001111001010111001000110111 0$
b1000001011000001101010000011101011010100110010001011001000111111100011001101010110000001001111100110110011100110001100100011011111001100111110010111110100101010110010000000110110100000000110010110101000100000010000000000011011100001001011110100010111110010 P$
b1101000111100010010010111100111 :'
b111010000101001110010111100000101011100000110000111110011001001111000100000010010000011110101101110111011110000100110011110011101110011110111100001001011111011010000011100111100000110000011111101001111000100100000100010000100110000110000001011011100110000 Z'
b11010011101001001011101100000011110101110111111100001111000001100010001101011111110000110001000010010011010000101000011100100111111001110010011011011011001111001100011100010100000111110101111110101111000001011001011101111100111011110000001001100111101000 d*
#15
b11000001001111111011110011001111 &
b110001000100001001000010000010110011111001100000010101111110001000110010011101110101001110111101100110000111111011010101100111101000000001111101110110011000100100111100011011000110101110000001010001100101001101111011100000110010110000110000101110011001001 F
b10011110001011111010011111110010 0$
b1110010111111001011010100010101011100000000011011000100100011001100000000010000000100111000001101111000100101111001011001111001010110010001110101000101111011111101101010011111100010111110100000111110000111110010100111100010100100110001101110100110111000000 P$
b111000110000000111011000110000 :'
b101111011011110001010111111101100110001110011110001111000001111110010101100010010011000001000010010111011000000110001110011000011010001110000010011000100111011100010101100100111010001001111111001011011010110001100100011111010110000111001110111110100110110 Z'
b1100011100110011110100100011001000011101001110011111011100101011111111100011110011111011001000110100111000111111000101000001101111111111001111110111101100010001000011000011111101101111000001110111110000111100001100111111110101100000001110000000100111110011 d*
#16
b11110011000110000010100011001001 &
b11101100111110111000101100010010010001001101100011001111000000100100000010100111000010110000010111111100011000011010011100100100001000000001010110011011010110000100101111000101110110111001111001001111011110111011001111101001011001110011111110000100001110 F
b1011000001101110101011111000000 0$
b1011110000111010011101011101111110110111001111110000011011010000011101100011111001001001110001010001100100110111010010101100000001010111001010101000011111000001011100100001100111100001110010000000111000000110100111111101010100010100111100101000001111100110 P$
b1010011111001111011000100110110 :'
b1101011111000001001110110011101110010111110010011101001100111111101010011101011000101100001111101100011111100111011100000011011001000100111110110110000000101001001101110000111101000101000110001010110100100001110010010000010011011000001100001101010111110000 Z'
b1010011000000101101011110101001100011110000001001110011110100010100111100001011001101111111101101100011000101000001100000100111011001110010100000010000010011001101111101000110000101000111001100100011011000010010110010010101011010111000010001110100101101 d*
#17
b10011011110011110111111100001110 &
b1110111000000100011110011101011011111010111100001000110111100111011111101101111000000101111110110100100111001111111110100000111011011000110001000111011100100001001100011100000010101111001100001100100011000001001000110011101101110110110010011100111000111111 F
b1110110111100100010011111100110 0$
b100010100101010100011011100000101011011000110011110111011001000111101010000010110110010110101011111101111110001100110101110011001100000110111111111111011111001111101101100111111111001000011010011111111000101100101010010000001001000110000000000001000110000 P$
b10010110001100000011011111110001 :'
b101110111111011010011010010100101001111000011110010110100011000110000100010000110110000000001001110100000110000101111011111000001000100001110110100100011011110110101000011111100100000110011110010011000111110110000001100010001100011001101100010110011000000 Z'
b100011000110111110101111111000001101100001100010001110111100111010011010010101000000111110111100001100100100010110011111101010100000101000110011010110011001110010011100000111111001101110010000011001000000101010101111100010011110100111110100110100111000001 d*
#18
b1000001110010011100011000111111 &
b1100111111000100100011010010000100101111110000001011111100110000110011101100000100101101001110111000001111001001110100000011111110001100110101100011010100111110101001001110011110000100001101100001111011111011011111010010100100010010000011110110011100011000 F
b1010001110000001011111100101111 0$
b100101011011111000101111111101011100101110011110001000100001110001101011100010110101011001000000100010111000000000100110011000010010010110000011100011000111010111110101100100010111001001111111100010111010101011100010011111010110001111001100000110000110111 P$
b10010111001101100011010011000000 :'
b100111000111011001100111101111011010110001111110001000011001111001000000011111010110111110001000101010100110110001010111100000000111010001010011101110111000001000101100001100010100100110010011001011100000100101111001101011010100101111100001101111011100111 Z'
b101100111100011101011110010111011011000111011000001001000110101110101011111011000011001001110100000110100000001101000110011110100111111000010111001100000111111001001110001010111101101001111111000010100011110100111110011111000011010001001111011011000111011 d*
#19
b10110000000011101100010000011000 &
b1010000011010110001011110011111010111011111001110111011000110110001101111111101101101010001010010010101100001111010100000001100010100010001000011101010100000100110011110011000011100010111100000011011000111011011010001101111011010010001111110011100111001111 F
b1010101111001100011111100110111 0$
b1001100011000001110100000011101000000111110010011011110000111111110110001101010101101011001111101100100011100110111111110011011000110000111110100011001000101010001010100000111001000011000110011100000100100000110111000000010100100011001100001110001011110001 P$
b110111100011000000111100111 :'
b10011100101001111000111100000111111111000101111011000111001001011111100000010011010000110101101000110011110000111101101110011100011110110111100111011011111011000000001100111101101000000011111010110111000100110110000010000100101001110000001111100000110000 Z'
b1011011011111000111110101100000010101001111011100000001011000000000011101110010110101101110000000010010011011100111101111100001000100101110101001101001011000110010001011100110100100011110011001011001011000111110010001101001010010000110000111001011011011010 d*
#20
b11001010001111110111101011001111 &
b1011100000100001101111000000010011100000001100001100100111110000010000000011101101010011110111101101010000111111001010001100111100101001001111101100010111000100011010010011011000101101110000000101011100101001110101001100000100111001000110001001000011001001 F
b11100001001011110100010111110010 0$
b100100111111010000111110010101001000010000011100010110000011001110101100010000011000011000001010011010000110000110010101111000111011010001110100011010111011111101111100011111111010101110011110110011000111110001010111100010111110010001101100100001111000000 P$
b110000110000001011011100110000 :'
b100011011110100011111111101111110000110011101000000000001111101001001100010011101101001000010010011111000000000010000011000111101001110000010101011100111011101111111100100111011000001111111110001111010110000110100011111000001101111010000100100000110110 Z'
b1101110000101000110111100011101000110010001100000001101100110110010010110011011011110101001011110000000100111011100101100010100000110100001111100010110000100000110011110011111111101111000101101100100000111111000111000000110100011110001111101111001100000010 d*
#21
b10010110000110000101110011001001 &
b10001100111110101111001100010001011100001101100010110011000000010001000010100111011010110000010010001000011000100111011100100110100011000001001011001111010110101100011111000011010011111001110011111011011110010100001111101100011000110011110100001100001111 F
b100110001101110100110111000000 0$
b1110010000111010000111111101111111000000001111111100010011001111011000000011111000100001110001011110010100110110010000011100000000001100001010101001110111000001000101010001100100010100110010011010101000000101111010111101010110110001111100011101111111100110 P$
b10110000111001110111110100110110 :'
b1110111111000001011000010011101111001100110010011101101000111111111101101101011000010100001111100010010011101000001110110011011010101000111110110001001100101001100110000000111111100111000101110000001000100010011001010000010000011000001100010111010011110000 Z'
b1101110011000010011100001101110010100000110000000110000111100101000000111100000000000001111011110000101011000001000100011111100110101110110000110100110100000011110111011100011101110101000011010111110111001101010001000001011101100111110101000111101000100000 d*
#22
b1011001110011111110000100001110 &
b1000101000000100110001101101011010011000111100001110101011100111001010001101111001101001111110110000100011001111010110110000111110110010110001001100110100100001001010101100000011110000001100001110000011000001010010010011101110101011110010011101010100111111 F
b10100111100101000001111100110 0$
b1111100100101001101000111100000111111110000110000010000111001001100100010000010111111110110101011001100111110001111101101110011000001001110111110110001011111010101101001100111101011011000011100001011111000101111011000010000000111111110000000100010000110000 P$
b11011000001100001101010111110000 :'
b1100000111111011000000000010100110110001000011111101000000010111000110000010001001001100000001000010100000110001010110111111000001101010001110111111001111011101110110110011111111100000110011100000111000111110100110111100010000101101001101100010010111000000 Z'
b1000101000111101101100100000000011110010001110010111101111110110110111100011010010000001111011000111000000101110000010001110001111010010001001100100110011011010001101000001111010001000110100101101000100010100111011101100101111100101000010101010100111000110 d*
#23
b1110110110010011100111000111111 &
b1010100111000100111000100010000100101000110000000000000000110001111001101100000101010011001110111011100011001001110101110011111111011001110101100001110100111110000000011110100001001111001101101000001011111011001100000010100101110100000011110000101000011000 F
b1001000110000000000001000110000 0$
b1111010011011110011110111111101010100011110011110111001100001110000011101100010100000001001000010011110011000000010101010011000010101000110000011110111000111010001011101100100111000010001111110001000111010110010110100011111000001101111001111101100000110110 P$
b1100011001101100010110011000000 :'
b111001100111011110111101101110111011101001111111101000011001110000001110011111010010001110001000010000000110110001001001100000011101101001010001111011011000001101110010001011111011001110010010011001000000100000010011101011101000011111100000011110011101000 Z'
b1010011010110011001100010001001010100110111101001000100101010011100011110011110100101001100010010111111110001011101000011011101001111111110111101011100111011100011010000010110110010001111101010011000001111111100010011111101011001000110011000111000111111 d*
#24
b10010000011110110011100011000 &
b1110110111010110000101110011111000011001111010000100000100110110100110111111101100011101001010011000110000001111111100110001011111111000001000010111000100000100000100000011000110000000111100000101110000111011000100111101111011011001001111111111100011001110 F
b10110001111001100000110000110111 0$
b1010111011000001111101110011101000111011110010011100010100111111001001001101011001010101001111100010010111100111110011000011011010010100111110101110011000101001100011000000111011100111000110000001011100100001011110000000010101100101001100001000000111110001 P$
b10100101111100001101111011100111 :'
b1101101000101000111111001100000110100001000101111110011111001001000110010000010000011101110101110010101111110000010100111110100011001001110111011101101011111011101111111100111011001001000011111000100011000100001011010010001000100010110000000011100000110001 Z'
b1010110000001000101100101100010101110010111111100011101111000010010000101111010001011010110000000101111111101010000110011100000000001010111000010111110011000001100000001101100001111000110001001111101011010000111110111100100010100111110010101110011111001110 d*
1L-
0Q-
#25
b11010010001111110011100111001111 &
b110100100010010110000000010000100000001100010110100011110000011001010011101111111110110111011101101100111111111010001100111000010001001111101001111111000100001101000011011000100110110000000000101000101001111011001100000111011100000101111100010111001001 F
b100011001100001110001011110001 0$
b1010110111111010110100110010100110100100000011101101000000011000001011000010000101011111000001010111011000110000011010001111000100000001001110111101111011011110110001110011111110010011110011110100111100111110000001001100010110111111001101100011101011000000 P$
b101001110000001111100000110000 :'
b1011001111011101111100111111101110101111110011101110000100001111011111111100010001000010001000100010000011000000010010010011000100000010110000100111110100111011111101001100100111011111001111110011000011010111000000010011111001101010111010000001001100110110 Z'
b110011000011011010000000011111101000110001001001110001000111100001110010010110011110100001110000000100100110011100100010011001110001011001110001101110000101100100110100011110000000001001001010001110000111111001100110001110000000000010000001010110100010010 d*
0L-
1Q-
#26
b111001000110001001000011001001 &
b101000111110100101101100010000100111001101100010010111000000111101110010100011110010110000011100010000010111110100111100100100111111000001000000000011010111010011111111000000110000111010001110100011011101101101001111101111011000110011101010010100001111 F
b11110010001101100100001111000000 0$
b101100111011110010011101111011001001001111111000001011001111010010010011111011111010110001001011000100110110001110001100000011000000001010011011010011000001101110010001100001001000110010010100011000000101001101111101011001010000111100010011110011100111 P$
b1101111010000100100000110110 :'
b100011000010100001100011101100000010110010101110000000111111010001001101011111111011001111011000001011101000000001010011011000001100111111001100011000101000111110100000111110001010000101110101011100100010000000000000010001011001001100010001001011110000 Z'
b111000111001001011000001101000011001101110001001100111011010111101011101100000101000100111000000010100011000000100010101110100101000011110000000110001111110011000000011100001010001110111111010101010111000101110010100000011100101010110010101101001100010001 d*
#27
b11000110011110100001100001111 &
b10011000000100000100111101011100110111111100000100011111101000110100111101110111001110111110111100100011001110101111010000111110001101110001000010001000100010001000111100000000110000001100011111100111000001011011110011101111100000110010011101110000111111 F
b10110001111100011101111111100110 0$
b1010110100101001101110101100000110100001000110000101010111001001001011010000010101001010110101100011011111110001010100111110011110110011110111101100011011111010011100101100111110111101000011101111000011000100010000100010000100110110110000001000011000110000 P$
b11000001100010111010011110000 :'
b10010111111100101100110010100000010010000100000111001100010111011011000010001011100111000000110110100100110001111110101110111110001111001110111001111011011101111000100011111110011111110011101111010100111101011101101100010011111000001101010001111111000000 Z'
b1111100100111111100000110001000011011110001111100110111100000110001001100011110000110010111111001110010000110111000011011111001000110100001100100100010011101000001110100010101100010111110111110010010100100011110000011101011000101010000110100111101011001111 d*
#28
b10101011110010011101010100111111 &
b1000001111000100001101110010001000100001110000000100000100110001111111111100000101111000001110111110110111001001110111100011111100100110110101110000010000111110010111111110100000011001001101101110011111111011111000110010100011010101000011111010110100010111 F
b111111110000000100010000110000 0$
b1001111011011110110111111111101001100001110011111101010100001110111001111100010001010111001000010011010011000000100101100011000011000000110000010001010000111011011000101100100111001011001111110101110111010110010000110011111001101010111001111010010000110110 P$
b101101001101100010010111000000 :'
b1001100000111011100010011101110111100011001111111000111111001110111011100011110101101100110001001110101000110101000111011100000010011111001010000000111111000010010110110001011100001111110010101100111000000011010101111101011111100010111011111001100111101000 Z'
b110101111001011111110010001001111101001110100010110101100011101100101011101100100011100001001100011110111100010110100100010110110101001111010110101110100110100100110101111010110010000001110011100111111111111010010100011110100000101000010100111001000111111 d*
#29
b1110100000011110000101000011000 &
b11101011010111111111100011110101110110111010000000110000110110000000001111110011010000001010001110111000001111100101100001011101001101001000100000110100000100010100010011000100011111111100001000000100111011101111101101110111100000001111111011011111001110 F
b1101111001111101100000110110 0$
b1100010111000001000111100011101101101111110010011100110100111111011100001101011000111110001111101000000111100111100101110011011011111000111110101001101000101001111011100000111010001010000110000110110100100001000101000000010110100111001100000001111111110001 P$
b1000011111100000011110011101000 :'
b1000110000101000000101011100001001000100000101110001110111001010101101010000001101101010110101111100100111101111101100001110100001110100110111010011111011111100100000001100111000101010000100000110001111000100100000100010001000011100110000000111100100110001 Z'
b1011100011000000010101100111001010011000011100100110011001000001100010000010011111100110000111111001111111001001101011100000111011101111011110000101011000000001100011110011010000010110000000010111011011101100110101100001000001111110101010100010111000110 d*
#30
b11011001001111111111100011001110 &
b110001000100010111101000000001101100001001100010000011011110000100010100011101110101001110111011110000100111111101001111100111011111000001111010111101011000100111111100011010100100000110000001011110000101000000001011100001001111110000101111111101111001001 F
b1100101001100001000000111110001 0$
b1001011111011100001110010100100000110000011110111001100011000100000100010000111111011000001001011011100110000000001101111000100101000001110111000100111011110110011110011111101010001110011110011100000111110110111011100010010001010001101100011001011000000 P$
b100010110000000011100000110001 :'
b101111111011101010110001111110001110000110011100100001100010000010110101100010010010111001000100001101011000000100010000011000100011011110000101010000100111011001010101100101011100101001111110111111011010111111010000011110111001000111010001101110000110101 Z'
b11110000001100101100110011111100011010000101101101111100111111011001100001111101101000001111101110010100100111010110000011101101011101001011111100001100110110101000000011010111000110001100001000001100111010100010100010100111100110001111010011111000100001 d*
#31
b11011100000101111100010111001001 &
b1111000100111101011100011100010011110001001101010001111011000000101010010010100000001011110000100110011100010111000010001100101011011011000000110100110111010111111011101110111110001101111010001001010011011101000110011111110010010111110011100000011000010000 F
b10111111001101100011101011000000 0$
b11000100111011011100111101111011010001001111110100000111001111001100100011111011010011110001000111110100110110001100001100000001110100001010011100101111000001010111000001100001111100110010011110001000000100100000111101011011101110111100001001100111100111 P$
b1101010111010000001001100110110 :'
b10001011000010101010110011101100111000110010101110011000111111100100011101011111100010001111011101111111101000110011110011010101110001111111000111100000101000010110110001000000101100000101111010110000100010100111000000001110011000001100011011000111101111 Z'
b110101111010011010001111100011110101010110011001011101111001100001110011100011110000000110100110011110111000011011010001101101111001111110000000100000011100100000000001100000011001111111011011101010011000000110101001111011101000111110000110000111100000010 d*
#32
b11011000110011101010010100001111 &
b1100001000000011011000011101011111010110111011111010010111101000011111101101110100110010111111001000011111001110000111100001000001101000110001000111011100100010000111011100000001110001001100010001001011000010100101000011101100010110110010101110001100111111 F
b1010000111100010011110011100111 0$
b110000000101001110100011100000101000101000110001000101011001001110010010000010010010110110101101101010111110000101100001110011101011110110111100010101111111011001100011100111100011110000011111100101011000100100110000010000100101110110000001100011100110000 P$
b1011001001100010001001011110000 :'
b1000101011111100011001010010100001110011000100000001010100010111110000010010001010000011000000111010100000110001100110011110111110110100001110110100101011011101111010000011111101100000110011101101101100111101010100011100010011000001001101010001100111000000 Z'
b110111100111110010011000001111111100001001111111111111000010101101100000011111100011111000011001101111000111101111100010000000101110111001110101011011011110111100100000011010110110010111011010100100100101111001001101110010011001101001001110101000011011011 d*
