11_cs_nwe _channel4/project_1/.Xil/Vivado-1724-GL-0301-949/hw_ila_data_6/zip_work/waveform.vcd
$date
        2023-Aug-10 17:24:00
$end
$version
        Vivado v2018.3 (64-bit)
$end
$timescale
        1ps
$end
$scope module dut $end
$var reg 4 " u2_adc_top/u3_adc_module/u_adc_jesd204b/gt0_rxcharisk [3:0] $end
$var reg 32 & u2_adc_top/u3_adc_module/u_adc_jesd204b/gt0_rxdata [31:0] $end
$var reg 32 F u2_adc_top/u4_adc_module/u_adc_jesd204b/gt0_rxdata [31:0] $end
$var reg 4 f u2_adc_top/u4_adc_module/u_adc_jesd204b/gt0_rxcharisk [3:0] $end
$var reg 32 j u2_adc_top/u1_adc_module/u_adc_jesd204b/gt0_rxdata [31:0] $end
$var reg 4 ," u2_adc_top/u1_adc_module/u_adc_jesd204b/gt0_rxcharisk [3:0] $end
$var reg 4 0" u2_adc_top/u2_adc_module/u_adc_jesd204b/gt0_rxcharisk [3:0] $end
$var reg 32 4" u2_adc_top/u2_adc_module/u_adc_jesd204b/gt0_rxdata [31:0] $end
$var reg 1 T" adc1_sync $end
$var reg 1 U" adc2_sync $end
$var reg 1 V" adc3_sync $end
$var reg 1 W" adc4_sync $end
$var reg 1 X" _TRIGGER $end
$var reg 1 Y" _WINDOW $end
$var reg 1 Z" _GAP $end
$upscope $end
$enddefinitions $end
#0
$dumpvars
b0 "
b11111000111111111101100011111111 &
b11111100111111111111110011111111 F
b10 f
b11011110111110111000111011111100 j
b0 ,"
b100 0"
b11111001111111001111100110101000 4"
1T"
1U"
1V"
1W"
0X"
1Y"
0Z"
$end
#1
b1000000000000001100000000000 &
b10111100111111111111110011111111 F
b11101110111110100110111011111011 j
b0 0"
b11111010110110001111100110111000 4"
#2
b11101000111111110010100000000000 &
b11111100111111111110110011111111 F
b0 f
b101110111110100111111011111010 j
b11111010011110001111101000001000 4"
#3
b1000 "
b11111100111111111111100011111111 &
b11001100111111111101110011111111 F
b11001110111110011110111011111001 j
b11111100010010001111101111011000 4"
#4
b0 "
b11111000111111110000100000000000 &
b11011100111111111111110011111111 F
b1111100111110011111110011111001 j
b1010 ,"
b11111101010110001111110000001000 4"
#5
b1000000000000001100000000000 &
b10 f
b101110111110101110111011111001 j
b0 ,"
b11111110000100101111111000111000 4"
#6
b10 "
b1000000000001111110000000000 &
b11111100111111111011110011111111 F
b0 f
b11101110111110101000111011111010 j
b101000001111111111010010 4"
#7
b0 "
b11101000111111111111100011111111 &
b11101100111111111100110011111111 F
b11011110111110110101111011111011 j
b10001100000000000101100000 4"
#8
b1000 "
b11111100111111111111100011111111 &
b11011100111111111111110011111111 F
b10 f
b1101110111111011010111011111100 j
b11110011100000001000011110 4"
#9
b11111100000000000000100000000000 &
b11101000111111101111100011111101 j
b100001001000000010001110100 4"
#10
b0 "
b11000000000001111100011111111 &
b10111100111111111111110011111111 F
b1100110000000001011011011111111 j
b101001011000000010110110100 4"
#11
b11000000000001110100011111111 &
b11111100111111111101110011111111 F
b1000 f
b11011100000000010011110000000001 j
b110111011000000010110011100 4"
#12
b1000 "
b11111100111111111110100011111111 &
b11111100111111111100110011111111 F
b0 f
b111100000000111011110000000010 j
b110011011000000011000101100 4"
#13
b11111100000000000000100000000000 &
b11100000000001101110011111111 F
b10001100000001001111110000000011 j
b110001011000000011001111100 4"
#14
b11111100111111111111100011111111 &
b101100000000001110110011111111 F
b10110010000001010100001000000101 j
b1 0"
b101111111000000010111111100 4"
#15
b11111100000000000000100000000000 &
b11011100111111110001110000000000 F
b10010000001101101001000000101 j
b0 0"
b100000111000000010110001100 4"
#16
b0 "
b11111000111111110000100000000000 &
b1100000000000001110000000000 F
b11111100000001100101001000000110 j
b1000 ,"
b11001001000000010010010100 4"
#17
b1000 "
b11111100000000000000100000000000 &
b11111100111111111101110011111111 F
b10000001100100001000000110 j
b0 ,"
b1100011100000001010000100 4"
#18
b10 "
b1000000000000111110000000000 &
b1000 f
b10000010000001011101001000000101 j
b100000000000111111110 4"
#19
b0 "
b1000000000000001100000000000 &
b11101100111111110001110000000000 F
b0 f
b10011010000001000010001000000101 j
b11111110101100001111111110000000 4"
#20
b1000000000001111100011111111 &
b11011100111111111111110011111111 F
b1011100000000111111110000000011 j
b11111101000000101111111011010010 4"
#21
b1000 "
b11111100111111111111100011111111 &
b11111100111111111100110011111111 F
b1000 f
b11101100000000011001110000000010 j
b11111011100010001111110000101000 4"
#22
b0 "
b1000000000001110100011111111 &
b1100000000001110110011111111 F
b0 f
b1010110000000000011110000000001 j
b11111010010010001111101111101000 4"
#23
b10 "
b1000000000001111110000000000 &
b11011100111111111011110011111111 F
b11011000111111101011011011111111 j
b11111010011010001111101011001000 4"
#24
b11111100111111111110110011111111 F
b1001110111111010001100011111110 j
b11111001111110001111100100001000 4"
#25
b0 "
b11000000000000010100000000000 &
b11111100111111111100110011111111 F
b1000 f
b11111110111110111000111011111100 j
b100 0"
b11111001111111001111100110101000 4"
#26
b1000 "
b11111100000000000010100000000000 &
b11011100111111111110110011111111 F
b0 f
b11101110111110100110111011111011 j
b0 0"
b11111010110110001111100110101000 4"
#27
b0 "
b11101000111111111111100011111111 &
b11101100111111111111110011111111 F
b10 f
b111110111110101000111011111010 j
b11111010011010001111101000001000 4"
#28
b10 "
b11101000111111111111110011111111 &
b11101100111111111101110011111111 F
b0 f
b10111110111110010000111011111010 j
b11111011010010001111101111011000 4"
#29
b0 "
b1000000000000001100000000000 &
b11111100111111111101110011111111 F
b11001110111110011010111011111001 j
b11111101100110001111110011001000 4"
#30
b10 "
b1000000000001111110000000000 &
b11111100111111111100110011111111 F
b1000 f
b101110111110101110111011111001 j
b11111110001000101111111000111000 4"
#31
b11000000000001111110000000000 &
b11101100111111111101110011111111 F
b0 f
b11111110111110101000111011111010 j
b101100001111111111000010 4"
#32
b1000 "
b11111100111111111111100011111111 &
b11101100111111111100110011111111 F
b11101110111110110111111011111011 j
b1010000000000000110000000 4"
#33
b0 "
b11111000111111110000100000000000 &
b11111100111111111111110011111111 F
b1000 f
b1011110111111011001111011111100 j
b11110011100000001011111110 4"
#34
b11000000000000010100000000000 &
b11111100111111111101110011111111 F
b11101000111111100001100011111110 j
b100001001000000010001011110 4"
#35
b10 "
b1000000000001111110000000000 &
b11111100111111111111110011111111 F
b1100110000000001011011011111111 j
b101001011000000010110010100 4"
#36
b0 "
b11111000111111111110100011111111 &
b1100000000000010110000000000 F
b0 f
b11111100000000010010110000000001 j
b110111111000000010110011100 4"
#37
b10 "
b1000000000001111110011111111 &
b11111100111111111101110011111111 F
b1101100000000111010110000000010 j
b110001111000000011000001100 4"
#38
b0 "
b1000000000001110100011111111 &
b1111010000001001111110000000011 j
b1 0"
b110010011000000011011111100 4"
#39
b1000000000000001100000000000 &
b11111100111111111110110011111111 F
b1000 f
b1110010000001010011001000000101 j
b0 0"
b101111011000000010100011100 4"
#40
b101000000000001111100011111111 &
b11111100111111111101110011111111 F
b11110010000001011110001000000101 j
b100001111000000010110001100 4"
#41
b1000 "
b11111100000000000000100000000000 &
b11001100111111111111110011111111 F
b0 f
b1010010000001100010001000000110 j
b11000101000000010010100100 4"
#42
b0 "
b1000000000001110100011111111 &
b11011100111111111111110011111111 F
b10 f
b110010000001100100001000000110 j
b1110011100000001001001110 4"
#43
b1000 "
b11111100000000000001100000000000 &
b10000010000001011110001000000101 j
b1000000000000111111110 4"
#44
b0 "
b11101000111111111101100011111111 &
b11111100111111111011110011111111 F
b0 f
b10101010000001000000101000000101 j
b11111110101000001111111101110000 4"
#45
b11011000111111111111100011111111 &
b11011100111111110000110000000000 F
b1001100000000111100110000000011 j
b11111101000100101111111011010010 4"
#46
b10 "
b11011000111111111111110011111111 &
b11111100111111111110110011111111 F
b1000 f
b11111100000000011010110000000010 j
b11111011011110001111110000011000 4"
#47
b1000 "
b11111100000000000000100000000000 &
b11011100111111111100110011111111 F
b0 f
b10000110000000000010110000000001 j
b11111010010010001111101111101000 4"
#48
b0 "
b11111000111111110001100000000000 &
b1100000000001011110011111111 F
b11001000111111101010011011111111 j
b11111010011010001111101011011000 4"
#49
b10 "
b11101000111111111111110011111111 &
b101100000000001111110011111111 F
b111110111111010001100011111110 j
b11111001101110001111100100001000 4"
#50
b1000 "
b11111100111111111111100011111111 &
b1100000000001110110011111111 F
b1110111111001001111011111100 j
b100 0"
b11111001111111001111100110011000 4"
#51
b1100000000001111110011111111 F
b11011110111110100101111011111011 j
b11111010111111001111100111001000 4"
#52
b0 "
b11000000000000000100000000000 &
b11001100111111111110110011111111 F
b101110111110101000111011111010 j
b0 0"
b11111010011110001111101000011000 4"
#53
b1000 "
b11111100111111111111100011111111 &
b11011100111111111110110011111111 F
b10111110111110011101111011111001 j
b11111011010010001111101111101000 4"
#54
b0 "
b1000000000001111100011111111 &
b11101100111111110000110000000000 F
b10111110111110011100111011111001 j
b11111101100010001111110011101000 4"
#55
b11101000111111111111100011111111 &
b11111100111111110001110000000000 F
b101110111110101110111011111001 j
b11111110000100101111111000111000 4"
#56
b1000000000000001100000000000 &
b11011100111111110000110000000000 F
b1110111110111001111011111010 j
b101100001111111110100010 4"
#57
b1000000000000010100000000000 &
b10101100111111111111110011111111 F
b11101110111110110111111011111011 j
b1001100000000000101100000 4"
#58
b1000000000001111100011111111 &
b11011100111111110000110000000000 F
b1001110111111011000111011111100 j
b11101011100000001011111110 4"
#59
b1000 "
b11111100111111111111100011111111 &
b1100000000000001110000000000 F
b11001000111111100001100011111110 j
b100000101000000010001101110 4"
#60
b111100000000000001110000000000 F
b1110110000000001010011011111111 j
b101001011000000010110010100 4"
#61
b0 "
b101000000000000001100000000000 &
b11100000000001101110011111111 F
b11101100000000010010110000000001 j
b110110111000000010110101100 4"
#62
b11101000111111111111100011111111 &
b11100000000001111110011111111 F
b1011100000000111100110000000010 j
b110010111000000011000101100 4"
#63
b1000 "
b11111100000000000001100000000000 &
b11111100111111110111110000000000 F
b10 f
b10011010000001001101110000000011 j
b110001111000000011001101100 4"
#64
b0 "
b11111000111111111110100011111111 &
b1100000000001110110011111111 F
b0 f
b10010010000001010001101000000101 j
b101111011000000010100101100 4"
#65
b1000 "
b11111100000000000001100000000000 &
b11011100111111110001110000000000 F
b11110010000001011101001000000101 j
b100001011000000010110011100 4"
#66
b11111100111111111111100011111111 &
b11101100111111111100110011111111 F
b11111100000001100100001000000110 j
b1000 ,"
b11000101000000010010100100 4"
#67
b0 "
b11101000111111111111100011111111 &
b10101100111111111111110011111111 F
b10 f
b11110010000001010011001000000110 j
b0 ,"
b1101111100000001001001110 4"
#68
b10 "
b11111000111111111111110011111111 &
b11111100111111111110110011111111 F
b1000 f
b10000010000001011011001000000101 j
b100000000000111111110 4"
#69
b0 "
b11101000111111110000100000000000 &
b11011100111111111111110011111111 F
b0 f
b10011010000001000010001000000101 j
b11111110100100001111111101110000 4"
#70
b10 "
b11000000000001111110011111111 &
b1011100000000111111110000000011 j
b11111101111100101111110110110010 4"
#71
b0 "
b11101000111111110000100000000000 &
b11111100111111111011110011111111 F
b1100000000101100110000000010 j
b11111011100010001111110000101000 4"
#72
b11000000000000000100000000000 &
b1100000000001101110011111111 F
b1110110000000000010110000000001 j
b11111010010010001111101110111000 4"
#73
b1000 "
b11111100111111111111100011111111 &
b11101100111111111111110011111111 F
b10111000111111101011011011111111 j
b11111010010110001111101011001000 4"
#74
b0 "
b1000000000001110100011111111 &
b11001100111111111111110011111111 F
b111110111111011111100011111101 j
b11111001110010001111100100101000 4"
#75
b10 "
b11111000111111111111110000000000 &
b11011100111111111111110011111111 F
b11001110111110111001111011111100 j
b100 0"
b11111001111111001111100110101000 4"
#76
b0 "
b11111000111111110001100000000000 &
b11101100111111110000110000000000 F
b11001110111110100100111011111011 j
b0 0"
b11111010101110001111100110101000 4"
#77
b10 "
b1000000000001111110011111111 &
b11101100111111111111110011111111 F
b10 f
b11110111110101001111011111010 j
b11111010010110001111101000011000 4"
#78
b1000 "
b11111100111111111111100011111111 &
b11111100000000000000110000000000 F
b1000 f
b11011110111110011111111011111001 j
b11111011010010001111101111001000 4"
#79
b0 "
b11111000111111110001100000000000 &
b11100000000001101110011111111 F
b0 f
b11001110111110011111110011111001 j
b10 ,"
b11111101100010001111110011101000 4"
#80
b11000000000000000100000000000 &
b1100000000001111110011111111 F
b101110111110101111111011111001 j
b0 ,"
b11111110001000101111111001001000 4"
#81
b1000 "
b11111100000000000000100000000000 &
b11111100111111111101110011111111 F
b1000 f
b11101110111110101001111011111010 j
b110000001111111110110010 4"
#82
b11111100111111111110100011111111 &
b11011100111111111110110011111111 F
b0 f
b11101110111110110111111011111011 j
b1001000000000000101100000 4"
#83
b0 "
b11111000111111110000100000000000 &
b11011100111111110001110000000000 F
b1011110111111010111111011111100 j
b11101011100000001011111110 4"
#84
b11111000111111111110100011111111 &
b11111100111111110000110000000000 F
b11011000111111100000100011111110 j
b100000101000000010010010100 4"
#85
b11011000111111110000100000000000 &
b1100000000001111110011111111 F
b10 f
b1100110000000001010011011111111 j
b101001011000000010110010100 4"
#86
b1000 "
b11111100000000000000100000000000 &
b11111100111111111111110000000000 F
b11101100000000010111110000000001 j
b110110011000000010110011100 4"
#87
b11111100000000000001100000000000 &
b11111100111111110011110000000000 F
b0 f
b1011100000000111010110000000010 j
b110010111000000011000101100 4"
#88
b0 "
b11101000111111111111100011111111 &
b10111100111111111101110011111111 F
b1101100000001001110110000000011 j
b110010111000000011001001100 4"
#89
b11101000111111111101100011111111 &
b11101100111111110001110000000000 F
b10000010000001010010001000000101 j
b101110111000000010100101100 4"
#90
b11111000111111110001100000000000 &
b11111100111111111100110011111111 F
b10000001101101001000000101 j
b100000011000000010110001100 4"
#91
b10 "
b11101000111111111111110011111111 &
b10111100111111111101110011111111 F
b110010000001100101001000000110 j
b11000001000000010011000100 4"
#92
b1000 "
b11111100111111111111100011111111 &
b1100000000001101110011111111 F
b10010000001100100001000000110 j
b1101011100000001001110100 4"
#93
b10 "
b11111000111111110111110011111111 &
b11111100111111111101110011111111 F
b1000 f
b1110010000001011111001000000101 j
b111111110 4"
#94
b0 "
b1000000000000001100000000000 &
b11001100111111111111110011111111 F
b0 f
b1111100000001000011001000000101 j
b11111110101000001111111101100000 4"
#95
b11101000111111111111100011111111 &
b11001100111111111101110011111111 F
b1011100000000111110110000000011 j
b11111101000100101111111011000010 4"
#96
b1000 "
b11111100111111111111100011111111 &
b11101100111111111111110011111111 F
b10 f
b11011100000000011010110000000010 j
b11111011011010001111110000101000 4"
#97
b0 "
b1000000000000001100000000000 &
b10111100111111111111110011111111 F
b0 f
b1010110000000000010110000000001 j
b11111010001110001111101111001000 4"
#98
b11011000111111111110100011111111 &
b11101100111111111111110011111111 F
b10 f
b11011000111111101010011011111111 j
b11111010010010001111101011011000 4"
#99
b11101000111111111111100011111111 &
b11101100111111111101110011111111 F
b0 f
b1001110111111010000100011111110 j
b11111001110110001111100100001000 4"
#100
b10 "
b11000000000001111110011111111 &
b11011100111111110000110000000000 F
b11011110111110111000111011111100 j
b11111001100110001111100110101000 4"
1X"
#101
b0 "
b11111000111111110000100000000000 &
b10111100111111110001110000000000 F
b11011110111110100100111011111011 j
b1 0"
b11111001111010001111100111111100 4"
#102
b11111000111111110001100000000000 &
b11101100111111111100110011111111 F
b11110111110101001111011111010 j
b0 0"
b11111010011010001111101011111000 4"
#103
b1000 "
b11111100000000000000100000000000 &
b11111100111111111011110011111111 F
b10101110111110011100111011111001 j
b11111011010110001111101111101000 4"
#104
b0 "
b11000000000000000100000000000 &
b11011100111111111010110011111111 F
b11111100111110011100111011111001 j
b1000 ,"
b11111101100010001111110011101000 4"
#105
b1000 "
b11111100000000000000100000000000 &
b11011100111111111111110011111111 F
b10 f
b11111100111110011111111011111001 j
b11111110111100101111110110000010 4"
#106
b0 "
b1000000000000001100000000000 &
b11111100111111111110110011111111 F
b0 f
b11101110111110101000111011111010 j
b0 ,"
b101100001111111110100010 4"
#107
b11111000111111110001100000000000 &
b11111100111111111011110011111111 F
b1000 f
b11101110111110110111111011111011 j
b10010000000000000101010000 4"
#108
b10 "
b11000000000000111110011111111 &
b11001100111111110111110011111111 F
b10 f
b1001110111111011000111011111100 j
b11100111100000001000001110 4"
#109
b1000 "
b11111100111111111111100011111111 &
b11111100111111111101110011111111 F
b0 f
b11011000111111100010100011111110 j
b100000001000000010010010100 4"
#110
b0 "
b1000000000001111100011111111 &
b1100000000001111110011111111 F
b10 f
b1010110000000001011011011111111 j
b101001111000000010110100100 4"
#111
b11111000111111110001100000000000 &
b11111100111111111110110011111111 F
b1000 f
b11101100000000010011110000000001 j
b110111011000000010110111100 4"
#112
b10 "
b1000000000001111110011111111 &
b11011100111111111110110011111111 F
b0 f
b1011100000000111100110000000010 j
b110001111000000011000011100 4"
#113
b0 "
b1000000000000001100000000000 &
b10101010000001001101110000000011 j
b110010011000000011001101100 4"
#114
b10 "
b1000000000001111110000000000 &
b10000010000001010100001000000101 j
b101110111000000010100111100 4"
#115
b11111000111111111111110000000000 &
b11111100111111111110110011111111 F
b10010000001101100001000000101 j
b100000111000000010110001100 4"
#116
b11101000111111111111110011111111 &
b11011100111111111110110011111111 F
b1010010000001100011001000000110 j
b11111001000000001110010100 4"
#117
b0 "
b1000000000000001100000000000 &
b11001100111111111111110011111111 F
b10010000001100010001000000110 j
b10101011100000001001011110 4"
#118
b1000 "
b11111100111111111111100011111111 &
b101100000000001101110011111111 F
b10000010000001011110001000000101 j
b1100000000000100001110 4"
#119
b0 "
b1000000000001110100011111111 &
b11111100111111111100110011111111 F
b1000 f
b10001010000001001111101000000100 j
b11111110101000001111111101110000 4"
#120
b1000 "
b11111100111111111111100011111111 &
b11111100111111111110110011111111 F
b1001100000000110000110000000100 j
b11111101111100101111110111010010 4"
#121
b0 "
b11101000111111110000100000000000 &
b11111100111111111100110011111111 F
b11101100000000011001110000000010 j
b11111011011110001111110001001000 4"
#122
b1000 "
b11111100111111111111100011111111 &
b11011100111111111110110011111111 F
b0 f
b1010110000000000010110000000001 j
b11111010010110001111101111111000 4"
#123
b0 "
b1000000000000010100000000000 &
b1100000000000111110011111111 F
b10 f
b11001000111111101010011011111111 j
b11111010011010001111101011011000 4"
#124
b1000000000001111100011111111 &
b11111100111111111111110000000000 F
b111110111111010001100011111110 j
b11111001101110001111100100101000 4"
#125
b10 "
b1000000000001111110000000000 &
b11101100111111110011110000000000 F
b0 f
b11101110111110111001111011111100 j
b100 0"
b11111001111111001111100110101000 4"
#126
b11111000111111111111110000000000 &
b11101100111111110001110000000000 F
b11111110111110100011111011111011 j
b0 0"
b11111010110110001111100110101000 4"
#127
b11000000000001111110011111111 &
b11111100111111111111110011111111 F
b10 f
b101110111110100111111011111010 j
b11111010010110001111101000001000 4"
#128
b11000000000001111110000000000 &
b1100000000001111110011111111 F
b10111110111110010000111011111010 j
b11111011010110001111101111001000 4"
#129
b0 "
b1000000000001100100011111111 &
b11011100111111111111110000000000 F
b10101110111110011111110011111001 j
b10 ,"
b11111101100010001111110011101000 4"
#130
b10 "
b11000000000001111110000000000 &
b11101100111111110001110000000000 F
b0 f
b111110111110101110111011111001 j
b0 ,"
b11111110000000101111111000011000 4"
#131
b10111100111111110000110000000000 F
b11011110111110100111111011111010 j
b101000001111111111000010 4"
#132
b1000 "
b11111100000000000000100000000000 &
b11111100111111111111110011111111 F
b10 f
b11101110111110110101111011111011 j
b1001100000000000101010000 4"
#133
b0 "
b11000000000000000100000000000 &
b11101100111111111011110011111111 F
b0 f
b111110111111011001111011111100 j
b11101111100000001011101110 4"
#134
b1000 "
b11111100111111111111100011111111 &
b10111100111111110001110000000000 F
b11001000111111100001100011111110 j
b100000101000000010010000100 4"
#135
b0 "
b11111000111111111101100011111111 &
b11101100111111111111110011111111 F
b1100110000000001010011011111111 j
b101000111000000010110100100 4"
#136
b1000 "
b11111100000000000000100000000000 &
b1100000000001111110011111111 F
b1100000000100100110000000001 j
b110110011000000010110001100 4"
#137
b0 "
b1000000000001111100011111111 &
b11001100111111110010110000000000 F
b1001100000000111011110000000010 j
b110001011000000011000011100 4"
#138
b10 "
b1000000000000111110000000000 &
b11011100111111111111110011111111 F
b10011010000001000010110000000100 j
b110001111000000011001001100 4"
#139
b0 "
b1000000000001101100011111111 &
b11111100111111110000110000000000 F
b1110010000001010010001000000101 j
b101110011000000010100011100 4"
#140
b11111000111111111110100011111111 &
b11100000000001101110011111111 F
b11110010000001011100001000000101 j
b100000111000000010110001100 4"
#141
b1000 "
b11111100000000000001100000000000 &
b1100000000001111110011111111 F
b1010010000001100100001000000110 j
b11000001000000010010100100 4"
#142
b11111100000000000000100000000000 &
b11001100111111110001110000000000 F
b11111100000001100011001000000110 j
b1000 ,"
b1100111100000001001011110 4"
#143
b0 "
b11111000111111110000100000000000 &
b11100000000001111110011111111 F
b10110010000001011101001000000101 j
b0 ,"
b1111100000000111101110 4"
#144
b1000000000000001100000000000 &
b1100000000001111110000000000 F
b10 f
b10101010000001000000101000000101 j
b11111110100100001111111101010000 4"
#145
b11111000111111111110100011111111 &
b11111100111111111011110011111111 F
b0 f
b1001100000000110000110000000100 j
b11111101111100101111110111100010 4"
#146
b11000000000000000100000000000 &
b11111100111111111101110011111111 F
b1000 f
b11011100000000011010110000000010 j
b11111011100010001111110000111000 4"
#147
b1000000000001111100011111111 &
b101100000000000000110000000000 F
b0 f
b1010110000000000010110000000001 j
b11111010001110001111101111101000 4"
#148
b11000000000001111100011111111 &
b11100000000001111110011111111 F
b11001000111111101011011011111111 j
b11111010010110001111101011011000 4"
#149
b10 "
b11111000111111111111110000000000 &
b101100000000001111110000000000 F
b10 f
b101110111111010000100011111110 j
b11111001110110001111100100011000 4"
#150
b0 "
b11000000000000000100000000000 &
b11111100000000000000110000000000 F
b1000 f
b11101110111110111011111011111100 j
b11111001100110001111100110101000 4"
#151
b1000 "
b11111100000000000000100000000000 &
b11111100000000000010110000000000 F
b11001110111110100110111011111011 j
b11111001110110001111100110101000 4"
#152
b1001100000000001101110011111111 F
b0 f
b11110111110101000111011111010 j
b11111010010110001111101011111000 4"
#153
b0 "
b11011000111111110010100000000000 &
b101100000000001110110011111111 F
b11001110111110011110111011111001 j
b11111011010110001111101111001000 4"
#154
b1000 "
b11111100111111111110100011111111 &
b11101100111111110000110000000000 F
b11001110111110011011111011111001 j
b11111101011110001111110011101000 4"
#155
b11111100111111111111100011111111 &
b11111100000000000000110000000000 F
b1000 f
b11110111110100000111011111010 j
b11111110111100101111110101100010 4"
#156
b0 "
b11000000000000000100000000000 &
b1110111110110111111011111010 j
b101000001111111111000010 4"
#157
b1000000000001111100011111111 &
b11100000000001100110011111111 F
b0 f
b11011110111110110011111011111011 j
b10001111100000000101110000 4"
#158
b101000000000000001100000000000 &
b11111100111111111101110011111111 F
b1000 f
b1001110111111010110111011111100 j
b11101111100000001000001110 4"
#159
b1000000000001111100011111111 &
b11101100111111110000110000000000 F
b0 f
b11101000111111100000100011111110 j
b100001101000000010001011110 4"
#160
b10 "
b1000000000001111110000000000 &
b11100000000000000110000000000 F
b10010110000000001011011011111111 j
b101000111000000010110110100 4"
#161
b0 "
b11101000111111111111100011111111 &
b11100000000000010110000000000 F
b11101100000000010100110000000001 j
b110111011000000010110011100 4"
#162
b1000 "
b11111100000000000000100000000000 &
b1100000000001111110000000000 F
b10 f
b1101100000000111010110000000010 j
b110010111000000011000101100 4"
#163
b11111100111111111110110011111111 F
b1000 f
b10001010000001001110110000000011 j
b1 0"
b110001111000000011011111100 4"
#164
b0 "
b11111000111111110010100000000000 &
b11011100111111111111110011111111 F
b0 f
b10000010000001010011001000000101 j
b101110111000000010111111100 4"
#165
b10 "
b11111000111111111111110011111111 &
b11111100111111111111110011111111 F
b1000 f
b100010000001101110001000000101 j
b0 0"
b100001011000000010110011100 4"
#166
b1000 "
b11111100000000000000100000000000 &
b11111100111111111110110011111111 F
b0 f
b1010010000001100100001000000110 j
b11001001000000010010110100 4"
#167
b0 "
b11101000111111110010100000000000 &
b11101100111111111100110011111111 F
b10010000001100010001000000110 j
b1101111100000001001011110 4"
#168
b1000000000000001100000000000 &
b11111100111111111101110011111111 F
b1100010000001011101001000000101 j
b1100000000000111111110 4"
#169
b11000000000001111100011111111 &
b1000 f
b1111100000001001111101000000100 j
b11111110100100001111111101000000 4"
#170
b11100000000001111110011111111 F
b0 f
b1011100000000111110110000000011 j
b11111101000000101111111011000010 4"
#171
b1000 "
b11111100111111111111100011111111 &
b11111100111111111111110011111111 F
b1000 f
b11011100000000011010110000000010 j
b11111011011110001111110000101000 4"
#172
b0 "
b1000000000000001100000000000 &
b11100000000001101110011111111 F
b0 f
b1110110000000000001110000000001 j
b11111010011010001111101111011000 4"
#173
b1000000000001101100011111111 &
b11011100111111111100110011111111 F
b11001000111111101010011011111111 j
b11111001010110001111101011001000 4"
#174
b10 "
b1000000000001111110000000000 &
b1100000000001111110011111111 F
b10 f
b1001110111111010000100011111110 j
b11111001110010001111100111111000 4"
#175
b11101000111111111111110000000000 &
b11100000000001111110011111111 F
b0 f
b1110111111000110111011111100 j
b1 0"
b11111001101110001111100111111100 4"
#176
b0 "
b11101000111111110000100000000000 &
b1100000000001110110011111111 F
b11011110111110100110111011111011 j
b0 0"
b11111010110110001111100110011000 4"
#177
b11111000111111110000100000000000 &
b11111100111111111101110011111111 F
b111110111110100111111011111010 j
b11111010010110001111101000001000 4"
#178
b11011000111111110001100000000000 &
b11011100111111111110110011111111 F
b11011110111110011110111011111001 j
b11111011001110001111101111011000 4"
#179
b1000 "
b11111100000000000000100000000000 &
b11001100111111111111110011111111 F
b10 f
b11111100111110011100111011111001 j
b1000 ,"
b11111101100110001111110011101000 4"
#180
b0 "
b11000000000000000100000000000 &
b11100000000001110110011111111 F
b0 f
b101110111110101101111011111001 j
b0 ,"
b11111110000100101111111001011000 4"
#181
b11101100111111111111110011111111 F
b11101110111110100110111011111010 j
b101100001111111111010010 4"
#182
b10 "
b11111000111111111111110000000000 &
b1100000000001111110011111111 F
b10 f
b11011110111110110111111011111011 j
b1010011100000000101100000 4"
#183
b11111000111111110111110011111111 &
b1100000000001100110011111111 F
b0 f
b1011110111111011000111011111100 j
b11101011100000001011101110 4"
#184
b0 "
b11111000111111110000100000000000 &
b11100000000001111110011111111 F
b11101000111111100001100011111110 j
b100000101000000010001001110 4"
#185
b10 "
b11000000000001111110011111111 &
b11111100111111111101110011111111 F
b1100110000000001010011011111111 j
b101000111000000010110110100 4"
#186
b0 "
b11111000111111111110100011111111 &
b11011100111111111111110011111111 F
b10 f
b11111100000000010011110000000001 j
b110110111000000010110011100 4"
#187
b11011100111111110000110000000000 F
b0 f
b1101100000000111010110000000010 j
b110011011000000011000111100 4"
#188
b11111000111111110000100000000000 &
b11011100111111111111110011111111 F
b10 f
b10011010000001001101110000000011 j
b110010011000000011001011100 4"
#189
b1000 "
b11111100000000000000100000000000 &
b1100000000001100110011111111 F
b0 f
b10010010000001010011001000000101 j
b101111011000000010100011100 4"
#190
b0 "
b1000000000001111100011111111 &
b11111100111111111101110011111111 F
b1000 f
b100010000001101101001000000101 j
b100001011000000010101111100 4"
#191
b10 "
b11000000000001111110000000000 &
b11111100111111111110110011111111 F
b1000010000001101111110000000110 j
b10 ,"
b11000101000000010010010100 4"
#192
b0 "
b11000000000000010100000000000 &
b11011100111111110001110000000000 F
b0 f
b110010000001101111110000000110 j
b1101011100000001001110100 4"
#193
b11000000000001111100011111111 &
b11011100111111110000110000000000 F
b10000010000001011111001000000101 j
b0 ,"
b1000000000000111111110 4"
#194
b11111000111111110000100000000000 &
b1100000000001100110011111111 F
b1011100000001000010001000000101 j
b11111110101000001111111101110000 4"
#195
b10 "
b11111000111111111111110011111111 &
b11011100111111111111110011111111 F
b111100000000111110110000000011 j
b11111101111100101111110111100010 4"
#196
b11111100000000000000110000000000 F
b1000 f
b11101100000000011000110000000010 j
b11111011100110001111110000101000 4"
#197
b0 "
b1000000000001100100011111111 &
b11111100111111111101110011111111 F
b1000110000000000010110000000001 j
b11111010010010001111101111101000 4"
#198
b1000000000000010100000000000 &
b11101100111111110011110000000000 F
b0 f
b11001000111111101011011011111111 j
b11111010011110001111101011001000 4"
#199
b11111000111111110001100000000000 &
b11101100111111111111110011111111 F
b101110111111011111100011111101 j
b11111001110110001111100100011000 4"
#200
b11000000000001110100011111111 &
b111100000000001111110011111111 F
b10 f
b11101110111110111000111011111100 j
b11111001100010001111100110111000 4"
#201
b101000000000000000100000000000 &
b11011100111111111111110011111111 F
b0 f
b11101110111110100110111011111011 j
b11111010110010001111100110011000 4"
#202
b1000 "
b11111100000000000001100000000000 &
b11011100111111111110110011111111 F
b1011110111110100111111011111010 j
b11111010011110001111101000001000 4"
#203
b0 "
b11111000111111110001100000000000 &
b11100000000001111110011111111 F
b11011110111110011111111011111001 j
b11111011010010001111101111011000 4"
#204
b1000000000001110100011111111 &
b11011100111111111100110011111111 F
b11011110111110011011111011111001 j
b11111101011010001111110011101000 4"
#205
b10 "
b11111000111111111111110000000000 &
b11100000000001111110011111111 F
b10 f
b101110111110101111111011111001 j
b11111110000100101111111000111000 4"
#206
b0 "
b11111000111111110000100000000000 &
b11111100111111110010110000000000 F
b0 f
b11101110111110101000111011111010 j
b101000001111111111000010 4"
#207
b11111000111111111110100011111111 &
b1100000000001101110011111111 F
b11101110111110110110111011111011 j
b1010011100000000110000000 4"
#208
b10 "
b11011000111111111111110011111111 &
b1100000000001111110011111111 F
b1101110111111011001111011111100 j
b11110011100000001011111110 4"
#209
b0 "
b11000000000001110100011111111 &
b11111100111111111111110000000000 F
b10 f
b11111000111111100011100011111110 j
b100001001000000010001001110 4"
