11_cs_nwe _channel4/project_1/.Xil/Vivado-1724-GL-0301-949/hw_ila_data_1/zip_work/waveform.vcd
$date
        2023-Aug-11 14:01:07
$end
$version
        Vivado v2018.3 (64-bit)
$end
$timescale
        1ps
$end
$scope module dut $end
$var reg 16 " u3_adc_analysis/adc1_a1_1 [15:0] $end
$var reg 16 2 u3_adc_analysis/adc1_a2_1 [15:0] $end
$var reg 16 B u3_adc_analysis/adc1_a3_1 [15:0] $end
$var reg 16 R u3_adc_analysis/adc1_a4_1 [15:0] $end
$var reg 16 b u3_adc_analysis/adc1_a1_2 [15:0] $end
$var reg 16 r u3_adc_analysis/adc1_a2_2 [15:0] $end
$var reg 16 $" u3_adc_analysis/adc1_a3_2 [15:0] $end
$var reg 16 4" u3_adc_analysis/adc1_a4_2 [15:0] $end
$var reg 16 D" u3_adc_analysis/adc2_a1_1 [15:0] $end
$var reg 16 T" u3_adc_analysis/adc2_a2_1 [15:0] $end
$var reg 16 d" u3_adc_analysis/adc2_a3_1 [15:0] $end
$var reg 16 t" u3_adc_analysis/adc2_a4_1 [15:0] $end
$var reg 16 &# u3_adc_analysis/adc2_a1_2 [15:0] $end
$var reg 16 6# u3_adc_analysis/adc2_a2_2 [15:0] $end
$var reg 16 F# u3_adc_analysis/adc2_a3_2 [15:0] $end
$var reg 16 V# u3_adc_analysis/adc2_a4_2 [15:0] $end
$var reg 16 f# u3_adc_analysis/adc3_a1_1 [15:0] $end
$var reg 16 v# u3_adc_analysis/adc3_a2_1 [15:0] $end
$var reg 16 ($ u3_adc_analysis/adc3_a3_1 [15:0] $end
$var reg 16 8$ u3_adc_analysis/adc3_a4_1 [15:0] $end
$var reg 16 H$ u3_adc_analysis/adc3_a1_2 [15:0] $end
$var reg 16 X$ u3_adc_analysis/adc3_a2_2 [15:0] $end
$var reg 16 h$ u3_adc_analysis/adc3_a3_2 [15:0] $end
$var reg 16 x$ u3_adc_analysis/adc3_a4_2 [15:0] $end
$var reg 16 *% u3_adc_analysis/adc4_a1_1 [15:0] $end
$var reg 16 :% u3_adc_analysis/adc4_a2_1 [15:0] $end
$var reg 16 J% u3_adc_analysis/adc4_a3_1 [15:0] $end
$var reg 16 Z% u3_adc_analysis/adc4_a4_1 [15:0] $end
$var reg 16 j% u3_adc_analysis/adc4_a1_2 [15:0] $end
$var reg 16 z% u3_adc_analysis/adc4_a2_2 [15:0] $end
$var reg 16 ,& u3_adc_analysis/adc4_a3_2 [15:0] $end
$var reg 16 <& u3_adc_analysis/adc4_a4_2 [15:0] $end
$var reg 1 L& u3_adc_analysis/time_4s_1 $end
$var reg 1 M& _TRIGGER $end
$var reg 1 N& _WINDOW $end
$var reg 1 O& _GAP $end
$upscope $end
$enddefinitions $end
#0
$dumpvars
b1001001011010 "
b100010001010 2
b1110111000001010 B
b1111011000101110 R
b1000101001010 b
b101010001010 r
b1110111101001010 $"
b1111010000111110 4"
b1000 D"
b1111111111101000 T"
b110 d"
b1010 t"
b1111111111101000 &#
b101000 6#
b1111111111110100 F#
b1010 V#
b100101001110 f#
b1110110111001000 v#
b1111010111001000 ($
b1000101101100 8$
b101110110100 H$
b1110111101011100 X$
b1111001110100110 h$
b111111101000 x$
b1111111111111000 *%
b10100 :%
b1111111111110110 J%
b1100 Z%
b1111111111111000 j%
b1111111111110010 z%
b1000 ,&
b1100 <&
0L&
0M&
1N&
0O&
$end
#1
b111111100100 "
b110011011010 2
b1111000011011110 B
b1111001001001010 R
b111001010110 b
b111010010000 r
b1111001010110100 $"
b1111000010101000 4"
b1111111111011000 T"
b1111111111101000 t"
b1000 6#
b110 F#
b110101101100 f#
b1111000011101100 v#
b1111000110100000 ($
b111000111000 8$
b111101011010 H$
b1111001010111110 X$
b1111000000000000 h$
b110000110100 x$
b111000 *%
b100 :%
b11100 Z%
b1111111111001000 j%
#2
b110001111110 "
b1000000110000 2
b1111010010111110 B
b1110111100010010 R
b101000101010 b
b1000101110000 r
b1111011010101000 $"
b1110110111100000 4"
b11000 D"
b1000 T"
b10110 d"
b1010 t"
b1000 &#
b1000011000000 f#
b1111010011000100 v#
b1110111010001100 ($
b100111101100 8$
b1001000100000 H$
b1111011101000000 X$
b1110110100110000 h$
b11101001010 x$
b1111111111101000 *%
b1111111111111000 j%
b10100 z%
b1111111111111010 <&
#3
b100000101000 "
b1001001110100 2
b1111100100100000 B
b1110110100101010 R
b10110101010 b
b1001100110010 r
b1111101101101110 $"
b1110110010001100 4"
b1111111111111000 D"
b1111111111111000 T"
b1111111111110100 d"
b11000 &#
b1111111111101000 6#
b1001100000000 f#
b1111100101100010 v#
b1110110001100000 ($
b10100101000 8$
b1001111001000 H$
b1111110000001100 X$
b1110101111110000 h$
b1001111110 x$
b1111111111001000 *%
b10100 :%
b1111111111100110 J%
b1000 j%
b100 z%
b1111111111110110 ,&
#4
b1101010100 "
b1001111000100 2
b1111111000000010 B
b1110110000101100 R
b10101110 b
b1001111000100 r
b1111100 $"
b1110110001001100 4"
b1000 D"
b1111111111100100 d"
b1111111111111100 t"
b1000 &#
b1111111111111000 6#
b10110 F#
b1010001011000 f#
b1111111011000100 v#
b1110101110010000 ($
b1111111111101010 8$
b1010000111000 H$
b101101010 X$
b1110101111000000 h$
b1111110100111100 x$
b1111111111101000 *%
b1111111111110110 J%
b1111111111111010 Z%
b1111111111101000 j%
b1111111111110010 z%
b1111111111100110 ,&
#5
b1111111001010000 "
b1011010010 B
b1110110001111100 R
b1111101111000110 b
b1001100010010 r
b10101111010 $"
b1110110101000000 4"
b11000 T"
b110 d"
b1010 t"
b1000 6#
b1111111111110100 F#
b11010 V#
b1010000001000 f#
b1111100110 v#
b1110110000110000 ($
b1111101010111010 8$
b1001110101000 H$
b11001101100 X$
b1110110011000000 h$
b1111100001010110 x$
b1000 *%
b1000 J%
b1100 Z%
b1111111111011000 j%
b100 z%
b1000 ,&
#6
b1111100101000110 "
b1001000101110 2
b11111001010 B
b1110111000110100 R
b1111011100000010 b
b1000100100010 r
b101000000010 $"
b1110111110010000 4"
b1111111111111000 D"
b1000 T"
b1111111111111100 t"
b11000 &#
b110 F#
b1111111111111100 V#
b1001001110000 f#
b100011001010 v#
b1110110111001000 ($
b1111010110111000 8$
b1000110010000 H$
b101100000000 X$
b1110111100111100 h$
b1111001111011100 x$
b1111111111011000 *%
b1000110 :%
b1111111111010100 J%
b1111111111111010 Z%
b1111111111001000 j%
b1111111111100110 ,&
#7
b1111010011101010 "
b111111100010 2
b110000011000 B
b1111000011111000 R
b1111001011010010 b
b111001000000 r
b111000010000 $"
b1111001011001000 4"
b1111111111101000 D"
b1111111111111000 T"
b100110 d"
b11010 t"
b1000 &#
b1010 V#
b1000000011010 f#
b110100100110 v#
b1111000011000000 ($
b1111000111001000 8$
b111000111100 H$
b111100110100 X$
b1111001001110110 h$
b1110111111010000 x$
b1111111111001000 *%
b1111111111110010 :%
b11000 J%
b1111111111111000 j%
b1111111111110010 z%
b1111111111010100 ,&
b11100 <&
#8
b1111000011111100 "
b110001011000 2
b111111000100 B
b1111010010011110 R
b1110111101111110 b
b101001001100 r
b1000101011010 $"
b1111011010111110 4"
b1000 D"
b1000 T"
b1111111111110100 d"
b1111111111011000 t"
b11000 &#
b1111111111111000 6#
b1111111111100100 F#
b1111111111111100 V#
b110010000100 f#
b1000011110000 v#
b1111010010000010 ($
b1110111000111100 8$
b101001001110 H$
b1001001111110 X$
b1111011010101000 h$
b1110110100010010 x$
b1111111111011000 *%
b10100 :%
b1111111111110110 J%
b1111111111011000 j%
b100 z%
b101010 ,&
b1111111111111010 <&
#9
b1110111000111110 "
b100000011000 2
b1001000101010 B
b1111100100010100 R
b1110110100100110 b
b10111110100 r
b1001100001010 $"
b1111101101010100 4"
b1111111111111000 T"
b1111111111100100 d"
b1010 t"
b1000 &#
b110 F#
b1111111111101000 V#
b11111111110 f#
b1001101111100 v#
b1111100011101110 ($
b1110110000011100 8$
b10110000000 H$
b1010001100110 X$
b1111101110010000 h$
b1110101101111000 x$
b1000 *%
b1100 Z%
b11000 j%
b1000 ,&
b1100 <&
#10
b1110110001110110 "
b1101110100 2
b1001111000010 B
b1111110111100100 R
b1110101111110010 b
b11110100 r
b1001111110010 $"
b1101010 4"
b1111111111111000 D"
b11000 &#
b1111111111111100 V#
b1100101000 f#
b1010011001000 v#
b1111111000110000 ($
b1110101100001100 8$
b10011010 H$
b1010011101010 X$
b10010100 h$
b1110101101000110 x$
b1111111111011000 *%
b100 :%
b1000 J%
b11100 Z%
b1111111111011000 j%
b1111111111101000 z%
b1111111111110110 ,&
b1111111111111010 <&
#11
b1110110000000010 "
b1111111010011000 2
b1001111110010 B
b1011001010 R
b1110110000100010 b
b1111101111111000 r
b1001110100000 $"
b10100111110 4"
b1000 T"
b1111111111110100 d"
b1111111111101000 t"
b1111111111101000 &#
b1111111111101000 6#
b1111110111110110 f#
b1010010101000 v#
b1100101100 ($
b1110101110011000 8$
b1111101110001110 H$
b1010001000110 X$
b10110101010 h$
b1110110000101100 x$
b1111111111001000 *%
b1111111111110110 J%
b1111111111111010 Z%
b1111111111101000 j%
b1111111111010110 z%
b1111111111101010 <&
#12
b1110110011000110 "
b1111100110011010 2
b1001011101010 B
b11110101000 R
b1110110110001110 b
b1111011101111100 r
b1001000001010 $"
b100111000100 4"
b1111111111101000 D"
b1111111111111000 T"
b1111111111111100 t"
b11000 &#
b1111111111111000 6#
b1111111111110100 F#
b1010 V#
b1111100011101100 f#
b1001101101100 v#
b100000000000 ($
b1110110100110010 8$
b1111011010011000 H$
b1001001001110 X$
b101001001110 h$
b1110111001001110 x$
b1111111111011000 *%
b10100 :%
b1111111111101010 Z%
b11000 j%
b1111111111101000 z%
b1111111111100110 ,&
#13
b1110111010011110 "
b1111010101101000 2
b1000010010100 B
b101111111100 R
b1111000000011100 b
b1111001101000110 r
b111100000000 $"
b110111101010 4"
b1000 D"
b11000 T"
b10110 d"
b11010 t"
b1000 &#
b11000 6#
b110 F#
b1111010001110000 f#
b1000011100000 v#
b110001011000 ($
b1110111111110010 8$
b1111001001101000 H$
b111011111100 X$
b111001010000 h$
b1111000111101000 x$
b1111111110111000 *%
b1111111111110010 :%
b1111111111010100 J%
b1111111111111010 Z%
b1000 j%
b100 z%
b1111111111010100 ,&
#14
b1111000111010010 "
b1111000101110100 2
b110101110000 B
b111110000010 R
b1111001110101010 b
b1110111111100000 r
b101101111000 $"
b1000011011110 4"
b1111111111101000 D"
b1111111111111000 T"
b1111111111110100 d"
b1111111111111100 t"
b1111111111101000 &#
b1111111111101000 6#
b1111111111100100 F#
b1111000010101000 f#
b110100010100 v#
b1000000010110 ($
b1111001111101100 8$
b1110111100100010 H$
b101011100000 X$
b1000101110100 h$
b1111011000011110 x$
b1111111111011000 *%
b11000 J%
b1111111111111000 j%
b1111111111100110 ,&
#15
b1111010110110010 "
b1110111010100010 2
b100101000000 B
b1001000000000 R
b1111011111100000 b
b1110110110001100 r
b11011110010 $"
b1001011111110 4"
b11000 D"
b1000 T"
b110 d"
b1010 t"
b1000 &#
b1000 6#
b10110 F#
b1110110111110100 f#
b100010000100 v#
b1001010011010 ($
b1111100001010110 8$
b1110110011100100 H$
b11001001100 X$
b1001101101010 h$
b1111101011011010 x$
b11000 *%
b100 :%
b1000 J%
b1111111111101010 Z%
b1111111111110010 z%
b1111111111110110 ,&
b1111111111111010 <&
#16
b1111101000110110 "
b1110110011011010 2
b10010001010 B
b1001101110110 R
b1111110010100110 b
b1110110000111010 r
b1000000010 $"
b1001111010110 4"
b1111111111111000 D"
b11010 t"
b1111111111101000 &#
b110 F#
b1111111111101100 V#
b1110110000101100 f#
b1110010000 v#
b1010000010110 ($
b1111110101011100 8$
b1110101111001100 H$
b100101010 X$
b1010001010110 h$
b11100 x$
b1111111111101000 *%
b1111111111101000 :%
b11000 J%
b1100 Z%
b1111111111011000 j%
b100100 z%
b1111111111011010 <&
#17
b1111111100100000 "
b1110110000011010 2
b1111111110011010 B
b1001111000110 R
b110110100 b
b1111110100011010 $"
b1001101110110 4"
b1000 D"
b1010 t"
b1111111111111000 &#
b1111111111100100 F#
b101000 V#
b1110101110111100 f#
b1111111010100100 v#
b1010001000110 ($
b1010110000 8$
b1110110000001100 H$
b1111101110111000 X$
b1001111010110 h$
b10100111000 x$
b1111111111011000 *%
b100100 :%
b1111111111110110 J%
b1111111111101000 j%
b100 z%
b1111111111010100 ,&
b1100 <&
#18
b10001000100 "
b1110110010111000 2
b1111101010100110 B
b1001011010000 R
b11010101010 b
b1110110111001100 r
b1111100001000000 $"
b1000111000010 4"
b1111111111111000 T"
b10110 d"
b1111111111111100 t"
b1111111111101000 6#
b1111111111110100 F#
b1010 V#
b1110110001111100 f#
b1111100101100010 v#
b1001011111010 ($
b11110110110 8$
b1110110101000100 H$
b1111011011111110 X$
b1001000001010 h$
b101000101110 x$
b1111111111111000 *%
b1111111111110010 :%
b1111111111100110 J%
b1111111111011000 j%
b10100 z%
b1000 ,&
b11100 <&
#19
b100011111110 "
b1110111011100010 2
b1111011000000110 B
b1000010101110 R
b101100001010 b
b1111000000001110 r
b1111001111101010 $"
b111100011000 4"
b1000 T"
b110 d"
b1010 t"
b1000 6#
b110 F#
b1111111111111100 V#
b1110111010010100 f#
b1111010010001110 v#
b1000011010100 ($
b110001111110 8$
b1110111111100010 H$
b1111001010001100 X$
b111100110000 h$
b111000111000 x$
b1111111111011000 *%
b100 :%
b1111111111110110 J%
b1111111111111010 Z%
b1111111111101000 j%
b1111111111101000 z%
b1111111111000100 ,&
b1100 <&
#20
b110100011110 "
b1111000110100100 2
b1111000111110100 B
b110101001010 R
b111011100110 b
b1111001110000100 r
b1111000001011110 $"
b101101011100 4"
b1111111111101000 D"
b1111111111101000 T"
b100110 d"
b101000 t"
b1111111111011000 6#
b1111000111001000 f#
b1111000010101010 v#
b110101101000 ($
b1000000101010 8$
b1111001110100000 H$
b1110111011101010 X$
b101110010000 h$
b1000110101100 x$
b1000 *%
b1100 Z%
b1111111111110110 ,&
b1111111111111010 <&
#21
b1000001100100 "
b1111010110001000 2
b1110111011001010 B
b100101000100 R
b1000110111010 b
b1111011111001010 r
b1110110110001010 $"
b11100101000 4"
b1111111111111000 D"
b1111111111111000 T"
b110 d"
b1111111111111100 t"
b1111111111101000 6#
b1111111111110100 F#
b1010 V#
b1111010110001000 f#
b1110110110110110 v#
b100100101000 ($
b1001011111000 8$
b1111011111110110 H$
b1110110010110000 X$
b11011101010 h$
b1001111011110 x$
b1111111111101000 *%
b10100 :%
b1111111111100110 J%
b1111111111001000 j%
b1111111111110010 z%
b1000 ,&
b11100 <&
#22
b1001010111010 "
b1111101000001000 2
b1110110010101010 B
b10010001110 R
b1001101110010 b
b1111110000111000 r
b1110110000111000 $"
b1000011100 4"
b1111111111101000 D"
b11000 T"
b1000 &#
b1000 6#
b110 F#
b1111101001001000 f#
b1110101110101100 v#
b10001110100 ($
b1010001111010 8$
b1111110011010110 H$
b1110101100101000 X$
b1000011100 h$
b1010010101100 x$
b101000 *%
b100 :%
b1111111111101000 j%
b1111111111101000 z%
b1111111111100110 ,&
b1111111111111010 <&
#23
b1001111110010 "
b1111111100010110 2
b1110101111010000 B
b1111111110011100 R
b1010000010010 b
b101100100 r
b1110101111111000 $"
b1111110101010010 4"
b1000 D"
b1111111111111000 T"
b1111111111110100 d"
b1010 t"
b1111111111110100 F#
b11010 V#
b1111111110000100 f#
b1110101100011000 v#
b1111111110000110 ($
b1010011001100 8$
b111011010 H$
b1110101101001010 X$
b1111110011011000 h$
b1010010001010 x$
b1111111111011000 *%
b10100 :%
b1111111111101010 Z%
b1111111111011000 j%
b100 z%
b1100 <&
#24
b1001111000010 "
b1110110010 2
b1110110001001000 B
b1111101010110100 R
b1001101100010 b
b11001001100 r
b1110110011101010 $"
b1111100001110100 4"
b1111111111111000 D"
b110 d"
b1111111111111100 t"
b11000 6#
b110 F#
b1111111111111100 V#
b10010010000 f#
b1110101111001110 v#
b1111101001100010 ($
b1001111011110 8$
b11011111110 H$
b1110110011010000 X$
b1111011111011110 h$
b1001011011000 x$
b1111111111001000 *%
b100 :%
b1000 J%
b1111111111111010 Z%
b1111111111001000 j%
b1000 ,&
b1111111111111010 <&
#25
b1001001101010 "
b100010011010 2
b1110111000001010 B
b1111011000101110 R
b1000100111010 b
b101010101010 r
b1110111100001010 $"
b1111010000001110 4"
b1000 D"
b1111111111100100 d"
b1111111111111000 &#
b1111111111101000 6#
b10110 F#
b100101011110 f#
b1110110111101000 v#
b1111010110011000 ($
b1000110011100 8$
b101101110100 H$
b1110111101001100 X$
b1111001101110110 h$
b111111111000 x$
b1111111111011000 *%
b10100 :%
b1111111111101010 Z%
b1111111110111000 j%
b1111111111101010 <&
#26
b111111100100 "
b110010111010 2
b1111000100001110 B
b1111001001001010 R
b111001000110 b
b111010010000 r
b1111001011000100 $"
b1111000010111000 4"
b11000 D"
b10110 d"
b1111111111011000 t"
b1000 &#
b1000 6#
b1111111111110100 F#
b1010 V#
b110101111100 f#
b1111000011011010 v#
b1111000110010000 ($
b111001001010 8$
b111101001010 H$
b1111001011001110 X$
b1111000000000000 h$
b110000100100 x$
b11000 J%
b1111111111111010 Z%
b1111111111011000 j%
b1100 <&
#27
b110001101110 "
b1000000110000 2
b1111010010011010 B
b1110111100010010 R
b101001001010 b
b1000101110000 r
b1111011011001000 $"
b1110111000010100 4"
b101000 D"
b1111111111110100 d"
b1010 t"
b110 F#
b1111111111111100 V#
b1000011110000 f#
b1111010011100110 v#
b1110111001001000 ($
b101000001100 8$
b1001000100000 H$
b1111011101000000 X$
b1110110101101000 h$
b11101111010 x$
b1111111111001000 *%
b1111111111010110 :%
b1111111111100110 J%
b1100 Z%
b1111111111111010 <&
#28
b100000001000 "
b1001001110100 2
b1111100100000000 B
b1110110011111100 R
b10111001010 b
b1001101010110 r
b1111101101101110 $"
b1110110001111100 4"
b1111111111101000 D"
b1111111111111100 t"
b1111111111111000 &#
b1111111111101000 6#
b1111111111110100 F#
b1010 V#
b1001100000000 f#
b1111100101110100 v#
b1110110010000000 ($
b10100101000 8$
b1001111011000 H$
b1111101111111010 X$
b1110101111100000 h$
b1001101110 x$
b1111111111101000 *%
b100 :%
b1111111111110110 J%
b1111111111111010 Z%
b1111111111111000 j%
b1100 <&
#29
b1100110100 "
b1001111000100 2
b1111111000010010 B
b1110110000111100 R
b11001110 b
b1001111010100 r
b1011100 $"
b1110110001001100 4"
b1000 D"
b1111111111101000 T"
b1111111111111000 6#
b110 F#
b1010001011000 f#
b1111111010000010 v#
b1110101110010000 ($
b1111111111101010 8$
b1010001011000 H$
b101001010 X$
b1110101111000000 h$
b1111110101011100 x$
b10100 :%
b1100 Z%
b1111111111101000 j%
b1111111111010110 z%
b1111111111110110 ,&
#30
b1111111001010000 "
b1001110110100 2
b1011100010 B
b1110110010001100 R
b1111101110110110 b
b1001100100010 r
b10101101010 $"
b1110110101101010 4"
b1000 T"
b10110 d"
b1010 t"
b1000 &#
b1000 6#
b1111111111101000 V#
b1010000111000 f#
b1111110010 v#
b1110110000100000 ($
b1111101011001010 8$
b1001110001000 H$
b11001101100 X$
b1110110010110000 h$
b1111100001000110 x$
b1111111111001000 *%
b1000 J%
b1111111111101010 Z%
b1111111111111000 j%
b10100 z%
b1111111111100110 ,&
#31
b1111100101000110 "
b1001000101110 2
b11110111010 B
b1110111001000010 R
b1111011100000010 b
b1000100100010 r
b101000010010 $"
b1110111101110000 4"
b1111111111101000 T"
b1111111111110100 d"
b101000 &#
b1111111111110100 F#
b1010 V#
b1001010000000 f#
b100011001010 v#
b1110110111001000 ($
b1111010111011100 8$
b1000110010000 H$
b101100100010 X$
b1110111100101100 h$
b1111001111001100 x$
b1111111111011000 *%
b1111111111101000 :%
b1111111111110110 J%
b1111111111111010 Z%
b1111111111001000 j%
b100 z%
b1111111111101010 <&
#32
b1111010011011010 "
b111111000010 2
b101111101000 B
b1111000011001000 R
b1111001011100010 b
b111001000000 r
b110111101000 $"
b1111001010011010 4"
b1111111111111000 D"
b10110 d"
b1111111111111100 t"
b1111111111101000 &#
b1111111111111000 6#
b110 F#
b1000000011010 f#
b110101000110 v#
b1111000011000000 ($
b1111000110110010 8$
b111000111100 H$
b111101100110 X$
b1111001010000110 h$
b1110111111100010 x$
b1111111111100110 J%
b1111111111101010 Z%
b1000 j%
b100100 z%
b1100 <&
#33
b1111000100011100 "
b110001001000 2
b111111000100 B
b1111010010011110 R
b1110111101111110 b
b101001001100 r
b1000100110100 $"
b1111011010101110 4"
b110 d"
b1010 t"
b1000 &#
b1000 6#
b1111111111110100 F#
b1111111111111100 V#
b110010000100 f#
b1000011110000 v#
b1111010010100010 ($
b1110111001011110 8$
b101001001110 H$
b1001001011110 X$
b1111011011001000 h$
b1110110100000010 x$
b1111111111111000 *%
b1111111111110010 :%
b1000 J%
b11100 Z%
b1111111111001000 j%
b1111111111110010 z%
b1111111111110110 ,&
b1111111111111010 <&
#34
b1110111000111110 "
b100000101000 2
b1001001101010 B
b1111100011110100 R
b1110110100100110 b
b10111100100 r
b1001100111010 $"
b1111101101010100 4"
b1111111111111000 T"
b1111111111110100 d"
b1111111111111000 &#
b1111111111101000 6#
b1111111111011000 V#
b100000011110 f#
b1001101101100 v#
b1111100011101110 ($
b1110110000011100 8$
b10110000000 H$
b1010001010110 X$
b1111101110010000 h$
b1110101110001000 x$
b1111111111101000 *%
b10100 :%
b1111111111100110 J%
b11000 j%
b100 z%
b1111111111100110 ,&
b11100 <&
#35
b1110110001100110 "
b1101110100 2
b1001111000010 B
b1111110111010100 R
b1110110000100010 b
b11110100 r
b1010000000010 $"
b1101010 4"
b11000 &#
b11000 6#
b110 F#
b1111111111111100 V#
b1100001000 f#
b1010011001000 v#
b1111111000100000 ($
b1110101101000110 8$
b10011010 H$
b1010011111010 X$
b10000100 h$
b1110101100110110 x$
b100 :%
b1111111111011000 j%
b10100 z%
b1111111111010100 ,&
b1111111111111010 <&
#36
b1110101111100010 "
b1111111010011000 2
b1001111100010 B
b1011001010 R
b1111101111111000 r
b1001110011010 $"
b10101001110 4"
b1111111111101000 D"
b1000 T"
b11010 t"
b1111111111111000 &#
b1000 6#
b1111111111101000 V#
b1111110111110110 f#
b1010010101000 v#
b1100111100 ($
b1110101110001000 8$
b1111101110001110 H$
b1010000100000 X$
b10110101010 h$
b1110110000011100 x$
b1111111111111000 *%
b10100 :%
b1000 J%
b1111111111111010 Z%
b1111111111001000 j%
b100 z%
b1111111111110110 ,&
b11100 <&
#37
b1110110011000110 "
b1111100110101010 2
b1001100001010 B
b11110011000 R
b1110110110001110 b
b1111011101111100 r
b1001000001010 $"
b100110110100 4"
b1000 D"
b11000 T"
b10110 d"
b1010 t"
b1111111111101000 6#
b1111111111110100 F#
b1111111111111100 V#
b1111100100011000 f#
b1001101101100 v#
b100000000000 ($
b1110110100010010 8$
b1111011010011000 H$
b1001001011110 X$
b101000101110 h$
b1110111010001110 x$
b1111111111101000 *%
b1111111111101000 :%
b101010 J%
b1100 Z%
b1111111110111000 j%
b10100 z%
b1111111111011010 <&
#38
b1110111010111110 "
b1111010101011000 2
b1000010110100 B
b101111011100 R
b1111000000101100 b
b1111001101010110 r
b111100100000 $"
b110111101010 4"
b1111111111111000 D"
b1000 T"
b1111111111110100 d"
b1000 6#
b110 F#
b1111010010000000 f#
b1000100010000 v#
b110010011000 ($
b1110111111110010 8$
b1111001001111000 H$
b111101000100 X$
b111001000000 h$
b1111000111011000 x$
b1111111111100110 J%
b101100 Z%
b1111111111011000 j%
b100 z%
b1000 ,&
b1100 <&
#39
b1111000111000010 "
b1111000101110100 2
b110101100000 B
b111110000010 R
b1111001110011010 b
b1110111111100000 r
b101101010010 $"
b1000011001110 4"
b1111111111111000 T"
b1111000010111000 f#
b110011100000 v#
b1000000010110 ($
b1111001111011100 8$
b1110111101000010 H$
b101100000000 X$
b1000110000100 h$
b1111010111111110 x$
b1111111111001000 *%
b100 :%
b1111111111110110 J%
b1100 Z%
b1000 j%
b1111111111110110 ,&
b1111111111111010 <&
#40
b1111010110100010 "
b1110111010100010 2
b100101100000 B
b1001000000000 R
b1111011111110000 b
b1110110110001100 r
b11011110010 $"
b1001011101110 4"
b1000 T"
b1111111111100100 d"
b1111111111111100 t"
b1111111111111000 6#
b1111111111110100 F#
b1110110111000100 f#
b100010010110 v#
b1001010111010 ($
b1111100001010110 8$
b1110110011010100 H$
b11000111010 X$
b1001101011010 h$
b1111101011011010 x$
b1111111110111000 *%
b10100 :%
b1111111111101000 j%
b1111111111100110 ,&
b1111111111101010 <&
#41
b1111101001010110 "
b1110110010101000 2
b10010101010 B
b1001110010110 R
b1111110010110110 b
b1110110001001010 r
b111110010 $"
b1001110110110 4"
b1111111111111000 T"
b1111111111110100 d"
b1111111111101000 t"
b10110 F#
b1010 V#
b1110110000001100 f#
b1110000000 v#
b1001111110110 ($
b1111110101111110 8$
b1110101110111100 H$
b100011000 X$
b1010001100110 h$
b1111111111101010 x$
b1000 *%
b100100 :%
b11000 J%
b1111111111011000 j%
b10100 z%
b11000 ,&
b1111111111111010 <&
#42
b1111111101010000 "
b1110110000011010 2
b1111111101111010 B
b1001111010110 R
b111000100 b
b1110110001011010 r
b1111110100101010 $"
b1001110000110 4"
b11000 D"
b1111111111011000 T"
b110 d"
b1111111111111100 t"
b1000 6#
b1111111111110100 F#
b11010 V#
b1110101110111100 f#
b1111111001011000 v#
b1010001010110 ($
b1010100000 8$
b1110101111011100 H$
b1111101110101000 X$
b1001111100110 h$
b10101001000 x$
b1111111111110010 :%
b1111111111010110 z%
b1111111111100110 ,&
#43
b10001010100 "
b1110110011111010 2
b1111101010000110 B
b1001011010000 R
b11010101010 b
b1110110110101100 r
b1111100000110000 $"
b1000111100000 4"
b1111111111111000 D"
b1111111111111000 T"
b1111111111110100 d"
b1010 t"
b1111111111101000 &#
b110 F#
b1010 V#
b1110110001111100 f#
b1111100101100010 v#
b1001100001010 ($
b11111000100 8$
b1110110101000100 H$
b1111011011111110 X$
b1001000001010 h$
b101000001100 x$
b100 :%
b1111111111110110 J%
b11100 Z%
b11000 j%
b1111111111101000 z%
#44
b100100000100 "
b1110111011000010 2
b1111010111110110 B
b1000010100000 R
b101100101010 b
b1111000000011110 r
b1111001111101010 $"
b111100101000 4"
b1000 D"
b11010 t"
b1111111111111000 &#
b1111111111111000 6#
b1111111111110100 F#
b1110111010010100 f#
b1111010010110100 v#
b1000011000100 ($
b110001101110 8$
b1110111111110010 H$
b1111001001111100 X$
b111101000000 h$
b111001001010 x$
b1111111111111000 *%
b1111111111111010 Z%
b1111111111101000 j%
#45
b110100101110 "
b1111000110110100 2
b1111000111110100 B
b110101101100 R
b111011100110 b
b1111001111000100 r
b1111000001111110 $"
b101101001100 4"
b11000 D"
b1111111111100100 d"
b1010 t"
b1000 &#
b11010 V#
b1111000110001000 f#
b1111000010111010 v#
b110101011000 ($
b1000000110100 8$
b1111001101110000 H$
b1110111100101010 X$
b101110010000 h$
b1000101111100 x$
b1111111111101000 *%
b1111111111010110 :%
b1111111111100110 J%
b1111111111111000 j%
b100 z%
#46
b1000001110100 "
b1111010111000110 2
b1110111011001010 B
b100101000100 R
b1000110101010 b
b1111011110111010 r
b1110110111001010 $"
b11100001000 4"
b1111111111111000 D"
b11000 T"
b1111111111110100 d"
b1111111111111100 t"
b1111111111101000 &#
b1000 6#
b110 F#
b1010 V#
b1111010101111000 f#
b1110110110110110 v#
b100101010000 ($
b1001011111000 8$
b1111011111000110 H$
b1110110010011010 X$
b11011111010 h$
b1001111011110 x$
b1000 *%
b1111111111101000 :%
b11000 J%
b1100 Z%
b1111111111011000 j%
b1000 ,&
b1100 <&
#47
b1001010101010 "
b1111100111111000 2
b1110110010101010 B
b10010001110 R
b1001110000010 b
b1111110001101000 r
b1110110001001000 $"
b1000111010 4"
b1111111111111000 T"
b110 d"
b1111111111001010 t"
b1000 &#
b11000 6#
b1111111111110100 F#
b1111111111101000 V#
b1111101001101000 f#
b1110101110001100 v#
b10001110100 ($
b1010001101010 8$
b1111110011010110 H$
b1110101101001010 X$
b1000001100 h$
b1010011101110 x$
b100 :%
b1111111111110110 J%
b11100 Z%
b1111111111111000 j%
b1111111111101000 z%
b11000 ,&
b1111111111111010 <&
#48
b1001111010010 "
b1111111011110110 2
b1110101111010000 B
b1111111111001100 R
b1001111110010 b
b101000100 r
b1110101111101000 $"
b1111110100100010 4"
b1000 D"
b1111111111110100 d"
b1111111111011000 t"
b1111111111111000 &#
b1111111111111000 6#
b11010 V#
b1111111101000100 f#
b1110101100011000 v#
b1111111100110000 ($
b1010011001100 8$
b111001010 H$
b1110101101011010 X$
b1111110011101000 h$
b1010001111010 x$
b1111111111011000 *%
b1111111111010110 :%
b1100 Z%
b10100 z%
b1000 ,&
#49
b1111100010 2
b1110110001101010 B
b1111101011000100 R
b1001101000010 b
b11001101100 r
b1110110011111010 $"
b1111100001010100 4"
b11000 D"
b110 d"
b1111111111101000 t"
b11000 &#
b1111111111101000 6#
b100110 F#
b1111111111111100 V#
b10010010000 f#
b1110101111110110 v#
b1111101001100010 ($
b1001110111110 8$
b11100001110 H$
b1110110011000000 X$
b1111011111001110 h$
b1001011101000 x$
b1111111111001000 *%
b10100 :%
b1111111111111010 Z%
b11000 j%
b100 z%
b1111111111100110 ,&
b1111111111101010 <&
