11_cs_nwe _channel4/project_1/.Xil/Vivado-9484-GL-0301-949/hw_ila_data_2/zip_work/waveform.vcd
$date
        2023-Aug-08 15:13:48
$end
$version
        Vivado v2018.3 (64-bit)
$end
$timescale
        1ps
$end
$scope module dut $end
$var reg 16 " u3_adc_analysis/adc2_a1_1 [15:0] $end
$var reg 16 2 u3_adc_analysis/adc2_a2_1 [15:0] $end
$var reg 16 B u3_adc_analysis/adc2_a3_1 [15:0] $end
$var reg 16 R u3_adc_analysis/adc2_a4_1 [15:0] $end
$var reg 16 b u3_adc_analysis/adc2_a1_2 [15:0] $end
$var reg 16 r u3_adc_analysis/adc2_a2_2 [15:0] $end
$var reg 16 $" u3_adc_analysis/adc2_a3_2 [15:0] $end
$var reg 16 4" u3_adc_analysis/adc2_a4_2 [15:0] $end
$var reg 16 D" u3_adc_analysis/adc2_b1_1 [15:0] $end
$var reg 16 T" u3_adc_analysis/adc2_b2_1 [15:0] $end
$var reg 16 d" u3_adc_analysis/adc2_b3_1 [15:0] $end
$var reg 16 t" u3_adc_analysis/adc2_b4_1 [15:0] $end
$var reg 16 &# u3_adc_analysis/adc2_b1_2 [15:0] $end
$var reg 16 6# u3_adc_analysis/adc2_b2_2 [15:0] $end
$var reg 16 F# u3_adc_analysis/adc2_b3_2 [15:0] $end
$var reg 16 V# u3_adc_analysis/adc2_b4_2 [15:0] $end
$var reg 1 f# u3_adc_analysis/time_4s_2 $end
$var reg 1 g# _TRIGGER $end
$var reg 1 h# _WINDOW $end
$var reg 1 i# _GAP $end
$upscope $end
$enddefinitions $end
#0
$dumpvars
b10101000010100 "
b1111111001010100 2
b1101010111010010 B
b101011010 R
b10101001010000 b
b1111111001010100 r
b1101010111100010 $"
b101001010 4"
b100010 D"
b1100 T"
b10010 d"
b1111111111110100 t"
b10 &#
b1100 6#
b10 F#
b110 V#
0f#
0g#
1h#
0i#
$end
#1
b10101000110000 "
b1111111001100100 2
b1101010111000010 B
b101101010 R
b1111111001000100 r
b1101010111110010 $"
b101101010 4"
b10010 D"
b11100 T"
b100010 d"
b110 t"
b1111111111110010 &#
b1111111111101010 6#
b1111111111110000 F#
#2
b10101001000000 "
b1111111001110100 2
b1101010111100010 B
b101001010 R
b1101010111010010 $"
b10 D"
b1100 T"
b10 d"
b100010 &#
#3
b10101000010000 "
b1111111001010100 2
b1101010111000010 B
b101111010 R
b10101000110000 b
b1111111001010100 r
b1101010111110010 $"
b101011010 4"
b10010 D"
b11100 T"
b1111111111110010 &#
b1111111111111010 6#
b10110 V#
#4
b10101000100000 "
b1111111001000100 2
b1101010111010010 B
b101001010 R
b10101000100100 b
b1111111001100100 r
b1101010111100010 $"
b101001010 4"
b10 D"
b1111111111111010 T"
b10010 d"
b10110 t"
b1111111111100010 &#
b10 F#
#5
b10101000110000 "
b1111111001010100 2
b1101010111110010 B
b101101010 R
b10101000110000 b
b1111111001010100 r
b101111010 4"
b1100 T"
b1111111111100000 d"
b1111111111110100 t"
b10 &#
b1100 6#
b1111111111100000 F#
b1111111111110100 V#
#6
b10101000100100 "
b1111111001000100 2
b1101010111100010 B
b101011010 R
b10101000100100 b
b1111111001100100 r
b101101010 4"
b10010 D"
b1111111111111010 T"
b1111111111110000 d"
b11100 6#
b1111111111110000 F#
#7
b1111111001100100 2
b101101010 R
b1111111001010100 r
b1101010111010010 $"
b101011010 4"
b10 D"
b10010 d"
b10110 t"
b1111111111111010 6#
b1111111111100000 F#
b10110 V#
#8
b10101000100000 "
b1101010111000010 B
b101111010 R
b10101000110100 b
b1111111001000100 r
b1101010111100010 $"
b110001010 4"
b1111111111100000 d"
b1111111111011010 6#
b100110 V#
#9
b10101000110000 "
b1111111001010100 2
b1101010111010010 B
b101101010 R
b10101000110000 b
b101101010 4"
b100100 T"
b10010 d"
b100110 t"
b1111111111100010 &#
b1111111111101010 6#
b10 F#
b1111111111100100 V#
#10
b1111111001100100 2
b1101010111100010 B
b10101000010000 b
b1101010111010010 $"
b100010 D"
b1111111111111010 T"
b10 d"
b110 t"
b10010 &#
b11100 6#
b1111111111110000 F#
b1111111111110100 V#
#11
b10101000100000 "
b1111111001000100 2
b1101010111010010 B
b101011010 R
b10101001000100 b
b1111111001010100 r
b101011010 4"
b1111111111100010 D"
b1100 T"
b10010 d"
b1111111111110010 &#
b1100 6#
b10110 V#
#12
b10101000110000 "
b1111111001010100 2
b1101010111000010 B
b101101010 R
b10101000100000 b
b101101010 4"
b10 D"
b1111111111101010 T"
b10 d"
b10 &#
b1111111111111010 6#
b10 F#
b1111111111110100 V#
#13
b1101010111110010 B
b10101000110000 b
b1111111001110100 r
b1101010111000010 $"
b101111010 4"
b10010 d"
b1100 6#
#14
b1111111001100100 2
b1101010111000010 B
b101111010 R
b1101010111010010 $"
b1111111111111010 T"
b1111111111110000 d"
b1111111111110010 &#
b10010 F#
b110 V#
#15
b10101001100000 "
b1111111001010100 2
b1101010111010010 B
b101101010 R
b101101010 4"
b10010 D"
b1111111111100000 d"
b10110 t"
b10 &#
b1111111111011010 6#
b10110 V#
#16
b10101001000000 "
b1111111001110100 2
b1101010111100010 B
b110001010 R
b1111111001010100 r
b1101011000000010 $"
b100010 D"
b1111111111011010 T"
b1111111111110000 d"
b110 t"
b100010 &#
b1100 6#
b1111111111110000 F#
b110110 V#
#17
b10101000100000 "
b1101010111000010 B
b101001010 R
b1111111001000100 r
b1101010111010010 $"
b101011010 4"
b1111111111110010 D"
b1100 T"
b10 d"
b1111111111111010 6#
b100110 V#
#18
b10101000110000 "
b1111111001010100 2
b1101010111010010 B
b101111010 R
b10101000110100 b
b1111111001010100 r
b1101010110110010 $"
b10 D"
b10010 d"
b1111111111110100 t"
b10 &#
b100010 F#
b1111111111110100 V#
#19
b10101000110100 "
b1111111001000100 2
b101101010 R
b10101000110000 b
b1111111001000100 r
b1101010111110010 $"
b101101010 4"
b1111111111010010 D"
b100100 T"
b100010 d"
b100110 t"
b1111111111110010 &#
b1111111111101010 6#
b1111111111100000 F#
b100110 V#
#20
b10101000110000 "
b1111111001010100 2
b1101010111100010 B
b101011010 R
b1111111000110100 r
b1101010111010010 $"
b110001010 4"
b1111111111110010 D"
b1111111111101010 T"
b10 d"
b1111111111110100 t"
b10 &#
b1100 6#
b10010 F#
b10110 V#
#21
b1111111001100100 r
b1101010111000010 $"
b101101010 4"
b100010 D"
b10110 t"
b1111111111111010 6#
#22
b10101000100100 "
b1111111001100100 2
b1101010111000010 B
b10101000100000 b
b1111111001010100 r
b10010 D"
b1100 T"
b10010 d"
b100110 t"
b1111111111110010 &#
b1111111111101010 6#
b10 F#
#23
b10101001000000 "
b1111111001010100 2
b10101000110000 b
b10 D"
b11100 T"
b10 d"
b10110 t"
b10010 &#
b1111111111111010 6#
b1111111111110000 F#
#24
b1111111001000100 2
b1101010111100010 B
b101101010 R
b10101001010000 b
b1111111001100100 r
b1111111111110010 D"
b1100 T"
b10010 d"
b110 t"
b10 &#
b1111111111101010 6#
b110 V#
#25
b10101001010000 "
b1111111001110100 2
b1101010111010010 B
b10101001000000 b
b1111111001010100 r
b1101010111100010 $"
b101011010 4"
b10 D"
b1111111111111010 T"
b10010 &#
b1111111111111010 6#
b1111111111110100 V#
#26
b10101001000000 "
b1111111001010100 2
b101001010 R
b1111111001110100 r
b1101010111010010 $"
b101101010 4"
b1111111111110000 d"
b10110 t"
b1111111111100010 &#
b1111111111100000 F#
b110110 V#
#27
b10101000100100 "
b1111111001000100 2
b10101000010000 b
b1111111001100100 r
b101111010 4"
b1100 T"
b10 d"
b1111111111110100 t"
b100010 &#
b10010 F#
b100110 V#
#28
b10101000010000 "
b1111111001110100 2
b1101010111100010 B
b101101010 R
b10101000110000 b
b1111111001000100 r
b1101010111100010 $"
b101011010 4"
b110010 D"
b10010 d"
b10110 t"
b1111111111110010 &#
b1111111111101010 6#
b10 F#
b10110 V#
#29
b10101000010100 "
b1111111001010100 2
b101011010 R
b1111111001100100 r
b1101010111000010 $"
b101101010 4"
b10 D"
b1111111111111010 T"
b1111111111110100 t"
b10 &#
b1100 6#
b1111111111110100 V#
#30
b10101000100100 "
b1111111001100100 2
b1101010111000010 B
b101111010 R
b1111111000110100 r
b1101010111110010 $"
b101001010 4"
b1111111111101010 T"
b10 d"
b10110 t"
b1111111111111010 6#
b1111111111110000 F#
#31
b10101001000000 "
b1101010111100010 B
b110001010 R
b10101000110100 b
b1111111001100100 r
b101101010 4"
b1100 T"
b1111111111110000 d"
b1111111111100100 t"
b1111111111110010 &#
b11100 6#
b1111111111100100 V#
#32
b10101000100100 "
b1111111001010100 2
b1101010111000010 B
b101001010 R
b10101000110000 b
b1111111000110100 r
b1101010111010010 $"
b1111111111110010 D"
b1111111111111010 T"
b10010 d"
b10010 &#
b1111111111101010 6#
b10 F#
b110 V#
#33
b1111111001000100 2
b1101010111010010 B
b101101010 R
b1111111001010100 r
b100010 D"
b110 t"
b10 &#
b1100 6#
b1111111111100000 F#
b10110 V#
#34
b10101001000100 "
b1111111001010100 2
b1101010110110010 B
b10101000100000 b
b1111111001000100 r
b1101011000000010 $"
b1111111111110010 D"
b1111111111110000 d"
b1111111111100100 t"
b1111111111111010 6#
b1111111111110000 F#
b110 V#
#35
b10101000010000 "
b1111111001110100 2
b1101010111100010 B
b110001010 R
b10101000010000 b
b1101010111100010 $"
b101001010 4"
b10010 D"
b1111111111101010 T"
b10 d"
b10 F#
#36
b10101000110000 "
b1111111001010100 2
b1101010111000010 B
b101101010 R
b10101000100100 b
b1111111001100100 r
b101101010 4"
b10 D"
b1111111111111010 T"
b1111111111110000 d"
b10110 t"
b10010 &#
b1100 6#
b1111111111110000 F#
b10110 V#
#37
b10101001000000 "
b1111111001000100 2
b1101010110110010 $"
b1111111111110010 D"
b1111111111101010 T"
b10010 d"
b1111111111100100 t"
b10 &#
b1111111111111010 6#
#38
b10101000110000 "
b1101010111100010 B
b101011010 R
b1111111001110100 r
b1101010111110010 $"
b101111010 4"
b1111111111111010 T"
b1111111111100000 d"
b110 t"
b10010 &#
b10 F#
#39
b10101000100100 "
b1111111001100100 2
b1101010111010010 B
b101001010 R
b10101001010000 b
b1111111001100100 r
b1101010111100010 $"
b10010 D"
b1111111111010010 &#
b1111111111011010 6#
b1111111111110000 F#
#40
b1101010111110010 B
b10101000100000 b
b1111111001000100 r
b1101010110110010 $"
b10 D"
b1111111111101010 T"
b1111111111110000 d"
b10110 t"
b1111111111110010 &#
b1100 6#
b10010 F#
#41
b10101000110000 "
b1111111001000100 2
b101101010 R
b1101010111100010 $"
b101101010 4"
b1111111111111010 T"
b1111111111110100 t"
b10010 &#
b1111111111111010 6#
b1111111111100000 F#
#42
b1111111001010100 2
b1101010111010010 B
b101011010 R
b10101001000100 b
b1111111001110100 r
b1101010111010010 $"
b101011010 4"
b110 t"
b10 &#
b110100 6#
b1111111111010000 F#
#43
b10101001000000 "
b1111111001100100 2
b110001010 R
b10101001000000 b
b1111111001010100 r
b1101010111100010 $"
b101111010 4"
b10010 d"
b10110 t"
b1111111111110010 &#
b1100 6#
b10 F#
b1111111111110100 V#
#44
b101101010 R
b10101000100100 b
b1111111001100100 r
b1101010111110010 $"
b101101010 4"
b1111111111110000 d"
b10 &#
b1111111111101010 6#
b10010 F#
#45
b10101000100100 "
b1101010111100010 B
b101111010 R
b10101000110000 b
b1111111001000100 r
b1101010111100010 $"
b1111111111101010 T"
b1111111111110100 t"
b1111111111110010 &#
b1111111111111010 6#
b10110 V#
#46
b1101010111010010 B
b101101010 R
b1111111000110100 r
b101011010 4"
b1111111111100010 D"
b1100 T"
b1100 6#
b1111111111110100 V#
#47
b10101000110000 "
b1111111001010100 2
b1101010111100010 B
b1111111001110100 r
b1101010111000010 $"
b101101010 4"
b100010 D"
b1111111111101010 6#
b1111111111110000 F#
b110 V#
#48
b10101000100100 "
b1111111001000100 2
b1101010111000010 B
b101111010 R
b10101001000000 b
b1111111001000100 r
b1101010111100010 $"
b110001010 4"
b1111111111110010 D"
b1111111111100000 d"
b10110 t"
b10 &#
b1100 6#
b10 F#
#49
b10101000010100 "
b1111111001100100 2
b101011010 R
b10101000100100 b
b1111111001010100 r
b1101010111110010 $"
b101101010 4"
b10 D"
b10 d"
b1111111111110100 t"
b10010 &#
b1111111111110000 F#
b1111111111110100 V#
#50
b10101000110000 "
b1101010111110010 B
b101101010 R
b10101000110000 b
b1111111001100100 r
b1101010111010010 $"
b10010 D"
b1111111111111010 T"
b1111111111110000 d"
b10110 t"
b10 &#
b10010 F#
#51
b10101000010000 "
b1111111001000100 2
b10101000110100 b
b10 d"
b1111111111101010 6#
b10 F#
b110 V#
#52
b10101001000100 "
b1111111000110100 2
b101111010 R
b10101000110000 b
b1111111001010100 r
b1101010111100010 $"
b1111111111110010 D"
b1111111111001010 T"
b1111111111110000 d"
b100010 F#
b1111111111110100 V#
#53
b10101000100100 "
b1111111001010100 2
b1101010111010010 B
b110001010 R
b1111111001000100 r
b1101010111010010 $"
b1100 T"
b10010 d"
b110 t"
b1111111111110010 &#
b11100 6#
b10010 F#
b110 V#
#54
b10101001000000 "
b1111111001100100 2
b1101010111100010 B
b101101010 R
b10101001000000 b
b1101010111100010 $"
b101111010 4"
b1111111111100010 D"
b1111111111111010 T"
b10 d"
b1111111111110100 t"
b1111111111101010 6#
b1111111111110000 F#
#55
b10101000100100 "
b10101000100000 b
b101101010 4"
b10010 D"
b1100 T"
b100010 d"
b110 t"
b10 &#
b1111111111111010 6#
#56
b10101000110000 "
b1111111001010100 2
b1101010111110010 B
b110101010 R
b10101001000100 b
b1101010111010010 $"
b110001010 4"
b1111111111110010 D"
b10 d"
b10110 t"
b10110 V#
#57
b1111111000110100 2
b1101010111100010 B
b101001010 R
b10101000100100 b
b1111111010000100 r
b1101010111000010 $"
b101111010 4"
b10010 D"
b10010 d"
b110 t"
b10 F#
#58
b1111111001000100 2
b1101010111010010 B
b100111010 R
b10101000100000 b
b1111111001000100 r
b1101011000000010 $"
b10 D"
b1111111111111010 T"
b10 d"
b100010 F#
b1111111111110100 V#
#59
b101101010 R
b10101000110100 b
b1111111001110100 r
b11100 T"
b1111111111110000 d"
b10110 t"
b1111111111110000 F#
b10110 V#
#60
b10101001010000 "
b1101010110110010 B
b110001010 R
b10101001000000 b
b1111111001100100 r
b1101010111000010 $"
b101101010 4"
b10010 D"
b1100 T"
b1111111111100000 d"
b110 t"
b1111111111110100 V#
#61
b1111111001010100 2
b1101010111100010 B
b101101010 R
b1111111001000100 r
b1101010111110010 $"
b101111010 4"
b1111111111110010 D"
b1111111111101010 T"
b1111111111110000 d"
b1100 6#
#62
b10101000100000 "
b1101010111010010 B
b1111111001010100 r
b10010 D"
b1100 T"
b10 d"
b10110 t"
b1111111111110010 &#
b1111111111101010 6#
b10 F#
b110 V#
#63
b10101000100100 "
b1111111001100100 2
b110001010 R
b10101000010000 b
b1111111001100100 r
b1101010111010010 $"
b101101010 4"
b1111111111110010 D"
b10010 d"
b100110 t"
b10 &#
b1100 6#
b1111111111110000 F#
#64
b10101000110000 "
b1111111001010100 2
b101101010 R
b10101000110000 b
b1101010111100010 $"
b101001010 4"
b100010 D"
b1111111111111010 T"
b100010 d"
b10110 t"
b1111111111111010 6#
b10110 V#
#65
b1111111001100100 2
b1101010111000010 B
b1111111001010100 r
b1101010111010010 $"
b101011010 4"
b1100 T"
b10010 d"
b110 t"
b1111111111110010 &#
b1100 6#
b100110 V#
#66
b10101001010000 "
b1101010111100010 B
b101111010 R
b1111111001100100 r
b10 D"
b1111111111111010 T"
b10 d"
b1111111111110100 t"
b10010 F#
b10110 V#
#67
b10101000110000 "
b1111111001110100 2
b1101010111010010 B
b101101010 R
b1111111001110100 r
b1101010111110010 $"
b110001010 4"
b1100 T"
b10010 d"
b10010 &#
b1111111111111010 6#
b1111111111110000 F#
b1111111111110100 V#
#68
b10101001010000 "
b1111111001010100 2
b1101010111100010 B
b101011010 R
b10101001000000 b
b1111111001100100 r
b1101010111100010 $"
b101101010 4"
b10 d"
b10 &#
b1100 6#
b10 F#
b1111111111100100 V#
#69
b10101001000000 "
b101001010 R
b10101001000100 b
b1101010111010010 $"
b110001010 4"
b10010 D"
b10010 d"
b1111111111100100 t"
b100010 &#
b1111111111110000 F#
b100110 V#
#70
b10101000100100 "
b101101010 R
b10101000110000 b
b1111111001000100 r
b1101010111110010 $"
b101011010 4"
b1111111111100010 D"
b1111111111111010 T"
b1111111111110010 &#
b1111111111011010 6#
b10110 V#
#71
b10101000110100 "
b1111111001100100 2
b1101010111010010 B
b101011010 R
b10101001010000 b
b1111111001100100 r
b1101010111100010 $"
b101101010 4"
b10 D"
b1111111111101010 T"
b1111111111100000 d"
b1111111111110100 t"
b10 &#
b1111111111101010 6#
b10 F#
b110 V#
#72
b10101001000000 "
b1111111001010100 2
b1101010111100010 B
b101101010 R
b1111111001010100 r
b1111111111110010 D"
b10 d"
b10110 V#
#73
b1111111001100100 2
b1101010111010010 B
b101011010 R
b10101000110100 b
b1101010111000010 $"
b101011010 4"
b100010 D"
b100100 T"
b1111111111110000 d"
b110 t"
b10010 &#
b1111111111011010 6#
b1111111111010000 F#
b100110 V#
#74
b1111111001010100 2
b101101010 R
b10101000110000 b
b1111111001100100 r
b1101010111010010 $"
b1111111111111010 T"
b10 d"
b1111111111110100 t"
b100010 &#
b1111111111111010 6#
b1111111111110000 F#
b1111111111110100 V#
#75
b1101010111100010 B
b101111010 R
b10101000110100 b
b1111111001110100 r
b101001010 4"
b10 D"
b1100 T"
b10010 d"
b1111111111100100 t"
b10 &#
b1100 6#
#76
b10101000110100 "
b1111111001110100 2
b1101010111000010 B
b110001010 R
b10101000010000 b
b1111111001100100 r
b1101010111000010 $"
b101101010 4"
b10 d"
b110 t"
b10010 F#
#77
b10101000110000 "
b1111111001100100 2
b1101010111100010 B
b101001010 R
b10101000110100 b
b1111111001010100 r
b1101010111100010 $"
b110001010 4"
b100010 D"
b1111111111111010 T"
b1111111111110000 d"
b1111111111111010 6#
b1111111111110000 F#
#78
b10101001010000 "
b1111111001010100 2
b1101010111110010 B
b101101010 R
b10101001010000 b
b101011010 4"
b1111111111110100 t"
b1111111111101010 6#
b10 F#
#79
b10101000110000 "
b1101010111000010 B
b101111010 R
b10101000110000 b
b1111111001110100 r
b1101010111000010 $"
b101101010 4"
b10 D"
b1100 T"
b1111111111100000 d"
b1111111111111010 6#
b1111111111110000 F#
#80
b10101001000000 "
b1111111001100100 2
b101011010 R
b1111111001000100 r
b1101010110100010 $"
b101111010 4"
b1111111111110010 D"
b10 d"
b110 t"
b100010 &#
b100100 6#
b10 F#
#81
b10101000010100 "
b1111111001010100 2
b1101010110110010 B
b101001010 R
b1101010111100010 $"
b101101010 4"
b10010 D"
b1111111111101010 T"
b1111111111100000 d"
b10010 &#
b1111111111111010 6#
b100010 F#
#82
b10101000110000 "
b1111111001100100 2
b1101010111100010 B
b101101010 R
b10101000100100 b
b1111111001010100 r
b101001010 4"
b100010 D"
b1100 T"
b10010 d"
b100110 t"
b1111111111101010 6#
b1111111111010000 F#
b10110 V#
#83
b10101000010100 "
b1111111001110100 2
b1101010111010010 B
b10101000110000 b
b1111111001100100 r
b1101010111000010 $"
b101101010 4"
b10010 D"
b1111111111111010 T"
b1111111111110000 d"
b110 t"
b11100 6#
b10 F#
b110 V#
#84
b10101001010000 b
b1111111001000100 r
b1101010111010010 $"
b1111111111110010 D"
b10 d"
b110110 t"
b1111111111100010 &#
b1100 6#
b10010 F#
#85
b10101001000000 "
b1111111001010100 2
b1101010111100010 B
b10101000010000 b
b1111111001110100 r
b1101010111000010 $"
b10 D"
b10010 d"
b110 t"
b100010 &#
b11100 6#
b1111111111110000 F#
#86
b10101000110000 "
b1101010111000010 B
b10101000110000 b
b1111111001100100 r
b1101010111100010 $"
b101011010 4"
b1111111111110010 D"
b1100 T"
b1111111111110000 d"
b1111111111100010 &#
b1100 6#
b10 F#
b1111111111100100 V#
#87
b1111111001100100 2
b1101010111110010 B
b101001010 R
b10101000100100 b
b1111111000110100 r
b101101010 4"
b10010 D"
b1111111111111010 T"
b10 &#
b1111111111111010 6#
b10110 V#
#88
b10101000010100 "
b1111111001110100 2
b101101010 R
b10101000110100 b
b1111111001100100 r
b1101010111010010 $"
b101011010 4"
b1111111111100000 d"
b10110 t"
b10010 &#
b1111111111100000 F#
#89
b10101000010000 "
b1101010111010010 B
b101011010 R
b10101000110000 b
b1111111001010100 r
b1101010111100010 $"
b101101010 4"
b100010 D"
b1111111111101010 T"
b10 d"
b10 &#
b1111111111110000 F#
b1111111111110100 V#
#90
b10101001000000 "
b1111111001100100 2
b1101010111100010 B
b1111111001000100 r
b1101010111000010 $"
b101001010 4"
b10010 D"
b1100 T"
b1111111111110000 d"
b10010 &#
b1100 6#
b10 F#
#91
b10101001010000 "
b1111111001000100 2
b101001010 R
b10101000010100 b
b1111111001110100 r
b101101010 4"
b10 D"
b110100 T"
b10 d"
b110 t"
b10 &#
b1111111111111010 6#
b1111111111110000 F#
b110 V#
#92
b10101000110000 "
b1111111001100100 2
b1101010111010010 B
b101111010 R
b1111111000110100 r
b1101010111100010 $"
b101111010 4"
b1111111111110010 D"
b1100 T"
b1111111111010000 d"
b1111111111100100 t"
b1111111111101010 6#
b1111111111110100 V#
#93
b10101000100000 "
b1111111001000100 2
b10101000010000 b
b1111111001000100 r
b101101010 4"
b1111111111101010 T"
b10010 d"
b110 t"
b10010 &#
b1111111111111010 6#
b10 F#
b110 V#
#94
b101101010 R
b10101000110000 b
b1101010111110010 $"
b1111111111111010 T"
b1111111111110000 d"
b1111111111110100 t"
b1111111111110000 F#
b10110 V#
#95
b10101000110100 "
b1111111001010100 2
b101111010 R
b10101000100100 b
b1101010111010010 $"
b101111010 4"
b10 D"
b1100 T"
b10 &#
b1100 6#
b1111111111110100 V#
#96
b10101001000000 "
b1111111001100100 2
b1101010111100010 B
b10101000100000 b
b1111111001100100 r
b1101010111110010 $"
b110001010 4"
b1111111111101010 T"
b110 t"
b1111111111111010 6#
b110 V#
#97
b10101000110000 "
b1111111001010100 2
b101101010 R
b1111111001000100 r
b101001010 4"
b10010 D"
b1100 T"
b1111111111100000 d"
b1111111111110100 t"
b100010 &#
b1100 6#
b10110 V#
#98
b10101000110100 "
b1111111001100100 2
b101001010 R
b10101001000000 b
b1111111001010100 r
b1101010111100010 $"
b110001010 4"
b1111111111111010 T"
b10 d"
b1111111111100010 &#
b10 F#
#99
b1101010111000010 B
b101101010 R
b10101000110000 b
b1111111001000100 r
b1101010111000010 $"
b101101010 4"
b10 D"
b11100 T"
b1111111111110000 d"
b10 &#
b1111111111110100 V#
#100
b10101001000000 "
b1101010110110010 B
b101001010 R
b10101001010000 b
b110001010 4"
b1111111111110010 D"
b1111111111111010 T"
b110 t"
b10010 &#
b1111111111111010 6#
b1111111111100000 F#
b110 V#
#101
b1101010111000010 B
b101011010 R
b10101001000000 b
b1101010111010010 $"
b101001010 4"
b10010 D"
b1100 T"
b10110 t"
b10 &#
b1111111111110000 F#
b1111111111110100 V#
#102
b10101001010000 "
b1111111001110100 2
b101101010 R
b10101000100100 b
b1111111001010100 r
b1101010111000010 $"
b100010 D"
b1111111111111010 T"
b110 t"
#103
b10101000100000 "
b1111111001000100 2
b1101010111100010 B
b10101001000000 b
b1101010111110010 $"
b101011010 4"
b10 D"
b1100 T"
b10 d"
b10110 t"
b10010 &#
b1111111111011010 6#
b10010 F#
b10110 V#
#104
b1111111001010100 2
b110001010 R
b1111111001000100 r
b1111111111111010 T"
b1111111111110100 t"
b10 &#
b1111111111101010 6#
b1111111111010000 F#
b1111111111110100 V#
#105
b10101001000000 "
b1111111001000100 2
b1101010111010010 B
b101101010 R
b1111111001010100 r
b1101010111010010 $"
b1111111111110010 D"
b1111111111011010 T"
b1111111111110000 d"
b10110 t"
b1111111111111010 6#
b1111111111110000 F#
b100110 V#
#106
b10101000110000 "
b1111111001010100 2
b1101010111100010 B
b10101000110000 b
b1111111001000100 r
b1101010111100010 $"
b101101010 4"
b10 D"
b1111111111111010 T"
b10 d"
b1111111111110100 t"
b10010 &#
b1100 6#
b110 V#
#107
b10101001010000 "
b101111010 R
b10101001000000 b
b1111111001100100 r
b1111111111110000 d"
b10 &#
b10110 V#
#108
b1101010111010010 B
b101101010 R
b10101000110000 b
b1111111111100010 D"
b1111111111101010 T"
b1111111111100000 d"
b10110 t"
b10010 &#
b11100 6#
b10 F#
b1000110 V#
#109
b10101000100000 "
b101011010 R
b10101000010000 b
b1111111001110100 r
b1101010111000010 $"
b101111010 4"
b1111111111111010 T"
b1111111111110000 d"
b1111111111110010 &#
b1100 6#
b1111111111010000 F#
b1111111111110100 V#
#110
b10101001010000 "
b1101010111000010 B
b101001010 R
b10101001010000 b
b1111111001100100 r
b100111010 4"
b10 D"
b1100 T"
b10 F#
b10110 V#
#111
b10101001000000 "
b1111111001000100 2
b10101000110000 b
b1111111001010100 r
b101011010 4"
b1111111111100010 D"
b1111111111101010 T"
b1111111111100000 d"
b1111111111110100 t"
b1111111111110100 V#
#112
b10101000110000 "
b1101010111100010 B
b101101010 R
b10101000100100 b
b1111111001000100 r
b1101010111100010 $"
b101111010 4"
b1111111111110000 d"
b100010 &#
b100100 6#
b110 V#
#113
b10101001000000 "
b1111111001010100 2
b1101010111010010 B
b101011010 R
b10101000110000 b
b1111111001010100 r
b1101010111110010 $"
b101001010 4"
b10010 D"
b1111111111111010 T"
b10110 t"
b10010 &#
b1111111111101010 6#
b1111111111110000 F#
b10110 V#
#114
b10101000110000 "
b1111111001100100 2
b1101010111000010 B
b10101001000000 b
b1111111001100100 r
b1101010111000010 $"
b1111111111010010 D"
b1100 T"
b10010 d"
b110 t"
b1100 6#
b110 V#
#115
b10101001010000 "
b1111111001010100 2
b1101010111100010 B
b101111010 R
b10101000100000 b
b1111111000100100 r
b1101010111010010 $"
b110001010 4"
b1111111111110010 D"
b1111111111101010 T"
b1111111111110000 d"
b1111111111110010 &#
b1111111111101010 6#
b1111111111100100 V#
#116
b1111111001110100 2
b1101010111000010 B
b101101010 R
b10101000010000 b
b1111111001110100 r
b1101010111000010 $"
b101011010 4"
b10 D"
b1100 T"
b1111111111111010 6#
b10010 F#
b110 V#
#117
b10101001000000 "
b1111111001010100 2
b10101001010000 b
b1111111001000100 r
b10010 D"
b1111111111111010 T"
b1111111111100000 d"
b110010 &#
b1111111111011010 6#
b10 F#
b10110 V#
#118
b10101000100000 "
b1111111001000100 2
b1101010110110010 B
b10101000010000 b
b1111111001100100 r
b1101010111110010 $"
b100101010 4"
b10 D"
b1100 T"
b1111111111110000 d"
b10010 &#
b1100 6#
b1111111111110000 F#
b110 V#
#119
b10101001010000 "
b1111111001110100 2
b1101010111100010 B
b101001010 R
b10101000100100 b
b1111111001010100 r
b1101010111010010 $"
b101101010 4"
b10 d"
b10110 t"
b1111111111111010 6#
b10010 F#
b1111111111110100 V#
#120
b10101000110000 "
b1111111001010100 2
b1101010111000010 B
b10101000110100 b
b1111111001000100 r
b1101010111000010 $"
b101111010 4"
b1111111111111010 T"
b1111111111110000 d"
b1111111111110100 t"
b1111111111110010 &#
b110 V#
#121
b10101000100000 "
b1111111001100100 2
b1101010111100010 B
b101111010 R
b10101000110000 b
b1111111000110100 r
b1101010111010010 $"
b101101010 4"
b100010 D"
b10010 d"
b10110 t"
b1111111111101010 6#
b1111111111110000 F#
#122
b10101000100100 "
b1111111001110100 2
b1101010111010010 B
b1111111001000100 r
b1101010111000010 $"
b110001010 4"
b10 D"
b1111111111011010 T"
b10 d"
b110 t"
b1111111111111010 6#
b10010 F#
b10110 V#
#123
b10101000100000 "
b1111111001100100 2
b110011010 R
b10101001000000 b
b1111111001100100 r
b1101010111010010 $"
b1111111111010010 D"
b1100 T"
b10110 t"
b1100 6#
b1111111111110000 F#
b1111111111110100 V#
#124
b10101000110000 "
b1101010111100010 B
b101111010 R
b10101000100100 b
b1101010111000010 $"
b101001010 4"
b10 D"
b1111111111101010 T"
b110 t"
b10 &#
b1111111111011010 6#
b10010 F#
#125
b10101001000000 "
b1101010111110010 B
b101001010 R
b10101000110000 b
b101011010 4"
b1100 T"
b1111111111010000 d"
b1111111111110100 t"
b1100 6#
b1111111111110000 F#
#126
b10101000110100 "
b1111111001110100 2
b1101010111010010 B
b101101010 R
b1111111000110100 r
b1101010111010010 $"
b10 d"
b110110 t"
b1111111111110010 &#
#127
b10101000110000 "
b1111111001100100 2
b1101010111100010 B
b101001010 R
b10101000110100 b
b1111111001000100 r
b1101010111000010 $"
b101111010 4"
b1111111111111010 T"
b100110 t"
b10 &#
b1111111111111010 6#
b10 F#
#128
b10101000110100 "
b10101000100100 b
b1111111001010100 r
b1101010111010010 $"
b10010 D"
b1111111111101010 T"
b1111111111110000 d"
b1111111111110100 t"
b10010 &#
b1111111111101010 6#
b10010 F#
b110 V#
#129
b10101001000000 "
b1111111001000100 2
b1101010111000010 B
b101101010 R
b10101001000000 b
b1111111001110100 r
b101011010 4"
b1111111111011010 T"
b10110 t"
b1111111111111010 6#
b1111111111110000 F#
b10110 V#
#130
b10101000110000 "
b1111111001100100 2
b101001010 R
b1111111001000100 r
b1101010110110010 $"
b101101010 4"
b10 D"
b1111111111111010 T"
b110 t"
b10 &#
b1111111111101010 6#
b10010 F#
b110 V#
#131
b10101001000000 "
b1111111001110100 2
b1101010111010010 B
b1111111001010100 r
b1101010111010010 $"
b1111111111110010 D"
b10 d"
b100110 t"
b1111111111110010 &#
b1111111111110000 F#
b1111111111100100 V#
#132
b10101000010000 "
b1111111001000100 2
b101011010 R
b10101000110000 b
b1111111001100100 r
b1101010111100010 $"
b10 D"
b1111111111101010 T"
b1111111111010010 &#
b1111111111111010 6#
b1111111111010000 F#
b1111111111110100 V#
