11_cs_nwe _channel4/project_1/.Xil/Vivado-1724-GL-0301-949/hw_ila_data_2/zip_work/waveform.vcd
$date
        2023-Aug-11 13:56:56
$end
$version
        Vivado v2018.3 (64-bit)
$end
$timescale
        1ps
$end
$scope module dut $end
$var reg 16 " u3_adc_analysis/adc1_b1_1 [15:0] $end
$var reg 16 2 u3_adc_analysis/adc1_b2_1 [15:0] $end
$var reg 16 B u3_adc_analysis/adc1_b3_1 [15:0] $end
$var reg 16 R u3_adc_analysis/adc1_b4_1 [15:0] $end
$var reg 16 b u3_adc_analysis/adc1_b1_2 [15:0] $end
$var reg 16 r u3_adc_analysis/adc1_b2_2 [15:0] $end
$var reg 16 $" u3_adc_analysis/adc1_b3_2 [15:0] $end
$var reg 16 4" u3_adc_analysis/adc1_b4_2 [15:0] $end
$var reg 16 D" u3_adc_analysis/adc2_b1_1 [15:0] $end
$var reg 16 T" u3_adc_analysis/adc2_b2_1 [15:0] $end
$var reg 16 d" u3_adc_analysis/adc2_b3_1 [15:0] $end
$var reg 16 t" u3_adc_analysis/adc2_b4_1 [15:0] $end
$var reg 16 &# u3_adc_analysis/adc2_b1_2 [15:0] $end
$var reg 16 6# u3_adc_analysis/adc2_b2_2 [15:0] $end
$var reg 16 F# u3_adc_analysis/adc2_b3_2 [15:0] $end
$var reg 16 V# u3_adc_analysis/adc2_b4_2 [15:0] $end
$var reg 16 f# u3_adc_analysis/adc3_b1_1 [15:0] $end
$var reg 16 v# u3_adc_analysis/adc3_b2_1 [15:0] $end
$var reg 16 ($ u3_adc_analysis/adc3_b3_1 [15:0] $end
$var reg 16 8$ u3_adc_analysis/adc3_b4_1 [15:0] $end
$var reg 16 H$ u3_adc_analysis/adc3_b1_2 [15:0] $end
$var reg 16 X$ u3_adc_analysis/adc3_b2_2 [15:0] $end
$var reg 16 h$ u3_adc_analysis/adc3_b3_2 [15:0] $end
$var reg 16 x$ u3_adc_analysis/adc3_b4_2 [15:0] $end
$var reg 16 *% u3_adc_analysis/adc4_b1_1 [15:0] $end
$var reg 16 :% u3_adc_analysis/adc4_b2_1 [15:0] $end
$var reg 16 J% u3_adc_analysis/adc4_b3_1 [15:0] $end
$var reg 16 Z% u3_adc_analysis/adc4_b4_1 [15:0] $end
$var reg 16 j% u3_adc_analysis/adc4_b1_2 [15:0] $end
$var reg 16 z% u3_adc_analysis/adc4_b2_2 [15:0] $end
$var reg 16 ,& u3_adc_analysis/adc4_b3_2 [15:0] $end
$var reg 16 <& u3_adc_analysis/adc4_b4_2 [15:0] $end
$var reg 1 L& u3_adc_analysis/time_4s $end
$var reg 1 M& _TRIGGER $end
$var reg 1 N& _WINDOW $end
$var reg 1 O& _GAP $end
$upscope $end
$enddefinitions $end
#0
$dumpvars
b1111111111111010 "
b1111111111111100 2
b1111111111110100 B
b101000 R
b11010 b
b1111111111111100 r
b10110 $"
b1000 4"
b1111111111110010 D"
b1111111111011110 T"
b0 d"
b1100 t"
b1111111111110010 &#
b1100 6#
b1111111111101110 F#
b11100 V#
b1111111111110000 f#
b101000 v#
b1111111111101010 ($
b11000 8$
b1111111111110000 H$
b1111111111111110 X$
b1111111111111010 h$
b11000 x$
b110 *%
b1010 :%
b10000 J%
b1111111111111000 Z%
b1111111111101010 j%
b1111111111111000 z%
b100000 ,&
b1010 <&
0L&
0M&
1N&
0O&
$end
#1
b1010 "
b1110 2
b110 B
b1111111111110110 R
b1111111111111010 b
b1110 r
b1111111111110110 4"
b10000 d"
b1111111111111010 t"
b10 &#
b1111111111101110 6#
b1111111111101010 V#
b0 f#
b1100 v#
b11000 ($
b101000 8$
b0 H$
b1000 h$
b101000 x$
b1111111111101010 *%
b11010 :%
b1111111111101000 Z%
b110 j%
b1000 ,&
#2
b1111111111001110 "
b1111111111111100 2
b101000 R
b11010 b
b1111111111111100 r
b1111111111110100 $"
b1111111111100110 4"
b1111111111101110 T"
b0 d"
b1100 t"
b1111111111100010 &#
b1111111111111110 6#
b0 F#
b11100 V#
b1111111111110000 f#
b1111111111101110 v#
b1111111111111010 ($
b11000 8$
b1111111111100000 H$
b1100 X$
b1111111111111010 h$
b11000 x$
b10110 *%
b1111111111111000 :%
b100000 J%
b1111111111111000 Z%
b1111111111101010 j%
b0 ,&
#3
b1110 2
b10110 B
b11000 R
b1010 b
b1111111111101100 r
b110 $"
b11000 4"
b10010 &#
b110100 6#
b1111111111101110 F#
b1111111111011010 V#
b0 f#
b1100 v#
b1111111111101010 8$
b0 H$
b11100 X$
b1000 h$
b0 J%
b11010 Z%
b100110 j%
b1010 z%
b10000 ,&
b1111111111101000 <&
#4
b1111111111101010 "
b1111111111101100 2
b110 B
b1000 R
b1111111111111100 r
b1111111111110100 $"
b1111111111110110 4"
b10 D"
b1111111111111110 T"
b10000 d"
b100100 6#
b100000 F#
b1100 V#
b10000 f#
b1111111111111110 v#
b101000 8$
b100000 H$
b1111111111111010 x$
b1111111111101010 *%
b100000 J%
b1111111111101010 j%
b1111111111101000 z%
b1111111111110110 ,&
b1111111111111000 <&
#5
b1010 "
b1111111111111100 2
b1111111111110100 B
b11000 R
b1111111111111010 b
b1110 r
b1000 4"
b1111111111101110 T"
b0 d"
b1111111111011010 t"
b1111111111110010 &#
b1111111111101110 6#
b1111111111101010 V#
b1111111111100000 f#
b11100 v#
b11000 8$
b0 H$
b1111111111111110 X$
b1111111111111010 h$
b11000 x$
b10110 *%
b11010 :%
b1111111111110110 J%
b1111111111111000 Z%
b10110 j%
b1010 z%
b1010 <&
#6
b11010 "
b110 B
b1000 R
b1111111111011110 b
b1111111111101100 r
b110 $"
b1111111111110010 D"
b110100 T"
b1111111111101110 d"
b1100 t"
b10010 &#
b1100 6#
b10000 F#
b1100 V#
b1111111111111110 v#
b1000 h$
b101000 x$
b1010 :%
b1111111111101010 j%
b10000 ,&
b11010 <&
#7
b1010 "
b1111111111110100 B
b1111111111110110 R
b1111111111111010 b
b1111111111111100 r
b1111111111110100 $"
b1111111111111110 T"
b1111111111111010 t"
b1111111111110010 &#
b1111111111111110 6#
b1111111111101110 F#
b1111111111011010 V#
b1111111111110000 f#
b1111111111101110 v#
b11000 ($
b1111111111110000 H$
b1111111111101010 x$
b1111111111101010 *%
b1111111111111000 :%
b0 J%
b1111111111111010 j%
b1111111111111000 z%
b1111111111110110 ,&
b1010 <&
#8
b11010 "
b1111111111010100 B
b11000 R
b1110 r
b110 $"
b11000 4"
b10 D"
b1100 T"
b11100 t"
b10010 &#
b1111111111101110 6#
b0 F#
b1111111111101010 V#
b0 f#
b1111111111111010 ($
b1111111111111010 8$
b10000 H$
b1111111111101110 X$
b1111111111101010 h$
b11000 x$
b10110 *%
b10000 J%
b1111111111011000 Z%
b1111111111101010 j%
b1010 z%
b1111111111100110 ,&
b1111111111111000 <&
#9
b1111111111111010 "
b1110 2
b110 B
b101000 R
b1010 b
b11110 r
b1111111111110100 $"
b1000 4"
b1111111111111110 T"
b10000 d"
b1100 t"
b100010 &#
b1111111111101110 F#
b1111111111111010 V#
b1111111111110000 f#
b1111111111101010 8$
b1111111111110000 H$
b1100 X$
b1111111111111010 h$
b1111111111111010 x$
b1111111111111010 *%
b1010 :%
b1111111111111000 Z%
b1111111111111000 z%
b10000 ,&
#10
b1010 "
b1111111111110100 B
b1111111111100110 R
b1111111111011100 r
b110 $"
b101000 4"
b1100 T"
b100000 d"
b1111111111110010 &#
b1100 6#
b1100 V#
b1111111111111110 v#
b11000 8$
b0 H$
b1111111111011110 X$
b1111111111101010 h$
b111000 x$
b1111111111011010 *%
b11010 :%
b1111111111110110 J%
b1010 Z%
b1111111111011010 j%
b1010 z%
b1000 ,&
b1010 <&
#11
b1111111111011110 "
b11110 2
b11000 R
b1111111111111010 b
b110000 r
b1000 4"
b1111111111110010 D"
b100100 T"
b0 d"
b1111111111101010 t"
b1111111111101110 6#
b0 F#
b0 f#
b1000 ($
b10000 H$
b1111111111101110 X$
b1111111111111010 x$
b10110 *%
b1010 :%
b11010 Z%
b1111111111101010 j%
b1111111111101000 z%
b1111111111110110 ,&
b1111111111111000 <&
#12
b1010 "
b1111111111101100 2
b10110 B
b1000 R
b1111111110111110 b
b10010 D"
b1111111111111110 T"
b10 &#
b1111111111111110 6#
b1111111111101110 F#
b1111111111101010 V#
b1111111111110000 f#
b1111111111011110 v#
b1111111111111110 X$
b11000 h$
b11010 :%
b1111111111011000 Z%
b11010 z%
b1111111111101000 <&
#13
b1110 2
b110 B
b1111111111100110 R
b11010 b
b1111111111111100 r
b1111111111110100 $"
b100000 d"
b1100 t"
b1100 6#
b0 F#
b1111111111111010 V#
b1111111111101110 v#
b1111111111101010 ($
b1000 8$
b1111111111100000 H$
b1100 X$
b1000 h$
b11000 x$
b110 *%
b1010 :%
b10000 J%
b1111111111111000 Z%
b1111111111111010 j%
b1111111111101000 z%
b10000 ,&
b1111111111111000 <&
#14
b1111111110111110 "
b1111111111111100 2
b1111111111110100 B
b11000 R
b1111111111011110 b
b10110 $"
b1111111111110010 D"
b10000 d"
b1111111111101010 t"
b1111111111100010 &#
b10000 F#
b0 f#
b1100 v#
b1000 ($
b1111111111111010 8$
b10000 H$
b1111111111111010 h$
b101000 x$
b1111111111111010 *%
b1111111111111000 :%
b1111111111110110 J%
b1111111111101010 j%
b1111111111100110 ,&
b1010 <&
#15
b11010 "
b1110 2
b110110 B
b1000 R
b1111111111111010 b
b1111111111101100 r
b0 d"
b1100 t"
b10010 &#
b100100 6#
b1111111111101110 F#
b1111111111101010 V#
b1111111111110000 f#
b1111111111111110 v#
b1111111111101010 ($
b1111111111011010 8$
b0 H$
b1111111111111110 X$
b1111111111101010 x$
b1111111111101010 *%
b10000 J%
b1111111111101000 Z%
b1111111111111010 j%
b1111111111011000 z%
b1111111111010110 ,&
b1111111111111000 <&
#16
b1111111111111010 "
b1111111111110100 B
b1010 b
b110 $"
b1111111111100110 4"
b10 D"
b100100 T"
b10000 d"
b1111111111111010 t"
b110010 &#
b1111111111101110 6#
b10000 F#
b1100 v#
b1111111111111010 ($
b11000 8$
b10000 H$
b110110 h$
b1111111111111010 x$
b10110 *%
b1111111111110110 J%
b1010 Z%
b110 j%
b1111111111101000 z%
b1111111111110110 ,&
b1010 <&
#17
b1010 "
b100110 B
b1111111111110110 R
b11010 b
b11110 r
b1000 4"
b10010 D"
b1111111111111110 T"
b1111111111101110 d"
b1111111111110010 &#
b1111111111111110 6#
b1111111111101110 F#
b1100 V#
b0 f#
b1111111111111110 v#
b1111111111101010 ($
b0 H$
b1111111111011110 X$
b1111111111101010 h$
b101000 x$
b1111111111001010 *%
b1111111111111000 Z%
b11010 z%
b11010 <&
#18
b1111111111111010 "
b1111111111101100 2
b1111111111100100 B
b1111111111101100 r
b1111111111110100 $"
b11000 4"
b10 D"
b1100 T"
b10 &#
b1111111111101110 6#
b10000 F#
b100000 f#
b1111111111101110 v#
b1111111111111010 ($
b1111111111110000 H$
b1111111111111110 X$
b1000 h$
b1111111111111010 x$
b1111111111111010 *%
b1111111111101000 :%
b1111111111101010 j%
b1010 z%
b1111111111100110 ,&
b1111111111111000 <&
#19
b1111111111111100 2
b110 B
b1000 R
b1111111111111010 b
b11110 r
b10110 $"
b1000 4"
b1111111111111110 T"
b1111111111011110 d"
b1111111111101010 t"
b10010 &#
b1111111111111110 6#
b0 f#
b1111111111111110 v#
b1111111111101010 ($
b1111111111101010 8$
b0 H$
b1111111111111010 h$
b11000 x$
b10110 *%
b1010 :%
b1111111111011010 j%
b1111111111101000 z%
b1111111111110110 ,&
#20
b1111111111101100 2
b1111111111110110 R
b1010 b
b1110 r
b110 $"
b1100 T"
b110000 d"
b1111111111110010 &#
b100100 6#
b0 F#
b1111111111111010 V#
b110000 f#
b1100 v#
b1000 ($
b11000 8$
b1111111111110000 H$
b1100 X$
b1111111111111000 :%
b10000 J%
b1111111111101000 Z%
b1111111111101010 j%
b1010 z%
b1111111111100110 ,&
b11010 <&
#21
b1010 "
b1111111111111100 2
b1111111111110100 B
b1111111111111010 b
b110000 r
b1111111111110100 $"
b1111111111110010 D"
b1111111111101110 T"
b0 d"
b10 &#
b10000 F#
b1100 V#
b10000 f#
b1111111111101110 v#
b1111111111111010 ($
b0 H$
b101100 X$
b1000 h$
b1010 Z%
b1111111111011010 j%
b1111111111110110 ,&
b1010 <&
#22
b11110 2
b10110 B
b1000 R
b1111111111001110 b
b11110 r
b10110 $"
b1111111111110110 4"
b1111111111111110 T"
b10000 d"
b1111111111111010 t"
b1111111111100010 &#
b1111111111111110 6#
b0 F#
b1111111111111010 V#
b1111111111100000 f#
b1111111111111110 v#
b1000 ($
b1111111111111010 8$
b1111111111100000 H$
b1111111111111110 X$
b1111111111111010 x$
b1111111111101010 *%
b1111111111110110 J%
b1111111111101000 Z%
b10110 j%
b1111111111111000 <&
#23
b110000 2
b110 B
b1111111111111010 b
b1110 r
b110 $"
b1000 4"
b100010 D"
b100100 T"
b1111111111101110 d"
b1111111111110010 &#
b10100 6#
b1111111111110000 f#
b1111111111111010 ($
b101000 8$
b0 H$
b1111111111111010 h$
b11000 x$
b1111111111111000 Z%
b1111111111101000 z%
#24
b1111111111111010 "
b1111111111111100 2
b1010 b
b11110 r
b10 D"
b1111111111101110 T"
b10000 d"
b1100 t"
b100010 &#
b1100 6#
b10000 F#
b10000 f#
b1111111111101010 ($
b1111111111111010 8$
b1111111111110000 H$
b1111111111101110 X$
b1000 h$
b1111111111011010 *%
b11010 :%
b100000 J%
b1111111111111000 z%
b1111111111101000 <&
#25
b1111111111001110 "
b11110 2
b10110 B
b1111111111011110 b
b1111111111111100 r
b100010 D"
b1100 T"
b1111111111101010 t"
b1111111111100010 &#
b1111111111111110 6#
b1111111111101110 F#
b0 f#
b1111111111111010 ($
b111000 8$
b0 H$
b1111111111111110 X$
b1111111111111010 h$
b110 *%
b1111111111111000 :%
b10000 J%
b1010 Z%
b1111111111011010 j%
b11010 z%
b10000 ,&
b1010 <&
#26
b1010 "
b1111111111111100 2
b1111111111001110 b
b1110 r
b1111111111110100 $"
b11000 4"
b10010 D"
b1111111111110010 &#
b0 F#
b1100 V#
b1111111111111010 8$
b10000 H$
b11100 X$
b10110 *%
b1111111111101000 :%
b1111111111110110 J%
b11010 Z%
b110 j%
b1010 z%
b11010 <&
#27
b11010 "
b11110 2
b1111111111100110 R
b1111111111111010 b
b1111111111101100 r
b100110 $"
b1111111111110110 4"
b1111111111110010 D"
b1111111111101110 d"
b1111111111011010 t"
b1111111111101110 F#
b1111111111111010 V#
b10000 f#
b1000 ($
b11000 8$
b0 H$
b1111111111101110 X$
b11000 h$
b1111111111101010 x$
b1111111111111010 *%
b1010 :%
b1111111111111000 Z%
b1111111111111000 z%
b1111111111111000 <&
#28
b1111111111111010 "
b1111111111011100 2
b1111111111010100 B
b1111111111010110 R
b1110 r
b10110 $"
b10000 d"
b1111111111111010 t"
b10 &#
b1111111111101110 6#
b1111111111011110 F#
b1100 V#
b1100 v#
b1000 8$
b10000 H$
b1111111111111110 X$
b1111111111111010 h$
b1111111111011010 x$
b1111111111101010 *%
b10000 J%
b1111111111101010 j%
b1010 z%
b1111111111110110 ,&
b101010 <&
#29
b1111111111111100 2
b110 B
b1000 R
b1111111111001110 b
b1111111111111100 r
b110 $"
b10 D"
b1111111111111110 T"
b1111111111101110 d"
b1100 t"
b10000 F#
b1111111111101010 V#
b1111111111110000 f#
b11000 8$
b1111111111100000 H$
b1000 h$
b11000 x$
b1111111111111000 :%
b1111111111100110 J%
b1010 Z%
b1111111111111000 z%
b10000 ,&
b1111111111111000 <&
#30
b11010 "
b1111111111110100 B
b11010 b
b10110 $"
b1111111111100110 4"
b10010 D"
b0 d"
b10010 &#
b1111111111111110 6#
b1111111111101110 F#
b1111111111001010 V#
b1111111111010000 f#
b11100 v#
b1111111111101010 8$
b1111111111110000 H$
b1100 X$
b1111111111111010 x$
b1111111111011010 *%
b1010 :%
b10000 J%
b1111111111101000 Z%
b110 j%
b11010 z%
b1111111111010110 ,&
#31
b1111111111111010 "
b1110 2
b10110 B
b1111111111100110 R
b1111111111111010 b
b110 $"
b1100 T"
b1111111111101110 d"
b10 &#
b1111111111111010 V#
b10000 f#
b1111111111101110 v#
b11000 ($
b11000 8$
b0 H$
b1111111111101110 X$
b11000 x$
b1111111111101010 *%
b11010 :%
b1111111111110110 J%
b1010 Z%
b10110 j%
b1010 z%
b10000 ,&
b11010 <&
#32
b1111111111101010 "
b1111111111111100 2
b1000 R
b1111111111001110 b
b11110 r
b1111111111110110 4"
b1111111111110010 D"
b1111111111101010 t"
b1111111111101110 6#
b0 f#
b1111111111111110 v#
b1111111111101010 ($
b10000 H$
b1111111111011110 X$
b1111111111101010 h$
b110 *%
b111100 :%
b1111111111011010 j%
b1111111111111000 z%
b100000 ,&
#33
b11010 "
b11110 2
b1111111111110100 B
b1111111111110110 R
b11010 b
b1111111111111100 r
b1111111111110100 $"
b10 D"
b1111111111111110 T"
b10000 d"
b11100 t"
b1111111111110010 &#
b1111111111101110 v#
b1111111111111010 ($
b1111111111110000 H$
b1100 X$
b1111111111111010 x$
b1111111111101010 *%
b1111111111101000 :%
b0 J%
b1111111111111010 j%
b1010 z%
b1111111111110110 ,&
b1010 <&
#34
b1111111111111010 "
b1111111111111100 2
b110 B
b11000 R
b11000 4"
b1111111111110010 D"
b1111111111001110 T"
b0 d"
b1100 t"
b10 &#
b1111111111111110 6#
b100000 F#
b11100 V#
b0 H$
b1111111111111110 X$
b1111111111101010 x$
b110 *%
b1111111111111000 :%
b10000 J%
b1111111111111000 Z%
b1111111111101010 j%
b1111111111100110 ,&
#35
b1110 2
b1111111111110100 B
b1000 R
b1010 b
b10110 $"
b1111111111100110 4"
b10 D"
b1111111111111110 T"
b10000 d"
b1111111111111010 t"
b1111111111101110 6#
b1111111111101110 F#
b1111111111111010 V#
b1111111111110000 f#
b1000 ($
b1111111111110000 H$
b1111111111101110 X$
b1000 h$
b1111111111111010 x$
b10110 *%
b1111111111101000 Z%
b10110 j%
b1111111111111000 z%
b1111111111110110 ,&
#36
b1010 "
b1111111111111100 2
b10110 B
b1111111111111010 b
b1110 r
b1111111111110100 $"
b1111111111110010 D"
b110100 T"
b0 d"
b100000 F#
b0 f#
b110110 ($
b101000 8$
b1111111111100000 H$
b1111111111011110 X$
b1111111111111010 h$
b11000 x$
b110 *%
b1010 :%
b0 J%
b11010 Z%
b1111111111101010 j%
b1010 z%
b1111111111111000 <&
#37
b1110 2
b1111111111110100 B
b1111111111110110 R
b11010 b
b1111111111101100 r
b110 $"
b1000 4"
b1100 T"
b1111111111101110 d"
b1111111111011010 t"
b1111111111111110 6#
b10000 F#
b1100 V#
b10000 f#
b1111111111111110 v#
b1000 ($
b1111111111111010 8$
b1111111111110000 H$
b1111111111101110 X$
b1111111111111010 x$
b1111111111111010 *%
b1111111111111000 :%
b100000 J%
b1010 Z%
b1111111111111010 j%
b1111111111111000 z%
b10000 ,&
b1010 <&
#38
b1111111111111010 "
b1111111111111100 2
b10110 B
b1111111111100110 R
b1111111111001110 b
b1111111111111100 r
b10110 $"
b10 D"
b110100 T"
b0 d"
b1111111111111010 t"
b100010 &#
b100000 F#
b1111111111111010 V#
b1111111111111010 ($
b11000 8$
b10000 H$
b1100 X$
b11000 x$
b10110 *%
b1111111111010110 J%
b1111111111111000 Z%
b10110 j%
b110000 ,&
b1111111111111000 <&
#39
b1111111111101100 2
b110 B
b1111111111110110 R
b11010 b
b100110 $"
b1111111111100110 4"
b10010 D"
b1100 T"
b100000 d"
b1100 t"
b10 &#
b1100 6#
b1111111111110000 f#
b1100 v#
b1111111111101010 ($
b1111111111101110 X$
b1000 h$
b1001000 x$
b1111111111101010 *%
b1111111111110110 J%
b1111111111101000 Z%
b10000 ,&
b1111111111011000 <&
#40
b1111111111001110 "
b1110 2
b1111111111100110 R
b1111111111001110 b
b1110 r
b1111111111110100 $"
b10 D"
b1111111111101110 T"
b0 d"
b11100 t"
b10010 &#
b10000 F#
b1100 V#
b10000 f#
b1111111111111110 v#
b1000 ($
b101000 8$
b0 H$
b1100 X$
b11000 x$
b1010 :%
b0 J%
b1111111111101010 j%
b1111111111111000 <&
#41
b1010 "
b1111111111111100 2
b1000 R
b1010 b
b1111111111111100 r
b110100 T"
b100000 d"
b1111111111111010 t"
b1111111111100010 &#
b10100 6#
b1111111111111010 V#
b1100 v#
b11000 8$
b1111111111111110 X$
b110 *%
b1111111111101000 :%
b10000 J%
b1010 Z%
b11010 z%
b0 ,&
b1111111111101000 <&
#42
b1111111111101100 2
b10110 B
b11000 R
b110000 r
b110 $"
b1000 4"
b100010 D"
b1111111111111110 T"
b1111111111101110 d"
b1111111111101010 t"
b100010 &#
b1111111111111110 6#
b100000 F#
b1111111111001010 V#
b1111111111110000 f#
b1111111111101110 v#
b1111111111101010 ($
b1111111111111010 8$
b1111111111101010 h$
b1111111111111010 x$
b1111111111101010 *%
b1111111111111000 :%
b1111111111100110 J%
b1111111111111000 Z%
b1111111111011010 j%
b1111111111111000 z%
b100000 ,&
b1010 <&
#43
b1111111111111010 "
b1110 2
b110 B
b101000 R
b1111111111111010 b
b1110 r
b11000 4"
b0 d"
b1111111111111010 t"
b10 &#
b1100 6#
b0 F#
b1111111111111010 V#
b100000 f#
b1111111111111110 v#
b11000 8$
b1100 X$
b1000 h$
b11000 x$
b101010 :%
b0 J%
b1111111111011000 Z%
b1111111111111010 j%
b1111111111010110 ,&
b1111111111011000 <&
#44
b1111111111111100 2
b10110 B
b1000 R
b11010 b
b1111111111111100 r
b1111111111100010 D"
b1111111111101110 d"
b1111111111101010 t"
b10010 &#
b1111111111111110 6#
b11100 V#
b0 f#
b1100 v#
b1000 ($
b1111111111111010 8$
b1111111111110000 H$
b1111111111101010 h$
b1111111111111010 x$
b1111111111111010 *%
b11010 :%
b10000 J%
b1111111111101000 Z%
b1111111111011000 z%
b1111111111100110 ,&
b1111111111111000 <&
#45
b1110 2
b1111111111110100 B
b1111111111100110 R
b1111111111111010 b
b1110 r
b1111111111110110 4"
b1100 T"
b0 d"
b1111111111111010 t"
b10 &#
b110000 F#
b1111111111101010 V#
b101000 8$
b1111111111111110 X$
b1000 h$
b11000 x$
b1111111111011010 *%
b1010 :%
b1111111111010110 J%
b1111111111101010 j%
b1010 z%
b1111111111110110 ,&
#46
b11000 R
b11000 4"
b1111111111110010 D"
b1111111111111110 T"
b1111111111101110 d"
b1111111111101010 t"
b1100 6#
b100000 F#
b1111111111111010 V#
b10000 f#
b1111111111111110 v#
b11000 ($
b1111111111111010 8$
b10000 H$
b1100 X$
b1111111111111010 h$
b1111111111101010 *%
b11010 :%
b1111111111110110 J%
b11010 Z%
b1111111111100110 ,&
b1010 <&
#47
b1010 "
b1111111111101100 2
b11110 r
b10110 $"
b1000 4"
b10 D"
b0 d"
b1111111111111010 t"
b1111111111100010 &#
b1111111111101110 6#
b0 F#
b1111111111011010 V#
b1111111111110000 f#
b1000 ($
b1111111111101010 8$
b1111111111110000 H$
b1000 h$
b1111111111011010 *%
b1111111111111000 :%
b100000 J%
b11010 z%
b1111111111010110 ,&
b1111111111111000 <&
#48
b1111111111001110 "
b11110 2
b100110 B
b1000 R
b11010 b
b1110 r
b1111111111110100 $"
b1111111111110110 4"
b10000 d"
b10 &#
b1100 6#
b1111111111011110 F#
b1111111111101010 V#
b1111111111111010 ($
b1111111111111010 8$
b0 H$
b1111111111101010 h$
b1111111111101010 *%
b1111111111110110 J%
b1010 Z%
b110 j%
b1111111111110110 ,&
b1111111111101000 <&
#49
b1111111111111010 "
b110 B
b1010 b
b1111111111101110 d"
b1111111111101010 t"
b10010 &#
b100100 6#
b1111111111101110 F#
b1111111111111010 V#
b0 f#
b1000 ($
b1111111111110000 H$
b1111111111101110 X$
b1000 h$
b10110 *%
b11010 :%
b1000 J%
b1111111111101010 j%
b1010 z%
b1111111111111000 <&
#50
b1110 2
b1111111111110100 B
b1111111111001110 b
b1111111111111100 r
b110 $"
b11000 4"
b1111111111100010 D"
b100000 d"
b1111111111111010 t"
b1111111111110010 &#
b1100 6#
b0 F#
b1100 V#
b1111111111101110 v#
b1111111111111010 ($
b0 H$
b1100 X$
b1111111111101010 h$
b1111111111111010 x$
b1111111111101010 *%
b1111111111110110 J%
b1111111111111000 Z%
b1111111111111010 j%
b0 ,&
#51
b1010 "
b1111111111111010 b
b1000 4"
b10 D"
b1111111111101110 T"
b0 d"
b100010 &#
b1111111111101110 6#
b1111111111101010 V#
b1111111111111110 v#
b1000 ($
b1111111111101010 8$
b10000 H$
b11100 X$
b1111111111111010 h$
b11000 x$
b1111111111111010 *%
b1010 :%
b1111111111100110 J%
b1010 Z%
b10110 j%
b1111111111111000 z%
b1111111111100110 ,&
b1010 <&
#52
b1111111111111100 2
b100110 B
b11010 b
b1110 r
b10110 $"
b1111111111110110 4"
b100100 T"
b1111111111110010 &#
b10100 6#
b1111111111101110 F#
b1111111111111010 V#
b11100 v#
b1111111111101010 ($
b1111111111111010 8$
b0 H$
b1111111111111110 X$
b1000 h$
b1000 x$
b1111111111101010 *%
b10000 J%
b110 j%
b10000 ,&
b1111111111111000 <&
#53
b1110 2
b1111111111110100 B
b1111111111110110 R
b1111111111101010 b
b1111111111111100 r
b110 $"
b11000 4"
b1111111111101110 T"
b10000 d"
b10 &#
b110100 6#
b10000 F#
b1111111111111110 v#
b11000 ($
b11000 8$
b110000 H$
b1111111111111010 h$
b11000 x$
b1111111111111000 :%
b1111111111010110 J%
b1111111111111000 Z%
b10110 j%
b11010 z%
b1111111111100110 ,&
b1010 <&
#54
b1111111111011110 "
b10110 B
b101000 R
b1111111111111010 b
b1111111111110100 $"
b1111111111110010 D"
b1100 T"
b1111111111101010 t"
b10010 &#
b1111111111111110 6#
b10000 f#
b1111111111111010 ($
b1111111111111010 8$
b0 H$
b1111111111101110 X$
b101000 x$
b1010 :%
b1111111111100110 J%
b1111111111101010 j%
b101010 z%
b100000 ,&
b1111111111111000 <&
#55
b1010 "
b1111111111101100 2
b1111111111110100 B
b1000 R
b1010 b
b1111111111101100 r
b101000 4"
b1111111111111110 T"
b1111111111111010 t"
b10 &#
b0 f#
b1111111111011110 v#
b1111111111101010 ($
b1100 X$
b1111111111011010 *%
b1111111111101000 :%
b1111111111110110 J%
b110 j%
b1010 z%
b1111111111010110 ,&
#56
b11010 "
b1111111111111100 2
b110 B
b101000 R
b1111111111111100 r
b110 $"
b10 D"
b1111111111101110 d"
b1111111111101010 t"
b1111111111110010 &#
b1111111111011110 6#
b1111111111011110 F#
b1111111111011010 V#
b10000 f#
b1111111111101110 v#
b1000 ($
b11000 8$
b1111111111110000 H$
b1111111111111110 X$
b1000 h$
b11000 x$
b110 *%
b11010 :%
b10000 J%
b1010 Z%
b1111111111101010 j%
b1111111111111000 z%
b1111111111100110 ,&
#57
b1111111111111010 "
b1110 2
b10110 B
b11000 R
b1111111111111010 b
b1000 4"
b1111111111011110 T"
b0 d"
b1111111111011010 t"
b1111111111100010 &#
b1111111111101110 6#
b1111111111101110 F#
b1111111111110000 f#
b1111111111101010 ($
b0 H$
b11100 X$
b1111111111111010 h$
b1111111111101010 *%
b1111111111100110 J%
b1111111111111000 Z%
b11010 z%
b1111111111110110 ,&
#58
b1010 "
b1000 R
b11110 r
b1111111111110100 $"
b11000 4"
b1111111111111110 T"
b1111111111101010 t"
b10010 &#
b110100 6#
b10000 F#
b1111111111111010 V#
b0 f#
b11100 v#
b1111111111111010 ($
b1111111111111010 8$
b1100 X$
b1000 h$
b1111111111111010 x$
b1111111111011010 *%
b1111111111101000 :%
b10000 J%
b1111111111111010 j%
b1111111111111000 z%
b1111111111101000 <&
#59
b1111111111101010 "
b1111111111111100 2
b1111111111110100 B
b11000 R
b1111111111011110 b
b1111111111111100 r
b110 $"
b1111111111100110 4"
b1111111111110010 D"
b1111111111111010 t"
b10 &#
b1100 6#
b1111111111101110 F#
b1100 V#
b100000 f#
b1100 v#
b1111111111011010 ($
b1111111111111110 X$
b11000 h$
b101000 x$
b1111111111101010 *%
b11010 :%
b100000 J%
b1111111111101000 Z%
b110 j%
b1010 z%
b1111111111111000 <&
#60
b1010 "
b1110 2
b110 B
b1111111111110110 R
b1111111111111010 b
b1110 r
b1111111111110100 $"
b11000 4"
b1111111111100010 D"
b10000 d"
b1111111111011010 t"
b10000 F#
b0 f#
b11100 v#
b1111111111111010 ($
b101000 8$
b1111111111110000 H$
b1111111111111010 h$
b1111111111111010 x$
b10110 *%
b1010 :%
b1111111111110110 J%
b1111111111011010 j%
b11010 z%
b10000 ,&
b1111111111101000 <&
#61
b1111111111111100 2
b10110 B
b11000 R
b1010 b
b11110 r
b110 $"
b1111111111010010 D"
b1111111111001110 T"
b11100 t"
b100100 6#
b1111111111111110 v#
b1111111111101010 ($
b1111111111101010 8$
b10000 H$
b11000 x$
b110 *%
b1111111111111000 :%
b1111111111111000 Z%
b110 j%
b1111111111011000 z%
b1111111111111000 <&
#62
b1111111111111010 "
b1111111111110100 B
b1111111111110110 R
b1111111111111010 b
b1111111111111100 r
b100110 $"
b1111111111110110 4"
b1111111111110010 D"
b1111111111111110 T"
b100000 d"
b1111111111111010 t"
b1111111111101010 V#
b1111111111100000 f#
b1000 ($
b1111111111111010 8$
b0 H$
b1100 X$
b1111111111101010 h$
b101000 x$
b1111111111101010 *%
b10000 J%
b1111111111101000 Z%
b1111111111111010 j%
b11010 z%
b1111111111100110 ,&
b11010 <&
