11_cs_nwe _channel4/project_1/.Xil/Vivado-12896-GL-0301-949/hw_ila_data_3/zip_work/waveform.vcd
$date
        2023-May-05 17:21:30
$end
$version
        Vivado v2018.3 (64-bit)
$end
$timescale
        1ps
$end
$scope module dut $end
$var reg 4 " u2_adc_top/u1_adc_module/u_adc_jesd204b/gt0_rxcharisk [3:0] $end
$var reg 32 & u2_adc_top/u1_adc_module/u_adc_jesd204b/gt0_rxdata [31:0] $end
$var reg 1 F adc1_sync $end
$var reg 1 G _TRIGGER $end
$var reg 1 H _WINDOW $end
$var reg 1 I _GAP $end
$upscope $end
$enddefinitions $end
#0
$dumpvars
b10 "
b11011000111111111111110011111111 &
1F
0G
1H
0I
$end
#1
b0 "
b11111000111111111110100011111111 &
#3
b11101000111111110001100000000000 &
#4
b1000 "
b11111100000000000000100000000000 &
#6
b11111100111111111111100011111111 &
#8
b0 "
b11000000000000000100000000000 &
#9
b101000000000001111100011111111 &
#10
b1000000000001111100011111111 &
#11
b1000 "
b11111100111111111111100011111111 &
#12
b0 "
b1000000000001101100011111111 &
#13
b10 "
b11011000111111111111110000000000 &
#14
b1000 "
b11111100111111111111100011111111 &
#15
b11111100000000000001100000000000 &
#16
b0 "
b11111000111111110000100000000000 &
#17
b1000 "
b11111100000000000000100000000000 &
#18
b11111100111111111111100011111111 &
#19
b0 "
b1000000000000010100000000000 &
#20
b10 "
b1000000000001111110000000000 &
#21
b0 "
b1000000000001110100011111111 &
#22
b101000000000000001100000000000 &
#23
b1000000000001111100011111111 &
#24
b10 "
b11111000111111111111110000000000 &
#25
b1000 "
b11111100000000000000100000000000 &
#26
b11111100111111111111100011111111 &
#27
b0 "
b111000000000000001100000000000 &
#28
b1000000000001111100011111111 &
#29
b11111000111111110001100000000000 &
#30
b11111000111111110000100000000000 &
#31
b1000 "
b11111100000000000000100000000000 &
#32
b11111100111111111111100011111111 &
#33
b0 "
b11111000111111111110100011111111 &
#34
b1000 "
b11111100000000000000100000000000 &
#35
b0 "
b101000000000000001100000000000 &
#36
b11111000111111110000100000000000 &
#37
b11111000111111110001100000000000 &
#38
b11111000111111110000100000000000 &
#39
b10 "
b11000000000001111110011111111 &
#40
b1000 "
b11111100111111111110100011111111 &
#41
b11111100000000000000100000000000 &
#42
b0 "
b1000000000001111100011111111 &
#43
b11000000000001111100011111111 &
#44
b10 "
b1000000000001111110000000000 &
#45
b1000 "
b11111100111111111111100011111111 &
#46
b0 "
b11101000111111110010100000000000 &
#47
b1000 "
b11111100111111111111100011111111 &
#48
b0 "
b11111000111111111110100011111111 &
#49
b11101000111111110000100000000000 &
#50
b1000 "
b11111100111111111111100011111111 &
#51
b11111100000000000000100000000000 &
#52
b11111100111111111111100011111111 &
#54
b0 "
b11111000111111110000100000000000 &
#55
b10 "
b1000000000001111110011111111 &
#56
b1000000000001111110000000000 &
#58
b1000 "
b11111100111111111111100011111111 &
#59
b0 "
b1000000000001111100011111111 &
#60
b11101000111111110001100000000000 &
#61
b1000 "
b11111100000000000000100000000000 &
#62
b10 "
b11111000111111110111110000000000 &
#63
b11111000111111111111110011111111 &
#64
b1000000000001111110011111111 &
#65
b11101000111111111111110000000000 &
#66
b1000 "
b11111100111111111111100011111111 &
#67
b0 "
b1000000000001111100011111111 &
#68
b10 "
b1000000000001111110000000000 &
#69
b0 "
b11101000111111111111100011111111 &
#70
b11111000111111110010100000000000 &
#71
b11111000111111110000100000000000 &
#72
b1000000000001101100011111111 &
#73
b11000000000001111100011111111 &
#74
b1000000000001111100011111111 &
#75
b11101000111111111111100011111111 &
#76
b1000 "
b11111100111111111111100011111111 &
#77
b0 "
b11111000111111110000100000000000 &
#78
b10 "
b11111000111111111111110011111111 &
#79
b11000000000001111110011111111 &
#80
b0 "
b11111000111111111110100011111111 &
#81
b10 "
b11000000000001111110011111111 &
#82
b0 "
b11111000111111110000100000000000 &
#83
b1000 "
b11111100000000000000100000000000 &
#84
b0 "
b1000000000001101100011111111 &
#85
b1000000000001111100011111111 &
#86
b10 "
b11111000111111111111110000000000 &
#87
b0 "
b1000000000001110100011111111 &
#88
b1000 "
b11111100111111111111100011111111 &
#89
b0 "
b11111000111111111110100011111111 &
#90
b10 "
b11111000111111111111110011111111 &
#92
b0 "
b11000000000001101100011111111 &
#93
b11111000111111111110100011111111 &
#94
b11111000111111110001100000000000 &
#95
b10 "
b101000000000001111110011111111 &
#96
b0 "
b11000000000001111100011111111 &
#97
b1000000000001110100011111111 &
#98
b10 "
b11101000111111111111110000000000 &
#99
b1000000000001111110011111111 &
#100
b0 "
b1000000000000001100000000000 &
1G
#101
b1000000000001111100011111111 &
#102
b10 "
b1000000000001111110000000000 &
#104
b11101000111111111111110000000000 &
#105
b11111000111111111111110011111111 &
#106
b0 "
b11011000111111110001100000000000 &
#107
b1000000000001111100011111111 &
#109
b1000000000000001100000000000 &
#110
b11011000111111111110100011111111 &
#111
b11111000111111110000100000000000 &
#113
b10 "
b11111000111111111111110011111111 &
#114
b1000 "
b11111100000000000000100000000000 &
#115
b11111100111111111111100011111111 &
#116
b11111100000000000000100000000000 &
#117
b0 "
b1000000000001111100011111111 &
#118
b11111000111111111110100011111111 &
#119
b11111000111111110000100000000000 &
#120
b10 "
b11111000111111111111110011111111 &
#121
b0 "
b1000000000000010100000000000 &
#122
b11111000111111111110100011111111 &
#123
b11011000111111110000100000000000 &
#124
b1000000000001111100011111111 &
#125
b10 "
b11111000111111111111110000000000 &
#126
b1000 "
b11111100111111111110100011111111 &
#127
b0 "
b11101000111111111111100011111111 &
#129
b1000000000001111100011111111 &
#130
b10 "
b1000000000001111110000000000 &
#131
b0 "
b11111000111111111110100011111111 &
#132
b1000000000001110100011111111 &
#133
b1000 "
b11111100111111111111100011111111 &
#134
b0 "
b1000000000001111100011111111 &
#136
b10 "
b101000000000001111110000000000 &
#137
b0 "
b1000000000001111100011111111 &
#139
b10 "
b1000000000001111110000000000 &
#140
b1000 "
b11111100111111111111100011111111 &
#141
b0 "
b11000000000001111100011111111 &
#142
b1000 "
b11111100111111111101100011111111 &
#143
b0 "
b11111000111111110000100000000000 &
#144
b1000 "
b11111100111111111110100011111111 &
#145
b11111100111111111111100011111111 &
#146
b0 "
b1000000000001111100011111111 &
#147
b1000 "
b11111100111111111111100011111111 &
#148
b0 "
b11101000111111110001100000000000 &
#149
b1000 "
b11111100111111111111100011111111 &
#150
b11111100000000000001100000000000 &
#151
b0 "
b11000000000001111100011111111 &
#152
b1000 "
b11111100111111111111100011111111 &
#154
b0 "
b11000000000001110100011111111 &
#155
b11111000111111111110100011111111 &
#156
b1000 "
b11111100000000000001100000000000 &
#157
b0 "
b1000000000001111100011111111 &
#158
b10 "
b11111000111111111111110000000000 &
#159
b0 "
b11111000111111111110100011111111 &
#160
b10 "
b1000000000001111110011111111 &
#161
b0 "
b11000000000001111100011111111 &
#162
b11000000000000000100000000000 &
#163
b101000000000001111100011111111 &
#164
b1000 "
b11111100111111111111100011111111 &
#165
b0 "
b11000000000000000100000000000 &
#166
b11111000111111110000100000000000 &
#167
b1000000000001110100011111111 &
#168
b10 "
b11101000111111111111110000000000 &
#169
b11011000111111111111110011111111 &
#170
b0 "
b11000000000000000100000000000 &
#171
b1000 "
b11111100000000000000100000000000 &
#172
b0 "
b11111000111111110001100000000000 &
#173
b11111000111111111110100011111111 &
#174
b1000 "
b11111100111111111110100011111111 &
#175
b0 "
b11101000111111111111100011111111 &
#176
b10 "
b1000000000001111110011111111 &
#177
b0 "
b11111000111111111110100011111111 &
#178
b11111000111111110001100000000000 &
#179
b10 "
b1000000000001111110011111111 &
#180
b0 "
b11101000111111111111100011111111 &
#181
b11011000111111111100100011111111 &
#182
b1000 "
b11111100000000000000100000000000 &
#183
b0 "
b11000000000001110100011111111 &
#184
b11111000111111110000100000000000 &
#185
b10 "
b11101000111111111111110011111111 &
#187
b0 "
b101000000000000000100000000000 &
#188
b101000000000001111100011111111 &
#190
b1000000000001111100011111111 &
#191
b10 "
b1000000000001111110000000000 &
#193
b0 "
b1000000000001110100011111111 &
#194
b10 "
b11111000111111111111110000000000 &
#195
b0 "
b11111000111111110001100000000000 &
#196
b1000 "
b11111100000000000000100000000000 &
#197
b10 "
b11011000111111110111110000000000 &
#198
b0 "
b101000000000000000100000000000 &
#199
b11000000000001101100011111111 &
#200
b11111000111111110000100000000000 &
#201
b10 "
b1000000000001111110011111111 &
#202
b11111000111111111111110000000000 &
#203
b11101000111111111111110011111111 &
#204
b0 "
b1000000000000001100000000000 &
#205
b1000000000001111100011111111 &
#206
b1000 "
b11111100000000000001100000000000 &
#207
b0 "
b1000000000001101100011111111 &
#208
b10 "
b11111000111111111111110000000000 &
#209
b0 "
b11111000111111110000100000000000 &
#210
b11101000111111110000100000000000 &
#211
b1000 "
b11111100111111111111100011111111 &
#212
b0 "
b1000000000000001100000000000 &
#213
b10 "
b11000000000001111110000000000 &
#214
b11101000111111111111110000000000 &
#215
b1000 "
b11111100111111111111100011111111 &
#218
b0 "
b11101000111111111111100011111111 &
#219
b10 "
b11111000111111111111110011111111 &
#220
b1000 "
b11111100000000000000100000000000 &
#222
b11111100111111111111100011111111 &
#225
b0 "
b11111000111111110001100000000000 &
#226
b10 "
b11000000000001111110011111111 &
#227
b1000 "
b11111100111111111111100011111111 &
#228
b0 "
b11111000111111111110100011111111 &
#229
b1000000000000010100000000000 &
#230
b1000000000000001100000000000 &
#231
b11111000111111111110100011111111 &
#232
b1000 "
b11111100000000000000100000000000 &
#233
b0 "
b1000000000001111100011111111 &
#234
b11111000111111111110100011111111 &
#235
b10 "
b11101000111111111111110011111111 &
#236
b1000 "
b11111100111111111111100011111111 &
#237
b0 "
b1000000000001110100011111111 &
#238
b1000000000001111100011111111 &
#239
b1000 "
b11111100111111111110100011111111 &
#240
b0 "
b11111000111111111110100011111111 &
#241
b10 "
b11111000111111111111110011111111 &
#242
b11111000111111110111110011111111 &
#243
b11111000111111111111110011111111 &
#244
b0 "
b11000000000001101100011111111 &
#245
b101000000000000000100000000000 &
#246
b1000 "
b11111100111111111111100011111111 &
#247
b11111100000000000000100000000000 &
#248
b0 "
b11111000111111110000100000000000 &
#249
b10 "
b11101000111111111111110011111111 &
#250
b0 "
b1000000000001111100011111111 &
#251
b1000 "
b11111100111111111111100011111111 &
#252
b0 "
b1000000000001111100011111111 &
#253
b11011000111111111110100011111111 &
#254
b11111000111111110000100000000000 &
#255
b10 "
b11000000000001111110011111111 &
#256
b0 "
b11000000000001111100011111111 &
#257
b1000 "
b11111100111111111111100011111111 &
#258
b11111100000000000000100000000000 &
#259
b0 "
b101000000000000000100000000000 &
#260
b11111000111111110000100000000000 &
#261
b10 "
b1000000000001111110011111111 &
#262
b0 "
b11000000000001111100011111111 &
#263
b11111000111111110000100000000000 &
#266
b11101000111111110010100000000000 &
#267
b1000 "
b11111100111111111111100011111111 &
#268
b0 "
b11111000111111111110100011111111 &
#269
b11111000111111110000100000000000 &
#270
b1000 "
b11111100000000000000100000000000 &
#271
b0 "
b1000000000001111100011111111 &
#272
b1000000000000001100000000000 &
#273
b1000000000001110100011111111 &
#274
b10 "
b1000000000001111110000000000 &
#275
b11101000111111111111110000000000 &
#276
b1000 "
b11111100000000000000100000000000 &
#277
b11111100111111111111100011111111 &
#278
b0 "
b11000000000001111100011111111 &
#279
b11111000111111111110100011111111 &
#280
b1000000000000001100000000000 &
#281
b1000 "
b11111100111111111110100011111111 &
#282
b0 "
b11111000111111110000100000000000 &
#283
b10 "
b11101000111111111111110011111111 &
#284
b1000 "
b11111100111111111111100011111111 &
#286
b0 "
b11101000111111111111100011111111 &
#287
b1000 "
b11111100111111111111100011111111 &
#288
b0 "
b11101000111111111111100011111111 &
#289
b1000 "
b11111100111111111111100011111111 &
#291
b0 "
b11000000000000000100000000000 &
#292
b10 "
b1000000000001111110000000000 &
#293
b11111000111111111111110000000000 &
#294
b11111000111111111111110011111111 &
#295
b1000 "
b11111100000000000000100000000000 &
#296
b0 "
b1000000000001110100011111111 &
#297
b10 "
b1000000000001111110000000000 &
#298
b0 "
b11111000111111110001100000000000 &
#299
b10 "
b11111000111111111111110011111111 &
#300
b1000 "
b11111100000000000000100000000000 &
#301
b0 "
b1000000000001111100011111111 &
#302
b11101000111111110001100000000000 &
#303
b1000 "
b11111100111111111111100011111111 &
#304
b0 "
b101000000000000000100000000000 &
#305
b1000000000001111100011111111 &
#306
b1000 "
b11111100111111111111100011111111 &
#307
b0 "
b11111000111111111110100011111111 &
#308
b11000000000000000100000000000 &
#309
b1000000000001111100011111111 &
#311
b1000 "
b11111100111111111111100011111111 &
#312
b0 "
b11101000111111110000100000000000 &
#313
b11111000111111110000100000000000 &
#314
b101000000000001110100011111111 &
#315
b1000 "
b11111100111111111111100011111111 &
#317
b0 "
b11111000111111110000100000000000 &
#318
b10 "
b11111000111111111111110011111111 &
#319
b0 "
b11101000111111110000100000000000 &
#320
b1000 "
b11111100111111111111100011111111 &
#321
b0 "
b11111000111111110000100000000000 &
#322
b11111000111111111110100011111111 &
#323
b10 "
b1000000000001111110011111111 &
#324
b1000 "
b11111100111111111111100011111111 &
#325
b0 "
b11111000111111110001100000000000 &
#326
b10 "
b11111000111111111111110011111111 &
#328
b0 "
b11101000111111110000100000000000 &
#329
b1000 "
b11111100111111111111100011111111 &
#330
b0 "
b11111000111111110001100000000000 &
#331
b1000000000000001100000000000 &
#332
b1000000000001110100011111111 &
#333
b1000000000001111100011111111 &
#334
b1000 "
b11111100111111111111100011111111 &
#335
b0 "
b1000000000001111100011111111 &
#336
b10 "
b11111000111111111111110000000000 &
#337
b0 "
b11111000111111110000100000000000 &
#338
b1000 "
b11111100000000000000100000000000 &
#339
b0 "
b11101000111111111111100011111111 &
#340
b11111000111111111101100011111111 &
#341
b10 "
b1000000000001111110011111111 &
#342
b11111000111111111111110000000000 &
#343
b0 "
b11111000111111110010100000000000 &
#344
b11111000111111110000100000000000 &
#345
b10 "
b11111000111111111111110011111111 &
#346
b0 "
b11111000111111110000100000000000 &
#347
b1000000000000010100000000000 &
#348
b101000000000000001100000000000 &
#349
b1000000000001111100011111111 &
#350
b11111000111111110001100000000000 &
#351
b11000000000000000100000000000 &
#353
b1000000000000010100000000000 &
#354
b11111000111111110001100000000000 &
#355
b1000 "
b11111100000000000000100000000000 &
#356
b0 "
b1000000000001111100011111111 &
#357
b101000000000001111100011111111 &
#358
b1000000000001111100011111111 &
#359
b11000000000001111100011111111 &
#360
b10 "
b11000000000001111110000000000 &
#361
b1000000000001111110000000000 &
#362
b0 "
b1000000000001111100011111111 &
#363
b10 "
b11111000111111111111110000000000 &
#364
b0 "
b11000000000000000100000000000 &
#365
b1000 "
b11111100111111111111100011111111 &
#366
b0 "
b1000000000001111100011111111 &
#367
b10 "
b11101000111111111111110000000000 &
#368
b0 "
b11000000000000000100000000000 &
#369
b10 "
b1000000000001111110000000000 &
#370
b0 "
b1000000000001110100011111111 &
#371
b1000000000001111100011111111 &
#373
b11101000111111110001100000000000 &
#374
b101000000000001111100011111111 &
#375
b1000 "
b11111100000000000001100000000000 &
#377
b11111100111111111111100011111111 &
#378
b0 "
b11111000111111110001100000000000 &
#379
b10 "
b1000000000001111110011111111 &
#380
b0 "
b11101000111111111111100011111111 &
#381
b11000000000001111100011111111 &
#382
b11101000111111111101100011111111 &
#383
b11101000111111110000100000000000 &
#384
b1000000000001111100011111111 &
#385
b1000 "
b11111100111111111111100011111111 &
#387
b0 "
b11101000111111110000100000000000 &
#388
b1000 "
b11111100111111111111100011111111 &
#390
b11111100111111111110100011111111 &
#391
b0 "
b1000000000001101100011111111 &
#392
b11000000000001110100011111111 &
#393
b11111000111111110000100000000000 &
#394
b1000000000001101100011111111 &
#395
b11111000111111110010100000000000 &
#396
b11000000000000000100000000000 &
#397
b11111000111111110000100000000000 &
#398
b10 "
b11111000111111111111110011111111 &
#399
b1000 "
b11111100000000000000100000000000 &
#400
b11111100111111111111100011111111 &
#401
b0 "
b1000000000001111100011111111 &
#402
b10 "
b1000000000001111110000000000 &
#404
b0 "
b1000000000000001100000000000 &
#405
b11111000111111111110100011111111 &
#406
b11111000111111110001100000000000 &
#407
b10 "
b1000000000000111110011111111 &
#408
b0 "
b1000000000001111100011111111 &
#409
b10 "
b11111000111111111111110000000000 &
#410
b0 "
b11000000000000000100000000000 &
#411
b11111000111111111110100011111111 &
#412
b10 "
b11111000111111111111110011111111 &
#413
b11101000111111111111110011111111 &
#414
b0 "
b1000000000000010100000000000 &
#415
b1000000000000001100000000000 &
#416
b1000000000001111100011111111 &
#417
b11000000000001111100011111111 &
#418
b1000000000001111100011111111 &
#419
b11101000111111110001100000000000 &
#420
b1000 "
b11111100111111111111100011111111 &
#421
b0 "
b11000000000000000100000000000 &
#422
b11000000000001111100011111111 &
#423
b10 "
b11000000000001111110000000000 &
#424
b101000000000001111110000000000 &
#425
b0 "
b1000000000001110100011111111 &
#426
b11000000000001111100011111111 &
#427
b11101000111111111111100011111111 &
#428
b10 "
b101000000000001111110011111111 &
#429
b1000 "
b11111100111111111111100011111111 &
#431
b0 "
b11000000000000000100000000000 &
#432
b10 "
b1000000000001111110000000000 &
#433
b11000000000001111110000000000 &
#434
b0 "
b11111000111111110000100000000000 &
#435
b11000000000000000100000000000 &
#436
b11101000111111111111100011111111 &
#437
b1000000000001111100011111111 &
#438
b10 "
b1000000000001111110000000000 &
#439
b0 "
b11111000111111111101100011111111 &
#440
b101000000000001110100011111111 &
#441
b1000000000001111100011111111 &
#442
b10 "
b11111000111111111111110000000000 &
#443
b0 "
b11111000111111110000100000000000 &
#444
b10 "
b11111000111111111111110011111111 &
#445
b0 "
b1000000000000010100000000000 &
#446
b1000000000001110100011111111 &
#447
b10 "
b11111000111111111111110000000000 &
#448
b1000 "
b11111100000000000000100000000000 &
#449
b11111100000000000001100000000000 &
#450
b11111100111111111111100011111111 &
#451
b0 "
b1000000000001111100011111111 &
#452
b1000000000000001100000000000 &
#453
b10 "
b1000000000001111110000000000 &
#454
b1000 "
b11111100111111111111100011111111 &
#455
b0 "
b11111000111111110001100000000000 &
#456
b1000000000000010100000000000 &
#457
b11111000111111110010100000000000 &
#458
b10 "
b1000000000001111110011111111 &
#459
b1000000000001111110000000000 &
#460
b0 "
b11111000111111110001100000000000 &
#461
b11111000111111110000100000000000 &
#462
b10 "
b11111000111111111111110011111111 &
#463
b1000 "
b11111100000000000000100000000000 &
#464
b0 "
b1000000000000001100000000000 &
#465
b11111000111111110001100000000000 &
#466
b11111000111111110000100000000000 &
#467
b1000 "
b11111100000000000000100000000000 &
#468
b0 "
b101000000000000000100000000000 &
#469
b11101000111111110000100000000000 &
#470
b1000000000000001100000000000 &
#471
b1000 "
b11111100111111111111100011111111 &
#473
b11111100000000000001100000000000 &
#474
b0 "
b11000000000000000100000000000 &
#476
b1000000000001111100011111111 &
#477
b11111000111111110001100000000000 &
#478
b10 "
b101000000000001111110011111111 &
#479
b1000 "
b11111100111111111110100011111111 &
#480
b0 "
b11111000111111111110100011111111 &
#481
b10 "
b11000000000001111110011111111 &
#482
b1000 "
b11111100000000000000100000000000 &
#483
b11111100111111111111100011111111 &
#484
b0 "
b11000000000001111100011111111 &
#485
b10 "
b11000000000001111110000000000 &
#486
b0 "
b1000000000001111100011111111 &
#487
b1000 "
b11111100000000000001100000000000 &
#488
b0 "
b1000000000000001100000000000 &
#489
b11000000000001111100011111111 &
#490
b11101000111111111111100011111111 &
#491
b1000000000001111100011111111 &
#492
b1000 "
b11111100111111111111100011111111 &
#493
b0 "
b1000000000001110100011111111 &
#494
b1000000000000001100000000000 &
#495
b11101000111111111111100011111111 &
#496
b11111000111111110000100000000000 &
#497
b11101000111111110001100000000000 &
#498
b11101000111111110000100000000000 &
#500
b11000000000001111100011111111 &
#501
b11111000111111110000100000000000 &
#502
b10 "
b1000000000001111110011111111 &
#503
b0 "
b1000000000001110100011111111 &
#504
b11111000111111110001100000000000 &
#505
b10 "
b1000000000001111110011111111 &
#506
b11000000000001111110000000000 &
#507
b0 "
b1000000000001111100011111111 &
#508
b10 "
b11101000111111111111110000000000 &
#509
b0 "
b11111000111111110000100000000000 &
#510
b1000000000000001100000000000 &
#511
b10 "
b11111000111111111111110000000000 &
#512
b1000000000000111110011111111 &
#513
b0 "
b11101000111111111111100011111111 &
#514
b1000000000001111100011111111 &
#515
b10 "
b1000000000001111110000000000 &
#517
b11101000111111111111110000000000 &
#518
b0 "
b11111000111111110000100000000000 &
#519
b10 "
b1000000000001111110011111111 &
#520
b1000000000001111110000000000 &
#521
b0 "
b11101000111111110010100000000000 &
#522
b11000000000000010100000000000 &
#523
b101000000000001111100011111111 &
#524
b1000 "
b11111100111111111111100011111111 &
#525
b0 "
b1000000000001111100011111111 &
#526
b10 "
b11101000111111111111110000000000 &
#527
b1000 "
b11111100111111111111100011111111 &
#529
b0 "
b1000000000001110100011111111 &
#531
b1000 "
b11111100111111111110100011111111 &
#532
b0 "
b11000000000000000100000000000 &
#533
b1000 "
b11111100000000000000100000000000 &
#534
b0 "
b11101000111111110001100000000000 &
#535
b101000000000000000100000000000 &
#536
b101000000000000001100000000000 &
#537
b11111000111111111110100011111111 &
#538
b1000 "
b11111100000000000000100000000000 &
#539
b0 "
b1000000000001110100011111111 &
#540
b1000 "
b11111100111111111111100011111111 &
#541
b11111100111111111110100011111111 &
#542
b10 "
b11111000111111110111110011111111 &
#543
b0 "
b1000000000001101100011111111 &
#544
b10 "
b11111000111111111111110000000000 &
#545
b0 "
b11111000111111111110100011111111 &
#546
b10 "
b1000000000001111110011111111 &
#547
b1000000000001111110000000000 &
#548
b1000 "
b11111100111111111111100011111111 &
#549
b0 "
b11101000111111111111100011111111 &
#550
b101000000000000000100000000000 &
#551
b101000000000001110100011111111 &
#552
b1000000000000001100000000000 &
#553
b1000000000001111100011111111 &
#554
b10 "
b1000000000001111110000000000 &
#555
b0 "
b1000000000000001100000000000 &
#556
b10 "
b11011000111111111111110000000000 &
#557
b0 "
b1000000000001111100011111111 &
#558
b1000 "
b11111100111111111111100011111111 &
#559
b0 "
b1000000000001111100011111111 &
#560
b11111000111111110001100000000000 &
#561
b10 "
b11000000000001111110011111111 &
#562
b11101000111111111111110000000000 &
#563
b1000 "
b11111100111111111111100011111111 &
#564
b0 "
b1000000000001111100011111111 &
#565
b10 "
b11000000000001111110000000000 &
#566
b1000 "
b11111100111111111111100011111111 &
#567
b0 "
b11000000000000000100000000000 &
#568
b1000000000001111100011111111 &
#569
b11101000111111111111100011111111 &
#570
b1000000000001111100011111111 &
#572
b1000 "
b11111100111111111111100011111111 &
#573
b0 "
b1000000000000001100000000000 &
#574
b1000 "
b11111100111111111111100011111111 &
#575
b11111100000000000000100000000000 &
#576
b11111100111111111111100011111111 &
#578
b0 "
b11111000111111110000100000000000 &
#579
b10 "
b11101000111111111111110011111111 &
#580
b1000 "
b11111100111111111111100011111111 &
#581
b0 "
b11101000111111111111100011111111 &
#582
b11101000111111110000100000000000 &
#583
b1000 "
b11111100000000000001100000000000 &
#585
b11111100111111111111100011111111 &
#586
b0 "
b1000000000001111100011111111 &
#588
b1000 "
b11111100111111111111100011111111 &
#589
b0 "
b11011000111111111110100011111111 &
#590
b10 "
b1000000000001111110011111111 &
#591
b0 "
b1000000000001111100011111111 &
#592
b11101000111111111111100011111111 &
#593
b11111000111111111101100011111111 &
#594
b11111000111111110000100000000000 &
#595
b1000 "
b11111100000000000001100000000000 &
#596
b11111100111111111111100011111111 &
#597
b11111100000000000000100000000000 &
#598
b11111100111111111111100011111111 &
#599
b11111100000000000000100000000000 &
#600
b11111100111111111111100011111111 &
#601
b0 "
b11000000000000000100000000000 &
#602
b1000 "
b11111100111111111111100011111111 &
#603
b11111100000000000000100000000000 &
#605
b0 "
b1000000000001110100011111111 &
#606
b1000 "
b11111100111111111111100011111111 &
#607
b0 "
b1000000000000001100000000000 &
#608
b11000000000001111100011111111 &
#609
b11111000111111110000100000000000 &
#610
b10 "
b1000000000001111110011111111 &
#611
b1000000000001111110000000000 &
#613
b0 "
b11000000000001111100011111111 &
#614
b10 "
b11111000111111111111110000000000 &
#615
b0 "
b11111000111111110001100000000000 &
#616
b101000000000000000100000000000 &
#617
b1000 "
b11111100000000000000100000000000 &
#618
b11111100111111111111100011111111 &
#619
b0 "
b11111000111111110000100000000000 &
#621
b1000 "
b11111100000000000001100000000000 &
#622
b11111100111111111111100011111111 &
#623
b0 "
b11111000111111110001100000000000 &
#624
b11011000111111110001100000000000 &
#625
b1000000000001111100011111111 &
#626
b1000 "
b11111100111111111111100011111111 &
#627
b0 "
b11111000111111111110100011111111 &
#628
b11000000000000000100000000000 &
#629
b11111000111111110000100000000000 &
#630
b10 "
b11111000111111111111110011111111 &
#631
b1000 "
b11111100111111111110100011111111 &
#632
b11111100111111111111100011111111 &
#633
b0 "
b11111000111111110001100000000000 &
#634
b10 "
b11000000000001111110011111111 &
#635
b0 "
b1000000000001111100011111111 &
#636
b1000000000000001100000000000 &
#637
b11111000111111110001100000000000 &
#638
b10 "
b11111000111111111111110011111111 &
#640
b0 "
b11011000111111110000100000000000 &
#641
b11101000111111110000100000000000 &
#642
b1000000000001111100011111111 &
#643
b10 "
b1000000000001111110000000000 &
#644
b0 "
b11111000111111110001100000000000 &
#645
b10 "
b11111000111111111111110011111111 &
#646
b1000000000001111110011111111 &
#647
b11111000111111110111110000000000 &
#648
b1000 "
b11111100000000000000100000000000 &
#649
b11111100111111111110100011111111 &
#650
b0 "
b1000000000000001100000000000 &
#651
b11000000000001110100011111111 &
#652
b1000000000001111100011111111 &
#653
b1000 "
b11111100111111111111100011111111 &
#654
b0 "
b1000000000001111100011111111 &
#655
b1000 "
b11111100111111111111100011111111 &
#657
b0 "
b1000000000001111100011111111 &
#659
b10 "
b11101000111111111111110000000000 &
#660
b1000 "
b11111100000000000001100000000000 &
#661
b11111100000000000000100000000000 &
#662
b0 "
b1000000000000001100000000000 &
#663
b10 "
b11101000111111111111110000000000 &
#664
b0 "
b1000000000000011100000000000 &
#665
b10 "
b1000000000001111110000000000 &
#666
b1000 "
b11111100111111111111100011111111 &
#667
b0 "
b1000000000001111100011111111 &
#668
b1000 "
b11111100111111111111100011111111 &
#669
b0 "
b1000000000001110100011111111 &
#670
b1000000000001111100011111111 &
#672
b1000000000001110100011111111 &
#673
b1000 "
b11111100111111111111100011111111 &
#674
b0 "
b11101000111111111111100011111111 &
#675
b1000000000001111100011111111 &
#676
b1000000000001110100011111111 &
#677
b10 "
b11111000111111110111110000000000 &
#678
b0 "
b11111000111111110001100000000000 &
#679
b1000 "
b11111100000000000000100000000000 &
#680
b11111100111111111111100011111111 &
#681
b0 "
b11111000111111110000100000000000 &
#682
b10 "
b1000000000001111110011111111 &
#683
b0 "
b11101000111111111111100011111111 &
#684
b11000000000000000100000000000 &
#685
b1000000000000010100000000000 &
#686
b11101000111111111111100011111111 &
#687
b1000 "
b11111100000000000000100000000000 &
#689
b0 "
b1000000000000001100000000000 &
#690
b1000000000001101100011111111 &
#691
b1000 "
b11111100111111111111100011111111 &
#692
b10 "
b11000000000000111110011111111 &
#693
b0 "
b11000000000001111100011111111 &
#694
b1000 "
b11111100000000000000100000000000 &
#695
b0 "
b11111000111111111110100011111111 &
#696
b11111000111111110000100000000000 &
#697
b10 "
b11101000111111111111110011111111 &
#698
b11000000000001111110011111111 &
#699
b1000 "
b11111100111111111111100011111111 &
#700
b0 "
b11101000111111111111100011111111 &
#701
b1000 "
b11111100000000000000100000000000 &
#702
b0 "
b11111000111111111110100011111111 &
#703
b1000 "
b11111100000000000000100000000000 &
#704
b11111100111111111111100011111111 &
#705
b0 "
b11111000111111110000100000000000 &
#706
b1000 "
b11111100000000000001100000000000 &
#707
b0 "
b11101000111111111111100011111111 &
#708
b101000000000001111100011111111 &
#709
b1000000000001111100011111111 &
#710
b10 "
b11101000111111111111110000000000 &
#711
b0 "
b1000000000001111100011111111 &
#712
b11111000111111111110100011111111 &
#713
b1000000000000001100000000000 &
#714
b1000000000001111100011111111 &
#715
b10 "
b11111000111111111111110000000000 &
#716
b0 "
b11000000000000000100000000000 &
#717
b1000 "
b11111100111111111111100011111111 &
#718
b0 "
b11111000111111110000100000000000 &
#719
b10 "
b1000000000001111110011111111 &
#720
b1000 "
b11111100111111111111100011111111 &
#722
b10 "
b11111000111111110111110011111111 &
#723
b0 "
b1000000000001110100011111111 &
#724
b11111000111111111110100011111111 &
#725
b10 "
b11111000111111111111110011111111 &
#726
b11101000111111111111110011111111 &
#727
b0 "
b1000000000001111100011111111 &
#728
b11111000111111110010100000000000 &
#729
b11101000111111110001100000000000 &
#730
b1000 "
b11111100111111111111100011111111 &
#731
b0 "
b11111000111111110000100000000000 &
#732
b10 "
b1000000000001111110011111111 &
#733
b0 "
b11000000000001101100011111111 &
#734
b1000000000001111100011111111 &
#735
b10 "
b1000000000001111110000000000 &
#736
b11000000000001111110000000000 &
#737
b0 "
b11111000111111110000100000000000 &
#738
b101000000000000000100000000000 &
#740
b1000000000001111100011111111 &
#741
b1000 "
b11111100111111111111100011111111 &
#742
b0 "
b1000000000001111100011111111 &
#743
b1000 "
b11111100111111111110100011111111 &
#744
b0 "
b11000000000001110100011111111 &
#745
b1000 "
b11111100111111111111100011111111 &
#747
b0 "
b1000000000001111100011111111 &
#748
b11111000111111110010100000000000 &
#749
b1000 "
b11111100000000000000100000000000 &
#750
b0 "
b11111000111111110000100000000000 &
#751
b11101000111111110001100000000000 &
#752
b11000000000000000100000000000 &
#753
b11011000111111111111100011111111 &
#754
b11101000111111110000100000000000 &
#755
b1000 "
b11111100111111111111100011111111 &
#756
b0 "
b1000000000001110100011111111 &
#757
b10 "
b11101000111111111111110000000000 &
#758
b0 "
b11101000111111111111100011111111 &
#759
b11111000111111110000100000000000 &
