11_cs_nwe _channel4/project_1/.Xil/Vivado-6896-GL-0301-949/hw_ila_data_1/zip_work/waveform.vcd
$date
        2023-Aug-07 11:07:15
$end
$version
        Vivado v2018.3 (64-bit)
$end
$timescale
        1ps
$end
$scope module dut $end
$var reg 16 " u3_adc_analysis/adc1_a1_1 [15:0] $end
$var reg 16 2 u3_adc_analysis/adc1_a2_1 [15:0] $end
$var reg 16 B u3_adc_analysis/adc1_a3_1 [15:0] $end
$var reg 16 R u3_adc_analysis/adc1_a4_1 [15:0] $end
$var reg 16 b u3_adc_analysis/adc1_a1_2 [15:0] $end
$var reg 16 r u3_adc_analysis/adc1_a2_2 [15:0] $end
$var reg 16 $" u3_adc_analysis/adc1_a3_2 [15:0] $end
$var reg 16 4" u3_adc_analysis/adc1_a4_2 [15:0] $end
$var reg 16 D" u3_adc_analysis/adc1_b1_1 [15:0] $end
$var reg 16 T" u3_adc_analysis/adc1_b2_1 [15:0] $end
$var reg 16 d" u3_adc_analysis/adc1_b3_1 [15:0] $end
$var reg 16 t" u3_adc_analysis/adc1_b4_1 [15:0] $end
$var reg 16 &# u3_adc_analysis/adc1_b1_2 [15:0] $end
$var reg 16 6# u3_adc_analysis/adc1_b2_2 [15:0] $end
$var reg 16 F# u3_adc_analysis/adc1_b3_2 [15:0] $end
$var reg 16 V# u3_adc_analysis/adc1_b4_2 [15:0] $end
$var reg 1 f# u3_adc_analysis/adc_en_vio_2 $end
$var reg 1 g# _TRIGGER $end
$var reg 1 h# _WINDOW $end
$var reg 1 i# _GAP $end
$upscope $end
$enddefinitions $end
#0
$dumpvars
b1010000000111000 "
b1010000101000000 2
b1010101011010000 B
b1011110010011110 R
b1101010100000100 b
b1111000101111000 r
b111011001110 $"
b10101000001000 4"
b11000 D"
b10110 T"
b1111111111111100 d"
b100 t"
b1000 &#
b10110 6#
b1111111111101100 F#
b10100 V#
0f#
0g#
1h#
0i#
$end
#1
b100000111101110 "
b101001100101000 2
b101110011001100 B
b101111000100110 R
b101011011011100 b
b100011011001000 r
b10111010111110 $"
b1001001000100 4"
b1111111111111000 D"
b1111111111110010 t"
b11000 &#
b1110 F#
b100 V#
#2
b1111001000100100 "
b1101010001101100 2
b1011101000111000 B
b1010100010010100 R
b1010000000101000 b
b1010000100100000 r
b1010101011000000 $"
b1011110001101110 4"
b1111111111011100 D"
b1111111111110100 T"
b10100 t"
b1000 &#
b1111111111110100 6#
b1111111111111100 F#
#3
b1101010100110100 "
b1111000101111000 2
b111011111110 B
b10100111010100 R
b100000111011110 b
b101001101001100 r
b101110011101100 $"
b101111000010110 4"
b1111111111001100 D"
b1111111111101100 d"
b100100 t"
b1111111111111000 &#
b10110 6#
b1111111111101100 F#
#4
b101011010101100 "
b100011010111000 2
b10111010101110 B
b1001000010100 R
b1111000111110100 b
b1101010001101100 r
b1011101001011000 $"
b1010100010000100 4"
b1111111111111000 D"
b110 T"
b1111111111100010 t"
b1111111111011100 F#
b1111111111010000 V#
#5
b1001111111111000 "
b1010000101000000 2
b1010101011100000 B
b1011110011001110 R
b1101010101000100 b
b1111000100111000 r
b111100011110 $"
b10100110110100 4"
b1000 D"
b10110 T"
b11110 d"
b1111111111010000 t"
b1000 &#
b110 6#
b1111111111111100 F#
b100 V#
#6
b100000111011110 "
b101001100111000 2
b101110100001100 B
b101111000110110 R
b101011010111100 b
b100011011001000 r
b10111011011110 $"
b1001000110100 4"
b110 T"
b1110 d"
b100 t"
b100110 6#
b1111111111011100 F#
#7
b1111001000010100 "
b1101001111111000 2
b1011101001011000 B
b1010100010010100 R
b1010000000101000 b
b1010000011110000 r
b1010101100010000 $"
b1011110010011110 4"
b11000 D"
b1111111111101100 d"
b1111111111111000 &#
b110 6#
b1111111111101100 F#
b1111111111100010 V#
#8
b1101010100010100 "
b1111000100001000 2
b111011011110 B
b10100111000100 R
b100000110101110 b
b101001011101000 r
b101110011101100 $"
b101111000100110 4"
b1000 D"
b1111111111100100 T"
b1111111111100010 t"
b1000 &#
b10110 6#
b1111111111111100 F#
#9
b101011011011100 "
b100011011011000 2
b10111011001110 B
b1001000010100 R
b1111000111100100 b
b1101010000101000 r
b1011101001101000 $"
b1010100010100100 4"
b1111111111001100 D"
b110 T"
b11110 d"
b1111111111011100 &#
b110 6#
b1110 F#
b100 V#
#10
b1010000000001000 "
b1010000100100000 2
b1010101100100000 B
b1011110010101110 R
b1101010101000100 b
b1111000101011000 r
b111011111110 $"
b10100111100100 4"
b1111111111111000 D"
b100110 T"
b1110 d"
b1111111111110010 t"
b1111111111111000 &#
b1111111111110100 6#
b1111111111101100 F#
b1111111111110010 V#
#11
b100000111011110 "
b101001100011000 2
b101110011101100 B
b101111000010110 R
b101011011011100 b
b100011100001000 r
b10111010011110 $"
b1001000110100 4"
b1000 D"
b110 T"
b100 t"
b11000 &#
b100110 6#
b1111111111011100 F#
b1111111111100010 V#
#12
b1111001001000100 "
b1101010001101100 2
b1011101001011000 B
b1010100010100100 R
b1010000000101000 b
b1010000100010000 r
b1010101100000000 $"
b1011110001111110 4"
b1111111111101100 d"
b1111111111111000 &#
b110 6#
b1110 F#
#13
b1101010100110100 "
b1111000101011000 2
b111011111110 B
b10101000001000 R
b100000111101110 b
b101001011111000 r
b101110011111100 $"
b101111001010110 4"
b1111111111111000 D"
b1111111111110100 T"
b1110 d"
b1111111111110010 t"
b1000 &#
b1111111111111100 F#
b100 V#
#14
b101011011111100 "
b100011011111000 2
b10111011001110 B
b1001001000100 R
b1111001000110100 b
b1101010001001100 r
b1011101001011000 $"
b1010100010100100 4"
b10110 T"
b1111111111101100 d"
b1111111111101000 &#
b1111111111110100 6#
b1111111111101100 F#
#15
b1010000000101000 "
b1010000100110000 2
b1010101011100000 B
b1011110001111110 R
b1101010101000100 b
b1111000101001000 r
b111011001110 $"
b10100111010100 4"
b1000 D"
b110 T"
b100100 t"
b1111111111111000 &#
b100110 6#
b1110 F#
b100100 V#
#16
b100000111111110 "
b101001100111000 2
b101110100001100 B
b101111001010110 R
b101011010101100 b
b100011011011000 r
b10111011111010 $"
b1001001000100 4"
b1111111111111100 d"
b1111111111110100 6#
b1111111111111100 F#
#17
b1111001000100100 "
b1101010001001100 2
b1011101001011000 B
b1010100001110100 R
b1010000000011000 b
b1010000101010000 r
b1010101100110000 $"
b1011110010011110 4"
b1111111111101000 D"
b100110 T"
b10100 t"
b1000 &#
b10100 V#
#18
b1101010101010100 "
b1111000100111000 2
b111100101110 B
b10100111100100 R
b100000111111110 b
b101001100101000 r
b101110011111100 $"
b101111000110110 4"
b1111111111111000 D"
b110 T"
b1111111111101100 d"
b100100 t"
b1111111111111000 &#
b1110 F#
b1111111111110010 V#
#19
b101011011011100 "
b100011011011000 2
b10111010101110 B
b1001000110100 R
b1111000111110100 b
b1101010000001000 r
b1011101001011000 $"
b1010100010010100 4"
b1111111111110100 T"
b1111111111111100 d"
b1111111111110010 t"
b11000 &#
b1111111111011100 F#
b100 V#
#20
b1010000000101000 "
b1010000100010000 2
b1010101011110000 B
b1011110010001110 R
b1101010100100100 b
b1111000100111000 r
b111100001110 $"
b10100111010100 4"
b11000 D"
b1110 d"
b100 t"
b1111111111101000 &#
b1111111111010100 6#
b1111111111111100 F#
#21
b100000110111110 "
b101001100011000 2
b101110100101100 B
b101111001010110 R
b101011010111100 b
b100011011101000 r
b10111011101010 $"
b1001001000100 4"
b1111111111101000 D"
b110 T"
b1111111111011100 d"
b1000 &#
b10110 6#
b1111111111101100 F#
b1111111111100010 V#
#22
b1111000111010100 "
b1101010000111100 2
b1011101001011000 B
b1010100010010100 R
b1010000000011000 b
b1010000101000000 r
b1010101011000000 $"
b1011110010001110 4"
b1111111111111000 D"
b1111111111110100 T"
b1111111111111100 d"
b1111111111100010 t"
b1111111111001100 &#
b1111111111110100 6#
b1111111111001010 F#
b10100 V#
#23
b1101010101000100 "
b1111000101001000 2
b111100001110 B
b10100111010100 R
b100000111001110 b
b101001101001100 r
b101110011101100 $"
b101111000110110 4"
b11000 D"
b110 T"
b1111111111011100 d"
b1111111111111000 &#
b110 6#
b1110 F#
b1111111111110010 V#
#24
b101011011001100 "
b100011011101000 2
b10111100001010 B
b1001001000100 R
b1111001000000100 b
b1101010001001100 r
b1011101001011000 $"
b1010100010010100 4"
b1000 D"
b1111111111111100 d"
b10100 t"
b11000 &#
b1111111111110100 6#
b1111111111111100 F#
b100 V#
#25
b1010000000011000 "
b1010000100100000 2
b1010101011110000 B
b1011110001111110 R
b1101010100010100 b
b1111000101011000 r
b111011101110 $"
b10100111100100 4"
b100110 T"
b1111111111101100 d"
b1111111111111000 &#
b1111111111011100 F#
#26
b100000111101110 "
b101001100111000 2
b101110011101100 B
b101111000110110 R
b101011011011100 b
b100011011011000 r
b10111011001110 $"
b1001000010100 4"
b1111111111111000 D"
b10110 T"
b1111111111111100 d"
b1111111111100010 t"
b1111111111011100 &#
b110 6#
b1111111111101100 F#
b100100 V#
#27
b1111001000000100 "
b1101010001001100 2
b1011101001001000 B
b1010100010000100 R
b1001111111111000 b
b1010000100100000 r
b1010101011110000 $"
b1011110010111110 4"
b110 T"
b100100 t"
b1111111111111000 &#
b1110 F#
b100 V#
#28
b1101010101000100 "
b1111000101111000 2
b111100001110 B
b10100111000100 R
b100000111101110 b
b101001101001100 r
b101110011101100 $"
b101111000110110 4"
b1111111111100100 T"
b100 t"
b11000 &#
b1111111111110100 6#
b1111111111111100 F#
#29
b101011011001100 "
b100011011011000 2
b10111011001010 B
b1001000100100 R
b1111001000010100 b
b1101010001011100 r
b1011101001101000 $"
b1010100010000100 4"
b110 T"
b1111111111101100 d"
b1111111111100010 t"
b101000 &#
b110 6#
b1110 F#
b1111111111110010 V#
#30
b1001111111111000 "
b1010000100100000 2
b1010101011110000 B
b1011110001111110 R
b1101010100000100 b
b1111000101011000 r
b111011111110 $"
b10100111010100 4"
b10110 T"
b1111111111111100 d"
b10100 t"
b1111111111111000 &#
b1111111111110100 6#
b1111111111111100 F#
b100 V#
#31
b100000111111110 "
b101001100011000 2
b101110011111100 B
b101111001000110 R
b101011011011100 b
b100011010111000 r
b10111001111110 $"
b1001000110100 4"
b1000 D"
b110 T"
b1111111111101100 d"
b1111111111110010 t"
b1111111111110010 V#
#32
b1111001000010100 "
b1101010000011000 2
b1011101001011000 B
b1010100001100100 R
b1001111111111000 b
b1010000100000000 r
b1010101011100000 $"
b1011110010101110 4"
b1111111111111000 D"
b10110 T"
b1110 d"
b10100 t"
b1000 &#
b110 6#
b1111111111101100 F#
b100 V#
#33
b1101010101010100 "
b1111000101111000 2
b111100011110 B
b10100111010100 R
b100000111001110 b
b101001100011000 r
b101110011011100 $"
b101111000010110 4"
b110 T"
b1111111111111100 d"
b100100 t"
b1111111111111000 &#
#34
b101011010111100 "
b100011010111000 2
b10111010011110 B
b1001000010100 R
b1111001000000100 b
b1101010001001100 r
b1011101001101000 $"
b1010100010000100 4"
b10110 T"
b1111111111101100 d"
b1111111111110010 t"
b1111111111011100 &#
b1111111111111100 F#
#35
b1010000000011000 "
b1010000100000000 2
b1010101011010000 B
b1011110010011110 R
b1101010100100100 b
b1111000101011000 r
b111011001110 $"
b10100110110100 4"
b1000 D"
b100 t"
b1111111111111000 &#
b11110 F#
#36
b100000110101110 "
b101001100111000 2
b101110011111100 B
b101111000010110 R
b101011010001100 b
b100011010101000 r
b10111011001110 $"
b1001000100100 4"
b1111111111110100 T"
b1111111111111100 d"
b1111111111100010 t"
b1111111111110100 6#
b1111111111011100 F#
#37
b1111001001000100 "
b1101010000011100 2
b1011101001011000 B
b1010100010010100 R
b1010000000011000 b
b1010000100100000 r
b1010101011100000 $"
b1011110010101110 4"
b11000 D"
b110 T"
b1111111111101100 d"
b1111111111110010 t"
b100110 6#
b1111111111101100 F#
b10100 V#
#38
b1101010100100100 "
b1111000101111000 2
b111011101110 B
b10100111000100 R
b100000111111110 b
b101001011111000 r
b101110011111100 $"
b101111001000110 4"
b1000 D"
b1111111111111100 d"
b100 t"
b1111111111101000 &#
b1111111111110100 6#
b100 V#
#39
b101011010111100 "
b100011011011000 2
b10111010011110 B
b1001000010100 R
b1111000110110100 b
b1101001111111000 r
b1011101001111000 $"
b1010100010010100 4"
b1111111111011100 D"
b100110 T"
b1111111111101100 d"
b1111111111110010 t"
b11000 &#
b100110 6#
b11110 F#
#40
b1001111111111000 "
b1010000100110000 2
b1010101011010000 B
b1011110001111110 R
b1101010100110100 b
b1111000101011000 r
b111011101110 $"
b10100110110100 4"
b1111111111110100 T"
b1111111111111100 d"
b1111111111100010 t"
b10110 6#
b1111111111111100 F#
#41
b100000111101110 "
b101001100011000 2
b101110011011100 B
b101111001000110 R
b101011010111100 b
b100011010011000 r
b10111010101110 $"
b1001001000100 4"
b1000 D"
b110 T"
b10100 t"
b1111111111001100 &#
#42
b1111000111110100 "
b1101010000111100 2
b1011101001011000 B
b1010100010000100 R
b1010000000011000 b
b1010000100100000 r
b1010101100010000 $"
b1011110010101110 4"
b1111111111100100 T"
b1110 d"
b1111111111100010 t"
b1000 &#
b1111111111110100 6#
b1111111111110010 V#
#43
b1101010100100100 "
b1111000100111000 2
b111011111110 B
b10100111100100 R
b100001000001110 b
b101001100001000 r
b101110011001100 $"
b101111000110110 4"
b1111111111111000 D"
b10110 T"
b100 t"
b1111111111111000 &#
b1110 F#
#44
b101011011101100 "
b100011010111000 2
b10111010001110 B
b1001000110100 R
b1111001001000100 b
b1101010000001000 r
b1011101001001000 $"
b1010100010110100 4"
b1000 D"
b110 T"
b1111111111111100 d"
b1111111111110010 t"
b1000 &#
b10110 6#
b1111111111101100 F#
b100100 V#
#45
b1010000001011000 "
b1010000100100000 2
b1010101011110000 B
b1011110010001110 R
b1101010100100100 b
b1111000110001000 r
b111011111110 $"
b10100110010100 4"
b10110 T"
b1110 d"
b100 t"
b1111111111111000 &#
b1111111111110100 6#
b1111111111110010 V#
#46
b100000111011110 "
b101001101011100 2
b101110011011100 B
b101111000010110 R
b101011010101100 b
b100011011111000 r
b10111010101110 $"
b1001000110100 4"
b110 T"
b1111111111111100 d"
b1111111111110010 t"
b1111111111101000 &#
b1110 F#
b1111111111100010 V#
#47
b1111001000010100 "
b1101010000101000 2
b1011101001101000 B
b1010100010000100 R
b1010000000001000 b
b1010000100110000 r
b1010101011100000 $"
b1011110001101110 4"
b1111111111110100 T"
b1111111111111000 &#
b110 6#
b1111111111101100 F#
b100 V#
#48
b1101010101000100 "
b1111000101101000 2
b111011111110 B
b10100111100100 R
b100000110111110 b
b101001100111000 r
b101110011011100 $"
b101111000010110 4"
b1111111111111000 D"
b110 T"
b1111111111101100 d"
b1000 &#
b1111111111110100 6#
b1111111111111100 F#
#49
b101011010111100 "
b100011011001000 2
b10111010111110 B
b1001001000100 R
b1111001000010100 b
b1101010001001100 r
b1011101001111000 $"
b1010100010010100 4"
b100110 T"
b1111111111111100 d"
b1111111111100010 t"
b10110 6#
b1110 F#
b1111111111110010 V#
#50
b1010000000011000 "
b1010000100000000 2
b1010101100100000 B
b1011110011001110 R
b1101010101101100 b
b1111000101011000 r
b111011101110 $"
b10100111110100 4"
b1000 D"
b110 T"
b1110 d"
b100 t"
b11000 &#
b1111111111110100 6#
b1111111111111100 F#
#51
b100000111111110 "
b101001101011100 2
b101110011001100 B
b101111000000110 R
b101011011001100 b
b100011011011000 r
b10111010101110 $"
b1001000110100 4"
b1111111111011100 D"
b1111111111100100 T"
b100110 6#
b100 V#
#52
b1111001000010100 "
b1101010001101100 2
b1011101001011000 B
b1010100001110100 R
b1010000000001000 b
b1010000100110000 r
b1010101011100000 $"
b1011110001101110 4"
b11000 D"
b110 T"
b1111111111101100 d"
b110 6#
b1111111111101100 F#
b10100 V#
#53
b1101010100110100 "
b1111000101101000 2
b111011111110 B
b10100111100100 R
b100000111001110 b
b101001100111000 r
b101110010101100 $"
b101111001000110 4"
b1111111111111000 D"
b1111111111111100 d"
b1000 &#
b10110 6#
b1110 F#
#54
b101011001111100 "
b100011011001000 2
b10111010011110 B
b1001001100100 R
b1111001000100100 b
b1101010000001000 r
b1011101001001000 $"
b1010100001110100 4"
b11000 D"
b10110 T"
b1110 d"
b11000 &#
b110 6#
b1111111111101100 F#
b1111111111100010 V#
#55
b1001111111111000 "
b1010000100100000 2
b1010101100000000 B
b1011110010101110 R
b1101010101000100 b
b1111000101011000 r
b111011101110 $"
b10101000000100 4"
b1111111111111100 d"
b1111111111101000 &#
b1111111111111100 F#
b100 V#
#56
b100000111111110 "
b101001100101000 2
b101110100011100 B
b101111001100110 R
b101011011011100 b
b100011010101000 r
b10111010001110 $"
b1000111110000 4"
b1111111111111000 D"
b110 T"
b10100 t"
b1111111110111100 &#
b1110 F#
b100100 V#
#57
b1111000111100100 "
b1101010001101100 2
b1011101001101000 B
b1010100010010100 R
b1001111111111000 b
b1010000011110000 r
b1010101100010000 $"
b1011110010001110 4"
b1000 D"
b10110 T"
b11000 &#
b1111111111110010 V#
#58
b1101010101010100 "
b1111000101011000 2
b111100011110 B
b10100111110100 R
b100000111111110 b
b101001100101000 r
b101110011011100 $"
b101111000110110 4"
b1111111111111000 D"
b110 T"
b11110 d"
b100 t"
b1000 &#
b100110 6#
b1111111111111100 F#
b100 V#
#59
b101011011011100 "
b100011010111000 2
b10111010011110 B
b1001000100100 R
b1111001000010100 b
b1101001111111000 r
b1011101000101000 $"
b1010100010000100 4"
b11000 D"
b10110 T"
b1110 d"
b1111111111110100 6#
b1111111111011100 F#
b10100 V#
#60
b1010000000101000 "
b1010000100110000 2
b1010101011100000 B
b1011110011011110 R
b1101010101000100 b
b1111000110001000 r
b111011111110 $"
b10100110100100 4"
b1111111111101000 D"
b110 T"
b1111111111101100 d"
b1111111111110010 t"
b11000 &#
b100110 6#
b1111111111101100 F#
#61
b100000111101110 "
b101001100001000 2
b101110011111100 B
b101111000000110 R
b101011010001100 b
b100011010001000 r
b10111010101110 $"
b1001001000100 4"
b1111111111111000 D"
b10110 T"
b1111111111111100 d"
b100 t"
b1111111111111000 &#
b1111111111111100 F#
b100 V#
#62
b1111000111110100 "
b1101010001001100 2
b1011101001001000 B
b1010100010010100 R
b1001111111111000 b
b1010000100010000 r
b1010101100010000 $"
b1011110010011110 4"
b110 T"
b10100 t"
b10110 6#
b1111111111011100 F#
b1111111111100010 V#
#63
b1101010100010100 "
b1111000100111000 2
b111100011110 B
b10100111100100 R
b100000111101110 b
b101001100001000 r
b101110011111100 $"
b101111000010110 4"
b1111111111001100 D"
b1111111111101100 d"
b100110 6#
b1111111111101100 F#
b100 V#
#64
b101011010111100 "
b100011011001000 2
b10111010001110 B
b1001000010100 R
b1111000111110100 b
b1101010001001100 r
b1011101000111000 $"
b1010100001000100 4"
b1111111111111000 D"
b1111111111111100 d"
b1111111111110100 6#
b1111111111111100 F#
b1111111111110010 V#
#65
b1001111111101000 "
b1010000100100000 2
b1010101100000000 B
b1011110001101110 R
b1101010100000100 b
b1111000101101000 r
b111100001110 $"
b10100111100100 4"
b1000 D"
b10110 T"
b1111111111110010 t"
b1000 &#
b100110 6#
#66
b100001000011110 "
b101001100111000 2
b101110100001100 B
b101110111110110 R
b101011010101100 b
b100011010011000 r
b10111010111110 $"
b1001000000100 4"
b11000 D"
b110 T"
b1111111111100010 t"
b1111111111001100 &#
b10110 6#
b1111111111101100 F#
b100 V#
#67
b1111001000000100 "
b1101001111011000 2
b1011101001001000 B
b1010100010100100 R
b1010000000011000 b
b1010000101100000 r
b1010101100000000 $"
b1011110001101110 4"
b1000 D"
b1111111111110100 T"
b100 t"
b1111111111111000 &#
b110 6#
b1111111111111100 F#
b1111111111110010 V#
#68
b1101010101010100 "
b1111000110011000 2
b111011101110 B
b10100111010100 R
b100000111001110 b
b101001100101000 r
b101110100001100 $"
b101111000110110 4"
b1111111111001100 D"
b10110 T"
b1111111111101100 d"
b10100 t"
b1000 &#
b100110 6#
b1111111111101100 F#
b100100 V#
#69
b101011010101100 "
b100011011011000 2
b10111010101110 B
b1001000100100 R
b1111001000010100 b
b1101001111111000 r
b1011101001011000 $"
b1010100010010100 4"
b1000 D"
b1111111111100100 T"
b11110 d"
b100 t"
b1111111111101000 &#
b10110 6#
b1111111111111100 F#
b10100 V#
#70
b1010000000001000 "
b1010000100100000 2
b1010101100000000 B
b1011110011001000 R
b1101010101111100 b
b1111000110011000 r
b111100001110 $"
b10100111110100 4"
b11000 D"
b1111111111101100 d"
b1111111111111000 &#
b1111111111110010 V#
#71
b100001000001110 "
b101001101101100 2
b101110011111100 B
b101111001100110 R
b101011010111100 b
b100011100001000 r
b10111010111110 $"
b1001000010100 4"
b1111111111101000 D"
b1111111111110100 T"
b1111111111111100 d"
b1111111111100010 t"
b1000 &#
b1111111111010000 V#
#72
b1111001000010100 "
b1101010000101100 2
b1011101001011000 B
b1010100010000100 R
b1010000000011000 b
b1010000100010000 r
b1010101100010000 $"
b1011110010001110 4"
b11000 D"
b100110 T"
b10100 t"
b11000 &#
b110 6#
b100 V#
#73
b1101010100110100 "
b1111000101011000 2
b111011111110 B
b10100111010100 R
b100000111011110 b
b101001100001000 r
b101110011101100 $"
b101111000110110 4"
b1111111111111000 D"
b1111111111110100 T"
b1110 d"
b100 t"
b1111111111111000 &#
b1111111111101100 F#
b10100 V#
#74
b101011010101100 "
b100011010111000 2
b10111010101110 B
b1001000000100 R
b1111000111110100 b
b1101010001001100 r
b1011101001011000 $"
b1010100001100100 4"
b110 T"
b10100 t"
b10110 6#
b1111111111111100 F#
#75
b1010000000101000 "
b1010000101000000 2
b1010101100000000 B
b1011110010001110 R
b1101010100110100 b
b1111000100011000 r
b111100001110 $"
b10101000000100 4"
b1111111111111100 d"
b100110 6#
b1110 F#
b100100 V#
#76
b100000111111110 "
b101001100101000 2
b101110100001100 B
b101111001010110 R
b101011011011100 b
b100011010101000 r
b10111010111110 $"
b1001000000100 4"
b1111111111101100 d"
b10110 6#
b1111111111110010 V#
#77
b1111001000000100 "
b1101010000111000 2
b1011101001001000 B
b1010100010100100 R
b1010000000101000 b
b1010000100110000 r
b1010101011110000 $"
b1011110010011110 4"
b1111111111111100 d"
b100110 6#
b1111111111101100 F#
#78
b1101010100000100 "
b1111000110001000 2
b111100001110 B
b10101000011000 R
b100000111111110 b
b101001100101000 r
b101110100001100 $"
b101111000010110 4"
b11000 D"
b100 t"
b1111111111011100 &#
b1111111111110100 6#
b1111111111111100 F#
b100 V#
#79
b101011010001100 "
b100011010001000 2
b10111011011110 B
b1001000100100 R
b1111000111100100 b
b1101001111111000 r
b1011101000011000 $"
b1010100001110100 4"
b1000 D"
b10110 T"
b1000 &#
b10110 6#
#80
b1010000000011000 "
b1010000011100000 2
b1010101011100000 B
b1011110010011110 R
b1101010101000100 b
b1111000101111000 r
b111100101110 $"
b10100111100100 4"
b1111111111011100 D"
b1111111111101100 d"
b1111111111110100 6#
b1111111111100010 V#
#81
b100000111111110 "
b101001101111100 2
b101110011011100 B
b101111000110110 R
b101011010011100 b
b100011010011000 r
b10111010111110 $"
b1001000010100 4"
b1000 D"
b110 T"
b1111111111111100 d"
b1110 F#
b100100 V#
#82
b1111000111110100 "
b1101010000101000 2
b1011101000011000 B
b1010100010100100 R
b1010000000001000 b
b1010000101000000 r
b1010101011110000 $"
b1011110010001110 4"
b1111111111111000 D"
b1111111111110100 T"
b1111111111111000 &#
b110 6#
b1111111111111100 F#
b1111111111110010 V#
#83
b1101010100110100 "
b1111000101111000 2
b111011111110 B
b10100111010100 R
b100000111011110 b
b101001101001000 r
b101110100001100 $"
b101111000100110 4"
b1000 D"
b110 T"
b1110 d"
b1111111111110010 t"
b1111111111011100 &#
b100110 6#
#84
b101011010101100 "
b100011010111000 2
b10111010011110 B
b1001000000100 R
b1111000111110100 b
b1101010000001000 r
b1011101000101000 $"
b1010100010000100 4"
b10110 T"
b1111111111101100 d"
b1111111111111000 &#
b10110 6#
b10100 V#
#85
b1010000000111000 "
b1010000101010000 2
b1010101011010000 B
b1011110011001110 R
b1101010101101100 b
b1111000101111000 r
b111100001110 $"
b10101000111000 4"
b1111111111111000 D"
b1111111111110100 T"
b1111111111111100 d"
b100100 t"
b11000 &#
b110 6#
b100 V#
#86
b100001000001110 "
b101001100011000 2
b101110011101100 B
b101111000010110 R
b101011010111100 b
b100011011001000 r
b10111010011110 $"
b1001001000100 4"
b1000 D"
b110 T"
b1111111111101100 d"
b100 t"
b1111111111001100 &#
b10110 6#
b11110 F#
b1111111111110010 V#
#87
b1111001000010100 "
b1101010001001100 2
b1011101000101000 B
b1010100010010100 R
b1010000000101000 b
b1010000100010000 r
b1010101011100000 $"
b1011110010011110 4"
b1111111111111100 d"
b1111111111100010 t"
b1000 &#
b1111111111100100 6#
b1111111111111100 F#
b100 V#
#88
b1101010100010100 "
b1111000101111000 2
b111011011110 B
b10100111100100 R
b100000111101110 b
b101001100011000 r
b101110011011100 $"
b101111000110110 4"
b11000 D"
b10110 T"
b1111111111110010 t"
b1111111111110100 6#
b1111111111110010 V#
#89
b101011010111100 "
b100011010111000 2
b10111010101110 B
b1001000100100 R
b1111001000000100 b
b1101010000001000 r
b1011101000111000 $"
b1010100010010100 4"
b1111111111001100 D"
b100110 T"
b1111111111101100 d"
b1111111111111000 &#
b101110 F#
#90
b1010000001001000 "
b1010000101010000 2
b1010101100000000 B
b1011110001011110 R
b1101010100010100 b
b1111000101101000 r
b111011111110 $"
b10101000000100 4"
b11000 D"
b1111111111110100 T"
b1111111111111100 d"
b100 t"
b1000 &#
b1111111111111100 F#
b10100 V#
#91
b100000111011110 "
b101001100011000 2
b101110100001100 B
b101111000000110 R
b101011010111100 b
b100011011001000 r
b10111011111010 $"
b1001000110100 4"
b101000 D"
b110 T"
b1111111111101100 d"
b1111111111110010 t"
b11000 &#
b1111111111101100 F#
#92
b1111000111100100 "
b1101001111011000 2
b1011101001101000 B
b1010100010000100 R
b1010000000001000 b
b1010000100110000 r
b1010101011100000 $"
b1011110010111110 4"
b1000 D"
b10110 T"
b1111111111011100 d"
b1111111111100010 t"
b1111111111111100 F#
#93
b1101010101101100 "
b1111000101111000 2
b111100001110 B
b10100111100100 R
b100001000001110 b
b101001101011100 r
b101110011111100 $"
b101111000010110 4"
b11000 D"
b1111111111101100 d"
b1111111111110010 t"
b1000 &#
b100110 6#
b1110 F#
#94
b101011010111100 "
b100011001111000 2
b10111010011110 B
b1001000000100 R
b1111001000010100 b
b1101010000001000 r
b1011101001001000 $"
b1010100001010100 4"
b1111111111111000 D"
b100110 T"
b1110 d"
b110 6#
b1111111111111100 F#
b100100 V#
#95
b1010000000011000 "
b1010000100000000 2
b1010101100010000 B
b1011110010111110 R
b1101010100100100 b
b1111000101111000 r
b111011111110 $"
b10100111100100 4"
b1000 D"
b1111111111110100 T"
b100 t"
b1111111111101100 F#
b100 V#
#96
b100000111001110 "
b101001011101000 2
b101110010111100 B
b101111001110110 R
b101011010101100 b
b100011010101000 r
b10111010011110 $"
b1001000010100 4"
b1111111111111100 d"
b1111111111111000 &#
b10110 6#
b1111111111111100 F#
b1111111111110010 V#
#97
b1111000111110100 "
b1101010000011000 2
b1011101001101000 B
b1010100001110100 R
b1010000000001000 b
b1010000100010000 r
b1010101100010000 $"
b1011110010011110 4"
b11000 D"
b100110 T"
b1111111111011100 d"
b1000 &#
b110 6#
b1110 F#
b100 V#
#98
b1101010100110100 "
b1111000110001000 2
b111011101110 B
b10100111010100 R
b100000111001110 b
b101001100101000 r
b101110011101100 $"
b101111001000110 4"
b1111111111111000 D"
b10110 T"
b1111111111111100 d"
b10100 t"
b1111111111111000 &#
b100110 6#
b1111111111101100 F#
b1111111111110010 V#
#99
b101011010101100 "
b100011011001000 2
b10111010101110 B
b1001000110100 R
b1111001000010100 b
b1101010001011100 r
b1011101001011000 $"
b1010100010100100 4"
b110 T"
b1111111111101100 d"
b1111111111110010 t"
b1111111111001100 &#
b10110 6#
b1111111111100010 V#
#100
b1010000000011000 "
b1010000101110000 2
b1010101011110000 B
b1011110010001110 R
b1101010101111100 b
b1111000101111000 r
b111011101110 $"
b10100111110100 4"
b1111111111011100 D"
b1111111111110100 T"
b1111111111111100 d"
b100 t"
b1000 &#
b1110 F#
#101
b100001000001110 "
b101001100111000 2
b101110011111100 B
b101111000110110 R
b101011010011100 b
b100011010011000 r
b10111010011110 $"
b1001000010100 4"
b1000 D"
b110 T"
b1110 d"
b1111111111001100 &#
b110 6#
b1111111111111100 F#
#102
b1111001000000100 "
b1101010001001100 2
b1011101001011000 B
b1010100010000100 R
b1010000000101000 b
b1010000101000000 r
b1010101100010000 $"
b1011110010111110 4"
b11000 D"
b1111111111111100 d"
b10100 t"
b1111111111111000 &#
b1111111111011100 F#
b10100 V#
#103
b1101010101111100 "
b1111000101111000 2
b111011111110 B
b10100111100100 R
b100000111111110 b
b101001101011000 r
b101110011001100 $"
b101111000110110 4"
b1000 D"
b100110 T"
b1111111111011100 d"
b100 t"
b1111111111001100 &#
b100110 6#
b1111111111111100 F#
b100 V#
#104
b101011010111100 "
b100011010011000 2
b10111010111110 B
b1001000110100 R
b1111001000010100 b
b1101010000111100 r
b1011101000111000 $"
b1010100010000100 4"
b11000 D"
b1111111111110100 T"
b1111111111111100 d"
b1000 &#
b110 6#
b1110 F#
b1111111111110010 V#
#105
b1010000000011000 "
b1010000101010000 2
b1010101011110000 B
b1011110010001110 R
b1101010101111100 b
b1111000101111000 r
b111011101110 $"
b10100111000100 4"
b1111111111111000 D"
b10110 T"
b1110 d"
b1111111111111000 &#
b10110 6#
#106
b100001000001110 "
b101001101101100 2
b101110011001100 B
b101111000100110 R
b101011001111100 b
b100011011011000 r
b10111001111110 $"
b1001000010100 4"
b1111111111101100 d"
b1111111111101100 F#
b1111111111100010 V#
